# Alias OBJ Model File
# Exported from SketchUp, (c) 2000-2012 Trimble Navigation Limited
# File units = millimeters

mtllib ZAGLYSHKA.mtl

g Mesh1 Model

usemtl FrontColor
v 137.382 0 -60.0276
vt -5.40874 2.36329
vn 0 -1 -0
v 137.586 0 -58.4747
vt -5.41679 2.30215
v 137.382 0 -56.9218
vt -5.40874 2.24101
v 136.783 0 -55.4747
vt -5.38514 2.18404
v 135.829 0 -54.232
vt -5.3476 2.13512
v 134.586 0 -53.2785
vt -5.29868 2.09758
v 133.139 0 -52.6791
vt -5.24171 2.07398
v 131.586 0 -52.4747
vt -5.18057 2.06593
v 130.034 0 -52.6791
vt -5.11943 2.07398
v 128.586 0 -53.2785
vt -5.06246 2.09758
v 127.344 0 -54.232
vt -5.01354 2.13512
v 126.39 0 -55.4747
vt -4.976 2.18404
v 125.791 0 -56.9218
vt -4.9524 2.24101
v 125.586 0 -58.4747
vt -4.94435 2.30215
v 125.791 0 -60.0276
vt -4.9524 2.36329
v 126.39 0 -61.4747
vt -4.976 2.42026
v 127.344 0 -62.7173
vt -5.01354 2.46919
v 128.586 0 -63.6708
vt -5.06246 2.50673
v 130.034 0 -64.2702
vt -5.11943 2.53032
v 131.586 0 -64.4747
vt -5.18057 2.53837
v 133.139 0 -64.2702
vt -5.24171 2.53032
v 134.586 0 -63.6708
vt -5.29868 2.50673
v 135.829 0 -62.7173
vt -5.3476 2.46919
v 136.783 0 -61.4747
vt -5.38514 2.42026
f 1/1/1 2/2/1 3/3/1 4/4/1 5/5/1 6/6/1 7/7/1 8/8/1 9/9/1 10/10/1 11/11/1 12/12/1 13/13/1 14/14/1 15/15/1 16/16/1 17/17/1 18/18/1 19/19/1 20/20/1 21/21/1 22/22/1 23/23/1 24/24/1 

vt 1.57542 0
vn 1 0 -4.75916e-016
vt 1.63709 0
vn 0.965926 0 -0.258819
v 137.382 6 -60.0276
vt 1.63709 0.23622
v 137.586 6 -58.4747
vt 1.57542 0.23622
f 2/25/2 1/26/3 25/27/3 26/28/2 

vt 0.113561 0
vt 0.175226 0
vn 0.866025 0 -0.5
v 136.783 6 -61.4747
vt 0.175226 0.23622
vt 0.113561 0.23622
f 1/29/3 24/30/4 27/31/4 25/32/3 

vt -1.35814 0
vt -1.29648 0
vn 0.707107 0 -0.707107
v 135.829 6 -62.7173
vt -1.29648 0.23622
vt -1.35814 0.23622
f 24/33/4 23/34/5 28/35/5 27/36/4 

vt -2.73939 0
vt -2.67773 0
vn 0.5 0 -0.866025
v 134.586 6 -63.6708
vt -2.67773 0.23622
vt -2.73939 0.23622
f 23/37/5 22/38/6 29/39/6 28/40/5 

vt -3.93606 0
vt -3.87439 0
vn 0.258819 0 -0.965926
v 133.139 6 -64.2702
vt -3.87439 0.23622
vt -3.93606 0.23622
f 22/41/6 21/42/7 30/43/7 29/44/6 

vt -4.86659 0
vt -4.80493 0
vn 0 0 -1
v 131.586 6 -64.4747
vt -4.80493 0.23622
vt -4.86659 0.23622
f 21/45/7 20/46/8 31/47/8 30/48/7 

vt -5.46757 0
vt -5.40591 0
vn -0.258819 0 -0.965926
v 130.034 6 -64.2702
vt -5.40591 0.23622
vt -5.46757 0.23622
f 20/49/8 19/50/9 32/51/9 31/52/8 

vt -5.69805 0
vt -5.63639 0
vn -0.5 0 -0.866025
v 128.586 6 -63.6708
vt -5.63639 0.23622
vt -5.69805 0.23622
f 19/53/9 18/54/10 33/55/10 32/56/9 

vt -5.54232 0
vt -5.48065 0
vn -0.707107 -4.31039e-019 -0.707107
v 127.344 6 -62.7173
vt -5.48065 0.23622
vt -5.54232 0.23622
f 18/57/10 17/58/11 34/59/11 33/60/10 

vt -5.01098 -2.11484e-018
vt -4.94932 -2.11484e-018
vn -0.866025 -4.31039e-019 -0.5
v 126.39 6 -61.4747
vt -4.94932 0.23622
vt -5.01098 0.23622
f 17/61/11 16/62/12 35/63/12 34/64/11 

vt -4.14026 0
vt -4.0786 0
vn -0.965926 0 -0.258819
v 125.791 6 -60.0276
vt -4.0786 0.23622
vt -4.14026 0.23622
f 16/65/12 15/66/13 36/67/13 35/68/12 

vt -2.98949 0
vt -2.92782 0
vn -1 0 -7.13874e-015
v 125.586 6 -58.4747
vt -2.92782 0.23622
vt -2.98949 0.23622
f 15/69/13 14/70/14 37/71/14 36/72/13 

vt -1.63709 0
vt -1.57542 0
vn -0.965926 0 0.258819
v 125.791 6 -56.9218
vt -1.57542 0.23622
vt -1.63709 0.23622
f 14/73/14 13/74/15 38/75/15 37/76/14 

vt -0.175226 0
vt -0.113561 0
vn -0.866025 -4.31039e-019 0.5
v 126.39 6 -55.4747
vt -0.113561 0.23622
vt -0.175226 0.23622
f 13/77/15 12/78/16 39/79/16 38/80/15 

vt 1.29648 -4.51051e-018
vt 1.35814 -4.51051e-018
vn -0.707107 -4.31039e-019 0.707107
v 127.344 6 -54.232
vt 1.35814 0.23622
vt 1.29648 0.23622
f 12/81/16 11/82/17 40/83/17 39/84/16 

vt 2.67773 0
vt 2.73939 0
vn -0.5 0 0.866025
v 128.586 6 -53.2785
vt 2.73939 0.23622
vt 2.67773 0.23622
f 11/85/17 10/86/18 41/87/18 40/88/17 

vt 3.87439 0
vt 3.93606 0
vn -0.258819 0 0.965926
v 130.034 6 -52.6791
vt 3.93606 0.23622
vt 3.87439 0.23622
f 10/89/18 9/90/19 42/91/19 41/92/18 

vt 4.80493 0
vt 4.86659 0
vn 9.51833e-016 0 1
v 131.586 6 -52.4747
vt 4.86659 0.23622
vt 4.80493 0.23622
f 9/93/19 8/94/20 43/95/20 42/96/19 

vt 5.40591 0
vt 5.46757 0
vn 0.258819 0 0.965926
v 133.139 6 -52.6791
vt 5.46757 0.23622
vt 5.40591 0.23622
f 8/97/20 7/98/21 44/99/21 43/100/20 

vt 5.63639 0
vt 5.69805 0
vn 0.5 0 0.866025
v 134.586 6 -53.2785
vt 5.69805 0.23622
vt 5.63639 0.23622
f 7/101/21 6/102/22 45/103/22 44/104/21 

vt 5.48065 0
vt 5.54232 0
vn 0.707107 0 0.707107
v 135.829 6 -54.232
vt 5.54232 0.23622
vt 5.48065 0.23622
f 6/105/22 5/106/23 46/107/23 45/108/22 

vt 4.94932 0
vt 5.01098 0
vn 0.866025 0 0.5
v 136.783 6 -55.4747
vt 5.01098 0.23622
vt 4.94932 0.23622
f 5/109/23 4/110/24 47/111/24 46/112/23 

vt 4.0786 0
vt 4.14026 0
vn 0.965926 0 0.258819
v 137.382 6 -56.9218
vt 4.14026 0.23622
vt 4.0786 0.23622
f 4/113/24 3/114/25 48/115/25 47/116/24 

vt 2.92782 0
vt 2.98949 0
vt 2.98949 0.23622
vt 2.92782 0.23622
f 3/117/25 2/118/2 26/119/2 48/120/25 

vt 5.40874 2.36329
vn -2.3044e-016 1 2.01367e-019
vt 5.40874 2.24101
vt 5.41679 2.30215
f 25/121/26 48/122/26 26/123/26

vt 5.38514 2.42026
f 27/124/26 48/122/26 25/121/26

vt 5.38514 2.18404
f 27/124/26 47/125/26 48/122/26

v 136.686 6 -58.4747
vt 5.38136 2.30215
f 27/124/26 49/126/26 47/125/26

v 136.513 6 -59.7947
vt 5.37452 2.35412
f 27/124/26 50/127/26 49/126/26

v 136.003 6 -61.0247
vt 5.35446 2.40255
f 27/124/26 51/128/26 50/127/26

vt 5.3476 2.46919
f 28/129/26 51/128/26 27/124/26

v 135.193 6 -62.0809
vt 5.32255 2.44413
f 28/129/26 52/130/26 51/128/26

vt 5.29868 2.50673
f 29/131/26 52/130/26 28/129/26

v 134.136 6 -62.8914
vt 5.28096 2.47604
f 29/131/26 53/132/26 52/130/26

vt 5.24171 2.53032
f 30/133/26 53/132/26 29/131/26

v 132.906 6 -63.4009
vt 5.23254 2.4961
f 30/133/26 54/134/26 53/132/26

vt 5.18057 2.53837
f 31/135/26 54/134/26 30/133/26

v 131.586 6 -63.5747
vt 5.18057 2.50294
f 31/135/26 55/136/26 54/134/26

v 130.266 6 -63.4009
vt 5.1286 2.4961
f 31/135/26 56/137/26 55/136/26

vt 5.11943 2.53032
f 32/138/26 56/137/26 31/135/26

v 129.036 6 -62.8914
vt 5.08018 2.47604
f 32/138/26 57/139/26 56/137/26

vt 5.06246 2.50673
f 33/140/26 57/139/26 32/138/26

v 127.98 6 -62.0809
vt 5.03859 2.44413
f 33/140/26 58/141/26 57/139/26

v 127.515 6 -61.4747
vt 5.02028 2.42026
f 33/140/26 59/142/26 58/141/26

vt 5.01354 2.46919
f 34/143/26 59/142/26 33/140/26

v 127.17 6 -61.0247
vt 5.00668 2.40255
f 34/143/26 60/144/26 59/142/26

v 126.66 6 -59.7947
vt 4.98662 2.35412
f 34/143/26 61/145/26 60/144/26

vt 4.976 2.42026
f 35/146/26 61/145/26 34/143/26

v 126.486 6 -58.4747
vt 4.97978 2.30215
f 61/145/26 35/146/26 62/147/26

vt 4.976 2.18404
f 35/146/26 39/148/26 62/147/26

vt 4.9524 2.36329
f 36/149/26 39/148/26 35/146/26

vt 4.9524 2.24101
f 36/149/26 38/150/26 39/148/26

vt 4.94435 2.30215
f 38/150/26 36/149/26 37/151/26

v 126.66 6 -57.1547
vt 4.98662 2.25019
f 62/147/26 39/148/26 63/152/26

vt 5.01354 2.13512
f 63/152/26 39/148/26 40/153/26

v 127.17 6 -55.9247
vt 5.00668 2.20176
f 63/152/26 40/153/26 64/154/26

v 127.515 6 -55.4747
vt 5.02028 2.18404
f 64/154/26 40/153/26 65/155/26

vt 5.06246 2.09758
f 65/155/26 40/153/26 41/156/26

v 127.98 6 -54.8684
vt 5.03859 2.16017
f 65/155/26 41/156/26 66/157/26

v 129.036 6 -54.0579
vt 5.08018 2.12827
f 66/157/26 41/156/26 67/158/26

vt 5.11943 2.07398
f 67/158/26 41/156/26 42/159/26

v 130.266 6 -53.5485
vt 5.1286 2.10821
f 67/158/26 42/159/26 68/160/26

vt 5.18057 2.06593
f 68/160/26 42/159/26 43/161/26

v 131.586 6 -53.3747
vt 5.18057 2.10137
f 68/160/26 43/161/26 69/162/26

vt 5.24171 2.07398
f 69/162/26 43/161/26 44/163/26

v 132.906 6 -53.5485
vt 5.23254 2.10821
f 69/162/26 44/163/26 70/164/26

v 134.136 6 -54.0579
vt 5.28096 2.12827
f 70/164/26 44/163/26 71/165/26

vt 5.29868 2.09758
f 71/165/26 44/163/26 45/166/26

v 135.193 6 -54.8684
vt 5.32255 2.16017
f 71/165/26 45/166/26 72/167/26

vt 5.3476 2.13512
f 72/167/26 45/166/26 46/168/26

v 136.003 6 -55.9247
vt 5.35446 2.20176
f 72/167/26 46/168/26 73/169/26

f 73/169/26 46/168/26 47/125/26

v 136.513 6 -57.1547
vt 5.37452 2.25019
f 73/169/26 47/125/26 74/170/26

f 74/170/26 47/125/26 49/126/26

v 136.686 1 -58.4747
vt -2.98487 0.0393701
vn -1 0 -0
v 136.513 1 -57.1547
vt -2.93245 0.0393701
vt -2.93245 0.23622
vt -2.98487 0.23622
f 75/171/27 76/172/13 74/173/13 49/174/27 

v 136.513 1 -59.7947
vn 0 1 -0
f 77/127/28 76/170/28 75/126/28

v 136.003 1 -61.0247
f 78/128/28 76/170/28 77/127/28

v 136.003 1 -55.9247
f 78/128/28 79/169/28 76/170/28

v 135.193 1 -62.0809
f 80/130/28 79/169/28 78/128/28

v 135.193 1 -54.8684
f 80/130/28 81/167/28 79/169/28

v 135.086 1 -58.4747
vt 5.31837 2.30215
f 80/130/28 82/175/28 81/167/28

v 134.967 1 -59.3805
vt 5.31367 2.33782
f 80/130/28 83/176/28 82/175/28

v 134.618 1 -60.2247
vt 5.2999 2.37105
f 80/130/28 84/177/28 83/176/28

v 134.136 1 -62.8914
f 85/132/28 84/177/28 80/130/28

v 134.061 1 -60.9496
vt 5.27801 2.39959
f 85/132/28 86/178/28 84/177/28

v 133.336 1 -61.5058
vt 5.24947 2.42149
f 85/132/28 87/179/28 86/178/28

v 132.906 1 -63.4009
f 88/134/28 87/179/28 85/132/28

v 132.492 1 -61.8554
vt 5.21623 2.43525
f 88/134/28 89/180/28 87/179/28

v 131.586 1 -63.5747
f 90/136/28 89/180/28 88/134/28

v 131.586 1 -61.9747
vt 5.18057 2.43995
f 90/136/28 91/181/28 89/180/28

v 130.681 1 -61.8554
vt 5.14491 2.43525
f 90/136/28 92/182/28 91/181/28

v 130.266 1 -63.4009
f 93/137/28 92/182/28 90/136/28

v 129.836 1 -61.5058
vt 5.11167 2.42149
f 93/137/28 94/183/28 92/182/28

v 129.112 1 -60.9496
vt 5.08313 2.39959
f 93/137/28 95/184/28 94/183/28

v 129.036 1 -62.8914
f 96/139/28 95/184/28 93/137/28

v 128.555 1 -60.2247
vt 5.06124 2.37105
f 96/139/28 97/185/28 95/184/28

v 128.206 1 -59.3805
vt 5.04747 2.33782
f 96/139/28 98/186/28 97/185/28

v 127.98 1 -62.0809
f 99/141/28 98/186/28 96/139/28

v 128.086 1 -58.4747
vt 5.04277 2.30215
f 98/186/28 99/141/28 100/187/28

v 127.98 1 -54.8684
f 99/141/28 101/157/28 100/187/28

v 127.17 1 -61.0247
f 102/144/28 101/157/28 99/141/28

v 127.17 1 -55.9247
f 102/144/28 103/154/28 101/157/28

v 126.66 1 -59.7947
f 104/145/28 103/154/28 102/144/28

v 126.66 1 -57.1547
f 104/145/28 105/152/28 103/154/28

v 126.486 1 -58.4747
f 105/152/28 104/145/28 106/147/28

vt 2.93245 0.0393701
vn 1 0 -0
vt 2.98487 0.0393701
vt 2.98487 0.23622
vt 2.93245 0.23622
f 106/188/29 104/189/25 61/190/25 62/191/29 

vt 4.08322 0.0393701
vt 4.13564 0.0393701
vn 0.866025 -6.82379e-017 0.5
vt 4.13564 0.23622
vt 4.08322 0.23622
f 104/192/25 102/193/30 60/194/30 61/195/25 

vt 4.95394 0.0393701
vt 5.00636 0.0393701
vn 0.707107 -6.82379e-017 0.707107
vt 5.00636 0.23622
vt 4.97627 0.23622
vn 0.793353 -1.35308e-016 0.608761
vt 4.95394 0.23622
f 102/196/30 99/197/31 58/198/31 59/199/32 60/200/30 

vt 5.48528 0.0393701
vt 5.53769 0.0393701
vt 5.53769 0.23622
vt 5.48528 0.23622
f 99/201/31 96/202/22 57/203/22 58/204/31 

vt 5.64101 0.0393701
vt 5.69343 0.0393701
vt 5.69343 0.23622
vt 5.64101 0.23622
f 96/205/22 93/206/21 56/207/21 57/208/22 

vt 5.41053 0.0393701
vt 5.46295 0.0393701
vn 0 0 1
vt 5.46295 0.23622
vt 5.41053 0.23622
f 93/209/21 90/210/33 55/211/33 56/212/21 

vt 4.80955 0.0393701
vt 4.86197 0.0393701
vt 4.86197 0.23622
vt 4.80955 0.23622
f 90/213/33 88/214/19 54/215/19 55/216/33 

vt 3.87902 0.0393701
vt 3.93143 0.0393701
vt 3.93143 0.23622
vt 3.87902 0.23622
f 88/217/19 85/218/18 53/219/18 54/220/19 

vt 2.68235 0.0393701
vt 2.73477 0.0393701
vn -0.707107 0 0.707107
vt 2.73477 0.23622
vt 2.68235 0.23622
f 85/221/18 80/222/34 52/223/34 53/224/18 

vt 1.3011 0.0393701
vt 1.35352 0.0393701
vn -0.866025 0 0.5
vt 1.35352 0.23622
vt 1.3011 0.23622
f 80/225/34 78/226/35 51/227/35 52/228/34 

vt -0.170602 0.0393701
vt -0.118185 0.0393701
vt -0.118185 0.23622
vt -0.170602 0.23622
f 78/229/35 77/230/15 50/231/15 51/232/35 

vt -1.63247 0.0393701
vt -1.58005 0.0393701
vt -1.58005 0.23622
vt -1.63247 0.23622
f 77/233/15 75/234/27 49/235/27 50/236/15 

vt 1.58005 0.0393701
vt 1.63247 0.0393701
vt 1.63247 0.23622
vt 1.58005 0.23622
f 105/237/3 106/238/29 62/239/29 63/240/3 

vt 0.118185 0.0393701
vn 0.866025 -7.0075e-017 -0.5
vt 0.170602 0.0393701
vt 0.170602 0.23622
vt 0.118185 0.23622
f 103/241/36 105/242/3 63/243/3 64/244/36 

vt -1.35352 0.0393701
vn 0.707107 -7.0075e-017 -0.707107
vt -1.3011 0.0393701
vt -1.3011 0.23622
vt -1.32343 0.23622
vn 0.793353 -1.38951e-016 -0.608761
vt -1.35352 0.23622
f 101/245/37 103/246/36 64/247/36 65/248/38 66/249/37 

v 129.036 1 -54.0579
vt -2.73477 0.0393701
vt -2.68235 0.0393701
vt -2.68235 0.23622
vt -2.73477 0.23622
f 107/250/6 101/251/37 66/252/37 67/253/6 

v 128.206 1 -57.5688
vt 5.04747 2.26649
f 108/254/28 101/157/28 107/158/28

f 100/187/28 101/157/28 108/254/28

vt -1.62424 0.0393701
vt -1.58827 0.0393701
v 128.206 5 -57.5688
vt -1.58827 0.19685
v 128.086 5 -58.4747
vt -1.62424 0.19685
f 100/255/27 108/256/15 109/257/15 110/258/27 

vt -0.162379 0.0393701
v 128.555 1 -56.7247
vt -0.126408 0.0393701
v 128.555 5 -56.7247
vt -0.126408 0.19685
vt -0.162379 0.19685
f 108/259/15 111/260/35 112/261/35 109/262/15 

vt 5.06124 2.23326
f 108/254/28 107/158/28 111/263/28

v 129.112 1 -55.9998
vt 5.08313 2.20472
f 111/263/28 107/158/28 113/264/28

v 130.266 1 -53.5485
f 113/264/28 107/158/28 114/160/28

vt -3.93143 0.0393701
vt -3.87902 0.0393701
vt -3.87902 0.23622
vt -3.93143 0.23622
f 114/265/7 107/266/6 67/267/6 68/268/7 

v 131.586 1 -53.3747
vt -4.86197 0.0393701
vt -4.80955 0.0393701
vt -4.80955 0.23622
vt -4.86197 0.23622
f 115/269/8 114/270/7 68/271/7 69/272/8 

v 130.681 1 -55.0939
vt 5.14491 2.16905
f 116/273/28 114/160/28 115/162/28

v 129.836 1 -55.4436
vt 5.11167 2.18282
f 117/274/28 114/160/28 116/273/28

f 113/264/28 114/160/28 117/274/28

vt 2.69057 0.0393701
vt 2.72655 0.0393701
v 129.836 5 -55.4436
vt 2.72655 0.19685
v 129.112 5 -55.9998
vt 2.69057 0.19685
f 113/275/34 117/276/18 118/277/18 119/278/34 

vt 3.88724 0.0393701
vt 3.92321 0.0393701
v 130.681 5 -55.0939
vt 3.92321 0.19685
vt 3.88724 0.19685
f 117/279/18 116/280/19 120/281/19 118/282/18 

vt 4.81777 0.0393701
v 131.586 1 -54.9747
vt 4.85374 0.0393701
v 131.586 5 -54.9747
vt 4.85374 0.19685
vt 4.81777 0.19685
f 116/283/19 121/284/33 122/285/33 120/286/19 

vt 5.18057 2.16436
f 116/273/28 115/162/28 121/287/28

v 132.906 1 -53.5485
f 121/287/28 115/162/28 123/164/28

vt -5.46295 0.0393701
vt -5.41053 0.0393701
vt -5.41053 0.23622
vt -5.46295 0.23622
f 123/288/9 115/289/8 69/290/8 70/291/9 

v 134.136 1 -54.0579
vt -5.69343 0.0393701
vt -5.64101 0.0393701
vt -5.64101 0.23622
vt -5.69343 0.23622
f 124/292/10 123/293/9 70/294/9 71/295/10 

v 133.336 1 -55.4436
vt 5.24947 2.18282
f 125/296/28 123/164/28 124/165/28

v 132.492 1 -55.0939
vt 5.21623 2.16905
f 126/297/28 123/164/28 125/296/28

f 121/287/28 123/164/28 126/297/28

vt 5.41875 0.0393701
vt 5.45473 0.0393701
v 132.492 5 -55.0939
vt 5.45473 0.19685
vt 5.41875 0.19685
f 121/298/33 126/299/21 127/300/21 122/301/33 

vt 5.64923 0.0393701
vt 5.6852 0.0393701
v 133.336 5 -55.4436
vt 5.6852 0.19685
vt 5.64923 0.19685
f 126/302/21 125/303/22 128/304/22 127/305/21 

vt 5.4935 0.0393701
v 134.061 1 -55.9998
vt 5.52947 0.0393701
v 134.061 5 -55.9998
vt 5.52947 0.19685
vt 5.4935 0.19685
f 125/306/22 129/307/23 130/308/23 128/309/22 

vt 5.27801 2.20472
f 125/296/28 124/165/28 129/310/28

v 134.618 1 -56.7247
vt 5.2999 2.23326
f 129/310/28 124/165/28 131/311/28

f 131/311/28 124/165/28 81/167/28

vt -5.53769 0.0393701
vn -0.707107 0 -0.707107
vt -5.48528 0.0393701
vt -5.48528 0.23622
vt -5.53769 0.23622
f 81/312/39 124/313/10 71/314/10 72/315/39 

vt -5.00636 0.0393701
vn -0.866025 0 -0.5
vt -4.95394 0.0393701
vt -4.95394 0.23622
vt -5.00636 0.23622
f 79/316/40 81/317/39 72/318/39 73/319/40 

vt -4.13564 0.0393701
vt -4.08322 0.0393701
vt -4.08322 0.23622
vt -4.13564 0.23622
f 76/320/13 79/321/40 73/322/40 74/323/13 

v 134.967 1 -57.5688
vt 5.31367 2.26649
f 131/311/28 81/167/28 132/324/28

f 132/324/28 81/167/28 82/175/28

vt 2.94067 0.0393701
vt 2.97664 0.0393701
v 135.086 5 -58.4747
vt 2.97664 0.19685
v 134.967 5 -57.5688
vt 2.94067 0.19685
f 132/325/25 82/326/29 133/327/29 134/328/25 

vt 1.58827 0.0393701
vt 1.62424 0.0393701
v 134.967 5 -59.3805
vt 1.62424 0.19685
vt 1.58827 0.19685
f 82/329/29 83/330/3 135/331/3 133/332/29 

vt 0.126408 0.0393701
vt 0.162379 0.0393701
v 134.618 5 -60.2247
vt 0.162379 0.19685
vt 0.126408 0.19685
f 83/333/3 84/334/4 136/335/4 135/336/3 

vt -1.3453 0.0393701
vt -1.30932 0.0393701
v 134.061 5 -60.9496
vt -1.30932 0.19685
vt -1.3453 0.19685
f 84/337/4 86/338/5 137/339/5 136/340/4 

vt -2.72655 0.0393701
vt -2.69057 0.0393701
v 133.336 5 -61.5058
vt -2.69057 0.19685
vt -2.72655 0.19685
f 86/341/5 87/342/6 138/343/6 137/344/5 

vt -3.92321 0.0393701
vt -3.88724 0.0393701
v 132.492 5 -61.8554
vt -3.88724 0.19685
vt -3.92321 0.19685
f 87/345/6 89/346/7 139/347/7 138/348/6 

vt -4.85374 0.0393701
vt -4.81777 0.0393701
v 131.586 5 -61.9747
vt -4.81777 0.19685
vt -4.85374 0.19685
f 89/349/7 91/350/8 140/351/8 139/352/7 

vt -5.45473 0.0393701
vt -5.41875 0.0393701
v 130.681 5 -61.8554
vt -5.41875 0.19685
vt -5.45473 0.19685
f 91/353/8 92/354/9 141/355/9 140/356/8 

vt -5.6852 0.0393701
vt -5.64923 0.0393701
v 129.836 5 -61.5058
vt -5.64923 0.19685
vt -5.6852 0.19685
f 92/357/9 94/358/10 142/359/10 141/360/9 

vt -5.52947 0.0393701
vt -5.4935 0.0393701
v 129.112 5 -60.9496
vt -5.4935 0.19685
vt -5.52947 0.19685
f 94/361/10 95/362/39 143/363/39 142/364/10 

vt -4.99814 0.0393701
vt -4.96217 0.0393701
v 128.555 5 -60.2247
vt -4.96217 0.19685
vt -4.99814 0.19685
f 95/365/39 97/366/40 144/367/40 143/368/39 

vt -4.12742 0.0393701
vt -4.09144 0.0393701
v 128.206 5 -59.3805
vt -4.09144 0.19685
vt -4.12742 0.19685
f 97/369/40 98/370/13 145/371/13 144/372/40 

vt -2.97664 0.0393701
vt -2.94067 0.0393701
vt -2.94067 0.19685
vt -2.97664 0.19685
f 98/373/13 100/374/27 110/375/27 145/376/13 

v 134.618 5 -56.7247
f 136/177/28 137/178/28 138/179/28 139/180/28 140/181/28 141/182/28 142/183/28 143/184/28 144/185/28 145/186/28 110/187/28 109/254/28 112/263/28 119/264/28 118/274/28 120/273/28 122/287/28 127/297/28 128/296/28 130/310/28 146/311/28 134/324/28 133/175/28 135/176/28 

vt 1.30932 0.0393701
vt 1.3453 0.0393701
vt 1.3453 0.19685
vt 1.30932 0.19685
f 111/377/35 113/378/34 119/379/34 112/380/35 

vt 4.96217 0.0393701
vt 4.99814 0.0393701
vt 4.99814 0.19685
vt 4.96217 0.19685
f 129/381/23 131/382/24 146/383/24 130/384/23 

vt 4.09144 0.0393701
vt 4.12742 0.0393701
vt 4.12742 0.19685
vt 4.09144 0.19685
f 131/385/24 132/386/25 134/387/25 146/388/24 

