# Alias OBJ Model File
# Exported from SketchUp, (c) 2000-2012 Trimble Navigation Limited
# File units = millimeters

mtllib plohadka15.mtl

g Mesh1 Model

usemtl FrontColor
v 230.339 11.7729 -157.799
vt 9.06847 0.463499
vn 0 0 1
v 230.339 9.77288 -157.799
vt 9.06847 0.384759
v 237.839 9.77288 -157.799
vt 9.36375 0.384759
v 237.839 11.7729 -157.799
vt 9.36375 0.463499
f 1/1/1 2/2/1 3/3/1 4/4/1 

v 228.339 11.7729 -157.799
vt 8.98973 0.463499
v 228.339 9.77288 -157.799
vt 8.98973 0.384759
f 5/5/1 6/6/1 2/2/1 1/1/1 

v 208.339 -10 -157.799
vt 8.20233 -0.393701
v 230.339 -10 -157.799
vt 9.06847 -0.393701
v 230.339 -3.22712 -157.799
vt 9.06847 -0.127052
v 228.339 -3.22712 -157.799
vt 8.98973 -0.127052
v 230.339 16.7729 -157.799
vt 9.06847 0.66035
v 214.905 16.7729 -157.799
vt 8.46083 0.66035
v 214.905 126.773 -157.799
vt 8.46083 4.99106
v 208.339 126.773 -157.799
vt 8.20233 4.99106
f 7/7/1 8/8/1 9/9/1 10/10/1 6/6/1 5/5/1 1/1/1 11/11/1 12/12/1 13/13/1 14/14/1 

v 252.339 -10 -159.799
vt -9.93461 6.2913
vn 0 -1 -0
v 252.339 -10 -157.799
vt -9.93461 6.21256
vt -9.06847 6.21256
vt -8.20233 6.21256
v 208.339 -10 -159.799
vt -8.20233 6.2913
f 15/15/2 16/16/2 8/17/2 7/18/2 17/19/2 

vt 6.2913 -0.393701
vn 1 0 -0
v 252.339 126.773 -159.799
vt 6.2913 4.99106
v 252.339 126.773 -157.799
vt 6.21256 4.99106
vt 6.21256 -0.393701
f 15/20/3 18/21/3 19/22/3 16/23/3 

v 245.339 -3.22712 -159.799
vt -9.65902 -0.127052
vn 0 0 -1
vt -9.93461 4.99106
vt -9.93461 -0.393701
f 20/24/4 18/25/4 15/26/4

v 245.339 -1.22712 -159.799
vt -9.65902 -0.0483117
f 18/25/4 20/24/4 21/27/4

v 245.339 -3.22712 -170.799
vt 6.72437 -0.127052
vn 1 -3.38396e-014 -2.05088e-015
v 245.339 -1.22712 -170.799
vt 6.72437 -0.0483117
vt 6.2913 -0.0483117
vt 6.2913 -0.127052
f 22/28/5 23/29/5 21/30/5 20/31/5 

v 245.339 11.7729 -170.799
vt -9.65902 0.463499
vn -7.03667e-016 -2.42314e-015 -1
v 243.339 -1.22712 -170.799
vt -9.58028 -0.0483117
v 243.339 9.77288 -170.799
vt -9.58028 0.384759
v 230.339 9.77288 -170.799
vt -9.06847 0.384759
v 230.339 -1.22712 -170.799
vt -9.06847 -0.0483117
v 245.339 -1.22712 -170.799
v 245.339 -1.22712 -170.799
v 228.339 -3.22712 -170.799
vt -8.98973 -0.127052
v 228.339 11.7729 -170.799
vt -8.98973 0.463499
f 24/32/6 23/27/6 25/33/6 26/34/6 27/35/6 28/36/6 29/27/6 30/27/6 22/24/6 31/37/6 32/38/6 

v 245.339 11.7729 -159.799
vt 6.2913 0.463499
vn 1 7.35761e-032 -4.10177e-015
vt 6.72437 0.463499
f 33/39/7 21/30/7 23/29/7 24/40/7 

v 245.773 16.7729 -159.799
vt -9.67612 0.66035
f 34/41/4 21/27/4 33/32/4

f 18/25/4 21/27/4 34/41/4

v 245.773 126.773 -159.799
vt -9.67612 4.99106
f 18/25/4 34/41/4 35/42/4

vt -6.2913 0.66035
vn -1 -1.4909e-015 -0
v 245.773 16.7729 -158.799
vt -6.25193 0.66035
v 245.773 126.773 -158.799
vt -6.25193 4.99106
vt -6.2913 4.99106
f 34/43/8 36/44/8 37/45/8 35/46/8 

vt 9.67612 6.2913
vn 1.82709e-016 1 5.63993e-015
v 214.905 16.7729 -159.799
vt 8.46083 6.2913
v 214.905 16.7729 -158.799
vt 8.46083 6.25193
vt 9.67612 6.25193
f 34/47/9 38/48/9 39/49/9 36/50/9 

v 228.339 11.7729 -159.799
vt -8.46083 0.66035
f 40/38/4 38/51/4 34/41/4

v 228.339 -3.22712 -159.799
f 41/37/4 38/51/4 40/38/4

vt -8.20233 -0.393701
f 41/37/4 17/52/4 38/51/4

f 17/52/4 41/37/4 15/26/4

f 15/26/4 41/37/4 20/24/4

vt -8.98973 6.72437
vn -1.69198e-014 -1 -3.84541e-016
vt -9.65902 6.72437
vt -9.65902 6.2913
vt -8.98973 6.2913
f 31/53/10 22/54/10 20/55/10 41/56/10 

vt -6.2913 -0.127052
vn -1 2.25597e-014 -1.47379e-029
vt -6.2913 0.463499
vt -6.72437 0.463499
vt -6.72437 -0.127052
f 41/57/11 40/58/11 32/59/11 31/60/11 

vt 8.98973 6.2913
vn 0 1 -6.56468e-016
vt 9.65902 6.2913
vt 9.65902 6.72437
vt 8.98973 6.72437
f 40/61/12 33/62/12 24/63/12 32/64/12 

f 34/41/4 33/32/4 40/38/4

v 208.339 126.773 -159.799
vt -8.20233 4.99106
f 38/51/4 17/52/4 42/65/4

vt -6.2913 -0.393701
vn -1 0 -0
vt -6.21256 -0.393701
vt -6.21256 4.99106
f 17/66/13 7/67/13 14/68/13 42/46/13 

vt 8.20233 6.2913
vn 4.96966e-016 1 -1.26463e-043
vt 8.20233 6.21256
vt 8.46083 6.21256
v 214.905 126.773 -158.799
v 214.905 126.773 -159.799
f 42/69/14 14/70/14 13/71/14 43/49/14 44/48/14 

vt 6.21256 0.66035
vn 1 -4.96966e-016 5.60571e-030
vt 6.25193 0.66035
vt 6.25193 4.99106
f 12/72/15 39/73/15 43/74/15 13/22/15 

vn 1.82709e-016 1 -5.63993e-015
vt 9.06847 6.21256
v 245.773 16.7729 -157.799
vt 9.67612 6.21256
f 36/50/16 39/49/16 12/71/16 11/75/16 45/76/16 

v 243.339 11.7729 -157.799
vt 9.58028 0.463499
v 245.339 11.7729 -157.799
vt 9.65902 0.463499
v 245.339 9.77288 -157.799
vt 9.65902 0.384759
v 245.339 -3.22712 -157.799
vt 9.65902 -0.127052
vt 9.93461 -0.393701
vt 9.93461 4.99106
v 245.773 126.773 -157.799
vt 9.67612 4.99106
vt 9.67612 0.66035
f 1/1/1 4/4/1 46/77/1 47/78/1 48/79/1 49/80/1 9/9/1 8/8/1 16/81/1 19/82/1 50/83/1 45/84/1 11/11/1 

v 243.339 9.77288 -157.799
vt 9.58028 0.384759
f 3/3/1 51/85/1 46/77/1 4/4/1 

v 237.839 9.77288 -159.799
vt -9.36375 6.2913
vn -8.4605e-016 -1 -2.54654e-016
v 230.339 9.77288 -159.799
vt -9.06847 6.2913
vt -9.06847 6.72437
vt -9.58028 6.72437
vt -9.58028 6.21256
vt -9.36375 6.21256
f 52/86/17 53/87/17 27/88/17 26/89/17 51/90/17 3/91/17 

f 3/91/2 2/17/2 53/87/2 52/86/2 

vt 6.21256 0.384759
vn 1 2.05088e-015 1.12799e-014
v 230.339 -1.22712 -157.799
vt 6.21256 -0.0483117
v 230.339 -1.22712 -159.799
vt 6.2913 0.384759
f 2/92/18 54/93/18 55/30/18 53/94/18 

vt 9.06847 -0.0483117
f 54/95/1 2/2/1 6/6/1 10/10/1 9/9/1 

vn -5.92844e-016 6.78021e-016 1
v 243.339 -1.22712 -157.799
vt 9.58028 -0.0483117
f 49/80/19 48/79/19 51/85/19 56/96/19 54/95/19 9/9/19 

f 51/85/1 48/79/1 47/78/1 46/77/1 

v 243.339 -1.22712 -159.799
vt -6.2913 -0.0483117
vn -1 -1.94787e-016 3.58483e-015
vt -6.21256 -0.0483117
vt -6.21256 0.384759
vt -6.72437 0.384759
vt -6.72437 -0.0483117
f 57/97/20 56/98/20 51/99/20 26/100/20 25/101/20 

vt 9.06847 6.2913
vn 1.35575e-016 1 1.58623e-015
vt 9.58028 6.21256
vt 9.58028 6.2913
f 55/102/21 54/75/21 56/103/21 57/104/21 

vt 9.06847 6.72437
vn 4.83575e-016 1 -4.37949e-016
vt 9.58028 6.72437
f 28/105/22 55/102/22 57/104/22 25/106/22 

vn 1 4.10177e-015 3.0351e-030
vt 6.72437 0.384759
f 53/94/23 55/30/23 28/29/23 27/107/23 

vn 9.60139e-032 1 -6.40901e-016
f 57/104/24 21/62/24 23/63/24 25/106/24 

vn -1.4909e-015 1 -0
vt 9.93461 6.21256
vt 9.93461 6.2913
f 35/47/25 37/50/25 50/76/25 19/108/25 18/109/25 

vt -6.21256 0.66035
f 36/44/8 45/110/8 50/68/8 37/45/8 

vn 1 -4.96966e-016 -5.60571e-030
vt 6.2913 0.66035
f 39/73/26 38/111/26 44/21/26 43/74/26 

vt -8.46083 4.99106
f 38/51/4 42/65/4 44/112/4

g Mesh2 Model

v 105.473 127 -157.799
vt 6.21256 5
v 105.473 127 -170.799
vt 6.72437 5
v 105.473 132.5 -170.799
vt 6.72437 5.21654
v 105.473 132.5 -157.799
vt 6.21256 5.21654
f 58/113/3 59/114/3 60/115/3 61/116/3 

v 118.973 127 -157.799
vt 4.68397 6.21256
vn -2.86639e-030 1 1.73536e-015
v 118.973 127 -170.799
vt 4.68397 6.72437
vt 4.15248 6.72437
vt 4.15248 6.21256
f 62/117/27 63/118/27 59/119/27 58/120/27 

v 118.973 138 -157.799
vt -6.21256 5.43307
vn -1 3.07633e-015 -4.33841e-015
v 118.973 138 -170.799
vt -6.72437 5.43307
vt -6.72437 5
vt -6.21256 5
f 64/121/28 65/122/28 63/123/28 62/124/28 

v 105.473 138 -157.799
vt -4.15248 6.21256
vn 8.35546e-016 -1 -8.67682e-016
v 105.473 138 -170.799
vt -4.15248 6.72437
vt -4.68397 6.72437
vt -4.68397 6.21256
f 66/125/29 67/126/29 65/127/29 64/128/29 

vt 6.72437 5.43307
vt 6.21256 5.43307
f 61/116/3 60/115/3 67/129/3 66/130/3 

v 103.473 132.5 -157.799
vt -4.07374 6.21256
vn 1.12799e-014 -1 -4.57553e-032
v 103.473 132.5 -159.799
vt -4.07374 6.2913
v 103.473 132.5 -170.799
vt -4.07374 6.72437
f 68/131/30 69/132/30 70/133/30 60/126/30 61/125/30 

v 103.473 140 -159.799
vt -6.2913 5.51181
vt -6.2913 5.21654
vt -6.21256 5.21654
v 103.473 140 -157.799
vt -6.21256 5.51181
f 71/134/13 69/135/13 68/136/13 72/137/13 

v 118.973 141 -159.799
vt -4.68397 5.55118
vn 1.97079e-015 -1.08663e-015 -1
v 118.973 140 -159.799
vt -4.68397 5.51181
vt -4.07374 5.51181
vt -4.07374 5.21654
v 103.473 125 -159.799
vt -4.07374 4.92126
v 96.9729 125 -159.799
vt -3.81783 4.92126
v 96.9729 141 -159.799
vt -3.81783 5.55118
f 73/138/31 74/139/31 71/140/31 69/141/31 75/142/31 76/143/31 77/144/31 

v 140.973 125 -159.799
vt -5.55012 4.92126
vn -2.9695e-015 -1.30092e-015 -1
v 120.973 125 -159.799
vt -4.76271 4.92126
v 120.973 140 -159.799
vt -4.76271 5.51181
v 140.973 141 -159.799
vt -5.55012 5.55118
f 78/145/32 79/146/32 80/147/32 74/139/32 73/138/32 81/148/32 

v 118.973 120 -159.799
vt -4.68397 4.72441
vn -1.38908e-015 7.03925e-017 -1
v 118.973 125 -159.799
vt -4.68397 4.92126
v 119.973 125 -159.799
vt -4.72334 4.92126
v 140.973 20 -159.799
vt -5.55012 0.787402
v 134.407 20 -159.799
vt -5.29162 0.787402
v 134.407 120 -159.799
vt -5.29162 4.72441
f 82/149/33 83/150/33 84/151/33 79/146/33 78/145/33 85/152/33 86/153/33 87/154/33 

v 96.9729 20 -159.799
vt -3.81783 0.787402
vn -2.63739e-016 6.69685e-017 -1
v 103.539 120 -159.799
vt -4.07633 4.72441
v 103.539 20 -159.799
vt -4.07633 0.787402
f 88/155/34 76/143/34 75/142/34 83/150/34 82/149/34 89/156/34 90/157/34 

vt -6.2913 4.92126
vt -6.2913 0.787402
v 96.9729 20 -157.799
vt -6.21256 0.787402
v 96.9729 141 -157.799
vt -6.21256 5.55118
vt -6.2913 5.55118
f 76/158/13 88/159/13 91/160/13 92/161/13 77/162/13 

vt -4.07633 6.2913
vn 2.98179e-015 -1 -0
v 103.539 20 -158.799
vt -4.07633 6.25193
v 103.539 20 -157.799
vt -4.07633 6.21256
vt -3.81783 6.21256
vt -3.81783 6.2913
f 90/163/35 93/164/35 94/165/35 91/166/35 88/167/35 

vt 6.2913 4.72441
vn 1 2.98179e-015 -0
v 103.539 120 -158.799
vt 6.25193 4.72441
vt 6.25193 0.787402
vt 6.2913 0.787402
f 89/168/36 95/169/36 93/170/36 90/171/36 

vt -4.68397 6.2913
vt -5.29162 6.2913
v 134.407 120 -158.799
vt -5.29162 6.25193
f 89/163/2 82/172/2 87/173/2 96/174/2 95/164/2 

vt -6.25193 4.72441
vt -6.2913 4.72441
v 134.407 20 -158.799
vt -6.25193 0.787402
f 96/175/13 87/176/13 86/159/13 97/177/13 

vt -5.55012 6.2913
v 140.973 20 -157.799
vt -5.55012 6.21256
v 134.407 20 -157.799
vt -5.29162 6.21256
f 85/178/2 98/179/2 99/180/2 97/174/2 86/173/2 

vt 6.2913 5.55118
v 140.973 141 -157.799
vt 6.21256 5.55118
vt 6.21256 0.787402
vt 6.2913 4.92126
f 81/181/3 100/182/3 98/183/3 85/171/3 78/184/3 

vt 3.81783 6.2913
vn 0 1 -0
vt 3.81783 6.21256
vt 5.55012 6.21256
vt 5.55012 6.2913
vt 4.68397 6.2913
f 77/185/37 92/186/37 100/187/37 81/188/37 73/189/37 

vt 3.81783 5.55118
vt 4.07374 5.51181
vt 5.55012 5.55118
f 92/190/1 72/191/1 100/192/1

vt 4.07374 5.21654
f 92/190/1 68/193/1 72/191/1

v 103.473 125 -157.799
vt 4.07374 4.92126
f 92/190/1 101/194/1 68/193/1

v 103.539 120 -157.799
vt 4.07633 4.72441
f 92/190/1 102/195/1 101/194/1

vt 4.07633 0.787402
f 92/190/1 94/196/1 102/195/1

vt 3.81783 0.787402
f 94/196/1 92/190/1 91/197/1

vt 6.21256 4.72441
f 95/169/36 102/198/36 94/183/36 93/170/36 

v 134.407 120 -157.799
f 95/164/2 96/174/2 103/180/2 102/165/2 

vt -6.21256 4.72441
f 103/199/13 96/175/13 97/177/13 99/160/13 

vt 5.29162 0.787402
vt 5.29162 4.72441
f 99/200/1 100/192/1 103/201/1

vt 5.55012 0.787402
f 100/192/1 99/200/1 98/202/1

v 120.973 125 -157.799
vt 4.76271 4.92126
f 103/201/1 100/192/1 104/203/1

v 120.973 140 -157.799
vt 4.76271 5.51181
f 104/203/1 100/192/1 105/204/1

v 118.973 140 -157.799
vt 4.68397 5.51181
f 105/204/1 100/192/1 106/205/1

f 106/205/1 100/192/1 72/191/1

vt 4.15248 5.21654
vt 4.15248 5.43307
vt 4.68397 5.43307
f 61/206/1 66/207/1 64/208/1 106/205/1 72/191/1 68/193/1 

vn 8.4599e-015 -1.58037e-016 1
vt 4.68397 5
v 118.973 125 -157.799
vt 4.68397 4.92126
f 106/205/38 64/208/38 62/209/38 107/210/38 104/203/38 105/204/38 

vn 1 -3.56423e-015 9.76558e-015
v 118.973 140 -170.799
vt 6.72437 5.51181
vt 6.2913 5.51181
vt 6.21256 5.51181
f 64/130/39 65/129/39 108/211/39 74/212/39 106/213/39 

vt -4.15248 5.43307
vn -1.81178e-015 -2.28631e-015 -1
vt -4.15248 5.21654
v 103.473 140 -170.799
vt -4.68397 5.43307
f 67/214/40 60/215/40 70/141/40 109/140/40 108/139/40 65/216/40 

vt -4.15248 5
vn -3.27464e-015 2.61859e-015 -1
vt -4.68397 5
v 118.973 125 -170.799
v 103.473 125 -170.799
f 59/217/41 63/218/41 110/150/41 111/142/41 70/141/41 60/215/41 

v 120.973 140 -170.799
vn 1.30607e-014 1.50351e-015 -1
v 120.973 125 -170.799
v 119.973 125 -170.799
f 112/147/42 113/146/42 114/151/42 110/150/42 63/218/42 65/216/42 108/139/42 

vn 1 0 1.12799e-014
vt 6.72437 4.92126
f 80/212/43 79/184/43 113/219/43 112/211/43 

vt -6.21256 4.92126
f 104/220/13 105/137/13 80/134/13 79/158/13 

vt -4.76271 6.21256
vt -4.76271 6.2913
f 105/221/2 106/128/2 74/172/2 80/222/2 

f 71/132/2 74/172/2 106/128/2 72/131/2 

vt 4.07374 6.2913
vn -1.45547e-015 1 2.05088e-015
vt 4.07374 6.72437
f 71/223/44 74/189/44 108/118/44 109/224/44 

vn 5.63993e-015 1 3.07633e-015
vt 4.76271 6.2913
vt 4.76271 6.72437
f 74/189/45 80/225/45 112/226/45 108/118/45 

vt -6.72437 5.51181
vt -6.72437 5.21654
f 69/135/13 71/134/13 109/227/13 70/228/13 

vt -6.72437 4.92126
f 75/158/13 69/135/13 70/228/13 111/229/13 

vt 6.21256 4.92126
vt 6.2913 5.21654
f 68/116/3 101/230/3 75/184/3 69/231/3 

vn -2.2789e-015 -3.48186e-015 1
vt 4.15248 5
f 62/209/46 58/232/46 61/206/46 68/193/46 101/194/46 107/210/46 

f 101/194/1 104/203/1 107/210/1

f 101/194/1 102/195/1 104/203/1

f 103/201/1 104/203/1 102/195/1

vt 4.72334 6.2913
vt 4.76271 6.21256
f 79/225/37 84/233/37 83/189/37 107/117/37 104/234/37 

vn 1.06958e-028 -1 -2.37055e-015
vt -4.72334 6.2913
vt -4.72334 6.72437
vt -4.76271 6.72437
f 79/222/47 84/235/47 114/236/47 113/237/47 

vn 9.27156e-029 -1 -2.05088e-015
f 84/235/48 83/172/48 110/127/48 114/236/48 

vn -8.93091e-030 -1 -2.05088e-015
f 83/172/49 75/132/49 111/133/49 110/127/49 

f 75/132/2 83/172/2 107/128/2 101/131/2 

g Mesh3 Model

v 154.047 10 -159.799
vt -6.06483 0.393701
v 154.047 133.227 -159.799
vt -6.06483 5.24516
v 198.047 133.227 -159.799
vt -7.79712 5.24516
v 198.047 10 -159.799
vt -7.79712 0.393701
f 115/238/4 116/239/4 117/240/4 118/241/4 

vt -6.2913 0.393701
v 154.047 10 -157.799
vt -6.21256 0.393701
v 154.047 133.227 -157.799
vt -6.21256 5.24516
vt -6.2913 5.24516
f 115/242/13 119/243/13 120/244/13 116/245/13 

vt -7.79712 6.2913
v 198.047 10 -157.799
vt -7.79712 6.21256
vt -6.06483 6.21256
vt -6.06483 6.2913
f 118/246/2 121/247/2 119/248/2 115/249/2 

vt 6.2913 5.24516
v 198.047 133.227 -157.799
vt 6.21256 5.24516
vt 6.21256 0.393701
vt 6.2913 0.393701
f 117/250/3 122/251/3 121/252/3 118/253/3 

vt 6.06483 6.2913
vt 6.06483 6.21256
vt 7.79712 6.21256
vt 7.79712 6.2913
f 116/254/37 120/255/37 122/256/37 117/257/37 

vt 6.06483 5.24516
vt 6.06483 0.393701
vt 7.79712 0.393701
vt 7.79712 5.24516
f 120/258/1 119/259/1 121/260/1 122/261/1 

