# Alias OBJ Model File
# Exported from SketchUp, (c) 2000-2012 Trimble Navigation Limited
# File units = millimeters

mtllib GAZ_krep_servol.mtl

g Mesh1 Model

usemtl FrontColor
v 78.6106 0 84.0917
vt -3.0949 -3.3107
vn 0 -1 -0
v 108.611 0 84.0917
vt -4.27601 -3.3107
v 108.611 0 114.092
vt -4.27601 -4.4918
v 78.6106 0 114.092
vt -3.0949 -4.4918
f 1/1/1 2/2/1 3/3/1 4/4/1 

vt -4.27601 0
vn 3.75996e-016 0 -1
vt -3.0949 0
v 78.6106 14 84.0917
vt -3.0949 0.551181
v 83.6106 14 84.0917
vt -3.29176 0.551181
v 83.6106 2 84.0917
vt -3.29176 0.0787402
v 103.611 2 84.0917
vt -4.07916 0.0787402
v 103.611 14 84.0917
vt -4.07916 0.551181
v 108.611 14 84.0917
vt -4.27601 0.551181
f 2/5/2 1/6/2 5/7/2 6/8/2 7/9/2 8/10/2 9/11/2 10/12/2 

vt 3.3107 0
vn -1 0 -0
vt 4.4918 0
v 78.6106 14 114.092
vt 4.4918 0.551181
v 78.6106 14 97.0917
vt 3.82251 0.551181
v 78.6106 2 97.0917
vt 3.82251 0.0787402
v 78.6106 2 91.0917
vt 3.58629 0.0787402
v 78.6106 14 91.0917
vt 3.58629 0.551181
vt 3.3107 0.551181
f 1/13/3 4/14/3 11/15/3 12/16/3 13/17/3 14/18/3 15/19/3 5/20/3 

vt 3.0949 0
vn 0 0 1
vt 4.27601 0
v 108.611 14 114.092
vt 4.27601 0.551181
v 103.611 14 114.092
vt 4.07916 0.551181
v 103.611 2 114.092
vt 4.07916 0.0787402
v 83.6106 2 114.092
vt 3.29176 0.0787402
v 83.6106 14 114.092
vt 3.29176 0.551181
vt 3.0949 0.551181
f 4/21/4 3/22/4 16/23/4 17/24/4 18/25/4 19/26/4 20/27/4 11/28/4 

vt -4.4918 0
vn 1 0 -0
vt -3.3107 0
vt -3.3107 0.551181
v 108.611 14 91.0917
vt -3.58629 0.551181
v 108.611 2 91.0917
vt -3.58629 0.0787402
v 108.611 2 97.0917
vt -3.82251 0.0787402
v 108.611 14 97.0917
vt -3.82251 0.551181
vt -4.4918 0.551181
f 3/29/5 2/30/5 10/31/5 21/32/5 22/33/5 23/34/5 24/35/5 16/36/5 

vt 4.27601 -3.3107
vn 0 1 -0
vt 4.07916 -3.3107
v 103.611 14 91.0917
vt 4.07916 -3.58629
vt 4.27601 -3.58629
f 10/37/6 9/38/6 25/39/6 21/40/6 

vt 3.3107 0.0787402
v 103.611 2 91.0917
f 8/41/3 26/18/3 25/19/3 9/20/3 

vt 3.0949 -3.58629
vt 3.0949 -3.82251
v 83.6106 2 97.0917
vt 3.29176 -3.82251
vt 3.29176 -4.4918
vt 4.07916 -4.4918
v 103.611 2 97.0917
vt 4.07916 -3.82251
vt 4.27601 -3.82251
vt 3.29176 -3.3107
v 83.6106 2 91.0917
vt 3.29176 -3.58629
f 14/42/6 13/43/6 27/44/6 19/45/6 18/46/6 28/47/6 23/48/6 22/40/6 26/39/6 8/38/6 7/49/6 29/50/6 

vn 0 0 -1
vt -3.0949 0.0787402
v 83.6106 14 97.0917
f 27/9/7 13/51/7 12/7/7 30/8/7 

vt 3.0949 -4.4918
f 11/52/6 20/45/6 30/44/6 12/43/6 

vt -4.4918 0.0787402
f 19/53/5 27/34/5 30/35/5 20/36/5 

vt 4.4918 0.0787402
v 103.611 14 97.0917
f 28/17/3 18/54/3 17/15/3 31/16/3 

vt 4.27601 -4.4918
f 16/55/6 24/48/6 31/47/6 17/46/6 

vt -4.27601 0.0787402
f 23/56/7 28/10/7 31/11/7 24/12/7 

vt 4.27601 0.0787402
f 26/25/4 22/57/4 21/23/4 25/24/4 

vt -3.3107 0.0787402
v 83.6106 14 91.0917
f 29/33/5 7/58/5 6/31/5 32/32/5 

vt 3.0949 -3.3107
f 5/59/6 15/42/6 32/50/6 6/49/6 

vt 3.0949 0.0787402
f 14/60/4 29/26/4 32/27/4 15/28/4 

