# Alias OBJ Model File
# Exported from SketchUp, (c) 2000-2012 Trimble Navigation Limited
# File units = millimeters

mtllib izolyator_transistor.mtl

g Mesh1 Model

usemtl FrontColor
v 58.7099 0 -102.617
vt -2.31141 4.04005
vn 0 -1 -0
v 58.3872 -3.52496e-016 -99.7195
vt -2.29871 3.92596
v 57.9864 0 -102.318
vt -2.28293 4.02825
f 1/1/1 2/2/1 3/3/1

v 58.4247 -3.52496e-016 -100.004
vt -2.30018 3.93716
f 2/2/1 1/1/1 4/4/1

v 58.5345 -3.52496e-016 -100.269
vt -2.30451 3.9476
f 4/4/1 1/1/1 5/5/1

v 58.7091 -3.52496e-016 -100.497
vt -2.31138 3.95656
f 5/5/1 1/1/1 6/6/1

v 58.9368 -3.52496e-016 -100.671
vt -2.32035 3.96344
f 6/6/1 1/1/1 7/7/1

v 59.4864 0 -102.719
vt -2.34198 4.04407
f 7/7/1 1/1/1 8/8/1

vt -2.8498 0
vn 0 0 -1
vt -2.81897 0
vn -0.258819 0 -0.965926
v 58.7099 1 -102.617
vt -2.81897 0.0393701
v 59.4864 1 -102.719
vt -2.8498 0.0393701
f 8/9/2 1/10/3 9/11/3 10/12/2 

vt -3.68153 0
vt -3.65069 0
vn -0.5 0 -0.866025
v 57.9864 1 -102.318
vt -3.65069 0.0393701
vt -3.68153 0.0393701
f 1/13/3 3/14/4 11/15/4 9/16/3 

vt -4.26341 0
v 57.365 0 -101.841
vt -4.23258 0
vn -0.707107 0 -0.707107
v 57.365 1 -101.841
vt -4.23258 0.0393701
vt -4.26341 0.0393701
f 3/17/4 12/18/5 13/19/5 11/20/4 

v 57.365 0 -97.5982
vt -2.25847 3.84245
vt -2.25847 4.00948
f 14/21/1 12/22/1 3/3/1

v 56.8883 0 -98.2195
vt -2.2397 3.86691
f 15/23/1 12/22/1 14/21/1

v 56.8883 0 -101.219
vt -2.2397 3.98502
f 15/23/1 16/24/1 12/22/1

v 56.5886 0 -100.496
vt -2.2279 3.95653
f 15/23/1 17/25/1 16/24/1

v 56.5886 0 -98.943
vt -2.2279 3.89539
f 18/26/1 17/25/1 15/23/1

v 56.4864 0 -99.7195
vt -2.22387 3.92596
f 17/25/1 18/26/1 19/27/1

vt -3.6021 0
vn -1 0 -6.18691e-015
vt -3.57127 0
vn -0.965926 0 0.258819
v 56.5886 1 -98.943
vt -3.57127 0.0393701
v 56.4864 1 -99.7195
vt -3.6021 0.0393701
f 19/28/6 18/29/7 20/30/7 21/31/6 

vt -2.7463 0
vt -2.71546 0
vn -0.866025 0 0.5
v 56.8883 1 -98.2195
vt -2.71546 0.0393701
vt -2.7463 0.0393701
f 18/32/7 15/33/8 22/34/8 20/35/7 

vt -1.70438 0
vt -1.67355 0
vn -0.707107 0 0.707107
v 57.365 1 -97.5982
vt -1.67355 0.0393701
vt -1.70438 0.0393701
f 15/36/8 14/37/9 23/38/9 22/39/8 

vt -0.547372 0
v 57.9864 0 -97.1214
vt -0.516539 0
vn -0.5 0 0.866025
v 57.9864 1 -97.1214
vt -0.516539 0.0393701
vt -0.547372 0.0393701
f 14/40/9 24/41/10 25/42/10 23/43/9 

vt -2.28293 3.82368
f 14/21/1 3/3/1 24/44/1

v 58.7099 0 -96.8217
vt -2.31141 3.81188
f 24/44/1 3/3/1 26/45/1

f 26/45/1 3/3/1 2/2/1

v 58.4247 -3.52496e-016 -99.435
vt -2.30018 3.91476
f 26/45/1 2/2/1 27/46/1

vt 3.58104 -1.38778e-017
vn 0.965926 0 -0.258819
vt 3.59233 -1.38778e-017
vn 1 0 2.57555e-015
v 58.3872 2 -99.7195
vt 3.59233 0.0787402
v 58.4247 2 -99.435
vt 3.58104 0.0787402
f 27/47/11 2/48/12 28/49/12 29/50/11 

vt 4.19242 -1.38778e-017
vt 4.20371 -1.38778e-017
vn 0.965926 0 0.258819
v 58.4247 2 -100.004
vt 4.20371 0.0787402
vt 4.19242 0.0787402
f 2/51/12 4/52/13 30/53/13 28/54/12 

vt 4.51771 -1.38778e-017
vt 4.529 -1.38778e-017
vn 0.866025 0 0.5
v 58.5345 2 -100.269
vt 4.529 0.0787402
vt 4.51771 0.0787402
f 4/55/13 5/56/14 31/57/14 30/58/13 

vt 4.53474 -1.38778e-017
vt 4.54603 -1.38778e-017
vn 0.707107 0 0.707107
v 58.7091 2 -100.497
vt 4.54603 0.0787402
vt 4.53474 0.0787402
f 5/59/14 6/60/15 32/61/15 31/62/14 

vt 4.24235 -1.38778e-017
vt 4.25364 -1.38778e-017
vn 0.5 0 0.866025
v 58.9368 2 -100.671
vt 4.25364 0.0787402
vt 4.24235 0.0787402
f 6/63/15 7/64/16 33/65/16 32/66/15 

vt 3.66046 -1.38778e-017
v 59.2019 -3.52496e-016 -100.781
vt 3.67176 -1.38778e-017
vn 0.258819 0 0.965926
v 59.2019 2 -100.781
vt 3.67176 0.0787402
vt 3.66046 0.0787402
f 7/67/16 34/68/17 35/69/17 33/70/16 

vt -2.33078 3.96776
f 7/7/1 8/8/1 34/71/1

v 59.4864 -3.52496e-016 -100.819
vt -2.34198 3.96924
f 34/71/1 8/8/1 36/72/1

v 60.2628 0 -102.617
vt -2.37255 4.04005
f 36/72/1 8/8/1 37/73/1

vt -1.82492 0
vn 0.258819 0 -0.965926
vt -1.79409 0
vt -1.79409 0.0393701
v 60.2628 1 -102.617
vt -1.82492 0.0393701
f 37/74/18 8/75/2 10/76/2 38/77/18 

vt 2.34198 4.04407
vn 0 1 -0
v 59.9005 1 -101.265
vt 2.35829 3.98681
vt 2.37255 4.04005
f 10/78/19 39/79/19 38/80/19

v 59.4864 1 -101.319
vt 2.34198 3.98896
f 10/78/19 40/81/19 39/79/19

v 59.0722 1 -101.265
vt 2.32568 3.98681
f 10/78/19 41/82/19 40/81/19

vt 2.31141 4.04005
f 9/83/19 41/82/19 10/78/19

v 58.6864 1 -101.105
vt 2.31049 3.98052
f 9/83/19 42/84/19 41/82/19

v 58.355 1 -100.851
vt 2.29744 3.97051
f 9/83/19 43/85/19 42/84/19

v 58.1007 1 -100.519
vt 2.28743 3.95746
f 9/83/19 44/86/19 43/85/19

vt 2.28293 4.02825
f 11/87/19 44/86/19 9/83/19

v 57.9409 1 -100.134
vt 2.28114 3.94227
f 11/87/19 45/88/19 44/86/19

v 57.8864 1 -99.7195
vt 2.27899 3.92596
f 11/87/19 46/89/19 45/88/19

vt 2.25847 4.00948
f 46/89/19 11/87/19 13/90/19

vt 2.28293 3.82368
f 13/90/19 25/91/19 46/89/19

vt 2.25847 3.84245
f 13/90/19 23/92/19 25/91/19

v 56.8883 1 -101.219
vt 2.2397 3.98502
f 47/93/19 23/92/19 13/90/19

vt 2.2397 3.86691
f 47/93/19 22/94/19 23/92/19

v 56.5886 1 -100.496
vt 2.2279 3.95653
f 48/95/19 22/94/19 47/93/19

vt 2.2279 3.89539
f 48/95/19 20/96/19 22/94/19

vt 2.22387 3.92596
f 20/96/19 48/95/19 21/97/19

vt -4.21348 0
vn -0.965926 0 -0.258819
vt -4.18265 0
vt -4.18265 0.0393701
vt -4.21348 0.0393701
f 17/98/20 19/99/6 21/100/6 48/101/20 

vt -4.53877 0
vn -0.866025 0 -0.5
vt -4.50794 0
vt -4.50794 0.0393701
vt -4.53877 0.0393701
f 16/102/21 17/103/20 48/104/20 47/105/21 

vt -4.5558 0
vt -4.52497 0
vt -4.52497 0.0393701
vt -4.5558 0.0393701
f 12/106/5 16/107/21 47/108/21 13/109/5 

v 57.9409 1 -99.3054
vt 2.28114 3.90966
f 46/89/19 25/91/19 49/110/19

v 58.1007 1 -98.9195
vt 2.28743 3.89447
f 49/110/19 25/91/19 50/111/19

v 58.7099 1 -96.8217
vt 2.31141 3.81188
f 50/111/19 25/91/19 51/112/19

vt 0.645892 0
vt 0.676725 0
vn -0.258819 0 0.965926
vt 0.676725 0.0393701
vt 0.645892 0.0393701
f 24/113/10 26/114/22 51/115/22 25/116/10 

vt 1.79409 0
v 59.4864 0 -96.7195
vt 1.82492 0
vn -6.18691e-015 0 1
v 59.4864 1 -96.7195
vt 1.82492 0.0393701
vt 1.79409 0.0393701
f 26/117/22 52/118/23 53/119/23 51/120/22 

v 58.9368 -3.52496e-016 -98.7676
vt -2.32035 3.88849
vt -2.34198 3.80785
f 26/45/1 54/121/1 52/122/1

v 58.7091 -3.52496e-016 -98.9423
vt -2.31138 3.89536
f 26/45/1 55/123/1 54/121/1

v 58.5345 -3.52496e-016 -99.1699
vt -2.30451 3.90433
f 26/45/1 56/124/1 55/123/1

f 26/45/1 27/46/1 56/124/1

vt 2.72523 -1.38778e-017
vn 0.866025 0 -0.5
vt 2.73653 -1.38778e-017
vt 2.73653 0.0787402
v 58.5345 2 -99.1699
vt 2.72523 0.0787402
f 56/125/24 27/126/11 29/127/11 57/128/24 

vt 2.30018 3.91476
v 58.6864 2 -98.3338
vt 2.31049 3.87141
vt 2.30451 3.90433
f 29/129/19 58/130/19 57/131/19

v 58.355 2 -98.5881
vt 2.29744 3.88142
f 29/129/19 59/132/19 58/130/19

vt 2.29871 3.92596
f 28/133/19 59/132/19 29/129/19

v 58.355 2 -100.851
f 60/85/19 59/132/19 28/133/19

v 58.1007 2 -100.519
f 61/86/19 59/132/19 60/85/19

v 58.1007 2 -98.9195
f 61/86/19 62/111/19 59/132/19

v 57.9409 2 -100.134
f 63/88/19 62/111/19 61/86/19

v 57.9409 2 -99.3054
f 63/88/19 64/110/19 62/111/19

v 57.8864 2 -99.7195
f 64/110/19 63/88/19 65/89/19

vt -4.20629 0.0393701
vt -4.18984 0.0393701
vn -1 0 -0
vt -4.18984 0.0787402
vt -4.20629 0.0787402
f 45/134/20 46/135/25 65/136/25 63/137/20 

vt -3.59491 0.0393701
vt -3.57846 0.0393701
vt -3.57846 0.0787402
vt -3.59491 0.0787402
f 46/138/25 49/139/7 64/140/7 65/141/25 

vt -2.7391 0.0393701
vt -2.72266 0.0393701
vt -2.72266 0.0787402
vt -2.7391 0.0787402
f 49/142/7 50/143/8 62/144/8 64/145/7 

vt -1.69719 0.0393701
v 58.355 1 -98.5881
vt -1.68075 0.0393701
vt -1.68075 0.0787402
vt -1.69719 0.0787402
f 50/146/8 66/147/9 59/148/9 62/149/8 

f 50/111/19 51/112/19 66/132/19

v 58.6864 1 -98.3338
f 66/132/19 51/112/19 67/130/19

v 59.0722 1 -98.174
vt 2.32568 3.86512
f 67/130/19 51/112/19 68/150/19

vt 2.34198 3.80785
f 68/150/19 51/112/19 53/151/19

v 59.4864 1 -98.1195
vt 2.34198 3.86297
f 68/150/19 53/151/19 69/152/19

v 60.2628 1 -96.8217
vt 2.37255 3.81188
f 69/152/19 53/151/19 70/153/19

vt 2.81897 0
v 60.2628 0 -96.8217
vt 2.8498 0
vt 2.8498 0.0393701
vt 2.81897 0.0393701
f 52/154/23 71/155/17 70/156/17 53/157/23 

v 59.7708 -3.52496e-016 -98.6578
vt -2.35318 3.88416
vt -2.37255 3.81188
f 52/122/1 72/158/1 71/159/1

v 59.4864 -3.52496e-016 -98.6203
vt -2.34198 3.88269
f 52/122/1 73/160/1 72/158/1

v 59.2019 -3.52496e-016 -98.6578
vt -2.33078 3.88416
f 52/122/1 74/161/1 73/160/1

f 52/122/1 54/121/1 74/161/1

vt -0.666957 -1.38778e-017
vt -0.65566 -1.38778e-017
vn 0.5 0 -0.866025
v 58.9368 2 -98.7676
vt -0.65566 0.0787402
v 59.2019 2 -98.6578
vt -0.666957 0.0787402
f 74/162/18 54/163/26 75/164/26 76/165/18 

vt 0.526307 -1.38778e-017
vt 0.537604 -1.38778e-017
vn 0.707107 0 -0.707107
v 58.7091 2 -98.9423
vt 0.537604 0.0787402
vt 0.526307 0.0787402
f 54/166/26 55/167/27 77/168/27 75/169/26 

vt 1.68332 -1.38778e-017
vt 1.69462 -1.38778e-017
vt 1.69462 0.0787402
vt 1.68332 0.0787402
f 55/170/27 56/171/24 57/172/24 77/173/27 

vt 2.31138 3.89536
f 57/131/19 58/130/19 77/174/19

v 59.0722 2 -98.174
f 77/174/19 58/130/19 78/150/19

vt 0.653086 0.0393701
vt 0.669531 0.0393701
vt 0.669531 0.0787402
vt 0.653086 0.0787402
f 67/175/10 68/176/22 78/177/22 58/178/10 

vt 1.80128 0.0393701
vt 1.81773 0.0393701
vn 0 0 1
v 59.4864 2 -98.1195
vt 1.81773 0.0787402
vt 1.80128 0.0787402
f 68/179/22 69/180/28 79/181/28 78/182/22 

vt 2.82617 0.0393701
v 59.9005 1 -98.174
vt 2.84261 0.0393701
v 59.9005 2 -98.174
vt 2.84261 0.0787402
vt 2.82617 0.0787402
f 69/183/28 80/184/17 81/185/17 79/186/28 

vt 2.35829 3.86512
f 69/152/19 70/153/19 80/187/19

v 60.2864 1 -98.3338
vt 2.37348 3.87141
f 80/187/19 70/153/19 82/188/19

v 60.9864 1 -97.1214
vt 2.40104 3.82368
f 82/188/19 70/153/19 83/189/19

vt 3.65069 0
v 60.9864 0 -97.1214
vt 3.68153 0
vt 3.68153 0.0393701
vt 3.65069 0.0393701
f 71/190/17 84/191/16 83/192/16 70/193/17 

v 60.2636 -3.52496e-016 -98.9423
vt -2.37258 3.89536
vt -2.40104 3.82368
f 71/159/1 85/194/1 84/195/1

v 60.0359 -3.52496e-016 -98.7676
vt -2.36362 3.88849
f 71/159/1 86/196/1 85/194/1

f 71/159/1 72/158/1 86/196/1

vt -3.67176 -1.38778e-017
vt -3.66046 -1.38778e-017
v 59.7708 2 -98.6578
vt -3.66046 0.0787402
v 60.0359 2 -98.7676
vt -3.67176 0.0787402
f 86/197/4 72/198/3 87/199/3 88/200/4 

vt -2.84004 -1.38778e-017
vt -2.82874 -1.38778e-017
v 59.4864 2 -98.6203
vt -2.82874 0.0787402
vt -2.84004 0.0787402
f 72/201/3 73/202/2 89/203/2 87/204/3 

vt -1.81515 -1.38778e-017
vt -1.80386 -1.38778e-017
vt -1.80386 0.0787402
vt -1.81515 0.0787402
f 73/205/2 74/206/18 76/207/18 89/208/2 

vt 2.33078 3.88416
vt 2.34198 3.88269
f 76/209/19 79/152/19 89/210/19

f 76/209/19 78/150/19 79/152/19

vt 2.32035 3.88849
f 75/211/19 78/150/19 76/209/19

f 77/174/19 78/150/19 75/211/19

f 89/210/19 79/152/19 81/187/19

vt 2.35318 3.88416
f 89/210/19 81/187/19 87/212/19

vt 2.36362 3.88849
f 87/212/19 81/187/19 88/213/19

v 60.2864 2 -98.3338
f 88/213/19 81/187/19 90/188/19

vt 3.65789 0.0393701
vt 3.67433 0.0393701
vt 3.67433 0.0787402
vt 3.65789 0.0787402
f 80/214/17 82/215/16 90/216/16 81/217/17 

vt 4.23977 0.0393701
v 60.6177 1 -98.5881
vt 4.25622 0.0393701
v 60.6177 2 -98.5881
vt 4.25622 0.0787402
vt 4.23977 0.0787402
f 82/218/16 91/219/15 92/220/15 90/221/16 

vt 2.38652 3.88142
f 82/188/19 83/189/19 91/222/19

v 60.872 1 -98.9195
vt 2.39654 3.89447
f 91/222/19 83/189/19 93/223/19

v 61.0318 1 -99.3054
vt 2.40283 3.90966
f 93/223/19 83/189/19 94/224/19

v 61.6077 1 -97.5982
vt 2.4255 3.84245
f 94/224/19 83/189/19 95/225/19

vt 4.23258 0
v 61.6077 0 -97.5982
vt 4.26341 0
vt 4.26341 0.0393701
vt 4.23258 0.0393701
f 84/226/16 96/227/15 95/228/15 83/229/16 

v 60.9864 0 -102.318
vt -2.40104 4.02825
vt -2.4255 3.84245
f 84/195/1 97/230/1 96/231/1

v 60.5855 -3.52496e-016 -99.7195
vt -2.38526 3.92596
f 98/232/1 97/230/1 84/195/1

v 60.548 -3.52496e-016 -100.004
vt -2.38378 3.93716
f 99/233/1 97/230/1 98/232/1

v 60.4382 -3.52496e-016 -100.269
vt -2.37946 3.9476
f 100/234/1 97/230/1 99/233/1

v 60.2636 -3.52496e-016 -100.497
vt -2.37258 3.95656
f 101/235/1 97/230/1 100/234/1

f 101/235/1 37/73/1 97/230/1

v 60.0359 -3.52496e-016 -100.671
vt -2.36362 3.96344
f 102/236/1 37/73/1 101/235/1

v 59.7708 -3.52496e-016 -100.781
vt -2.35318 3.96776
f 103/237/1 37/73/1 102/236/1

f 36/72/1 37/73/1 103/237/1

vt 1.80386 -1.38778e-017
vn -2.57555e-015 0 1
vt 1.81515 -1.38778e-017
v 59.7708 2 -100.781
vt 1.81515 0.0787402
v 59.4864 2 -100.819
vt 1.80386 0.0787402
f 36/238/29 103/239/22 104/240/22 105/241/29 

vt 0.65566 -1.38778e-017
vt 0.666957 -1.38778e-017
v 60.0359 2 -100.671
vt 0.666957 0.0787402
vt 0.65566 0.0787402
f 103/242/22 102/243/10 106/244/10 104/245/22 

vt -0.537604 -1.38778e-017
vt -0.526307 -1.38778e-017
v 60.2636 2 -100.497
vt -0.526307 0.0787402
vt -0.537604 0.0787402
f 102/246/10 101/247/9 107/248/9 106/249/10 

vt -1.69462 -1.38778e-017
vt -1.68332 -1.38778e-017
v 60.4382 2 -100.269
vt -1.68332 0.0787402
vt -1.69462 0.0787402
f 101/250/9 100/251/8 108/252/8 107/253/9 

vt -2.73653 -1.38778e-017
vt -2.72523 -1.38778e-017
v 60.548 2 -100.004
vt -2.72523 0.0787402
vt -2.73653 0.0787402
f 100/254/8 99/255/7 109/256/7 108/257/8 

vt -3.59233 -1.38778e-017
vt -3.58104 -1.38778e-017
v 60.5855 2 -99.7195
vt -3.58104 0.0787402
vt -3.59233 0.0787402
f 99/258/7 98/259/25 110/260/25 109/261/7 

vt -4.20371 -1.38778e-017
v 60.548 -3.52496e-016 -99.435
vt -4.19242 -1.38778e-017
v 60.548 2 -99.435
vt -4.19242 0.0787402
vt -4.20371 0.0787402
f 98/262/25 111/263/20 112/264/20 110/265/25 

vt -2.38378 3.91476
f 84/195/1 111/266/1 98/232/1

v 60.4382 -3.52496e-016 -99.1699
vt -2.37946 3.90433
f 84/195/1 113/267/1 111/266/1

f 84/195/1 85/194/1 113/267/1

vt -4.54603 -1.38778e-017
vt -4.53474 -1.38778e-017
v 60.2636 2 -98.9423
vt -4.53474 0.0787402
v 60.4382 2 -99.1699
vt -4.54603 0.0787402
f 113/268/21 85/269/5 114/270/5 115/271/21 

vt -4.25364 -1.38778e-017
vt -4.24235 -1.38778e-017
vt -4.24235 0.0787402
vt -4.25364 0.0787402
f 85/272/5 86/273/4 88/274/4 114/275/5 

vt 2.37258 3.89536
f 88/213/19 90/188/19 114/276/19

vt 2.37946 3.90433
f 114/276/19 90/188/19 115/277/19

f 115/277/19 90/188/19 92/222/19

vt 2.38378 3.91476
f 115/277/19 92/222/19 112/278/19

vt 2.38526 3.92596
f 112/278/19 92/222/19 110/279/19

v 60.6177 2 -100.851
vt 2.38652 3.97051
f 116/280/19 110/279/19 92/222/19

vt 2.38378 3.93716
f 116/280/19 109/281/19 110/279/19

vt 2.37946 3.9476
f 116/280/19 108/282/19 109/281/19

v 60.2864 2 -101.105
vt 2.37348 3.98052
f 117/283/19 108/282/19 116/280/19

vt 2.37258 3.95656
f 117/283/19 107/284/19 108/282/19

vt 2.36362 3.96344
f 117/283/19 106/285/19 107/284/19

v 59.9005 2 -101.265
f 118/79/19 106/285/19 117/283/19

vt 2.35318 3.96776
f 118/79/19 104/286/19 106/285/19

v 59.4864 2 -101.319
f 119/81/19 104/286/19 118/79/19

vt 2.34198 3.96924
f 119/81/19 105/287/19 104/286/19

vt 2.33078 3.96776
f 119/81/19 35/288/19 105/287/19

v 59.0722 2 -101.265
f 120/82/19 35/288/19 119/81/19

vt 2.32035 3.96344
f 120/82/19 33/289/19 35/288/19

vt 2.31138 3.95656
f 120/82/19 32/290/19 33/289/19

v 58.6864 2 -101.105
f 121/84/19 32/290/19 120/82/19

vt 2.30451 3.9476
f 121/84/19 31/291/19 32/290/19

vt 2.30018 3.93716
f 121/84/19 30/292/19 31/291/19

f 60/85/19 30/292/19 121/84/19

f 30/292/19 60/85/19 28/133/19

vt -4.25622 0.0393701
vt -4.23977 0.0393701
vt -4.23977 0.0787402
vt -4.25622 0.0787402
f 42/293/4 43/294/5 60/295/5 121/296/4 

vt -4.54861 0.0393701
vt -4.53216 0.0393701
vt -4.53216 0.0787402
vt -4.54861 0.0787402
f 43/297/5 44/298/21 61/299/21 60/300/5 

vt -4.53158 0.0393701
vt -4.51513 0.0393701
vt -4.51513 0.0787402
vt -4.53158 0.0787402
f 44/301/21 45/302/20 63/303/20 61/304/21 

vt -3.67433 0.0393701
vt -3.65789 0.0393701
vt -3.65789 0.0787402
vt -3.67433 0.0787402
f 41/305/3 42/306/4 121/307/4 120/308/3 

vt -2.84261 0.0393701
vt -2.82617 0.0393701
vt -2.82617 0.0787402
vt -2.84261 0.0787402
f 40/309/2 41/310/3 120/311/3 119/312/2 

vt -1.81773 0.0393701
vt -1.80128 0.0393701
vt -1.80128 0.0787402
vt -1.81773 0.0787402
f 39/313/18 40/314/2 119/315/2 118/316/18 

v 60.2864 1 -101.105
vt -0.669531 0.0393701
vt -0.653086 0.0393701
vt -0.653086 0.0787402
vt -0.669531 0.0787402
f 122/317/26 39/318/18 118/319/18 117/320/26 

f 38/80/19 39/79/19 122/283/19

v 60.9864 1 -102.318
vt 2.40104 4.02825
f 38/80/19 122/283/19 123/321/19

v 60.6177 1 -100.851
f 123/321/19 122/283/19 124/280/19

vt 0.523734 0.0393701
vt 0.540178 0.0393701
vt 0.540178 0.0787402
vt 0.523734 0.0787402
f 124/322/27 122/323/26 117/324/26 116/325/27 

v 60.872 1 -100.519
vt 1.68075 0.0393701
vt 1.69719 0.0393701
vt 1.69719 0.0787402
v 60.872 2 -100.519
vt 1.68075 0.0787402
f 125/326/24 124/327/27 116/328/27 126/329/24 

vt 2.39654 3.95746
f 123/321/19 124/280/19 125/330/19

v 61.0318 1 -100.134
vt 2.40283 3.94227
f 123/321/19 125/330/19 127/331/19

vt 2.72266 0.0393701
vt 2.7391 0.0393701
vt 2.7391 0.0787402
v 61.0318 2 -100.134
vt 2.72266 0.0787402
f 127/332/11 125/333/24 126/334/24 128/335/11 

v 61.0318 2 -99.3054
f 126/330/19 129/224/19 128/331/19

v 60.872 2 -98.9195
f 126/330/19 130/223/19 129/224/19

f 116/280/19 130/223/19 126/330/19

f 116/280/19 92/222/19 130/223/19

vt 4.53216 0.0393701
vt 4.54861 0.0393701
vt 4.54861 0.0787402
vt 4.53216 0.0787402
f 91/336/15 93/337/14 130/338/14 92/339/15 

vt 4.51513 0.0393701
vt 4.53158 0.0393701
vt 4.53158 0.0787402
vt 4.51513 0.0787402
f 93/340/14 94/341/13 129/342/13 130/343/14 

vt 4.18984 0.0393701
v 61.0864 1 -99.7195
vt 4.20629 0.0393701
vn 1 0 -0
v 61.0864 2 -99.7195
vt 4.20629 0.0787402
vt 4.18984 0.0787402
f 94/344/13 131/345/30 132/346/30 129/347/13 

vt 2.40497 3.92596
f 94/224/19 95/225/19 131/348/19

v 61.6077 1 -101.841
vt 2.4255 4.00948
f 133/349/19 131/348/19 95/225/19

f 133/349/19 127/331/19 131/348/19

f 123/321/19 127/331/19 133/349/19

v 61.6077 0 -101.841
vt 0.516539 0
vt 0.547372 0
vt 0.547372 0.0393701
vt 0.516539 0.0393701
f 134/350/27 97/351/26 123/352/26 133/353/27 

vt -2.4255 4.00948
f 96/231/1 97/230/1 134/354/1

v 62.0844 0 -101.219
vt -2.44427 3.98502
f 96/231/1 134/354/1 135/355/1

vt 1.67355 0
vt 1.70438 0
vt 1.70438 0.0393701
v 62.0844 1 -101.219
vt 1.67355 0.0393701
f 135/356/24 134/357/27 133/358/27 136/359/24 

v 62.0844 1 -98.2195
vt 2.44427 3.86691
vt 2.44427 3.98502
f 133/349/19 137/360/19 136/361/19

f 133/349/19 95/225/19 137/360/19

vt 4.52497 0
v 62.0844 0 -98.2195
vt 4.5558 0
vt 4.5558 0.0393701
vt 4.52497 0.0393701
f 96/362/15 138/363/14 137/364/14 95/365/15 

vt -2.44427 3.86691
f 96/231/1 135/355/1 138/366/1

v 62.3841 0 -100.496
vt -2.45607 3.95653
f 138/366/1 135/355/1 139/367/1

vt 2.71546 0
vt 2.7463 0
vt 2.7463 0.0393701
v 62.3841 1 -100.496
vt 2.71546 0.0393701
f 139/368/11 135/369/24 136/370/24 140/371/11 

v 62.3841 1 -98.943
vt 2.45607 3.89539
vt 2.45607 3.95653
f 136/361/19 141/372/19 140/373/19

f 136/361/19 137/360/19 141/372/19

vt 4.50794 0
v 62.3841 0 -98.943
vt 4.53877 0
vt 4.53877 0.0393701
vt 4.50794 0.0393701
f 138/374/14 142/375/13 141/376/13 137/377/14 

vt -2.45607 3.89539
f 138/366/1 139/367/1 142/378/1

v 62.4864 0 -99.7195
vt -2.46009 3.92596
f 142/378/1 139/367/1 143/379/1

vt 3.57127 0
vt 3.6021 0
vt 3.6021 0.0393701
v 62.4864 1 -99.7195
vt 3.57127 0.0393701
f 143/380/30 139/381/11 140/382/11 144/383/30 

vt 2.46009 3.92596
f 140/373/19 141/372/19 144/384/19

vt 4.18265 0
vt 4.21348 0
vt 4.21348 0.0393701
vt 4.18265 0.0393701
f 142/385/13 143/386/30 144/387/30 141/388/13 

vt -0.676725 0
vt -0.645892 0
vt -0.645892 0.0393701
vt -0.676725 0.0393701
f 97/389/26 37/390/18 38/391/18 123/392/26 

vt 3.57846 0.0393701
vt 3.59491 0.0393701
vt 3.59491 0.0787402
vt 3.57846 0.0787402
f 131/393/30 127/394/11 128/395/11 132/396/30 

f 128/331/19 129/224/19 132/348/19

vt 2.82874 -1.38778e-017
vt 2.84004 -1.38778e-017
vt 2.84004 0.0787402
vt 2.82874 0.0787402
f 34/397/17 36/398/29 105/399/29 35/400/17 

vt -4.529 -1.38778e-017
vt -4.51771 -1.38778e-017
vt -4.51771 0.0787402
vt -4.529 0.0787402
f 111/401/20 113/402/21 115/403/21 112/404/20 

vt -0.540178 0.0393701
vt -0.523734 0.0393701
vt -0.523734 0.0787402
vt -0.540178 0.0787402
f 66/405/9 67/406/10 58/407/10 59/408/9 

