# Alias OBJ Model File
# Exported from SketchUp, (c) 2000-2012 Trimble Navigation Limited
# File units = millimeters

mtllib robot_school_wheel.mtl

g Mesh1 Model

usemtl FrontColor
v 59.3932 0 -113.428
vt -2.33831 4.46566
vn 0 -1 -0
v 59.87 0 -109.835
vt -2.35709 4.32422
v 58.8748 0 -109.933
vt -2.31791 4.32807
f 1/1/1 2/2/1 3/3/1

v 60.374 0 -113.233
vt -2.37693 4.45798
f 2/2/1 1/1/1 4/4/1

vt -1.46155 0
vn 0.19509 0 -0.980785
vt -1.42218 0
v 59.3932 26 -113.428
vt -1.42218 1.02362
v 60.374 26 -113.233
vt -1.46155 1.02362
f 4/5/2 1/6/2 5/7/2 6/8/2 

vt -4.76043 0
vn -0.989177 0 -0.14673
vt -4.62134 0
v 58.8748 26 -109.933
vt -4.62134 1.02362
vt -4.76043 1.02362
f 1/9/3 3/10/3 7/11/3 5/12/3 

vt 1.88252 0
vn -0.0980171 0 0.995185
vt 1.92189 0
v 59.87 26 -109.835
vt 1.92189 1.02362
vt 1.88252 1.02362
f 3/13/4 2/14/4 8/15/4 7/16/4 

vt -4.43466 0
vn -0.998795 0 -0.0490677
v 59.7015 0 -106.404
vt -4.29944 0
v 59.7015 26 -106.404
vt -4.29944 1.02362
vt -4.43466 1.02362
f 2/17/5 9/18/5 10/19/5 8/20/5 

v 59.87 0 -102.974
vt -2.35709 4.05409
vt -2.35045 4.18915
f 11/21/1 9/22/1 2/2/1

v 58.8748 0 -102.876
vt -2.31791 4.05023
f 12/23/1 9/22/1 11/21/1

v 58.7015 0 -106.404
vt -2.31108 4.18915
f 9/22/1 12/23/1 13/24/1

vt -4.07071 0
vn -0.998795 0 0.0490677
vt -3.93162 0
v 58.8748 26 -102.876
vt -3.93162 1.02362
v 58.7015 26 -106.404
vt -4.07071 1.02362
f 13/25/6 12/26/6 14/27/6 15/28/6 

vt 2.70374 0
vn 0.0980171 0 0.995185
vt 2.74311 0
v 59.87 26 -102.974
vt 2.74311 1.02362
vt 2.70374 1.02362
f 12/29/7 11/30/7 16/31/7 14/32/7 

vt -3.66435 0
vn -0.989177 0 0.14673
v 60.374 0 -99.5763
vt -3.52913 0
v 60.374 26 -99.5763
vt -3.52913 1.02362
vt -3.66435 1.02362
f 11/33/8 17/34/8 18/35/8 16/36/8 

vt -2.37693 3.92033
f 11/21/1 4/4/1 17/37/1

f 2/2/1 4/4/1 11/21/1

v 61.2086 0 -116.564
vt -2.40979 4.58915
f 17/37/1 4/4/1 19/38/1

vt -5.03715 0
vn -0.970031 0 -0.24298
vt -4.90192 0
vt -4.90192 1.02362
v 61.2086 26 -116.564
vt -5.03715 1.02362
f 19/39/9 4/40/9 6/41/9 20/42/9 

vt 2.37693 4.45798
vn 0 1 -0
v 61.2086 26 -96.2445
vt 2.40979 3.78915
vt 2.40979 4.58915
f 6/43/10 21/44/10 20/45/10

vt 2.37693 3.92033
f 18/46/10 21/44/10 6/43/10

v 60.2516 26 -95.9542
vt 2.37211 3.77773
f 18/46/10 22/47/10 21/44/10

v 59.3932 26 -99.3812
vt 2.33831 3.91265
f 22/47/10 18/46/10 23/48/10

vt -3.09607 0
vn -0.19509 0 -0.980785
v 59.3932 0 -99.3812
vt -3.0567 0
vt -3.0567 1.02362
vt -3.09607 1.02362
f 17/49/11 24/50/11 23/51/11 18/52/11 

v 60.2516 0 -95.9542
vt -2.37211 3.77773
vt -2.33831 3.91265
f 17/37/1 25/53/1 24/54/1

v 61.2086 0 -96.2445
vt -2.40979 3.78915
f 25/53/1 17/37/1 26/55/1

f 26/55/1 17/37/1 19/38/1

v 61.4418 0 -120.181
vt -2.41897 4.73154
f 19/38/1 27/56/1 26/55/1

v 60.2516 0 -116.855
vt -2.37211 4.60058
f 27/56/1 19/38/1 28/57/1

vt 0.93449 0
vn -0.290285 0 0.95694
vt 0.973861 0
vt 0.973861 1.02362
v 60.2516 26 -116.855
vt 0.93449 1.02362
f 28/58/12 19/59/12 20/60/12 29/61/12 

v 61.4418 26 -120.181
vt 2.41897 4.73154
vt 2.37211 4.60058
f 30/62/10 29/63/10 20/45/10

vt -5.26988 0
vn -0.941544 0 -0.33689
vt -5.13079 0
vt -5.13079 1.02362
vt -5.26988 1.02362
f 27/64/13 28/65/13 29/66/13 30/67/13 

v 62.3657 0 -119.798
vt -0.463524 0
vn 0.382683 0 -0.92388
vt -0.424154 0
vt -0.424154 1.02362
v 62.3657 26 -119.798
vt -0.463524 1.02362
f 31/68/14 27/69/14 30/70/14 32/71/14 

vt -2.45534 4.71647
v 62.2015 0 -106.404
vt -2.44888 4.18915
f 31/72/1 33/73/1 27/56/1

v 62.2432 0 -108.051
vt -2.45052 4.25396
f 33/73/1 31/72/1 34/74/1

v 62.3682 0 -109.692
vt -2.45544 4.3186
f 34/74/1 31/72/1 35/75/1

v 63.8342 0 -122.903
vt -2.51316 4.83872
f 35/75/1 31/72/1 36/76/1

vt -5.44866 0
vn -0.903989 0 -0.427555
vt -5.31343 0
vt -5.31343 1.02362
v 63.8342 26 -122.903
vt -5.44866 1.02362
f 36/77/15 31/78/15 32/79/15 37/80/15 

vt 2.45534 4.71647
v 62.3682 26 -109.692
vt 2.45544 4.3186
vt 2.51316 4.83872
f 32/81/10 38/82/10 37/83/10

v 62.2432 26 -108.051
vt 2.45052 4.25396
f 32/81/10 39/84/10 38/82/10

v 62.2015 26 -106.404
vt 2.44888 4.18915
f 32/81/10 40/85/10 39/84/10

f 40/85/10 32/81/10 30/62/10

v 62.3657 26 -93.0106
vt 2.45534 3.66183
f 30/62/10 41/86/10 40/85/10

f 20/45/10 41/86/10 30/62/10

f 20/45/10 21/44/10 41/86/10

vt -2.75582 0
vn -0.941544 0 0.33689
v 62.3657 0 -93.0106
vt -2.6206 0
vt -2.6206 1.02362
vt -2.75582 1.02362
f 26/87/16 42/88/16 41/89/16 21/90/16 

vt -2.45534 3.66183
f 26/55/1 27/56/1 42/91/1

f 42/91/1 27/56/1 33/73/1

v 62.2432 0 -104.758
vt -2.45052 4.12435
f 42/91/1 33/73/1 43/92/1

vt 4.06094 0
vn 0.998717 0 -0.0506492
vt 4.12577 0
vn 1 0 -1.73528e-016
vt 4.12577 1.02362
v 62.2432 26 -104.758
vt 4.06094 1.02362
f 43/93/17 33/94/18 40/95/18 44/96/17 

vt 4.24985 0
vt 4.31467 0
vn 0.998717 0 0.0506492
vt 4.31467 1.02362
vt 4.24985 1.02362
f 33/97/18 34/98/19 39/99/19 40/100/18 

vt 4.42775 0
vt 4.49258 0
vn 0.994869 0 0.101168
vt 4.49258 1.02362
vt 4.42775 1.02362
f 34/101/19 35/102/20 38/103/20 39/104/19 

vt 4.59421 0
v 62.5762 0 -111.326
vt 4.65904 0
vn 0.988468 0 0.151428
v 62.5762 26 -111.326
vt 4.65904 1.02362
vt 4.59421 1.02362
f 35/105/20 45/106/21 46/107/21 38/108/20 

vt -2.46363 4.38291
f 35/75/1 36/76/1 45/109/1

v 62.8667 0 -112.947
vt -2.47507 4.44672
f 45/109/1 36/76/1 47/110/1

v 63.239 0 -114.551
vt -2.48972 4.50987
f 47/110/1 36/76/1 48/111/1

v 63.6919 0 -116.134
vt -2.50756 4.5722
f 48/111/1 36/76/1 49/112/1

v 64.2245 0 -117.692
vt -2.52852 4.63354
f 49/112/1 36/76/1 50/113/1

v 64.7686 0 -126.405
vt -2.54994 4.97658
f 36/76/1 51/114/1 50/113/1

v 62.9523 0 -123.375
vt -2.47844 4.85727
f 51/114/1 36/76/1 52/115/1

vt -0.103917 0
vn -0.471397 0 0.881921
vt -0.0645469 0
vt -0.0645469 1.02362
v 62.9523 26 -123.375
vt -0.103917 1.02362
f 52/116/22 36/117/22 37/118/22 53/119/22 

v 64.7686 26 -126.405
vt 2.54994 4.97658
vt 2.47844 4.85727
f 37/83/10 54/120/10 53/121/10

v 64.2245 26 -117.692
vt 2.52852 4.63354
f 54/120/10 37/83/10 55/122/10

v 63.6919 26 -116.134
vt 2.50756 4.5722
f 37/83/10 56/123/10 55/122/10

v 63.239 26 -114.551
vt 2.48972 4.50987
f 37/83/10 57/124/10 56/123/10

v 62.8667 26 -112.947
vt 2.47507 4.44672
f 37/83/10 58/125/10 57/124/10

vt 2.46363 4.38291
f 37/83/10 46/126/10 58/125/10

f 37/83/10 38/82/10 46/126/10

vt 4.7488 0
vt 4.81362 0
vn 0.97953 0 0.201299
vt 4.81362 1.02362
vt 4.7488 1.02362
f 45/127/21 47/128/23 58/129/23 46/130/21 

vt 4.89111 0
vt 4.95593 0
vn 0.968077 0 0.250653
vt 4.95593 1.02362
vt 4.89111 1.02362
f 47/131/23 48/132/24 57/133/24 58/134/23 

vt 5.02078 0
vt 5.0856 0
vn 0.954139 0 0.299363
vt 5.0856 1.02362
vt 5.02078 1.02362
f 48/135/24 49/136/25 56/137/25 57/138/24 

vt 5.13748 0
vt 5.2023 0
vn 0.937752 0 0.347305
vt 5.2023 1.02362
vt 5.13748 1.02362
f 49/139/25 50/140/26 55/141/26 56/142/25 

vt 5.24091 0
v 64.8353 0 -119.221
vt 5.30573 0
vn 0.918958 0 0.394356
v 64.8353 26 -119.221
vt 5.30573 1.02362
vt 5.24091 1.02362
f 50/143/26 59/144/27 60/145/27 55/146/26 

vt -2.55257 4.69374
f 50/113/1 51/114/1 59/147/1

v 65.6 0 -125.849
vt -2.58268 4.9547
f 59/147/1 51/114/1 61/148/1

vt 0.605267 0
vn 0.55557 0 -0.83147
vt 0.644637 0
vt 0.644637 1.02362
v 65.6 26 -125.849
vt 0.605267 1.02362
f 61/149/28 51/150/28 54/151/28 62/152/28 

vt -5.57948 0
vn -0.857729 0 -0.514103
vt -5.44039 0
vt -5.44039 1.02362
vt -5.57948 1.02362
f 51/153/29 52/154/29 53/155/29 54/156/29 

vt 2.55257 4.69374
vt 2.58268 4.9547
f 54/120/10 60/157/10 62/158/10

f 54/120/10 55/122/10 60/157/10

v 65.5228 26 -120.717
vt 2.57964 4.75265
f 62/158/10 60/157/10 63/159/10

vt 5.3308 0
v 65.5228 0 -120.717
vt 5.39563 0
vn 0.897805 0 0.440394
vt 5.39563 1.02362
vt 5.3308 1.02362
f 59/160/27 64/161/30 63/162/30 60/163/27 

vt -2.57964 4.75265
f 59/147/1 61/148/1 64/164/1

v 66.2852 0 -122.177
vt -2.60965 4.81011
f 64/164/1 61/148/1 65/165/1

v 67.6461 0 -128.608
vt -2.66323 5.06332
f 65/165/1 61/148/1 66/166/1

vt -5.65338 0
vn -0.803208 0 -0.595699
vt -5.51815 0
vt -5.51815 1.02362
v 67.6461 26 -128.608
vt -5.65338 1.02362
f 66/167/31 61/168/31 62/169/31 67/170/31 

v 66.2852 26 -122.177
vt 2.60965 4.81011
vt 2.66323 5.06332
f 62/158/10 68/171/10 67/172/10

f 62/158/10 63/159/10 68/171/10

vt 5.40692 0
vt 5.47175 0
vn 0.874347 0 0.485302
vt 5.47175 1.02362
vt 5.40692 1.02362
f 64/173/30 65/174/32 68/175/32 63/176/30 

vt 5.46908 0
v 67.1205 0 -123.596
vt 5.53391 0
vn 0.848644 0 0.528964
v 67.1205 26 -123.596
vt 5.53391 1.02362
vt 5.46908 1.02362
f 65/177/32 69/178/33 70/179/33 68/180/32 

vt -2.64254 4.86598
f 65/165/1 66/166/1 69/181/1

v 68.0267 0 -124.971
vt -2.67821 4.92011
f 69/181/1 66/166/1 71/182/1

v 69.2456 0 -131.86
vt -2.72621 5.19135
f 66/166/1 72/183/1 71/182/1

v 66.8731 0 -129.243
vt -2.6328 5.08829
f 72/183/1 66/166/1 73/184/1

vt -1.1928 0
vn -0.634393 0 0.77301
vt -1.15343 0
vt -1.15343 1.02362
v 66.8731 26 -129.243
vt -1.1928 1.02362
f 73/185/34 66/186/34 67/187/34 74/188/34 

v 69.2456 26 -131.86
vt 2.72621 5.19135
vt 2.6328 5.08829
f 67/172/10 75/189/10 74/190/10

v 68.0267 26 -124.971
vt 2.67821 4.92011
f 75/189/10 67/172/10 76/191/10

vt 2.64254 4.86598
f 67/172/10 70/192/10 76/191/10

f 67/172/10 68/171/10 70/192/10

vt 5.51712 0
vt 5.58195 0
vn 0.820763 0 0.571268
vt 5.58195 1.02362
vt 5.51712 1.02362
f 69/193/33 71/194/35 76/195/35 70/196/33 

vt 5.55092 0
v 69.0013 0 -126.298
vt 5.61575 0
vn 0.790776 0 0.612106
v 69.0013 26 -126.298
vt 5.61575 1.02362
vt 5.55092 1.02362
f 71/197/35 77/198/36 78/199/36 76/200/35 

vt -2.71658 4.97236
f 71/182/1 72/183/1 77/201/1

v 70.0418 0 -127.574
vt -2.75755 5.0226
f 77/201/1 72/183/1 79/202/1

v 69.9527 0 -131.153
vt -2.75404 5.16351
f 79/202/1 72/183/1 80/203/1

vt 1.70375 0
vn 0.707107 0 -0.707107
vt 1.74312 0
vt 1.74312 1.02362
v 69.9527 26 -131.153
vt 1.70375 1.02362
f 80/204/37 72/205/37 75/206/37 81/207/37 

vt -5.67735 0
vn -0.740951 0 -0.671559
vt -5.53826 0
vt -5.53826 1.02362
vt -5.67735 1.02362
f 72/208/38 73/209/38 74/210/38 75/211/38 

v 70.0418 26 -127.574
vt 2.75755 5.0226
vt 2.75404 5.16351
f 75/189/10 82/212/10 81/213/10

vt 2.71658 4.97236
f 75/189/10 78/214/10 82/212/10

f 75/189/10 76/191/10 78/214/10

vt 5.57038 0
vt 5.63521 0
vn 0.758758 0 0.651372
vt 5.63521 1.02362
vt 5.57038 1.02362
f 77/215/36 79/216/39 82/217/39 78/218/36 

vt 5.57546 0
v 71.1457 0 -128.796
vt 5.64029 0
vn 0.724793 0 0.688967
v 71.1457 26 -128.796
vt 5.64029 1.02362
vt 5.57546 1.02362
f 79/219/39 83/220/40 84/221/40 82/222/39 

v 72.4977 0 -133.46
vt -2.85424 5.25432
vt -2.80101 5.0707
f 79/202/1 85/223/1 83/224/1

f 79/202/1 80/203/1 85/223/1

vt -5.64344 0
vn -0.671559 0 -0.740951
vt -5.50822 0
vt -5.50822 1.02362
v 72.4977 26 -133.46
vt -5.64344 1.02362
f 85/225/41 80/226/41 81/227/41 86/228/41 

vt 2.85424 5.25432
f 81/213/10 82/212/10 86/229/10

vt 2.80101 5.0707
f 86/229/10 82/212/10 84/230/10

v 72.31 26 -129.96
vt 2.84685 5.11655
f 86/229/10 84/230/10 87/231/10

vt 5.56614 0
v 72.31 0 -129.96
vt 5.63097 0
vn 0.688967 0 0.724793
vt 5.63097 1.02362
vt 5.56614 1.02362
f 83/232/40 88/233/42 87/234/42 84/235/40 

vt -2.84685 5.11655
f 83/224/1 85/223/1 88/236/1

v 73.5319 0 -131.064
vt -2.89495 5.16
f 88/236/1 85/223/1 89/237/1

v 74.7009 0 -136.337
vt -2.94098 5.36761
f 85/223/1 90/238/1 89/237/1

v 71.8633 0 -134.233
vt -2.82926 5.28476
f 90/238/1 85/223/1 91/239/1

vt -2.29031 0
vn -0.77301 0 0.634393
vt -2.25094 0
vt -2.25094 1.02362
v 71.8633 26 -134.233
vt -2.29031 1.02362
f 91/240/43 85/241/43 86/242/43 92/243/43 

v 74.7009 26 -136.337
vt 2.94098 5.36761
vt 2.82926 5.28476
f 86/229/10 93/244/10 92/245/10

v 73.5319 26 -131.064
vt 2.89495 5.16
f 93/244/10 86/229/10 94/246/10

f 86/229/10 87/231/10 94/246/10

vt 5.54246 0
vt 5.60728 0
vn 0.651372 0 0.758758
vt 5.60728 1.02362
vt 5.54246 1.02362
f 88/247/42 89/248/44 94/249/44 87/250/42 

vt 5.50446 0
v 74.808 0 -132.105
vt 5.56929 0
vn 0.612106 0 0.790776
v 74.808 26 -132.105
vt 5.56929 1.02362
vt 5.50446 1.02362
f 89/251/44 95/252/45 96/253/45 94/254/44 

vt -2.9452 5.20097
f 89/237/1 90/238/1 95/255/1

v 75.2565 0 -135.506
vt -2.96285 5.33488
f 95/255/1 90/238/1 97/256/1

vt 2.78972 0
vn 0.83147 0 -0.55557
vt 2.82909 0
vt 2.82909 1.02362
v 75.2565 26 -135.506
vt 2.78972 1.02362
f 97/257/46 90/258/46 93/259/46 98/260/46 

vt -5.5597 0
vn -0.595699 0 -0.803208
vt -5.42061 0
vt -5.42061 1.02362
vt -5.5597 1.02362
f 90/261/47 91/262/47 92/263/47 93/264/47 

vt 2.9452 5.20097
vt 2.96285 5.33488
f 93/244/10 96/265/10 98/266/10

f 93/244/10 94/246/10 96/265/10

v 76.1352 26 -133.079
vt 2.99745 5.23934
f 98/266/10 96/265/10 99/267/10

vt 5.45225 0
v 76.1352 0 -133.079
vt 5.51708 0
vn 0.571268 0 0.820763
vt 5.51708 1.02362
vt 5.45225 1.02362
f 95/268/45 100/269/48 99/270/48 96/271/45 

vt -2.99745 5.23934
f 95/255/1 97/256/1 100/272/1

v 78.2026 0 -137.272
vt -3.07884 5.4044
f 100/272/1 97/256/1 101/273/1

vt -5.41923 0
vn -0.514103 0 -0.857729
vt -5.284 0
vt -5.284 1.02362
v 78.2026 26 -137.272
vt -5.41923 1.02362
f 101/274/49 97/275/49 98/276/49 102/277/49 

vt 3.07884 5.4044
f 98/266/10 99/267/10 102/278/10

v 77.5101 26 -133.985
vt 3.05158 5.27502
f 102/278/10 99/267/10 103/279/10

vt 5.38596 0
v 77.5101 0 -133.985
vt 5.45079 0
vn 0.528964 0 0.848644
vt 5.45079 1.02362
vt 5.38596 1.02362
f 100/280/48 104/281/50 103/282/50 99/283/48 

vt -3.05158 5.27502
f 100/272/1 101/273/1 104/284/1

v 78.9291 0 -134.821
vt -3.10745 5.3079
f 104/284/1 101/273/1 105/285/1

v 80.9249 0 -139.664
vt -3.18602 5.49859
f 101/273/1 106/286/1 105/285/1

v 77.7312 0 -138.154
vt -3.06028 5.43912
f 106/286/1 101/273/1 107/287/1

vt -3.35427 0
vn -0.881921 0 0.471397
vt -3.3149 0
vt -3.3149 1.02362
v 77.7312 26 -138.154
vt -3.35427 1.02362
f 107/288/51 101/289/51 102/290/51 108/291/51 

v 80.9249 26 -139.664
vt 3.18602 5.49859
vt 3.06028 5.43912
f 102/278/10 109/292/10 108/293/10

v 78.9291 26 -134.821
vt 3.10745 5.3079
f 109/292/10 102/278/10 110/294/10

f 102/278/10 103/279/10 110/294/10

vt 5.30576 0
vt 5.37059 0
vn 0.485302 0 0.874347
vt 5.37059 1.02362
vt 5.30576 1.02362
f 104/295/50 105/296/52 110/297/52 103/298/50 

vt 5.21186 0
v 80.3887 0 -135.583
vt 5.27669 0
vn 0.440394 0 0.897805
v 80.3887 26 -135.583
vt 5.27669 1.02362
vt 5.21186 1.02362
f 105/299/52 111/300/53 112/301/53 110/302/52 

vt -3.16491 5.33792
f 105/285/1 106/286/1 111/303/1

v 81.8849 0 -136.271
vt -3.22381 5.36498
f 111/303/1 106/286/1 113/304/1

v 81.3075 0 -138.74
vt -3.20108 5.46222
f 113/304/1 106/286/1 114/305/1

vt 3.82143 0
vn 0.92388 0 -0.382683
vt 3.8608 0
vt 3.8608 1.02362
v 81.3075 26 -138.74
vt 3.82143 1.02362
f 114/306/54 106/307/54 109/308/54 115/309/54 

vt -5.23108 0
vn -0.427555 0 -0.903989
vt -5.09199 0
vt -5.09199 1.02362
vt -5.23108 1.02362
f 106/310/55 107/311/55 108/312/55 109/313/55 

v 81.8849 26 -136.271
vt 3.22381 5.36498
vt 3.20108 5.46222
f 109/292/10 116/314/10 115/315/10

vt 3.16491 5.33792
f 109/292/10 112/316/10 116/314/10

f 109/292/10 110/294/10 112/316/10

vt 5.10449 0
vt 5.16932 0
vn 0.394356 0 0.918958
vt 5.16932 1.02362
vt 5.10449 1.02362
f 111/317/53 113/318/56 116/319/56 112/320/53 

vt 4.98394 0
v 83.414 0 -136.881
vt 5.04877 0
vn 0.347305 0 0.937752
v 83.414 26 -136.881
vt 5.04877 1.02362
vt 4.98394 1.02362
f 113/321/56 117/322/57 118/323/57 116/324/56 

v 84.5415 0 -139.897
vt -3.32841 5.50777
vt -3.28402 5.38903
f 113/304/1 119/325/1 117/326/1

f 113/304/1 114/305/1 119/325/1

vt -4.98935 0
vn -0.33689 0 -0.941544
vt -4.85413 0
vt -4.85413 1.02362
v 84.5415 26 -139.897
vt -4.98935 1.02362
f 119/327/58 114/328/58 115/329/58 120/330/58 

vt 3.32841 5.50777
f 115/315/10 116/314/10 120/331/10

vt 3.28402 5.38903
f 120/331/10 116/314/10 118/332/10

v 84.9722 26 -137.414
vt 3.34536 5.41
f 120/331/10 118/332/10 121/333/10

vt 4.85052 0
v 84.9722 0 -137.414
vt 4.91535 0
vn 0.299363 0 0.954139
vt 4.91535 1.02362
vt 4.85052 1.02362
f 117/334/57 122/335/59 121/336/59 118/337/57 

vt -3.34536 5.41
f 117/326/1 119/325/1 122/338/1

v 87.6782 0 -141.713
vt -3.4519 5.57924
f 119/325/1 123/339/1 122/338/1

v 84.2512 0 -140.854
vt -3.31698 5.54545
f 123/339/1 119/325/1 124/340/1

vt -4.34379 0
vn -0.95694 0 0.290285
vt -4.30442 0
vt -4.30442 1.02362
v 84.2512 26 -140.854
vt -4.34379 1.02362
f 124/341/60 119/342/60 120/343/60 125/344/60 

v 87.6782 26 -141.713
vt 3.4519 5.57924
vt 3.31698 5.54545
f 120/331/10 126/345/10 125/346/10

f 126/345/10 120/331/10 121/333/10

v 86.5553 26 -137.867
vt 3.40769 5.42783
f 126/345/10 121/333/10 127/347/10

vt 4.70456 0
v 86.5553 0 -137.867
vt 4.76938 0
vn 0.250653 0 0.968077
vt 4.76938 1.02362
vt 4.70456 1.02362
f 122/348/59 128/349/61 127/350/61 121/351/59 

vt -3.40769 5.42783
f 122/338/1 123/339/1 128/352/1

v 88.1593 0 -138.239
vt -3.47084 5.44249
f 128/352/1 123/339/1 129/353/1

v 87.8733 0 -140.732
vt -3.45958 5.54063
f 129/353/1 123/339/1 130/354/1

vt 4.75924 0
vn 0.980785 0 -0.19509
vt 4.79861 0
vt 4.79861 1.02362
v 87.8733 26 -140.732
vt 4.75924 1.02362
f 130/355/62 123/356/62 126/357/62 131/358/62 

vt -4.70409 0
vn -0.24298 0 -0.970031
vt -4.565 0
vt -4.565 1.02362
vt -4.70409 1.02362
f 123/359/63 124/360/63 125/361/63 126/362/63 

v 88.1593 26 -138.239
vt 3.47084 5.44249
vt 3.45958 5.54063
f 126/345/10 132/363/10 131/364/10

f 126/345/10 127/347/10 132/363/10

vt 4.54643 0
vt 4.61126 0
vn 0.201299 0 0.97953
vt 4.61126 1.02362
vt 4.54643 1.02362
f 128/365/61 129/366/64 132/367/64 127/368/61 

vt 4.37656 0
v 89.7801 0 -138.53
vt 4.44139 0
vn 0.151428 0 0.988468
v 89.7801 26 -138.53
vt 4.44139 1.02362
vt 4.37656 1.02362
f 129/369/64 133/370/65 134/371/65 132/372/64 

v 91.2709 0 -141.236
vt -3.59334 5.56047
vt -3.53465 5.45393
f 129/353/1 135/373/1 133/374/1

f 129/353/1 130/354/1 135/373/1

vt -4.37034 0
vn -0.14673 0 -0.989177
vt -4.23511 0
vt -4.23511 1.02362
v 91.2709 26 -141.236
vt -4.37034 1.02362
f 135/375/66 130/376/66 131/377/66 136/378/66 

vt 3.59334 5.56047
f 131/364/10 132/363/10 136/379/10

vt 3.53465 5.45393
f 136/379/10 132/363/10 134/380/10

v 91.4135 26 -138.738
vt 3.59896 5.46212
f 136/379/10 134/380/10 137/381/10

vt 4.19537 0
v 91.4135 0 -138.738
vt 4.26019 0
vn 0.101168 0 0.994869
vt 4.26019 1.02362
vt 4.19537 1.02362
f 133/382/65 138/383/67 137/384/67 134/385/65 

vt -3.59896 5.46212
f 133/374/1 135/373/1 138/386/1

v 94.7015 0 -142.404
vt -3.7284 5.60648
f 135/373/1 139/387/1 138/386/1

v 91.1728 0 -142.231
vt -3.58948 5.59965
f 139/387/1 135/373/1 140/388/1

vt -5.22086 0
vn -0.995185 0 0.0980171
vt -5.18149 0
vt -5.18149 1.02362
v 91.1728 26 -142.231
vt -5.22086 1.02362
f 140/389/68 135/390/68 136/391/68 141/392/68 

v 94.7015 26 -142.404
vt 3.7284 5.60648
vt 3.58948 5.59965
f 136/379/10 142/393/10 141/394/10

f 142/393/10 136/379/10 137/381/10

v 93.0554 26 -138.863
vt 3.6636 5.46704
f 142/393/10 137/381/10 143/395/10

vt 4.00332 0
v 93.0554 0 -138.863
vt 4.06815 0
vn 0.0506492 0 0.998717
vt 4.06815 1.02362
vt 4.00332 1.02362
f 138/396/67 144/397/69 143/398/69 137/399/67 

vt -3.6636 5.46704
f 138/386/1 139/387/1 144/400/1

v 94.7015 0 -138.904
vt -3.7284 5.46868
f 144/400/1 139/387/1 145/401/1

v 94.7015 0 -141.404
vt -3.7284 5.56711
f 145/401/1 139/387/1 146/402/1

vt 5.56711 0
vn 1 0 -0
vt 5.60648 0
vt 5.60648 1.02362
v 94.7015 26 -141.404
vt 5.56711 1.02362
f 146/403/70 139/404/70 142/405/70 147/406/70 

vt -3.99901 0
vn -0.0490677 0 -0.998795
vt -3.85992 0
vt -3.85992 1.02362
vt -3.99901 1.02362
f 139/407/71 140/408/71 141/409/71 142/410/71 

v 94.7015 26 -138.904
vt 3.7284 5.46868
vt 3.7284 5.56711
f 142/393/10 148/411/10 147/412/10

f 142/393/10 143/395/10 148/411/10

vt 3.80092 0
vt 3.86574 0
vn 0 0 1
vt 3.86574 1.02362
vt 3.80092 1.02362
f 144/413/69 145/414/72 148/415/72 143/416/69 

vt 3.58867 0
v 96.3476 0 -138.863
vt 3.6535 0
vn -0.0506492 0 0.998717
v 96.3476 26 -138.863
vt 3.6535 1.02362
vt 3.58867 1.02362
f 145/417/72 149/418/73 150/419/73 148/420/72 

v 98.1321 0 -141.236
vt -3.86347 5.56047
vt -3.79321 5.46704
f 145/401/1 151/421/1 149/422/1

f 145/401/1 146/402/1 151/421/1

vt -3.58597 0
vn 0.0490677 0 -0.998795
vt -3.45075 0
vt -3.45075 1.02362
v 98.1321 26 -141.236
vt -3.58597 1.02362
f 151/423/74 146/424/74 147/425/74 152/426/74 

vt 3.79321 5.46704
vt 3.86347 5.56047
f 147/412/10 150/427/10 152/428/10

f 150/427/10 147/412/10 148/411/10

v 97.9894 26 -138.738
vt 3.85785 5.46212
f 152/428/10 150/427/10 153/429/10

vt 3.36713 0
v 97.9894 0 -138.738
vt 3.43196 0
vn -0.101168 0 0.994869
vt 3.43196 1.02362
vt 3.36713 1.02362
f 149/430/73 154/431/75 153/432/75 150/433/73 

vt -3.85785 5.46212
f 149/422/1 151/421/1 154/434/1

v 99.6229 0 -138.53
vt -3.92216 5.45393
f 154/434/1 151/421/1 155/435/1

v 98.2301 0 -142.231
vt -3.86733 5.59965
f 155/435/1 151/421/1 156/436/1

vt -5.95175 0
vn -0.995185 0 -0.0980171
vt -5.91238 0
vt -5.91238 1.02362
v 98.2301 26 -142.231
vt -5.95175 1.02362
f 156/437/76 151/438/76 152/439/76 157/440/76 

v 99.6229 26 -138.53
vt 3.92216 5.45393
vt 3.86733 5.59965
f 152/428/10 158/441/10 157/442/10

f 152/428/10 153/429/10 158/441/10

vt 3.13686 0
vt 3.20169 0
vn -0.151428 0 0.988468
vt 3.20169 1.02362
vt 3.13686 1.02362
f 154/443/75 155/444/77 158/445/77 153/446/75 

vt 2.89846 0
v 101.244 0 -138.239
vt 2.96329 0
vn -0.201299 0 0.97953
v 101.244 26 -138.239
vt 2.96329 1.02362
vt 2.89846 1.02362
f 155/447/77 159/448/78 160/449/78 158/450/77 

v 101.53 0 -140.732
vt -3.99723 5.54063
vt -3.98597 5.44249
f 155/435/1 161/451/1 159/452/1

v 101.725 0 -141.713
vt -4.00491 5.57924
f 155/435/1 162/453/1 161/451/1

f 155/435/1 156/436/1 162/453/1

vt -3.14292 0
vn 0.14673 0 -0.989177
vt -3.00383 0
vt -3.00383 1.02362
v 101.725 26 -141.713
vt -3.14292 1.02362
f 162/454/79 156/455/79 157/456/79 163/457/79 

vt 4.00491 5.57924
f 157/442/10 158/441/10 163/458/10

v 101.53 26 -140.732
vt 3.99723 5.54063
f 163/458/10 158/441/10 164/459/10

vt 3.98597 5.44249
f 164/459/10 158/441/10 160/460/10

v 102.848 26 -137.867
vt 4.04912 5.42783
f 165/461/10 164/459/10 160/460/10

v 104.861 26 -139.897
vt 4.1284 5.50777
f 164/459/10 165/461/10 166/462/10

v 104.431 26 -137.414
vt 4.11145 5.41
f 166/462/10 165/461/10 167/463/10

v 102.848 0 -137.867
vt 2.39972 0
vn -0.250653 0 0.968077
v 104.431 0 -137.414
vt 2.46454 0
vn -0.299363 0 0.954139
vt 2.46454 1.02362
vt 2.39972 1.02362
f 168/464/80 169/465/81 167/466/81 165/467/80 

vt -4.04912 5.42783
v 104.861 0 -139.897
vt -4.1284 5.50777
vt -4.11145 5.41
f 168/468/1 170/469/1 169/470/1

f 168/468/1 161/451/1 170/469/1

f 161/451/1 168/468/1 159/452/1

vt 2.65253 0
vt 2.71736 0
vt 2.71736 1.02362
vt 2.65253 1.02362
f 159/471/78 168/472/80 165/473/80 160/474/78 

vt -2.6664 0
vn 0.24298 0 -0.970031
vt -2.53117 0
vt -2.53117 1.02362
vt -2.6664 1.02362
f 170/475/82 161/476/82 164/477/82 166/478/82 

vt 6.21399 0
vn 0.980785 0 0.19509
vt 6.25336 0
vt 6.25336 1.02362
vt 6.21399 1.02362
f 161/479/83 162/480/83 163/481/83 164/482/83 

v 105.152 0 -140.854
vt -6.50839 0
vn -0.95694 0 -0.290285
vt -6.46902 0
vt -6.46902 1.02362
v 105.152 26 -140.854
vt -6.50839 1.02362
f 171/483/84 170/484/84 166/485/84 172/486/84 

v 105.989 0 -136.881
vt -4.17279 5.38903
vt -4.13983 5.54545
f 173/487/1 170/469/1 171/488/1

f 169/470/1 170/469/1 173/487/1

vt 2.14065 0
vt 2.20548 0
vn -0.347305 0 0.937752
v 105.989 26 -136.881
vt 2.20548 1.02362
vt 2.14065 1.02362
f 169/489/81 173/490/85 174/491/85 167/492/81 

vt 1.87602 0
v 107.518 0 -136.271
vt 1.94084 0
vn -0.394356 0 0.918958
v 107.518 26 -136.271
vt 1.94084 1.02362
vt 1.87602 1.02362
f 173/493/85 175/494/86 176/495/86 174/496/85 

v 108.095 0 -138.74
vt -4.25572 5.46222
vt -4.23299 5.36498
f 173/487/1 177/497/1 175/498/1

v 108.478 0 -139.664
vt -4.27079 5.49859
f 173/487/1 178/499/1 177/497/1

f 173/487/1 171/488/1 178/499/1

vt -2.16872 0
vn 0.33689 0 -0.941544
vt -2.02963 0
vt -2.02963 1.02362
v 108.478 26 -139.664
vt -2.16872 1.02362
f 178/500/87 171/501/87 172/502/87 179/503/87 

vt 4.13983 5.54545
vt 4.17279 5.38903
vt 4.27079 5.49859
f 172/504/10 174/505/10 179/506/10

f 166/462/10 174/505/10 172/504/10

f 166/462/10 167/463/10 174/505/10

v 108.095 26 -138.74
vt 4.25572 5.46222
f 179/506/10 174/505/10 180/507/10

vt 4.23299 5.36498
f 180/507/10 174/505/10 176/508/10

v 109.014 26 -135.583
vt 4.2919 5.33792
f 181/509/10 180/507/10 176/508/10

v 111.2 26 -137.272
vt 4.37797 5.4044
f 180/507/10 181/509/10 182/510/10

v 110.474 26 -134.821
vt 4.34936 5.3079
f 182/510/10 181/509/10 183/511/10

v 109.014 0 -135.583
vt 1.33273 0
vn -0.440394 0 0.897805
v 110.474 0 -134.821
vt 1.39756 0
vn -0.485302 0 0.874347
vt 1.39756 1.02362
vt 1.33273 1.02362
f 184/512/88 185/513/89 183/514/89 181/515/88 

vt -4.2919 5.33792
v 111.2 0 -137.272
vt -4.37797 5.4044
vt -4.34936 5.3079
f 184/516/1 186/517/1 185/518/1

f 184/516/1 177/497/1 186/517/1

f 177/497/1 184/516/1 175/498/1

vt 1.60648 0
vt 1.6713 0
vt 1.6713 1.02362
vt 1.60648 1.02362
f 175/519/86 184/520/88 181/521/88 176/522/86 

vt -1.64696 0
vn 0.427555 0 -0.903989
vt -1.51173 0
vt -1.51173 1.02362
vt -1.64696 1.02362
f 186/523/90 177/524/90 180/525/90 182/526/90 

vt 6.67502 0
vn 0.92388 0 0.382683
vt 6.71439 0
vt 6.71439 1.02362
vt 6.67502 1.02362
f 177/527/91 178/528/91 179/529/91 180/530/91 

v 111.672 0 -138.154
vt -6.86938 0
vn -0.881921 0 -0.471397
vt -6.83001 0
vt -6.83001 1.02362
v 111.672 26 -138.154
vt -6.86938 1.02362
f 187/531/92 186/532/92 182/533/92 188/534/92 

v 111.893 0 -133.985
vt -4.40523 5.27502
vt -4.39653 5.43912
f 189/535/1 186/517/1 187/536/1

f 185/518/1 186/517/1 189/535/1

vt 1.05548 0
vt 1.12031 0
vn -0.528964 0 0.848644
v 111.893 26 -133.985
vt 1.12031 1.02362
vt 1.05548 1.02362
f 185/537/89 189/538/93 190/539/93 183/540/89 

vt 0.775438 0
v 113.268 0 -133.079
vt 0.840266 0
vn -0.571268 0 0.820763
v 113.268 26 -133.079
vt 0.840266 1.02362
vt 0.775438 1.02362
f 189/541/93 191/542/94 192/543/94 190/544/93 

v 114.146 0 -135.506
vt -4.49395 5.33488
vt -4.45936 5.23934
f 189/535/1 193/545/1 191/546/1

v 114.702 0 -136.337
vt -4.51583 5.36761
f 189/535/1 194/547/1 193/545/1

f 189/535/1 187/536/1 194/547/1

vt -1.11385 0
vn 0.514103 0 -0.857729
vt -0.974759 0
vt -0.974759 1.02362
v 114.702 26 -136.337
vt -1.11385 1.02362
f 194/548/95 187/549/95 188/550/95 195/551/95 

vt 4.39653 5.43912
vt 4.40523 5.27502
vt 4.51583 5.36761
f 188/552/10 190/553/10 195/554/10

f 182/510/10 190/553/10 188/552/10

f 182/510/10 183/511/10 190/553/10

v 114.146 26 -135.506
vt 4.49395 5.33488
f 195/554/10 190/553/10 196/555/10

vt 4.45936 5.23934
f 196/555/10 190/553/10 192/556/10

v 114.595 26 -132.105
vt 4.51161 5.20097
f 197/557/10 196/555/10 192/556/10

v 116.905 26 -133.46
vt 4.60257 5.25432
f 196/555/10 197/557/10 198/558/10

v 115.871 26 -131.064
vt 4.56185 5.16
f 198/558/10 197/557/10 199/559/10

v 114.595 0 -132.105
vt 0.209856 0
vn -0.612106 0 0.790776
v 115.871 0 -131.064
vt 0.274684 0
vn -0.651372 0 0.758758
vt 0.274684 1.02362
vt 0.209856 1.02362
f 200/560/96 201/561/97 199/562/97 197/563/96 

vt -4.51161 5.20097
v 116.905 0 -133.46
vt -4.60257 5.25432
vt -4.56185 5.16
f 200/564/1 202/565/1 201/566/1

f 200/564/1 193/545/1 202/565/1

f 193/545/1 200/564/1 191/546/1

vt 0.493322 0
vt 0.55815 0
vt 0.55815 1.02362
vt 0.493322 1.02362
f 191/567/94 200/568/96 197/569/96 192/570/94 

vt -0.56682 0
vn 0.595699 0 -0.803208
vt -0.431594 0
vt -0.431594 1.02362
vt -0.56682 1.02362
f 202/571/98 193/572/98 196/573/98 198/574/98 

vt 6.9325 0
vn 0.83147 0 0.55557
vt 6.97187 0
vt 6.97187 1.02362
vt 6.9325 1.02362
f 193/575/99 194/576/99 195/577/99 196/578/99 

v 117.54 0 -134.233
vt -7.02086 0
vn -0.77301 0 -0.634393
vt -6.98149 0
vt -6.98149 1.02362
v 117.54 26 -134.233
vt -7.02086 1.02362
f 203/579/100 202/580/100 198/581/100 204/582/100 

v 117.093 0 -129.96
vt -4.60996 5.11655
vt -4.62754 5.28476
f 205/583/1 202/565/1 203/584/1

f 201/566/1 202/565/1 205/583/1

vt -0.074232 0
vt -0.00940423 0
vn -0.688967 0 0.724793
v 117.093 26 -129.96
vt -0.00940423 1.02362
vt -0.074232 1.02362
f 201/585/97 205/586/101 206/587/101 199/588/97 

vt -0.358213 0
v 118.257 0 -128.796
vt -0.293385 0
vn -0.724793 0 0.688967
v 118.257 26 -128.796
vt -0.293385 1.02362
vt -0.358213 1.02362
f 205/589/101 207/590/102 208/591/102 206/592/101 

vt -4.6558 5.0707
f 205/583/1 203/584/1 207/593/1

v 119.45 0 -131.153
vt -4.70276 5.16351
f 207/593/1 203/584/1 209/594/1

v 120.157 0 -131.86
vt -4.7306 5.19135
f 209/594/1 203/584/1 210/595/1

vt -0.0188468 0
vn 0.671559 0 -0.740951
vt 0.120243 0
vt 0.120243 1.02362
v 120.157 26 -131.86
vt -0.0188468 1.02362
f 210/596/103 203/597/103 204/598/103 211/599/103 

vt 4.62754 5.28476
v 119.45 26 -131.153
vt 4.70276 5.16351
vt 4.7306 5.19135
f 204/600/10 212/601/10 211/602/10

vt 4.6558 5.0707
f 204/600/10 208/603/10 212/601/10

vt 4.60996 5.11655
f 204/600/10 206/604/10 208/603/10

f 198/558/10 206/604/10 204/600/10

f 198/558/10 199/559/10 206/604/10

v 119.361 26 -127.574
vt 4.69926 5.0226
f 212/601/10 208/603/10 213/605/10

vt -0.641357 0
v 119.361 0 -127.574
vt -0.576529 0
vn -0.758758 0 0.651372
vt -0.576529 1.02362
vt -0.641357 1.02362
f 207/606/102 214/607/104 213/608/104 208/609/102 

vt -4.69926 5.0226
f 207/593/1 209/594/1 214/610/1

v 120.402 0 -126.298
vt -4.74022 4.97236
f 209/594/1 215/611/1 214/610/1

v 121.757 0 -128.608
vt -4.79358 5.06332
f 215/611/1 209/594/1 216/612/1

vt 0.532501 0
vn 0.740951 0 -0.671559
vt 0.667727 0
vt 0.667727 1.02362
v 121.757 26 -128.608
vt 0.532501 1.02362
f 216/613/105 209/614/105 212/615/105 217/616/105 

vt 6.97651 0
vn 0.707107 0 0.707107
vt 7.01588 0
vt 7.01588 1.02362
vt 6.97651 1.02362
f 209/617/106 210/618/106 211/619/106 212/620/106 

v 120.402 26 -126.298
vt 4.74022 4.97236
vt 4.79358 5.06332
f 212/601/10 218/621/10 217/622/10

f 218/621/10 212/601/10 213/605/10

vt -0.922938 0
vt -0.85811 0
vn -0.790776 0 0.612106
vt -0.85811 1.02362
vt -0.922938 1.02362
f 214/623/104 215/624/107 218/625/107 213/626/104 

vt -1.20223 0
v 121.376 0 -124.971
vt -1.1374 0
vn -0.820763 0 0.571268
v 121.376 26 -124.971
vt -1.1374 1.02362
vt -1.20223 1.02362
f 215/627/107 219/628/108 220/629/108 218/630/107 

vt -4.77859 4.92011
f 215/611/1 216/612/1 219/631/1

v 122.282 0 -123.596
vt -4.81427 4.86598
f 219/631/1 216/612/1 221/632/1

v 122.53 0 -129.243
vt -4.82401 5.08829
f 221/632/1 216/612/1 222/633/1

vt -6.95699 0
vn -0.634393 0 -0.77301
vt -6.91762 0
vt -6.91762 1.02362
v 122.53 26 -129.243
vt -6.95699 1.02362
f 222/634/109 216/635/109 217/636/109 223/637/109 

v 122.282 26 -123.596
vt 4.81427 4.86598
vt 4.82401 5.08829
f 217/622/10 224/638/10 223/639/10

vt 4.77859 4.92011
f 217/622/10 220/640/10 224/638/10

f 217/622/10 218/621/10 220/640/10

vt -1.47852 0
vt -1.4137 0
vn -0.848644 0 0.528964
vt -1.4137 1.02362
vt -1.47852 1.02362
f 219/641/108 221/642/110 224/643/110 220/644/108 

vt -1.7511 0
v 123.118 0 -122.177
vt -1.68628 0
vn -0.874347 0 0.485302
v 123.118 26 -122.177
vt -1.68628 1.02362
vt -1.7511 1.02362
f 221/645/110 225/646/111 226/647/111 224/648/110 

vt -4.84715 4.81011
f 221/632/1 222/633/1 225/649/1

v 123.803 0 -125.849
vt -4.87413 4.9547
f 225/649/1 222/633/1 227/650/1

v 124.634 0 -126.405
vt -4.90686 4.97658
f 227/650/1 222/633/1 228/651/1

vt 1.07421 0
vn 0.803208 0 -0.595699
vt 1.2133 0
vt 1.2133 1.02362
v 124.634 26 -126.405
vt 1.07421 1.02362
f 228/652/112 222/653/112 223/654/112 229/655/112 

v 123.803 26 -125.849
vt 4.87413 4.9547
vt 4.90686 4.97658
f 223/639/10 230/656/10 229/657/10

vt 4.84715 4.81011
f 223/639/10 226/658/10 230/656/10

f 223/639/10 224/638/10 226/658/10

v 123.88 26 -120.717
vt 4.87717 4.75265
f 231/659/10 230/656/10 226/658/10

v 125.569 26 -122.903
vt 4.94365 4.83872
f 230/656/10 231/659/10 232/660/10

v 124.568 26 -119.221
vt 4.90424 4.69374
f 232/660/10 231/659/10 233/661/10

v 123.88 0 -120.717
vt -2.28234 0
vn -0.897805 0 0.440394
v 124.568 0 -119.221
vt -2.21751 0
vn -0.918958 0 0.394356
vt -2.21751 1.02362
vt -2.28234 1.02362
f 234/662/113 235/663/114 233/664/114 231/665/113 

vt -4.87717 4.75265
v 125.569 0 -122.903
vt -4.94365 4.83872
vt -4.90424 4.69374
f 234/666/1 236/667/1 235/668/1

f 234/666/1 227/650/1 236/667/1

f 227/650/1 234/666/1 225/649/1

vt -2.01927 0
vt -1.95445 0
vt -1.95445 1.02362
vt -2.01927 1.02362
f 225/669/111 234/670/113 231/671/113 226/672/111 

vt 1.60876 0
vn 0.857729 0 -0.514103
vt 1.74399 0
vt 1.74399 1.02362
vt 1.60876 1.02362
f 236/673/115 227/674/115 230/675/115 232/676/115 

vt 6.80538 0
vn 0.55557 0 0.83147
vt 6.84475 0
vt 6.84475 1.02362
vt 6.80538 1.02362
f 227/677/116 228/678/116 229/679/116 230/680/116 

v 126.451 0 -123.375
vt -6.68023 0
vn -0.471397 0 -0.881921
vt -6.64086 0
vt -6.64086 1.02362
v 126.451 26 -123.375
vt -6.68023 1.02362
f 237/681/117 236/682/117 232/683/117 238/684/117 

v 125.711 0 -116.134
vt -4.94925 4.5722
vt -4.97837 4.85727
f 239/685/1 236/667/1 237/686/1

v 125.178 0 -117.692
vt -4.92828 4.63354
f 240/687/1 236/667/1 239/685/1

f 235/668/1 236/667/1 240/687/1

vt -2.53963 0
vt -2.47481 0
vn -0.937752 0 0.347305
v 125.178 26 -117.692
vt -2.47481 1.02362
vt -2.53963 1.02362
f 235/688/114 240/689/118 241/690/118 233/691/114 

vt -2.79049 0
vt -2.72566 0
vn -0.954139 0 0.299363
v 125.711 26 -116.134
vt -2.72566 1.02362
vt -2.79049 1.02362
f 240/692/118 239/693/119 242/694/119 241/695/118 

vt -3.03427 0
v 126.164 0 -114.551
vt -2.96944 0
vn -0.968077 0 0.250653
v 126.164 26 -114.551
vt -2.96944 1.02362
vt -3.03427 1.02362
f 239/696/119 243/697/120 244/698/120 242/699/119 

vt -4.96709 4.50987
f 239/685/1 237/686/1 243/700/1

v 126.536 0 -112.947
vt -4.98174 4.44672
f 243/700/1 237/686/1 245/701/1

v 127.037 0 -119.798
vt -5.00147 4.71647
f 245/701/1 237/686/1 246/702/1

v 127.961 0 -120.181
vt -5.03784 4.73154
f 246/702/1 237/686/1 247/703/1

vt 2.12331 0
vn 0.903989 0 -0.427555
vt 2.2624 0
vt 2.2624 1.02362
v 127.961 26 -120.181
vt 2.12331 1.02362
f 247/704/121 237/705/121 238/706/121 248/707/121 

vt 4.97837 4.85727
v 127.037 26 -119.798
vt 5.00147 4.71647
vt 5.03784 4.73154
f 238/708/10 249/709/10 248/710/10

v 126.536 26 -112.947
vt 4.98174 4.44672
f 238/708/10 250/711/10 249/709/10

vt 4.96709 4.50987
f 238/708/10 244/712/10 250/711/10

vt 4.94925 4.5722
f 238/708/10 242/713/10 244/712/10

f 232/660/10 242/713/10 238/708/10

vt 4.92828 4.63354
f 232/660/10 241/714/10 242/713/10

f 232/660/10 233/661/10 241/714/10

vt -3.27034 0
vt -3.20551 0
vn -0.97953 0 0.201299
vt -3.20551 1.02362
vt -3.27034 1.02362
f 243/715/120 245/716/122 250/717/122 244/718/120 

vt -3.4981 0
v 126.827 0 -111.326
vt -3.43327 0
vn -0.988468 0 0.151428
v 126.827 26 -111.326
vt -3.43327 1.02362
vt -3.4981 1.02362
f 245/719/122 251/720/123 252/721/123 250/722/122 

vt -4.99318 4.38291
f 245/701/1 246/702/1 251/723/1

v 127.035 0 -109.692
vt -5.00137 4.3186
f 251/723/1 246/702/1 253/724/1

v 127.16 0 -108.051
vt -5.00629 4.25396
f 246/702/1 254/725/1 253/724/1

v 128.194 0 -116.564
vt -5.04702 4.58915
f 254/725/1 246/702/1 255/726/1

vt 2.6206 0
vn 0.941544 0 -0.33689
vt 2.75582 0
vt 2.75582 1.02362
v 128.194 26 -116.564
vt 2.6206 1.02362
f 255/727/124 246/728/124 249/729/124 256/730/124 

vt 6.42567 0
vn 0.382683 0 0.92388
vt 6.46504 0
vt 6.46504 1.02362
vt 6.42567 1.02362
f 246/731/125 247/732/125 248/733/125 249/734/125 

v 127.16 26 -108.051
vt 5.00629 4.25396
vt 5.04702 4.58915
f 249/709/10 257/735/10 256/736/10

v 127.035 26 -109.692
vt 5.00137 4.3186
f 257/735/10 249/709/10 258/737/10

vt 4.99318 4.38291
f 249/709/10 252/738/10 258/737/10

f 249/709/10 250/711/10 252/738/10

vt -3.71696 0
vt -3.65213 0
vn -0.994869 0 0.101168
vt -3.65213 1.02362
vt -3.71696 1.02362
f 251/739/123 253/740/126 258/741/126 252/742/123 

vt -3.92636 0
vt -3.86154 0
vn -0.998717 0 0.0506492
vt -3.86154 1.02362
vt -3.92636 1.02362
f 253/743/126 254/744/127 257/745/127 258/746/126 

vt -4.12577 0
v 127.201 0 -106.404
vt -4.06094 0
vn -1 0 -0
v 127.201 26 -106.404
vt -4.06094 1.02362
vt -4.12577 1.02362
f 254/747/127 259/748/128 260/749/128 257/750/127 

vt -5.00793 4.18915
f 254/725/1 255/726/1 259/751/1

v 127.961 0 -92.6279
vt -5.03784 3.64677
f 259/751/1 255/726/1 261/752/1

v 128.194 0 -96.2445
vt -5.04702 3.78915
f 261/752/1 255/726/1 262/753/1

v 129.151 0 -116.855
vt -5.0847 4.60058
f 263/754/1 262/753/1 255/726/1

v 129.029 0 -113.233
vt -5.07988 4.45798
f 262/753/1 263/754/1 264/755/1

v 130.01 0 -113.428
vt -5.11849 4.46566
f 264/755/1 263/754/1 265/756/1

vt 3.08814 0
vn 0.970031 0 -0.24298
vt 3.22723 0
v 129.151 26 -116.855
vt 3.22723 1.02362
v 130.01 26 -113.428
vt 3.08814 1.02362
f 265/757/129 263/758/129 266/759/129 267/760/129 

vt -6.20123 0
vn -0.290285 0 -0.95694
vt -6.16186 0
vt -6.16186 1.02362
vt -6.20123 1.02362
f 263/761/130 255/762/130 256/763/130 266/764/130 

v 129.029 26 -113.233
vt 5.07988 4.45798
vt 5.0847 4.60058
f 256/736/10 268/765/10 266/766/10

v 129.029 26 -99.5763
vt 5.07988 3.92033
f 256/736/10 269/767/10 268/765/10

v 128.194 26 -96.2445
vt 5.04702 3.78915
f 256/736/10 270/768/10 269/767/10

v 127.961 26 -92.6279
vt 5.03784 3.64677
f 256/736/10 271/769/10 270/768/10

vt 5.00793 4.18915
f 256/736/10 260/770/10 271/769/10

f 256/736/10 257/735/10 260/770/10

v 127.16 26 -104.758
vt 5.00629 4.12435
f 272/771/10 271/769/10 260/770/10

v 127.037 26 -93.0106
vt 5.00147 3.66183
f 272/771/10 273/772/10 271/769/10

v 127.035 26 -103.117
vt 5.00137 4.05971
f 274/773/10 273/772/10 272/771/10

v 126.827 26 -101.483
vt 4.99318 3.9954
f 275/774/10 273/772/10 274/773/10

v 126.536 26 -99.8623
vt 4.98174 3.93159
f 276/775/10 273/772/10 275/774/10

v 126.164 26 -98.2583
vt 4.96709 3.86844
f 277/776/10 273/772/10 276/775/10

v 125.711 26 -96.6752
vt 4.94925 3.80611
f 278/777/10 273/772/10 277/776/10

v 125.569 26 -89.9056
vt 4.94365 3.53959
f 278/777/10 279/778/10 273/772/10

v 125.178 26 -95.1171
vt 4.92828 3.74477
f 279/778/10 278/777/10 280/779/10

v 125.711 0 -96.6752
vt -5.2023 0
vn -0.954139 0 -0.299363
v 125.178 0 -95.1171
vt -5.13748 0
vn -0.937752 0 -0.347305
vt -5.13748 1.02362
vt -5.2023 1.02362
f 281/780/131 282/781/132 280/782/132 278/783/131 

vt -4.94925 3.80611
v 125.569 0 -89.9056
vt -4.94365 3.53959
vt -4.92828 3.74477
f 281/784/1 283/785/1 282/786/1

v 127.037 0 -93.0106
vt -5.00147 3.66183
f 283/785/1 281/784/1 284/787/1

v 126.164 0 -98.2583
vt -4.96709 3.86844
f 284/787/1 281/784/1 285/788/1

vt -5.0856 0
vn -0.968077 0 -0.250653
vt -5.02078 0
vt -5.02078 1.02362
vt -5.0856 1.02362
f 285/789/133 281/790/131 278/791/131 277/792/133 

v 126.536 0 -99.8623
vt -4.95593 0
vn -0.97953 0 -0.201299
vt -4.89111 0
vt -4.89111 1.02362
vt -4.95593 1.02362
f 286/793/134 285/794/133 277/795/133 276/796/134 

vt -4.98174 3.93159
f 284/787/1 285/788/1 286/797/1

v 126.827 0 -101.483
vt -4.99318 3.9954
f 284/787/1 286/797/1 287/798/1

vt -4.81362 0
vn -0.988468 0 -0.151428
vt -4.7488 0
vt -4.7488 1.02362
vt -4.81362 1.02362
f 287/799/135 286/800/134 276/801/134 275/802/135 

v 127.035 0 -103.117
vt -4.65904 0
vn -0.994869 0 -0.101168
vt -4.59421 0
vt -4.59421 1.02362
vt -4.65904 1.02362
f 288/803/136 287/804/135 275/805/135 274/806/136 

vt -5.00137 4.05971
f 284/787/1 287/798/1 288/807/1

v 127.16 0 -104.758
vt -5.00629 4.12435
f 284/787/1 288/807/1 289/808/1

vt -4.49258 0
vn -0.998717 0 -0.0506492
vt -4.42775 0
vt -4.42775 1.02362
vt -4.49258 1.02362
f 289/809/137 288/810/136 274/811/136 272/812/137 

vt -4.31467 0
vt -4.24985 0
vt -4.24985 1.02362
vt -4.31467 1.02362
f 259/813/128 289/814/137 272/815/137 260/816/128 

f 261/752/1 289/808/1 259/751/1

f 284/787/1 289/808/1 261/752/1

vt 3.21943 0
vn -0.382683 0 0.92388
vt 3.2588 0
vt 3.2588 1.02362
vt 3.21943 1.02362
f 284/817/138 261/818/138 271/819/138 273/820/138 

vt 5.13079 0
vn 0.941544 0 0.33689
v 129.151 0 -95.9542
vt 5.26988 0
v 129.151 26 -95.9542
vt 5.26988 1.02362
vt 5.13079 1.02362
f 261/821/139 290/822/139 291/823/139 271/824/139 

vt -5.0847 3.77773
f 261/752/1 262/753/1 290/825/1

vt -3.76914 0
vn 0.290285 0 -0.95694
vt -3.72977 0
vt -3.72977 1.02362
vt -3.76914 1.02362
f 290/826/140 262/827/140 270/828/140 291/829/140 

vt 4.90192 0
vn 0.970031 0 0.24298
v 129.029 0 -99.5763
vt 5.03715 0
vt 5.03715 1.02362
vt 4.90192 1.02362
f 262/830/141 292/831/141 269/832/141 270/833/141 

vt -5.07988 3.92033
f 264/755/1 292/834/1 262/753/1

v 129.533 0 -109.835
vt -5.09972 4.32422
f 292/834/1 264/755/1 293/835/1

vt 3.52913 0
vn 0.989177 0 -0.14673
vt 3.66435 0
vt 3.66435 1.02362
v 129.533 26 -109.835
vt 3.52913 1.02362
f 293/836/142 264/837/142 268/838/142 294/839/142 

vt 5.85198 0
vn 0.19509 0 0.980785
vt 5.89135 0
vt 5.89135 1.02362
vt 5.85198 1.02362
f 264/840/143 265/841/143 267/842/143 268/843/143 

vt 5.11849 4.46566
f 266/766/10 268/765/10 267/844/10

v 129.533 26 -102.974
vt 5.09972 4.05409
vt 5.09972 4.32422
f 295/845/10 294/846/10 268/765/10

v 129.701 26 -106.404
vt 5.10636 4.18915
f 294/846/10 295/845/10 296/847/10

v 129.533 0 -102.974
vt 4.29944 0
vn 0.998795 0 0.0490677
v 129.701 0 -106.404
vt 4.43466 0
vt 4.43466 1.02362
vt 4.29944 1.02362
f 297/848/144 298/849/144 296/850/144 295/851/144 

vt -5.10636 4.18915
vt -5.09972 4.05409
f 293/835/1 298/852/1 297/853/1

v 130.528 0 -109.933
vt -5.1389 4.32807
f 298/852/1 293/835/1 299/854/1

vt -5.53838 0
vn -0.0980171 0 -0.995185
vt -5.49901 0
vt -5.49901 1.02362
v 130.528 26 -109.933
vt -5.53838 1.02362
f 299/855/145 293/856/145 294/857/145 300/858/145 

vt 5.1389 4.32807
f 294/846/10 296/847/10 300/859/10

v 130.701 26 -106.404
vt 5.14573 4.18915
f 300/859/10 296/847/10 301/860/10

vt 5.10636 0
v 130.701 0 -106.404
vt 5.14573 0
vt 5.14573 1.02362
vt 5.10636 1.02362
f 298/861/72 302/862/72 301/863/72 296/864/72 

vt -5.14573 4.18915
f 298/852/1 299/854/1 302/865/1

vt 3.93162 0
vn 0.998795 0 -0.0490677
vt 4.07071 0
vt 4.07071 1.02362
vt 3.93162 1.02362
f 302/866/146 299/867/146 300/868/146 301/869/146 

f 292/834/1 293/835/1 297/853/1

v 130.01 0 -99.3812
vt -5.11849 3.91265
f 292/834/1 297/853/1 303/870/1

v 130.528 0 -102.876
vt -5.1389 4.05023
f 303/870/1 297/853/1 304/871/1

vt -4.71716 0
vn 0.0980171 0 -0.995185
vt -4.67779 0
vt -4.67779 1.02362
v 130.528 26 -102.876
vt -4.71716 1.02362
f 304/872/147 297/873/147 295/874/147 305/875/147 

v 130.01 26 -99.3812
vt 5.11849 3.91265
vt 5.1389 4.05023
f 295/845/10 306/876/10 305/877/10

f 295/845/10 269/767/10 306/876/10

f 269/767/10 295/845/10 268/765/10

vt 4.21745 0
vn -0.19509 0 0.980785
vt 4.25682 0
vt 4.25682 1.02362
vt 4.21745 1.02362
f 292/878/148 303/879/148 306/880/148 269/881/148 

vt 4.62134 0
vn 0.989177 0 0.14673
vt 4.76043 0
vt 4.76043 1.02362
vt 4.62134 1.02362
f 303/882/149 304/883/149 305/884/149 306/885/149 

vt 5.0847 3.77773
f 291/886/10 270/768/10 271/769/10

vt 5.31343 0
vn 0.903989 0 0.427555
vt 5.44866 0
vt 5.44866 1.02362
vt 5.31343 1.02362
f 283/887/150 284/888/150 273/889/150 279/890/150 

v 126.451 0 -89.4342
vt -2.73073 0
vn 0.471397 0 -0.881921
vt -2.69136 0
vt -2.69136 1.02362
v 126.451 26 -89.4342
vt -2.73073 1.02362
f 307/891/151 283/892/151 279/893/151 308/894/151 

v 124.634 0 -86.404
vt -4.90686 3.40173
vt -4.97837 3.52103
f 309/895/1 283/785/1 307/896/1

f 309/895/1 282/786/1 283/785/1

v 124.568 0 -93.5879
vt -4.90424 3.68456
f 309/895/1 310/897/1 282/786/1

v 123.88 0 -92.0917
vt -4.87717 3.62566
f 309/895/1 311/898/1 310/897/1

v 123.803 0 -86.9595
vt -4.87413 3.4236
f 312/899/1 311/898/1 309/895/1

v 123.118 0 -90.6322
vt -4.84715 3.5682
f 312/899/1 313/900/1 311/898/1

v 122.282 0 -89.2132
vt -4.81427 3.51233
f 312/899/1 314/901/1 313/900/1

v 121.757 0 -84.2007
vt -4.79358 3.31499
f 315/902/1 314/901/1 312/899/1

v 121.376 0 -87.8383
vt -4.77859 3.4582
f 314/901/1 315/902/1 316/903/1

v 120.402 0 -86.511
vt -4.74022 3.40595
f 315/902/1 317/904/1 316/903/1

v 120.157 0 -80.9486
vt -4.7306 3.18695
f 318/905/1 317/904/1 315/902/1

v 119.45 0 -81.6557
vt -4.70276 3.21479
f 319/906/1 317/904/1 318/905/1

v 119.361 0 -85.2349
vt -4.69926 3.3557
f 319/906/1 320/907/1 317/904/1

v 118.257 0 -84.0131
vt -4.6558 3.3076
f 319/906/1 321/908/1 320/907/1

v 117.093 0 -82.8487
vt -4.60996 3.26176
f 319/906/1 322/909/1 321/908/1

v 116.905 0 -79.3491
vt -4.60257 3.12398
f 323/910/1 322/909/1 319/906/1

v 115.871 0 -81.7448
vt -4.56185 3.2183
f 322/909/1 323/910/1 324/911/1

v 114.702 0 -76.4716
vt -4.51583 3.01069
f 325/912/1 324/911/1 323/910/1

v 114.595 0 -80.7043
vt -4.51161 3.17733
f 325/912/1 326/913/1 324/911/1

v 114.146 0 -77.303
vt -4.49395 3.04343
f 327/914/1 326/913/1 325/912/1

v 113.268 0 -79.7297
vt -4.45936 3.13896
f 327/914/1 328/915/1 326/913/1

v 111.893 0 -78.8235
vt -4.40523 3.10329
f 327/914/1 329/916/1 328/915/1

v 111.2 0 -75.5372
vt -4.37797 2.97391
f 330/917/1 329/916/1 327/914/1

v 110.474 0 -77.9882
vt -4.34936 3.0704
f 329/916/1 330/917/1 331/918/1

v 109.014 0 -77.2258
vt -4.2919 3.04039
f 330/917/1 332/919/1 331/918/1

v 111.672 0 -74.6553
vt -4.39653 2.93919
f 333/920/1 332/919/1 330/917/1

v 108.478 0 -73.1448
vt -4.27079 2.87972
f 334/921/1 332/919/1 333/920/1

v 108.095 0 -74.0687
vt -4.25572 2.91609
f 335/922/1 332/919/1 334/921/1

v 107.518 0 -76.5384
vt -4.23299 3.01332
f 335/922/1 336/923/1 332/919/1

v 105.989 0 -75.9275
vt -4.17279 2.98927
f 335/922/1 337/924/1 336/923/1

v 104.861 0 -72.9116
vt -4.1284 2.87053
f 338/925/1 337/924/1 335/922/1

v 104.431 0 -75.395
vt -4.11145 2.96831
f 337/924/1 338/925/1 339/926/1

v 102.848 0 -74.942
vt -4.04912 2.95047
f 338/925/1 340/927/1 339/926/1

v 105.152 0 -71.9546
vt -4.13983 2.83286
f 341/928/1 340/927/1 338/925/1

v 101.725 0 -71.0962
vt -4.00491 2.79906
f 342/929/1 340/927/1 341/928/1

v 101.53 0 -72.077
vt -3.99723 2.83768
f 343/930/1 340/927/1 342/929/1

v 101.244 0 -74.5698
vt -3.98597 2.93582
f 343/930/1 344/931/1 340/927/1

v 99.6229 0 -74.2793
vt -3.92216 2.92438
f 343/930/1 345/932/1 344/931/1

v 98.1321 0 -71.573
vt -3.86347 2.81784
f 346/933/1 345/932/1 343/930/1

v 97.9894 0 -74.0712
vt -3.85785 2.91619
f 345/932/1 346/933/1 347/934/1

v 96.3476 0 -73.9462
vt -3.79321 2.91127
f 346/933/1 348/935/1 347/934/1

v 98.2301 0 -70.5778
vt -3.86733 2.77865
f 349/936/1 348/935/1 346/933/1

v 94.7015 0 -70.4045
vt -3.7284 2.77183
f 350/937/1 348/935/1 349/936/1

v 94.7015 0 -71.4045
vt -3.7284 2.8112
f 351/938/1 348/935/1 350/937/1

v 94.7015 0 -73.9045
vt -3.7284 2.90963
f 351/938/1 352/939/1 348/935/1

v 93.0554 0 -73.9462
vt -3.6636 2.91127
f 351/938/1 353/940/1 352/939/1

v 91.4135 0 -74.0712
vt -3.59896 2.91619
f 351/938/1 354/941/1 353/940/1

v 91.2709 0 -71.573
vt -3.59334 2.81784
f 355/942/1 354/941/1 351/938/1

v 91.1728 0 -70.5778
vt -3.58948 2.77865
f 356/943/1 354/941/1 355/942/1

v 89.7801 0 -74.2793
vt -3.53465 2.92438
f 356/943/1 357/944/1 354/941/1

v 88.1593 0 -74.5698
vt -3.47084 2.93582
f 356/943/1 358/945/1 357/944/1

v 87.8733 0 -72.077
vt -3.45958 2.83768
f 356/943/1 359/946/1 358/945/1

v 87.6782 0 -71.0962
vt -3.4519 2.79906
f 359/946/1 356/943/1 360/947/1

vt 3.00383 0
vn -0.14673 0 0.989177
vt 3.14292 0
v 91.1728 26 -70.5778
vt 3.14292 1.02362
v 87.6782 26 -71.0962
vt 3.00383 1.02362
f 360/948/152 356/949/152 361/950/152 362/951/152 

vt 3.11711 0
vn 0.995185 0 0.0980171
vt 3.15648 0
v 91.2709 26 -71.573
vt 3.15648 1.02362
vt 3.11711 1.02362
f 356/952/153 355/953/153 363/954/153 361/955/153 

vt 3.45075 0
vn -0.0490677 0 0.998795
vt 3.58597 0
v 94.7015 26 -71.4045
vt 3.58597 1.02362
vt 3.45075 1.02362
f 355/956/154 351/957/154 364/958/154 363/959/154 

vt -2.8112 0
vt -2.77183 0
v 94.7015 26 -70.4045
vt -2.77183 1.02362
vt -2.8112 1.02362
f 351/960/128 350/961/128 365/962/128 364/963/128 

vt 3.85992 0
vn 0.0490677 0 0.998795
vt 3.99901 0
v 98.2301 26 -70.5778
vt 3.99901 1.02362
vt 3.85992 1.02362
f 350/964/155 349/965/155 366/966/155 365/967/155 

vt 2.38621 0
vn 0.995185 0 -0.0980171
vt 2.42558 0
v 98.1321 26 -71.573
vt 2.42558 1.02362
vt 2.38621 1.02362
f 349/968/156 346/969/156 367/970/156 366/971/156 

vt 4.23511 0
vn 0.14673 0 0.989177
vt 4.37034 0
v 101.53 26 -72.077
vt 4.37034 1.02362
vt 4.23511 1.02362
f 346/972/157 343/973/157 368/974/157 367/975/157 

vt -2.00333 0
vn -0.980785 0 0.19509
vt -1.96396 0
v 101.725 26 -71.0962
vt -1.96396 1.02362
vt -2.00333 1.02362
f 343/976/158 342/977/158 369/978/158 368/979/158 

vt 4.565 0
vn 0.24298 0 0.970031
vt 4.70409 0
v 105.152 26 -71.9546
vt 4.70409 1.02362
vt 4.565 1.02362
f 342/980/159 341/981/159 370/982/159 369/983/159 

vt 1.50915 0
vn 0.95694 0 -0.290285
vt 1.54852 0
v 104.861 26 -72.9116
vt 1.54852 1.02362
vt 1.50915 1.02362
f 341/984/160 338/985/160 371/986/160 370/987/160 

vt 4.85413 0
vn 0.33689 0 0.941544
vt 4.98935 0
v 108.095 26 -74.0687
vt 4.98935 1.02362
vt 4.85413 1.02362
f 338/988/161 335/989/161 372/990/161 371/991/161 

vt -1.06552 0
vn -0.92388 0 0.382683
vt -1.02615 0
v 108.478 26 -73.1448
vt -1.02615 1.02362
vt -1.06552 1.02362
f 335/992/162 334/993/162 373/994/162 372/995/162 

vt 5.09199 0
vn 0.427555 0 0.903989
vt 5.23108 0
v 111.672 26 -74.6553
vt 5.23108 1.02362
vt 5.09199 1.02362
f 334/996/163 333/997/163 374/998/163 373/999/163 

vt 0.519623 0
vn 0.881921 0 -0.471397
vt 0.558993 0
v 111.2 26 -75.5372
vt 0.558993 1.02362
vt 0.519623 1.02362
f 333/1000/164 330/1001/164 375/1002/164 374/1003/164 

vt 5.284 0
vn 0.514103 0 0.857729
vt 5.41923 0
v 114.146 26 -77.303
vt 5.41923 1.02362
vt 5.284 1.02362
f 330/1004/165 327/1005/165 376/1006/165 375/1007/165 

vt -0.0338102 0
vn -0.83147 0 0.55557
vt 0.00555985 0
v 114.702 26 -76.4716
vt 0.00555985 1.02362
vt -0.0338102 1.02362
f 327/1008/166 325/1009/166 377/1010/166 376/1011/166 

vt 5.42061 0
vn 0.595699 0 0.803208
v 117.54 0 -78.5761
vt 5.5597 0
v 117.54 26 -78.5761
vt 5.5597 1.02362
vt 5.42061 1.02362
f 325/1012/167 378/1013/167 379/1014/167 377/1015/167 

vt -4.62754 3.09355
f 325/912/1 323/910/1 378/1016/1

vt -0.544338 0
vn 0.77301 0 -0.634393
vt -0.504968 0
v 116.905 26 -79.3491
vt -0.504968 1.02362
vt -0.544338 1.02362
f 378/1017/168 323/1018/168 380/1019/168 379/1020/168 

vt 5.50822 0
vn 0.671559 0 0.740951
vt 5.64344 0
v 119.45 26 -81.6557
vt 5.64344 1.02362
vt 5.50822 1.02362
f 323/1021/169 319/1022/169 381/1023/169 380/1024/169 

vt 1.05215 0
vn -0.707107 0 0.707107
vt 1.09152 0
v 120.157 26 -80.9486
vt 1.09152 1.02362
vt 1.05215 1.02362
f 319/1025/170 318/1026/170 382/1027/170 381/1028/170 

vt 5.53826 0
vn 0.740951 0 0.671559
v 122.53 0 -83.5663
vt 5.67735 0
v 122.53 26 -83.5663
vt 5.67735 1.02362
vt 5.53826 1.02362
f 318/1029/171 383/1030/171 384/1031/171 382/1032/171 

vt -4.82401 3.29001
f 318/905/1 315/902/1 383/1033/1

vt -1.64185 0
vn 0.634393 0 -0.77301
vt -1.60248 0
v 121.757 26 -84.2007
vt -1.60248 1.02362
vt -1.64185 1.02362
f 383/1034/172 315/1035/172 385/1036/172 384/1037/172 

vt 5.51815 0
vn 0.803208 0 0.595699
vt 5.65338 0
v 123.803 26 -86.9595
vt 5.65338 1.02362
vt 5.51815 1.02362
f 315/1038/173 312/1039/173 386/1040/173 385/1041/173 

vt 2.15064 0
vn -0.55557 0 0.83147
vt 2.19001 0
v 124.634 26 -86.404
vt 2.19001 1.02362
vt 2.15064 1.02362
f 312/1042/174 309/1043/174 387/1044/174 386/1045/174 

vt 5.44039 0
vn 0.857729 0 0.514103
vt 5.57948 0
vt 5.57948 1.02362
vt 5.44039 1.02362
f 309/1046/175 307/1047/175 308/1048/175 387/1049/175 

vt 4.90686 3.40173
vt 4.97837 3.52103
f 279/778/10 387/1050/10 308/1051/10

f 280/779/10 387/1050/10 279/778/10

v 124.568 26 -93.5879
vt 4.90424 3.68456
f 388/1052/10 387/1050/10 280/779/10

v 123.88 26 -92.0917
vt 4.87717 3.62566
f 389/1053/10 387/1050/10 388/1052/10

vt 4.87413 3.4236
f 389/1053/10 386/1054/10 387/1050/10

v 123.118 26 -90.6322
vt 4.84715 3.5682
f 390/1055/10 386/1054/10 389/1053/10

v 122.282 26 -89.2132
vt 4.81427 3.51233
f 391/1056/10 386/1054/10 390/1055/10

vt 4.79358 3.31499
f 391/1056/10 385/1057/10 386/1054/10

v 121.376 26 -87.8383
vt 4.77859 3.4582
f 385/1057/10 391/1056/10 392/1058/10

vt -5.58195 0
vn -0.848644 0 -0.528964
vt -5.51712 0
vn -0.820763 0 -0.571268
vt -5.51712 1.02362
vt -5.58195 1.02362
f 314/1059/176 316/1060/177 392/1061/177 391/1062/176 

vt -5.61575 0
vt -5.55092 0
vn -0.790776 0 -0.612106
v 120.402 26 -86.511
vt -5.55092 1.02362
vt -5.61575 1.02362
f 316/1063/177 317/1064/178 393/1065/178 392/1066/177 

vt -5.63521 0
vt -5.57038 0
vn -0.758758 0 -0.651372
v 119.361 26 -85.2349
vt -5.57038 1.02362
vt -5.63521 1.02362
f 317/1067/178 320/1068/179 394/1069/179 393/1070/178 

vt -5.64029 0
vt -5.57546 0
vn -0.724793 0 -0.688967
v 118.257 26 -84.0131
vt -5.57546 1.02362
vt -5.64029 1.02362
f 320/1071/179 321/1072/180 395/1073/180 394/1074/179 

vt -5.63097 0
vt -5.56614 0
vn -0.688967 0 -0.724793
v 117.093 26 -82.8487
vt -5.56614 1.02362
vt -5.63097 1.02362
f 321/1075/180 322/1076/181 396/1077/181 395/1078/180 

vt -5.60728 0
vt -5.54246 0
vn -0.651372 0 -0.758758
v 115.871 26 -81.7448
vt -5.54246 1.02362
vt -5.60728 1.02362
f 322/1079/181 324/1080/182 397/1081/182 396/1082/181 

vt -5.56929 0
vt -5.50446 0
vn -0.612106 0 -0.790776
v 114.595 26 -80.7043
vt -5.50446 1.02362
vt -5.56929 1.02362
f 324/1083/182 326/1084/183 398/1085/183 397/1086/182 

vt -5.51708 0
vt -5.45225 0
vn -0.571268 0 -0.820763
v 113.268 26 -79.7297
vt -5.45225 1.02362
vt -5.51708 1.02362
f 326/1087/183 328/1088/184 399/1089/184 398/1090/183 

vt -5.45079 0
vt -5.38596 0
vn -0.528964 0 -0.848644
v 111.893 26 -78.8235
vt -5.38596 1.02362
vt -5.45079 1.02362
f 328/1091/184 329/1092/185 400/1093/185 399/1094/184 

vt -5.37059 0
vt -5.30576 0
vn -0.485302 0 -0.874347
v 110.474 26 -77.9882
vt -5.30576 1.02362
vt -5.37059 1.02362
f 329/1095/185 331/1096/186 401/1097/186 400/1098/185 

vt -5.27669 0
vt -5.21186 0
vn -0.440394 0 -0.897805
v 109.014 26 -77.2258
vt -5.21186 1.02362
vt -5.27669 1.02362
f 331/1099/186 332/1100/187 402/1101/187 401/1102/186 

vt -5.16932 0
vt -5.10449 0
vn -0.394356 0 -0.918958
v 107.518 26 -76.5384
vt -5.10449 1.02362
vt -5.16932 1.02362
f 332/1103/187 336/1104/188 403/1105/188 402/1106/187 

vt -5.04877 0
vt -4.98394 0
vn -0.347305 0 -0.937752
v 105.989 26 -75.9275
vt -4.98394 1.02362
vt -5.04877 1.02362
f 336/1107/188 337/1108/189 404/1109/189 403/1110/188 

vt -4.91535 0
vt -4.85052 0
vn -0.299363 0 -0.954139
v 104.431 26 -75.395
vt -4.85052 1.02362
vt -4.91535 1.02362
f 337/1111/189 339/1112/190 405/1113/190 404/1114/189 

vt -4.76938 0
vt -4.70456 0
vn -0.250653 0 -0.968077
v 102.848 26 -74.942
vt -4.70456 1.02362
vt -4.76938 1.02362
f 339/1115/190 340/1116/191 406/1117/191 405/1118/190 

vt -4.61126 0
vt -4.54643 0
vn -0.201299 0 -0.97953
v 101.244 26 -74.5698
vt -4.54643 1.02362
vt -4.61126 1.02362
f 340/1119/191 344/1120/192 407/1121/192 406/1122/191 

vt -4.44139 0
vt -4.37656 0
vn -0.151428 0 -0.988468
v 99.6229 26 -74.2793
vt -4.37656 1.02362
vt -4.44139 1.02362
f 344/1123/192 345/1124/193 408/1125/193 407/1126/192 

vt -4.26019 0
vt -4.19537 0
vn -0.101168 0 -0.994869
v 97.9894 26 -74.0712
vt -4.19537 1.02362
vt -4.26019 1.02362
f 345/1127/193 347/1128/194 409/1129/194 408/1130/193 

vt -4.06815 0
vt -4.00332 0
vn -0.0506492 0 -0.998717
v 96.3476 26 -73.9462
vt -4.00332 1.02362
vt -4.06815 1.02362
f 347/1131/194 348/1132/195 410/1133/195 409/1134/194 

vt -3.86574 0
vt -3.80092 0
vn 8.6764e-017 0 -1
v 94.7015 26 -73.9045
vt -3.80092 1.02362
vt -3.86574 1.02362
f 348/1135/195 352/1136/196 411/1137/196 410/1138/195 

vt -3.6535 0
vt -3.58867 0
vn 0.0506492 0 -0.998717
v 93.0554 26 -73.9462
vt -3.58867 1.02362
vt -3.6535 1.02362
f 352/1139/196 353/1140/197 412/1141/197 411/1142/196 

vt -3.43196 0
vt -3.36713 0
vn 0.101168 0 -0.994869
v 91.4135 26 -74.0712
vt -3.36713 1.02362
vt -3.43196 1.02362
f 353/1143/197 354/1144/198 413/1145/198 412/1146/197 

vt -3.20169 0
vt -3.13686 0
vn 0.151428 0 -0.988468
v 89.7801 26 -74.2793
vt -3.13686 1.02362
vt -3.20169 1.02362
f 354/1147/198 357/1148/199 414/1149/199 413/1150/198 

vt -2.96329 0
vt -2.89846 0
vn 0.201299 0 -0.97953
v 88.1593 26 -74.5698
vt -2.89846 1.02362
vt -2.96329 1.02362
f 357/1151/199 358/1152/200 415/1153/200 414/1154/199 

vt -2.71736 0
v 86.5553 0 -74.942
vt -2.65253 0
vn 0.250653 0 -0.968077
v 86.5553 26 -74.942
vt -2.65253 1.02362
vt -2.71736 1.02362
f 358/1155/200 416/1156/201 417/1157/201 415/1158/200 

vt -3.40769 2.95047
f 359/946/1 416/1159/1 358/945/1

v 84.9722 0 -75.395
vt -3.34536 2.96831
f 359/946/1 418/1160/1 416/1159/1

v 84.5415 0 -72.9116
vt -3.32841 2.87053
f 419/1161/1 418/1160/1 359/946/1

v 84.2512 0 -71.9546
vt -3.31698 2.83286
f 420/1162/1 418/1160/1 419/1161/1

v 83.414 0 -75.9275
vt -3.28402 2.98927
f 420/1162/1 421/1163/1 418/1160/1

v 81.8849 0 -76.5384
vt -3.22381 3.01332
f 420/1162/1 422/1164/1 421/1163/1

v 81.3075 0 -74.0687
vt -3.20108 2.91609
f 420/1162/1 423/1165/1 422/1164/1

v 80.9249 0 -73.1448
vt -3.18602 2.87972
f 423/1165/1 420/1162/1 424/1166/1

vt 2.02963 0
vn -0.33689 0 0.941544
vt 2.16872 0
v 84.2512 26 -71.9546
vt 2.16872 1.02362
v 80.9249 26 -73.1448
vt 2.02963 1.02362
f 424/1167/202 420/1168/202 425/1169/202 426/1170/202 

vt 3.67375 0
vn 0.95694 0 0.290285
vt 3.71312 0
v 84.5415 26 -72.9116
vt 3.71312 1.02362
vt 3.67375 1.02362
f 420/1171/203 419/1172/203 427/1173/203 425/1174/203 

vt 2.53117 0
vn -0.24298 0 0.970031
vt 2.6664 0
v 87.8733 26 -72.077
vt 2.6664 1.02362
vt 2.53117 1.02362
f 419/1175/204 359/1176/204 428/1177/204 427/1178/204 

vt -3.45808 0
vn -0.980785 0 -0.19509
vt -3.41871 0
vt -3.41871 1.02362
vt -3.45808 1.02362
f 359/1179/205 360/1180/205 362/1181/205 428/1182/205 

vt 3.58948 2.77865
vt 3.45958 2.83768
vt 3.4519 2.79906
f 361/1183/10 428/1184/10 362/1185/10

vt 3.47084 2.93582
f 428/1184/10 361/1183/10 415/1186/10

vt 3.53465 2.92438
f 415/1186/10 361/1183/10 414/1187/10

vt 3.59896 2.91619
f 414/1187/10 361/1183/10 413/1188/10

vt 3.59334 2.81784
f 413/1188/10 361/1183/10 363/1189/10

vt 3.7284 2.8112
f 413/1188/10 363/1189/10 364/1190/10

vt 3.6636 2.91127
f 413/1188/10 364/1190/10 412/1191/10

vt 3.7284 2.90963
f 412/1191/10 364/1190/10 411/1192/10

vt 3.86733 2.77865
f 364/1190/10 366/1193/10 411/1192/10

vt 3.7284 2.77183
f 366/1193/10 364/1190/10 365/1194/10

vt 3.79321 2.91127
f 411/1192/10 366/1193/10 410/1195/10

vt 3.86347 2.81784
f 410/1195/10 366/1193/10 367/1196/10

vt 3.85785 2.91619
f 410/1195/10 367/1196/10 409/1197/10

vt 3.92216 2.92438
f 367/1196/10 408/1198/10 409/1197/10

vt 3.99723 2.83768
f 408/1198/10 367/1196/10 368/1199/10

vt 3.98597 2.93582
f 408/1198/10 368/1199/10 407/1200/10

vt 4.04912 2.95047
f 407/1200/10 368/1199/10 406/1201/10

vt 4.00491 2.79906
f 406/1201/10 368/1199/10 369/1202/10

vt 4.13983 2.83286
f 406/1201/10 369/1202/10 370/1203/10

vt 4.1284 2.87053
f 406/1201/10 370/1203/10 371/1204/10

vt 4.11145 2.96831
f 406/1201/10 371/1204/10 405/1205/10

vt 4.17279 2.98927
f 371/1204/10 404/1206/10 405/1205/10

vt 4.25572 2.91609
f 404/1206/10 371/1204/10 372/1207/10

vt 4.23299 3.01332
f 404/1206/10 372/1207/10 403/1208/10

vt 4.2919 3.04039
f 403/1208/10 372/1207/10 402/1209/10

vt 4.27079 2.87972
f 402/1209/10 372/1207/10 373/1210/10

vt 4.39653 2.93919
f 402/1209/10 373/1210/10 374/1211/10

vt 4.37797 2.97391
f 402/1209/10 374/1211/10 375/1212/10

vt 4.34936 3.0704
f 402/1209/10 375/1212/10 401/1213/10

vt 4.40523 3.10329
f 375/1212/10 400/1214/10 401/1213/10

vt 4.49395 3.04343
f 400/1214/10 375/1212/10 376/1215/10

vt 4.45936 3.13896
f 400/1214/10 376/1215/10 399/1216/10

vt 4.51161 3.17733
f 399/1216/10 376/1215/10 398/1217/10

vt 4.51583 3.01069
f 398/1217/10 376/1215/10 377/1218/10

vt 4.56185 3.2183
f 398/1217/10 377/1218/10 397/1219/10

vt 4.60257 3.12398
f 397/1219/10 377/1218/10 380/1220/10

vt 4.62754 3.09355
f 380/1220/10 377/1218/10 379/1221/10

vt 4.60996 3.26176
f 380/1220/10 396/1222/10 397/1219/10

vt 4.70276 3.21479
f 396/1222/10 380/1220/10 381/1223/10

vt 4.6558 3.3076
f 396/1222/10 381/1223/10 395/1224/10

vt 4.69926 3.3557
f 395/1224/10 381/1223/10 394/1225/10

vt 4.74022 3.40595
f 394/1225/10 381/1223/10 393/1226/10

vt 4.7306 3.18695
f 393/1226/10 381/1223/10 382/1227/10

f 393/1226/10 382/1227/10 385/1057/10

vt 4.82401 3.29001
f 385/1057/10 382/1227/10 384/1228/10

f 393/1226/10 385/1057/10 392/1058/10

vt 3.40769 2.95047
f 417/1229/10 428/1184/10 415/1186/10

v 84.9722 26 -75.395
vt 3.34536 2.96831
f 429/1230/10 428/1184/10 417/1229/10

vt 3.32841 2.87053
f 429/1230/10 427/1231/10 428/1184/10

vt 3.31698 2.83286
f 429/1230/10 425/1232/10 427/1231/10

v 83.414 26 -75.9275
vt 3.28402 2.98927
f 430/1233/10 425/1232/10 429/1230/10

v 81.8849 26 -76.5384
vt 3.22381 3.01332
f 431/1234/10 425/1232/10 430/1233/10

v 81.3075 26 -74.0687
vt 3.20108 2.91609
f 432/1235/10 425/1232/10 431/1234/10

vt 3.18602 2.87972
f 425/1232/10 432/1235/10 426/1236/10

vt -3.91912 0
vn -0.92388 0 -0.382683
vt -3.87975 0
vt -3.87975 1.02362
vt -3.91912 1.02362
f 423/1237/206 424/1238/206 426/1239/206 432/1240/206 

v 78.2026 0 -75.5372
vt 1.51173 0
vn -0.427555 0 0.903989
vt 1.64696 0
vt 1.64696 1.02362
v 78.2026 26 -75.5372
vt 1.51173 1.02362
f 433/1241/207 423/1242/207 432/1243/207 434/1244/207 

vt -3.07884 2.97391
v 78.9291 0 -77.9882
vt -3.10745 3.0704
f 433/1245/1 435/1246/1 423/1165/1

v 77.7312 0 -74.6553
vt -3.06028 2.93919
f 436/1247/1 435/1246/1 433/1245/1

v 77.5101 0 -78.8235
vt -3.05158 3.10329
f 436/1247/1 437/1248/1 435/1246/1

v 76.1352 0 -79.7297
vt -2.99745 3.13896
f 436/1247/1 438/1249/1 437/1248/1

v 75.2565 0 -77.303
vt -2.96285 3.04343
f 436/1247/1 439/1250/1 438/1249/1

v 74.7009 0 -76.4716
vt -2.94098 3.01069
f 439/1250/1 436/1247/1 440/1251/1

vt 0.974759 0
vn -0.514103 0 0.857729
vt 1.11385 0
v 77.7312 26 -74.6553
vt 1.11385 1.02362
v 74.7009 26 -76.4716
vt 0.974759 1.02362
f 440/1252/208 436/1253/208 441/1254/208 442/1255/208 

vt 4.03474 0
vn 0.881921 0 0.471397
vt 4.07411 0
vt 4.07411 1.02362
vt 4.03474 1.02362
f 436/1256/209 433/1257/209 434/1258/209 441/1259/209 

v 78.9291 26 -77.9882
vt 3.10745 3.0704
vt 3.06028 2.93919
vt 3.07884 2.97391
f 443/1260/10 441/1261/10 434/1262/10

v 77.5101 26 -78.8235
vt 3.05158 3.10329
f 444/1263/10 441/1261/10 443/1260/10

v 76.1352 26 -79.7297
vt 2.99745 3.13896
f 445/1264/10 441/1261/10 444/1263/10

v 75.2565 26 -77.303
vt 2.96285 3.04343
f 446/1265/10 441/1261/10 445/1264/10

vt 2.94098 3.01069
f 441/1261/10 446/1265/10 442/1266/10

vt -4.17659 0
vn -0.83147 0 -0.55557
vt -4.13722 0
vt -4.13722 1.02362
vt -4.17659 1.02362
f 439/1267/210 440/1268/210 442/1269/210 446/1270/210 

v 72.4977 0 -79.3491
vt 0.431594 0
vn -0.595699 0 0.803208
vt 0.56682 0
vt 0.56682 1.02362
v 72.4977 26 -79.3491
vt 0.431594 1.02362
f 447/1271/211 439/1272/211 446/1273/211 448/1274/211 

vt -2.85424 3.12398
v 73.5319 0 -81.7448
vt -2.89495 3.2183
f 447/1275/1 449/1276/1 439/1250/1

v 72.31 0 -82.8487
vt -2.84685 3.26176
f 447/1275/1 450/1277/1 449/1276/1

v 71.8633 0 -78.5761
vt -2.82926 3.09355
f 451/1278/1 450/1277/1 447/1275/1

v 71.1457 0 -84.0131
vt -2.80101 3.3076
f 451/1278/1 452/1279/1 450/1277/1

v 70.0418 0 -85.2349
vt -2.75755 3.3557
f 451/1278/1 453/1280/1 452/1279/1

v 69.9527 0 -81.6557
vt -2.75404 3.21479
f 451/1278/1 454/1281/1 453/1280/1

v 69.2456 0 -80.9486
vt -2.72621 3.18695
f 454/1281/1 451/1278/1 455/1282/1

vt -0.120243 0
vn -0.671559 0 0.740951
vt 0.0188468 0
v 71.8633 26 -78.5761
vt 0.0188468 1.02362
v 69.2456 26 -80.9486
vt -0.120243 1.02362
f 455/1283/212 451/1284/212 456/1285/212 457/1286/212 

vt 4.18621 0
vn 0.77301 0 0.634393
vt 4.22558 0
vt 4.22558 1.02362
vt 4.18621 1.02362
f 451/1287/213 447/1288/213 448/1289/213 456/1290/213 

v 72.31 26 -82.8487
vt 2.84685 3.26176
vt 2.82926 3.09355
vt 2.85424 3.12398
f 458/1291/10 456/1292/10 448/1293/10

v 71.1457 26 -84.0131
vt 2.80101 3.3076
f 459/1294/10 456/1292/10 458/1291/10

v 70.0418 26 -85.2349
vt 2.75755 3.3557
f 460/1295/10 456/1292/10 459/1294/10

v 69.9527 26 -81.6557
vt 2.75404 3.21479
f 461/1296/10 456/1292/10 460/1295/10

vt 2.72621 3.18695
f 456/1292/10 461/1296/10 457/1297/10

vt -4.22061 0
vn -0.707107 0 -0.707107
vt -4.18124 0
vt -4.18124 1.02362
vt -4.22061 1.02362
f 454/1298/214 455/1299/214 457/1300/214 461/1301/214 

v 67.6461 0 -84.2007
vt -0.667727 0
vn -0.740951 0 0.671559
vt -0.532501 0
vt -0.532501 1.02362
v 67.6461 26 -84.2007
vt -0.667727 1.02362
f 462/1302/215 454/1303/215 461/1304/215 463/1305/215 

vt -2.66323 3.31499
v 68.0267 0 -87.8383
vt -2.67821 3.4582
f 462/1306/1 464/1307/1 454/1281/1

v 67.1205 0 -89.2132
vt -2.64254 3.51233
f 462/1306/1 465/1308/1 464/1307/1

v 66.8731 0 -83.5663
vt -2.6328 3.29001
f 466/1309/1 465/1308/1 462/1306/1

v 66.2852 0 -90.6322
vt -2.60965 3.5682
f 466/1309/1 467/1310/1 465/1308/1

v 65.6 0 -86.9595
vt -2.58268 3.4236
f 466/1309/1 468/1311/1 467/1310/1

v 64.7686 0 -86.404
vt -2.54994 3.40173
f 468/1311/1 466/1309/1 469/1312/1

vt -1.2133 0
vn -0.803208 0 0.595699
vt -1.07421 0
v 66.8731 26 -83.5663
vt -1.07421 1.02362
v 64.7686 26 -86.404
vt -1.2133 1.02362
f 469/1313/216 466/1314/216 470/1315/216 471/1316/216 

vt 4.12234 0
vn 0.634393 0 0.77301
vt 4.16171 0
vt 4.16171 1.02362
vt 4.12234 1.02362
f 466/1317/217 462/1318/217 463/1319/217 470/1320/217 

v 67.1205 26 -89.2132
vt 2.64254 3.51233
vt 2.6328 3.29001
vt 2.66323 3.31499
f 472/1321/10 470/1322/10 463/1323/10

v 66.2852 26 -90.6322
vt 2.60965 3.5682
f 473/1324/10 470/1322/10 472/1321/10

v 65.6 26 -86.9595
vt 2.58268 3.4236
f 474/1325/10 470/1322/10 473/1324/10

vt 2.54994 3.40173
f 470/1322/10 474/1325/10 471/1326/10

vt -4.04947 0
vn -0.55557 0 -0.83147
vt -4.0101 0
vt -4.0101 1.02362
vt -4.04947 1.02362
f 468/1327/218 469/1328/218 471/1329/218 474/1330/218 

v 63.8342 0 -89.9056
vt -1.74399 0
vn -0.857729 0 0.514103
vt -1.60876 0
vt -1.60876 1.02362
v 63.8342 26 -89.9056
vt -1.74399 1.02362
f 475/1331/219 468/1332/219 474/1333/219 476/1334/219 

vt -2.51316 3.53959
v 64.2245 0 -95.1171
vt -2.52852 3.74477
f 475/1335/1 477/1336/1 468/1311/1

v 63.6919 0 -96.6752
vt -2.50756 3.80611
f 475/1335/1 478/1337/1 477/1336/1

v 63.239 0 -98.2583
vt -2.48972 3.86844
f 475/1335/1 479/1338/1 478/1337/1

v 62.9523 0 -89.4342
vt -2.47844 3.52103
f 480/1339/1 479/1338/1 475/1335/1

v 62.8667 0 -99.8623
vt -2.47507 3.93159
f 480/1339/1 481/1340/1 479/1338/1

v 62.5762 0 -101.483
vt -2.46363 3.9954
f 480/1339/1 482/1341/1 481/1340/1

v 62.3682 0 -103.117
vt -2.45544 4.05971
f 480/1339/1 483/1342/1 482/1341/1

f 480/1339/1 42/91/1 483/1342/1

v 61.4418 0 -92.6279
vt -2.41897 3.64677
f 42/91/1 480/1339/1 484/1343/1

vt -2.2624 0
vn -0.903989 0 0.427555
vt -2.12331 0
v 62.9523 26 -89.4342
vt -2.12331 1.02362
v 61.4418 26 -92.6279
vt -2.2624 1.02362
f 484/1344/220 480/1345/220 485/1346/220 486/1347/220 

vt 3.84559 0
vn 0.471397 0 0.881921
vt 3.88496 0
vt 3.88496 1.02362
vt 3.84559 1.02362
f 480/1348/221 475/1349/221 476/1350/221 485/1351/221 

v 63.239 26 -98.2583
vt 2.48972 3.86844
vt 2.47844 3.52103
vt 2.51316 3.53959
f 487/1352/10 485/1353/10 476/1354/10

v 62.8667 26 -99.8623
vt 2.47507 3.93159
f 488/1355/10 485/1353/10 487/1352/10

v 62.5762 26 -101.483
vt 2.46363 3.9954
f 489/1356/10 485/1353/10 488/1355/10

v 62.3682 26 -103.117
vt 2.45544 4.05971
f 490/1357/10 485/1353/10 489/1356/10

f 41/86/10 485/1353/10 490/1357/10

vt 2.41897 3.64677
f 485/1353/10 41/86/10 486/1358/10

vt -3.66976 0
vn -0.382683 0 -0.92388
vt -3.63039 0
vt -3.63039 1.02362
vt -3.66976 1.02362
f 42/1359/222 484/1360/222 486/1361/222 41/1362/222 

vt 2.45052 4.12435
f 44/1363/10 41/86/10 490/1357/10

f 40/85/10 41/86/10 44/1363/10

vt 3.86154 0
vn 0.994869 0 -0.101168
vt 3.92636 0
vt 3.92636 1.02362
vt 3.86154 1.02362
f 483/1364/223 43/1365/17 44/1366/17 490/1367/223 

f 42/91/1 43/92/1 483/1342/1

vt 3.65213 0
vn 0.988468 0 -0.151428
vt 3.71696 0
vt 3.71696 1.02362
vt 3.65213 1.02362
f 482/1368/224 483/1369/223 490/1370/223 489/1371/224 

vt 3.43327 0
vn 0.97953 0 -0.201299
vt 3.4981 0
vt 3.4981 1.02362
vt 3.43327 1.02362
f 481/1372/225 482/1373/224 489/1374/224 488/1375/225 

vt 3.20551 0
vn 0.968077 0 -0.250653
vt 3.27034 0
vt 3.27034 1.02362
vt 3.20551 1.02362
f 479/1376/226 481/1377/225 488/1378/225 487/1379/226 

vt 2.96944 0
vn 0.954139 0 -0.299363
vt 3.03427 0
vt 3.03427 1.02362
v 63.6919 26 -96.6752
vt 2.96944 1.02362
f 478/1380/227 479/1381/226 487/1382/226 491/1383/227 

vt 2.50756 3.80611
f 487/1352/10 476/1354/10 491/1384/10

v 64.2245 26 -95.1171
vt 2.52852 3.74477
f 491/1384/10 476/1354/10 492/1385/10

f 492/1385/10 476/1354/10 474/1325/10

v 64.8353 26 -93.5879
vt 2.55257 3.68456
f 492/1385/10 474/1325/10 493/1386/10

v 65.5228 26 -92.0917
vt 2.57964 3.62566
f 493/1386/10 474/1325/10 494/1387/10

f 494/1387/10 474/1325/10 473/1324/10

vt 1.95445 0
vn 0.874347 0 -0.485302
v 65.5228 0 -92.0917
vt 2.01927 0
vn 0.897805 0 -0.440394
vt 2.01927 1.02362
vt 1.95445 1.02362
f 467/1388/228 495/1389/229 494/1390/229 473/1391/228 

vt -2.57964 3.62566
f 468/1311/1 495/1392/1 467/1310/1

v 64.8353 0 -93.5879
vt -2.55257 3.68456
f 468/1311/1 496/1393/1 495/1392/1

f 468/1311/1 477/1336/1 496/1393/1

vt 2.47481 0
vn 0.918958 0 -0.394356
vt 2.53963 0
vn 0.937752 0 -0.347305
vt 2.53963 1.02362
vt 2.47481 1.02362
f 496/1394/230 477/1395/231 492/1396/231 493/1397/230 

vt 2.72566 0
vt 2.79049 0
vt 2.79049 1.02362
vt 2.72566 1.02362
f 477/1398/231 478/1399/227 491/1400/227 492/1401/231 

vt 2.21751 0
vt 2.28234 0
vt 2.28234 1.02362
vt 2.21751 1.02362
f 495/1402/229 496/1403/230 493/1404/230 494/1405/229 

vt 1.68628 0
vn 0.848644 0 -0.528964
vt 1.7511 0
vt 1.7511 1.02362
vt 1.68628 1.02362
f 465/1406/232 467/1407/228 473/1408/228 472/1409/232 

vt 1.4137 0
vn 0.820763 0 -0.571268
vt 1.47852 0
vt 1.47852 1.02362
v 68.0267 26 -87.8383
vt 1.4137 1.02362
f 464/1410/233 465/1411/232 472/1412/232 497/1413/233 

vt 2.67821 3.4582
f 472/1321/10 463/1323/10 497/1414/10

f 497/1414/10 463/1323/10 461/1296/10

v 69.0013 26 -86.511
vt 2.71658 3.40595
f 497/1414/10 461/1296/10 498/1415/10

f 498/1415/10 461/1296/10 460/1295/10

vt 0.85811 0
vn 0.758758 0 -0.651372
v 69.0013 0 -86.511
vt 0.922938 0
vn 0.790776 0 -0.612106
vt 0.922938 1.02362
vt 0.85811 1.02362
f 453/1416/234 499/1417/235 498/1418/235 460/1419/234 

vt -2.71658 3.40595
f 454/1281/1 499/1420/1 453/1280/1

f 454/1281/1 464/1307/1 499/1420/1

vt 1.1374 0
vt 1.20223 0
vt 1.20223 1.02362
vt 1.1374 1.02362
f 499/1421/235 464/1422/233 497/1423/233 498/1424/235 

vt 0.576529 0
vn 0.724793 0 -0.688967
vt 0.641357 0
vt 0.641357 1.02362
vt 0.576529 1.02362
f 452/1425/236 453/1426/234 460/1427/234 459/1428/236 

vt 0.293385 0
vn 0.688967 0 -0.724793
vt 0.358213 0
vt 0.358213 1.02362
vt 0.293385 1.02362
f 450/1429/237 452/1430/236 459/1431/236 458/1432/237 

vt 0.00940423 0
vn 0.651372 0 -0.758758
vt 0.074232 0
vt 0.074232 1.02362
v 73.5319 26 -81.7448
vt 0.00940423 1.02362
f 449/1433/238 450/1434/237 458/1435/237 500/1436/238 

vt 2.89495 3.2183
f 458/1291/10 448/1293/10 500/1437/10

f 500/1437/10 448/1293/10 446/1265/10

v 74.808 26 -80.7043
vt 2.9452 3.17733
f 500/1437/10 446/1265/10 501/1438/10

f 501/1438/10 446/1265/10 445/1264/10

vt -0.55815 0
vn 0.571268 0 -0.820763
v 74.808 0 -80.7043
vt -0.493322 0
vn 0.612106 0 -0.790776
vt -0.493322 1.02362
vt -0.55815 1.02362
f 438/1439/239 502/1440/240 501/1441/240 445/1442/239 

vt -2.9452 3.17733
f 439/1250/1 502/1443/1 438/1249/1

f 439/1250/1 449/1276/1 502/1443/1

vt -0.274684 0
vt -0.209856 0
vt -0.209856 1.02362
vt -0.274684 1.02362
f 502/1444/240 449/1445/238 500/1446/238 501/1447/240 

vt -0.840266 0
vn 0.528964 0 -0.848644
vt -0.775438 0
vt -0.775438 1.02362
vt -0.840266 1.02362
f 437/1448/241 438/1449/239 445/1450/239 444/1451/241 

vt -1.12031 0
vn 0.485302 0 -0.874347
vt -1.05548 0
vt -1.05548 1.02362
vt -1.12031 1.02362
f 435/1452/242 437/1453/241 444/1454/241 443/1455/242 

v 80.3887 0 -77.2258
vt -1.39756 0
vn 0.440394 0 -0.897805
vt -1.33273 0
vt -1.33273 1.02362
v 80.3887 26 -77.2258
vt -1.39756 1.02362
f 503/1456/243 435/1457/242 443/1458/242 504/1459/243 

vt -3.16491 3.04039
f 423/1165/1 435/1246/1 503/1460/1

f 423/1165/1 503/1460/1 422/1164/1

vt -1.6713 0
vn 0.394356 0 -0.918958
vt -1.60648 0
vt -1.60648 1.02362
vt -1.6713 1.02362
f 422/1461/244 503/1462/243 504/1463/243 431/1464/244 

vt 3.16491 3.04039
f 504/1465/10 432/1235/10 431/1234/10

f 443/1260/10 432/1235/10 504/1465/10

f 443/1260/10 434/1262/10 432/1235/10

vt -1.94084 0
vn 0.347305 0 -0.937752
vt -1.87602 0
vt -1.87602 1.02362
vt -1.94084 1.02362
f 421/1466/245 422/1467/244 431/1468/244 430/1469/245 

vt -2.20548 0
vn 0.299363 0 -0.954139
vt -2.14065 0
vt -2.14065 1.02362
vt -2.20548 1.02362
f 418/1470/246 421/1471/245 430/1472/245 429/1473/246 

vt -2.46454 0
vt -2.39972 0
vt -2.39972 1.02362
vt -2.46454 1.02362
f 416/1474/201 418/1475/246 429/1476/246 417/1477/201 

vt -5.53391 0
vn -0.874347 0 -0.485302
vt -5.46908 0
vt -5.46908 1.02362
vt -5.53391 1.02362
f 313/1478/247 314/1479/176 391/1480/176 390/1481/247 

vt -5.47175 0
vn -0.897805 0 -0.440394
vt -5.40692 0
vt -5.40692 1.02362
vt -5.47175 1.02362
f 311/1482/248 313/1483/247 390/1484/247 389/1485/248 

vt -5.39563 0
vn -0.918958 0 -0.394356
vt -5.3308 0
vt -5.3308 1.02362
vt -5.39563 1.02362
f 310/1486/249 311/1487/248 389/1488/248 388/1489/249 

vt -5.30573 0
vt -5.24091 0
vt -5.24091 1.02362
vt -5.30573 1.02362
f 282/1490/132 310/1491/249 388/1492/249 280/1493/132 

vt 3.36658 0
vn 0.290285 0 0.95694
vt 3.40595 0
vt 3.40595 1.02362
vt 3.36658 1.02362
f 25/1494/250 26/1495/250 21/1496/250 22/1497/250 

vt -3.22723 0
vn -0.970031 0 0.24298
vt -3.08814 0
vt -3.08814 1.02362
vt -3.22723 1.02362
f 24/1498/251 25/1499/251 22/1500/251 23/1501/251 

vt 2.35709 4.32422
f 6/43/10 8/1502/10 18/46/10

vt 2.33831 4.46566
f 5/1503/10 8/1502/10 6/43/10

vt 2.31791 4.32807
f 8/1502/10 5/1503/10 7/1504/10

vt 2.35709 4.05409
f 8/1502/10 16/1505/10 18/46/10

vt 2.35045 4.18915
f 10/1506/10 16/1505/10 8/1502/10

vt 2.31791 4.05023
f 10/1506/10 14/1507/10 16/1505/10

vt 2.31108 4.18915
f 14/1507/10 10/1506/10 15/1508/10

vt -2.35045 0
vn 0 0 -1
vt -2.31108 0
vt -2.31108 1.02362
vt -2.35045 1.02362
f 9/1509/252 13/1510/252 15/1511/252 10/1512/252 

