# Alias OBJ Model File
# Exported from SketchUp, (c) 2000-2012 Trimble Navigation Limited
# File units = millimeters

mtllib rules_rack.mtl

g Mesh1 Group1 Model

usemtl FrontColor
v 157.308 2.58579 -49.4483
vt -6.39488e-014 1.88822
vn -0.707107 0.707107 -0
v 157.626 3 -49.4483
vt -6.39488e-014 1.90877
vn -0.866025 0.5 -0
v 157.626 3 -53.4483
vt -0.15748 1.90877
v 157.308 2.58579 -53.4483
vt -0.15748 1.88822
f 1/1/1 2/2/2 3/3/2 4/4/1 

vt 2.96906 0.101803
vn 0 0 1
v 224.48 2.58579 -49.4483
vt 5.61361 0.101803
vt 2.98158 0.11811
f 1/5/3 5/6/3 2/7/3

v 224.894 2.26795 -49.4483
vt 5.62992 0.0892893
f 1/5/3 6/8/3 5/6/3

v 156.894 2.26795 -49.4483
vt 2.95276 0.0892893
f 7/9/3 6/8/3 1/5/3

v 225.376 2.06815 -49.4483
vt 5.64891 0.0814232
f 7/9/3 8/10/3 6/8/3

v 156.411 2.06815 -49.4483
vt 2.93377 0.0814232
f 9/11/3 8/10/3 7/9/3

v 225.894 2 -49.4483
vt 5.66929 0.0787402
f 9/11/3 10/12/3 8/10/3

v 155.894 2 -49.4483
vt 2.91339 0.0787402
f 10/12/3 9/11/3 11/13/3

vt -7.10543e-014 2.89874
vn 2.14162e-014 1 -0
vt -7.10543e-014 2.91929
vn -0.258819 0.965926 -0
v 156.411 2.06815 -53.4483
vt -0.15748 2.91929
v 155.894 2 -53.4483
vt -0.15748 2.89874
f 11/14/4 9/15/5 12/16/5 13/17/4 

vt -7.10543e-014 2.7416
vt -7.10543e-014 2.76216
vn -0.5 0.866025 -0
v 156.894 2.26795 -53.4483
vt -0.15748 2.76216
vt -0.15748 2.7416
f 9/18/5 7/19/6 14/20/6 12/21/5 

vt -7.10543e-014 2.39693
vt -6.39488e-014 2.41749
vt -0.15748 2.41749
vt -0.15748 2.39693
f 7/22/6 1/23/1 4/24/1 14/25/6 

v 224.894 2.26795 -53.4483
vt -5.62992 0.0892893
vn 0 0 -1
vt -2.95276 0.0892893
vt -2.96906 0.101803
f 15/26/7 14/27/7 4/28/7

v 225.376 2.06815 -53.4483
vt -5.64891 0.0814232
f 16/29/7 14/27/7 15/26/7

vt -2.93377 0.0814232
f 16/29/7 12/30/7 14/27/7

v 225.894 2 -53.4483
vt -5.66929 0.0787402
f 17/31/7 12/30/7 16/29/7

vt -2.91339 0.0787402
f 17/31/7 13/32/7 12/30/7

v 297.894 2 -53.4483
vt -8.50394 0.0787402
f 13/32/7 17/31/7 18/33/7

v 297.376 2.06815 -53.4483
vt -8.48356 0.0814232
f 17/31/7 19/34/7 18/33/7

v 226.411 2.06815 -53.4483
vt -5.68967 0.0814232
f 19/34/7 17/31/7 20/35/7

vt -7.10543e-015 5.63107
v 226.411 2.06815 -49.4483
vt -7.10543e-015 5.65162
vt -0.15748 5.65162
vt -0.15748 5.63107
f 10/36/4 21/37/5 20/38/5 17/39/4 

v 297.376 2.06815 -49.4483
vt 8.48356 0.0814232
vt 5.68967 0.0814232
f 10/12/3 22/40/3 21/41/3

v 297.894 2 -49.4483
vt 8.50394 0.0787402
f 10/12/3 23/42/3 22/40/3

f 23/42/3 10/12/3 11/13/3

v 82.4297 2 -49.4483
vt 0.0210984 0.0787402
f 24/43/3 23/42/3 11/13/3

v 301.358 2 -49.4483
vt 8.64032 0.0787402
f 24/43/3 25/44/3 23/42/3

v 83.0653 1.17157 -49.4483
vt 0.0461249 0.0461249
f 26/45/3 25/44/3 24/43/3

v 300.722 1.17157 -49.4483
vt 8.61529 0.0461249
f 26/45/3 27/46/3 25/44/3

v 83.8938 0.535898 -49.4483
vt 0.0787402 0.0210984
f 28/47/3 27/46/3 26/45/3

v 299.894 0.535898 -49.4483
vt 8.58268 0.0210984
f 28/47/3 29/48/3 27/46/3

v 84.8585 0.136297 -49.4483
vt 0.116721 0.00536601
f 30/49/3 29/48/3 28/47/3

v 298.929 0.136297 -49.4483
vt 8.5447 0.00536601
f 30/49/3 31/50/3 29/48/3

v 85.8938 2.25597e-014 -49.4483
vt 0.15748 8.88178e-016
f 32/51/3 31/50/3 30/49/3

v 297.894 0 -49.4483
vt 8.50394 0
f 31/50/3 32/51/3 33/52/3

vt -8.50394 1.06581e-013
vn -1.06414e-016 -1 2.38191e-031
vt -0.15748 1.06581e-013
v 85.8938 2.25597e-014 -53.4483
vt -0.15748 0.15748
v 297.894 0 -53.4483
vt -8.50394 0.15748
f 33/53/8 32/54/8 34/55/8 35/56/8 

vt -1.06581e-013 -0.156133
vn -0.130526 -0.991445 -0
vt -1.06581e-013 -0.115022
vn -0.258819 -0.965926 -0
v 84.8585 0.136297 -53.4483
vt -0.15748 -0.115022
vt -0.15748 -0.156133
f 32/57/9 30/58/10 36/59/10 34/60/9 

vt -1.06581e-013 -0.105783
vt -1.06581e-013 -0.0646724
vn -0.5 -0.866025 -0
v 83.8938 0.535898 -53.4483
vt -0.15748 -0.0646724
vt -0.15748 -0.105783
f 30/61/10 28/62/11 37/63/11 36/64/10 

vt -1.06581e-013 -0.0496249
vt -1.06581e-013 -0.00851429
vn -0.707107 -0.707107 -0
v 83.0653 1.17157 -53.4483
vt -0.15748 -0.00851429
vt -0.15748 -0.0496249
f 28/65/11 26/66/12 38/67/12 37/68/11 

vt -1.06581e-013 0.00851429
vt -1.06581e-013 0.0496249
vn -0.866025 -0.5 -0
v 82.4297 2 -53.4483
vt -0.15748 0.0496249
vt -0.15748 0.00851429
f 26/69/12 24/70/13 39/71/13 38/72/12 

vt -1.06581e-013 0.0646724
v 82.0301 2.96472 -49.4483
vt -1.06581e-013 0.105783
vn -0.965926 -0.258819 -0
v 82.0301 2.96472 -53.4483
vt -0.15748 0.105783
vt -0.15748 0.0646724
f 24/73/13 40/74/14 41/75/14 39/76/13 

v 85.3761 2.06815 -49.4483
vt 0.137101 0.0814232
vt 0.00536601 0.116721
f 24/43/3 42/77/3 40/78/3

v 85.8938 2 -49.4483
vt 0.15748 0.0787402
f 42/77/3 24/43/3 43/79/3

f 24/43/3 11/13/3 43/79/3

v 155.376 2.06815 -49.4483
vt 2.89301 0.0814232
f 43/79/3 11/13/3 44/80/3

vt 7.10543e-014 -2.85763
vn 0.258819 0.965926 -0
vt 7.10543e-014 -2.87818
vt 0.15748 -2.87818
v 155.376 2.06815 -53.4483
vt 0.15748 -2.85763
f 44/81/15 11/82/4 13/83/4 45/84/15 

v 85.8938 2 -53.4483
vt -0.15748 0.0787402
vt -2.89301 0.0814232
f 46/85/7 45/86/7 13/32/7

v 86.4114 2.06815 -53.4483
vt -0.17786 0.0814232
f 45/86/7 46/85/7 47/87/7

vt -1.06581e-013 0.166411
vn 0 1 -0
v 86.4114 2.06815 -49.4483
vt -1.06581e-013 0.186966
vt -0.15748 0.186966
vt -0.15748 0.166411
f 43/88/16 48/89/5 47/90/5 46/91/16 

vt 0.17786 0.0814232
f 43/79/3 44/80/3 48/92/3

v 154.894 2.26795 -49.4483
vt 2.87402 0.0892893
f 48/92/3 44/80/3 49/93/3

vt 7.81597e-014 -2.62107
vn 0.5 0.866025 -0
vt 7.10543e-014 -2.64163
vt 0.15748 -2.64163
v 154.894 2.26795 -53.4483
vt 0.15748 -2.62107
f 49/94/17 44/95/15 45/96/15 50/97/17 

v 86.8938 2.26795 -53.4483
vt -0.19685 0.0892893
vt -2.87402 0.0892893
f 45/86/7 51/98/7 50/99/7

f 45/86/7 47/87/7 51/98/7

vt -1.06581e-013 0.19548
v 86.8938 2.26795 -49.4483
vt -1.06581e-013 0.216036
vt -0.15748 0.216036
vt -0.15748 0.19548
f 48/100/5 52/101/6 51/102/6 47/103/5 

vt 0.19685 0.0892893
f 48/92/3 49/93/3 52/104/3

v 154.48 2.58579 -49.4483
vt 2.85771 0.101803
f 52/104/3 49/93/3 53/105/3

vt 7.81597e-014 -2.2052
vn 0.707107 0.707107 -0
vt 7.81597e-014 -2.22575
vt 0.15748 -2.22575
v 154.48 2.58579 -53.4483
vt 0.15748 -2.2052
f 53/106/18 49/107/17 50/108/17 54/109/18 

vt -2.85771 0.101803
f 50/99/7 51/98/7 54/110/7

v 87.308 2.58579 -53.4483
vt -0.213158 0.101803
f 54/110/7 51/98/7 55/111/7

vt -1.06581e-013 0.210528
v 87.308 2.58579 -49.4483
vt -1.06581e-013 0.231083
vt -0.15748 0.231083
vt -0.15748 0.210528
f 52/112/6 56/113/1 55/114/1 51/115/6 

vt 0.213158 0.101803
f 52/104/3 53/105/3 56/116/3

v 154.162 3 -49.4483
vt 2.84519 0.11811
f 56/116/3 53/105/3 57/117/3

vt 7.81597e-014 -1.63834
vn 0.866025 0.5 -0
vt 7.81597e-014 -1.6589
vt 0.15748 -1.6589
v 154.162 3 -53.4483
vt 0.15748 -1.63834
f 57/118/19 53/119/18 54/120/18 58/121/19 

vt -2.84519 0.11811
f 54/110/7 55/111/7 58/122/7

v 87.6258 3 -53.4483
vt -0.225671 0.11811
f 58/122/7 55/111/7 59/123/7

v 87.6258 3 -49.4483
f 56/112/1 60/113/2 59/114/2 55/115/1 

vt 0.225671 0.11811
f 56/116/3 57/117/3 60/124/3

v 153.962 3.48236 -49.4483
vt 2.83733 0.137101
f 60/124/3 57/117/3 61/125/3

vt 7.81597e-014 -0.959134
vn 0.965926 0.258819 -0
vt 7.81597e-014 -0.979689
vt 0.15748 -0.979689
v 153.962 3.48236 -53.4483
vt 0.15748 -0.959134
f 61/126/20 57/127/19 58/128/19 62/129/20 

vt -2.83733 0.137101
f 58/122/7 59/123/7 62/130/7

v 87.8256 3.48236 -53.4483
vt -0.233537 0.137101
f 62/130/7 59/123/7 63/131/7

v 87.8256 3.48236 -49.4483
vn -0.965926 0.258819 -0
f 60/100/2 64/101/21 63/102/21 59/103/2 

vt 0.233537 0.137101
f 60/124/3 61/125/3 64/132/3

v 153.894 4 -49.4483
vt 2.83465 0.15748
f 64/132/3 61/125/3 65/133/3

vt 7.81597e-014 -0.213862
vn 1 0 -0
vt 7.81597e-014 -0.234418
vt 0.15748 -0.234418
v 153.894 4 -53.4483
vt 0.15748 -0.213862
f 65/134/22 61/135/20 62/136/20 66/137/22 

vt -2.83465 0.15748
f 62/130/7 63/131/7 66/138/7

v 87.8938 4 -53.4483
vt -0.23622 0.15748
f 66/138/7 63/131/7 67/139/7

v 87.8938 4 -49.4483
vn -1 0 -0
f 64/88/21 68/89/23 67/90/23 63/91/21 

vt 0.23622 0.15748
f 64/132/3 65/133/3 68/140/3

v 153.962 4.51764 -49.4483
vt 2.83733 0.17786
f 68/140/3 65/133/3 69/141/3

vt 7.81597e-014 0.546684
vn 0.965926 -0.258819 -0
vt 7.81597e-014 0.526129
vt 0.15748 0.526129
v 153.962 4.51764 -53.4483
vt 0.15748 0.546684
f 69/142/24 65/143/22 66/144/22 70/145/24 

vt -2.83733 0.17786
f 66/138/7 67/139/7 70/146/7

v 87.8256 4.51764 -53.4483
vt -0.233537 0.17786
f 70/146/7 67/139/7 71/147/7

vt -1.06581e-013 0.1253
v 87.8256 4.51764 -49.4483
vt -1.06581e-013 0.145855
vt -0.15748 0.145855
vt -0.15748 0.1253
f 68/148/23 72/149/14 71/150/14 67/151/23 

vt 0.233537 0.17786
f 68/140/3 69/141/3 72/152/3

v 154.162 5 -49.4483
vt 2.84519 0.19685
f 72/152/3 69/141/3 73/153/3

vt 7.81597e-014 1.27067
vn 0.866025 -0.5 -0
vt 7.81597e-014 1.25012
vt 0.15748 1.25012
v 154.162 5 -53.4483
vt 0.15748 1.27067
f 73/154/25 69/155/24 70/156/24 74/157/25 

vt -2.84519 0.19685
f 70/146/7 71/147/7 74/158/7

v 87.6258 5 -53.4483
vt -0.225671 0.19685
f 74/158/7 71/147/7 75/159/7

vt -1.06581e-013 0.0749501
v 87.6258 5 -49.4483
vt -1.06581e-013 0.0955054
vt -0.15748 0.0955054
vt -0.15748 0.0749501
f 72/160/14 76/161/13 75/162/13 71/163/14 

vt 0.225671 0.19685
f 72/152/3 73/153/3 76/164/3

v 154.48 5.41421 -49.4483
vt 2.85771 0.213158
f 76/164/3 73/153/3 77/165/3

vt 7.81597e-014 1.90877
vn 0.707107 -0.707107 -0
vt 7.81597e-014 1.88822
vt 0.15748 1.88822
v 154.48 5.41421 -53.4483
vt 0.15748 1.90877
f 77/166/26 73/167/25 74/168/25 78/169/26 

vt -2.85771 0.213158
f 74/158/7 75/159/7 78/170/7

v 87.308 5.41421 -53.4483
vt -0.213158 0.213158
f 78/170/7 75/159/7 79/171/7

vt -1.06581e-013 0.0187919
v 87.308 5.41421 -49.4483
vt -1.06581e-013 0.0393472
vt -0.15748 0.0393472
vt -0.15748 0.0187919
f 76/172/13 80/173/12 79/174/12 75/175/13 

vt 0.213158 0.213158
f 76/164/3 77/165/3 80/176/3

v 154.894 5.73205 -49.4483
vt 2.87402 0.225671
f 80/176/3 77/165/3 81/177/3

vt 7.10543e-014 2.41749
vn 0.5 -0.866025 -0
vt 7.81597e-014 2.39693
vt 0.15748 2.39693
v 154.894 5.73205 -53.4483
vt 0.15748 2.41749
f 81/178/27 77/179/26 78/180/26 82/181/27 

vt -2.87402 0.225671
f 78/170/7 79/171/7 82/182/7

v 86.8938 5.73205 -53.4483
vt -0.19685 0.225671
f 82/182/7 79/171/7 83/183/7

vt -1.06581e-013 -0.0393472
v 86.8938 5.73205 -49.4483
vt -1.06581e-013 -0.0187919
vt -0.15748 -0.0187919
vt -0.15748 -0.0393472
f 80/184/12 84/185/11 83/186/11 79/187/12 

vt 0.19685 0.225671
f 80/176/3 81/177/3 84/188/3

v 155.376 5.93185 -49.4483
vt 2.89301 0.233537
f 84/188/3 81/177/3 85/189/3

vt 7.10543e-014 2.76216
vn 0.258819 -0.965926 -0
vt 7.10543e-014 2.7416
vt 0.15748 2.7416
v 155.376 5.93185 -53.4483
vt 0.15748 2.76216
f 85/190/28 81/191/27 82/192/27 86/193/28 

vt -2.89301 0.233537
f 82/182/7 83/183/7 86/194/7

v 86.4114 5.93185 -53.4483
vt -0.17786 0.233537
f 86/194/7 83/183/7 87/195/7

vt -1.06581e-013 -0.0955054
v 86.4114 5.93185 -49.4483
vt -1.06581e-013 -0.0749501
vt -0.15748 -0.0749501
vt -0.15748 -0.0955054
f 84/196/11 88/197/10 87/198/10 83/199/11 

vt 0.17786 0.233537
f 84/188/3 85/189/3 88/200/3

v 155.894 6 -49.4483
vt 2.91339 0.23622
f 88/200/3 85/189/3 89/201/3

vt 7.10543e-014 2.91929
vn -2.14162e-014 -1 -0
vt 7.10543e-014 2.89874
vt 0.15748 2.89874
v 155.894 6 -53.4483
vt 0.15748 2.91929
f 89/202/29 85/203/28 86/204/28 90/205/29 

v 85.8938 6 -53.4483
vt -0.15748 0.23622
vt -2.91339 0.23622
f 86/194/7 91/206/7 90/207/7

f 86/194/7 87/195/7 91/206/7

vt -1.06581e-013 -0.145855
v 85.8938 6 -49.4483
vt -1.06581e-013 -0.1253
vt -0.15748 -0.1253
vt -0.15748 -0.145855
f 88/208/10 92/209/29 91/210/29 87/211/10 

vt 0.15748 0.23622
f 88/200/3 89/201/3 92/212/3

v 225.894 6 -49.4483
vt 5.66929 0.23622
f 89/201/3 93/213/3 92/212/3

v 225.376 5.93185 -49.4483
vt 5.64891 0.233537
f 89/201/3 94/214/3 93/213/3

v 156.411 5.93185 -49.4483
vt 2.93377 0.233537
f 95/215/3 94/214/3 89/201/3

v 224.894 5.73205 -49.4483
vt 5.62992 0.225671
f 95/215/3 96/216/3 94/214/3

v 156.894 5.73205 -49.4483
vt 2.95276 0.225671
f 97/217/3 96/216/3 95/215/3

v 224.48 5.41421 -49.4483
vt 5.61361 0.213158
f 97/217/3 98/218/3 96/216/3

v 157.308 5.41421 -49.4483
vt 2.96906 0.213158
f 99/219/3 98/218/3 97/217/3

v 224.162 5 -49.4483
vt 5.6011 0.19685
f 99/219/3 100/220/3 98/218/3

v 157.626 5 -49.4483
vt 2.98158 0.19685
f 101/221/3 100/220/3 99/219/3

v 223.962 4.51764 -49.4483
vt 5.59323 0.17786
f 101/221/3 102/222/3 100/220/3

v 157.826 4.51764 -49.4483
vt 2.98944 0.17786
f 103/223/3 102/222/3 101/221/3

v 223.894 4 -49.4483
vt 5.59055 0.15748
f 103/223/3 104/224/3 102/222/3

v 157.894 4 -49.4483
vt 2.99213 0.15748
f 105/225/3 104/224/3 103/223/3

v 223.962 3.48236 -49.4483
vt 5.59323 0.137101
f 105/225/3 106/226/3 104/224/3

v 157.826 3.48236 -49.4483
vt 2.98944 0.137101
f 107/227/3 106/226/3 105/225/3

v 224.162 3 -49.4483
vt 5.6011 0.11811
f 107/227/3 108/228/3 106/226/3

f 2/7/3 108/228/3 107/227/3

f 2/7/3 5/6/3 108/228/3

vt 1.42109e-014 -3.31603
vt 1.42109e-014 -3.33659
v 224.48 2.58579 -53.4483
vt 0.15748 -3.33659
v 224.162 3 -53.4483
vt 0.15748 -3.31603
f 108/229/19 5/230/18 109/231/18 110/232/19 

vt 1.42109e-014 -4.39161
vt 1.42109e-014 -4.41216
vt 0.15748 -4.41216
vt 0.15748 -4.39161
f 5/233/18 6/234/17 15/235/17 109/236/18 

vt 1.42109e-014 -5.1672
vt 7.10543e-015 -5.18775
vt 0.15748 -5.18775
vt 0.15748 -5.1672
f 6/237/17 8/238/15 16/239/15 15/240/17 

vt 7.10543e-015 -5.58996
vt 7.10543e-015 -5.61051
vt 0.15748 -5.61051
vt 0.15748 -5.58996
f 8/241/15 10/242/4 17/243/4 16/244/15 

vt -5.61361 0.101803
f 15/26/7 4/28/7 109/245/7

vt -2.98158 0.11811
f 109/245/7 4/28/7 3/246/7

vt -5.6011 0.11811
f 109/245/7 3/246/7 110/247/7

v 157.826 3.48236 -53.4483
vt -2.98944 0.137101
f 110/247/7 3/246/7 111/248/7

vt -6.39488e-014 1.25012
vt -6.39488e-014 1.27067
vt -0.15748 1.27067
vt -0.15748 1.25012
f 2/249/2 107/250/21 111/251/21 3/252/2 

vt -6.39488e-014 0.526129
vt -6.39488e-014 0.546684
v 157.894 4 -53.4483
vt -0.15748 0.546684
vt -0.15748 0.526129
f 107/253/21 105/254/23 112/255/23 111/256/21 

vt -6.39488e-014 -0.234418
vt -6.39488e-014 -0.213862
v 157.826 4.51764 -53.4483
vt -0.15748 -0.213862
vt -0.15748 -0.234418
f 105/257/23 103/258/14 113/259/14 112/260/23 

vt -6.39488e-014 -0.979689
vt -6.39488e-014 -0.959134
v 157.626 5 -53.4483
vt -0.15748 -0.959134
vt -0.15748 -0.979689
f 103/261/14 101/262/13 114/263/13 113/264/14 

vt -6.39488e-014 -1.6589
vt -6.39488e-014 -1.63834
v 157.308 5.41421 -53.4483
vt -0.15748 -1.63834
vt -0.15748 -1.6589
f 101/265/13 99/266/12 115/267/12 114/268/13 

vt -6.39488e-014 -2.22575
vt -6.39488e-014 -2.2052
v 156.894 5.73205 -53.4483
vt -0.15748 -2.2052
vt -0.15748 -2.22575
f 99/269/12 97/270/11 116/271/11 115/272/12 

vt -6.39488e-014 -2.64163
vt -7.10543e-014 -2.62107
v 156.411 5.93185 -53.4483
vt -0.15748 -2.62107
vt -0.15748 -2.64163
f 97/273/11 95/274/10 117/275/10 116/276/11 

vt -7.10543e-014 -2.87818
vt -7.10543e-014 -2.85763
vt -0.15748 -2.85763
vt -0.15748 -2.87818
f 95/277/10 89/278/29 90/279/29 117/280/10 

v 225.376 5.93185 -53.4483
vt -5.64891 0.233537
vt -2.93377 0.233537
f 118/281/7 117/282/7 90/207/7

v 224.894 5.73205 -53.4483
vt -5.62992 0.225671
f 119/283/7 117/282/7 118/281/7

vt -2.95276 0.225671
f 119/283/7 116/284/7 117/282/7

v 224.48 5.41421 -53.4483
vt -5.61361 0.213158
f 120/285/7 116/284/7 119/283/7

vt -2.96906 0.213158
f 120/285/7 115/286/7 116/284/7

v 224.162 5 -53.4483
vt -5.6011 0.19685
f 121/287/7 115/286/7 120/285/7

vt -2.98158 0.19685
f 121/287/7 114/288/7 115/286/7

v 223.962 4.51764 -53.4483
vt -5.59323 0.17786
f 122/289/7 114/288/7 121/287/7

vt -2.98944 0.17786
f 122/289/7 113/290/7 114/288/7

v 223.894 4 -53.4483
vt -5.59055 0.15748
f 123/291/7 113/290/7 122/289/7

vt -2.99213 0.15748
f 123/291/7 112/292/7 113/290/7

v 223.962 3.48236 -53.4483
vt -5.59323 0.137101
f 124/293/7 112/292/7 123/291/7

f 124/293/7 111/248/7 112/292/7

f 110/247/7 111/248/7 124/293/7

vt 1.42109e-014 -2.01377
vt 1.42109e-014 -2.03433
vt 0.15748 -2.03433
vt 0.15748 -2.01377
f 106/294/20 108/295/19 110/296/19 124/297/20 

vt 1.42109e-014 -0.57358
vt 1.42109e-014 -0.594136
vt 0.15748 -0.594136
vt 0.15748 -0.57358
f 104/298/22 106/299/20 124/300/20 123/301/22 

vt 1.42109e-014 0.906402
vt 1.42109e-014 0.885846
vt 0.15748 0.885846
vt 0.15748 0.906402
f 102/302/24 104/303/22 123/304/22 122/305/24 

vt 1.42109e-014 2.32531
vt 1.42109e-014 2.30476
vt 0.15748 2.30476
vt 0.15748 2.32531
f 100/306/25 102/307/24 122/308/24 121/309/25 

vt 1.42109e-014 3.58646
vt 1.42109e-014 3.56591
vt 0.15748 3.56591
vt 0.15748 3.58646
f 98/310/26 100/311/25 121/312/25 120/313/26 

vt 7.10543e-015 4.6039
vt 1.42109e-014 4.58334
vt 0.15748 4.58334
vt 0.15748 4.6039
f 96/314/27 98/315/26 120/316/26 119/317/27 

vt 7.10543e-015 5.30828
vt 7.10543e-015 5.28773
vt 0.15748 5.28773
vt 0.15748 5.30828
f 94/318/28 96/319/27 119/320/27 118/321/28 

vt 7.10543e-015 5.65162
vn 0 -1 -0
vt 7.10543e-015 5.63107
vt 0.15748 5.63107
v 225.894 6 -53.4483
vt 0.15748 5.65162
f 93/322/30 94/323/28 118/324/28 125/325/30 

vt -5.66929 0.23622
f 118/281/7 90/207/7 125/326/7

f 125/326/7 90/207/7 91/206/7

v 83.0653 6.82843 -53.4483
vt -0.0461249 0.268836
f 91/206/7 126/327/7 125/326/7

v 82.4297 6 -53.4483
vt -0.0210984 0.23622
f 91/206/7 127/328/7 126/327/7

v 85.3761 5.93185 -53.4483
vt -0.137101 0.233537
f 128/329/7 127/328/7 91/206/7

v 84.8938 5.73205 -53.4483
vt -0.11811 0.225671
f 129/330/7 127/328/7 128/329/7

v 84.4796 5.41421 -53.4483
vt -0.101803 0.213158
f 130/331/7 127/328/7 129/330/7

v 82.0301 5.03528 -53.4483
vt -0.00536601 0.198239
f 130/331/7 131/332/7 127/328/7

v 84.1617 5 -53.4483
vt -0.0892893 0.19685
f 132/333/7 131/332/7 130/331/7

v 83.9619 4.51764 -53.4483
vt -0.0814232 0.17786
f 133/334/7 131/332/7 132/333/7

v 83.8938 4 -53.4483
vt -0.0787402 0.15748
f 134/335/7 131/332/7 133/334/7

v 81.8938 4 -53.4483
vt 0 0.15748
f 134/335/7 135/336/7 131/332/7

v 83.9619 3.48236 -53.4483
vt -0.0814232 0.137101
f 136/337/7 135/336/7 134/335/7

v 84.1617 3 -53.4483
vt -0.0892893 0.11811
f 137/338/7 135/336/7 136/337/7

vt -0.00536601 0.116721
f 137/338/7 41/339/7 135/336/7

v 84.4796 2.58579 -53.4483
vt -0.101803 0.101803
f 138/340/7 41/339/7 137/338/7

v 84.8938 2.26795 -53.4483
vt -0.11811 0.0892893
f 139/341/7 41/339/7 138/340/7

v 85.3761 2.06815 -53.4483
vt -0.137101 0.0814232
f 140/342/7 41/339/7 139/341/7

vt -0.0210984 0.0787402
f 140/342/7 39/343/7 41/339/7

f 46/85/7 39/343/7 140/342/7

f 39/343/7 46/85/7 13/32/7

v 301.358 2 -53.4483
vt -8.64032 0.0787402
f 141/344/7 39/343/7 13/32/7

v 300.722 1.17157 -53.4483
vt -8.61529 0.0461249
f 142/345/7 39/343/7 141/344/7

vt -0.0461249 0.0461249
f 142/345/7 38/346/7 39/343/7

vt -0.0787402 0.0210984
f 142/345/7 37/347/7 38/346/7

v 299.894 0.535898 -53.4483
vt -8.58268 0.0210984
f 143/348/7 37/347/7 142/345/7

vt -0.116721 0.00536601
f 143/348/7 36/349/7 37/347/7

v 298.929 0.136297 -53.4483
vt -8.5447 0.00536601
f 144/350/7 36/349/7 143/348/7

vt -0.15748 8.88178e-016
f 144/350/7 34/351/7 36/349/7

vt -8.50394 0
f 34/351/7 144/350/7 35/352/7

vt 1.06652e-013 8.4723
vn 0.258819 -0.965926 5.46472e-019
vt 1.06652e-013 8.43118
vn 0.130526 -0.991445 1.08359e-018
vt 0.15748 8.43118
vt 0.15748 8.4723
f 31/353/31 33/354/32 35/355/32 144/356/31 

vt 1.06581e-013 7.93743
vt 1.06581e-013 7.89632
vt 0.15748 7.89632
vt 0.15748 7.93743
f 29/357/27 31/358/31 144/359/31 143/360/27 

vt 1.06581e-013 6.86305
vt 1.06581e-013 6.82194
vt 0.15748 6.82194
vt 0.15748 6.86305
f 27/361/26 29/362/27 143/363/27 142/364/26 

vt 1.06581e-013 5.32236
vt 1.06581e-013 5.28125
vt 0.15748 5.28125
vt 0.15748 5.32236
f 25/365/25 27/366/26 142/367/26 141/368/25 

v 301.757 2.96472 -49.4483
vt 1.06581e-013 3.42036
vt 1.06581e-013 3.37925
vt 0.15748 3.37925
v 301.757 2.96472 -53.4483
vt 0.15748 3.42036
f 145/369/24 25/370/25 141/371/25 146/372/24 

v 298.411 2.06815 -49.4483
vt 8.52432 0.0814232
vt 8.65605 0.116721
f 147/373/3 25/44/3 145/374/3

f 25/44/3 147/373/3 23/42/3

vt -1.06546e-013 8.44146
vn 2.14162e-014 1 5.46472e-019
vt -1.06546e-013 8.46202
vn -0.258819 0.965926 2.73236e-019
v 298.411 2.06815 -53.4483
vt -0.15748 8.46202
vt -0.15748 8.44146
f 23/375/33 147/376/34 148/377/34 18/378/33 

vt -1.06581e-013 7.9066
v 298.894 2.26795 -49.4483
vt -1.06581e-013 7.92716
v 298.894 2.26795 -53.4483
vt -0.15748 7.92716
vt -0.15748 7.9066
f 147/379/34 149/380/6 150/381/6 148/382/34 

vt 8.54331 0.0892893
f 147/373/3 145/374/3 149/383/3

v 299.308 2.58579 -49.4483
vt 8.55961 0.101803
f 149/383/3 145/374/3 151/384/3

v 299.626 3 -49.4483
vt 8.57213 0.11811
f 151/384/3 145/374/3 152/385/3

v 301.894 4 -49.4483
vt 8.66142 0.15748
f 152/385/3 145/374/3 153/386/3

vt 1.06581e-013 1.28667
vt 1.06581e-013 1.24556
vt 0.15748 1.24556
v 301.894 4 -53.4483
vt 0.15748 1.28667
f 153/387/22 145/388/24 146/389/24 154/390/22 

vt -8.65605 0.116721
v 299.626 3 -53.4483
vt -8.57213 0.11811
vt -8.66142 0.15748
f 146/391/7 155/392/7 154/393/7

v 299.308 2.58579 -53.4483
vt -8.55961 0.101803
f 146/391/7 156/394/7 155/392/7

vt -8.54331 0.0892893
f 146/391/7 150/395/7 156/394/7

vt -8.52432 0.0814232
f 146/391/7 148/396/7 150/395/7

f 141/344/7 148/396/7 146/391/7

f 141/344/7 18/33/7 148/396/7

f 141/344/7 13/32/7 18/33/7

vt -1.06581e-013 6.83222
vt -1.06581e-013 6.85277
vt -0.15748 6.85277
vt -0.15748 6.83222
f 149/397/6 151/398/1 156/399/1 150/400/6 

vt -1.06581e-013 5.29153
vt -1.06581e-013 5.31208
vt -0.15748 5.31208
vt -0.15748 5.29153
f 151/401/1 152/402/2 155/403/2 156/404/1 

vt -1.06581e-013 3.38953
v 299.826 3.48236 -49.4483
vt -1.06581e-013 3.41009
v 299.826 3.48236 -53.4483
vt -0.15748 3.41009
vt -0.15748 3.38953
f 152/405/2 157/406/21 158/407/21 155/408/2 

vt 8.57999 0.137101
f 152/385/3 153/386/3 157/409/3

v 299.894 4 -49.4483
vt 8.58268 0.15748
f 157/409/3 153/386/3 159/410/3

v 301.757 5.03528 -49.4483
vt 8.65605 0.198239
f 159/410/3 153/386/3 160/411/3

vt 1.06581e-013 -0.933298
vt 1.06581e-013 -0.974409
vt 0.15748 -0.974409
v 301.757 5.03528 -53.4483
vt 0.15748 -0.933298
f 160/412/20 153/413/22 154/414/22 161/415/20 

v 299.826 4.51764 -53.4483
vt -8.57999 0.17786
vt -8.65605 0.198239
f 154/393/7 162/416/7 161/417/7

v 299.894 4 -53.4483
vt -8.58268 0.15748
f 154/393/7 163/418/7 162/416/7

vt -8.57999 0.137101
f 154/393/7 158/419/7 163/418/7

f 154/393/7 155/392/7 158/419/7

vt -1.06581e-013 1.25584
vt -1.06581e-013 1.2764
vt -0.15748 1.2764
vt -0.15748 1.25584
f 157/420/21 159/421/23 163/422/23 158/423/21 

vt -1.06581e-013 -0.964131
v 299.826 4.51764 -49.4483
vt -1.06581e-013 -0.943576
vt -0.15748 -0.943576
vt -0.15748 -0.964131
f 159/424/23 164/425/14 162/426/14 163/427/23 

vt 8.57999 0.17786
f 159/410/3 160/411/3 164/428/3

v 299.626 5 -49.4483
vt 8.57213 0.19685
f 164/428/3 160/411/3 165/429/3

v 299.308 5.41421 -49.4483
vt 8.55961 0.213158
f 165/429/3 160/411/3 166/430/3

v 301.358 6 -49.4483
vt 8.64032 0.23622
f 166/430/3 160/411/3 167/431/3

vt 1.06581e-013 -3.08827
vt 1.06581e-013 -3.12938
vt 0.15748 -3.12938
v 301.358 6 -53.4483
vt 0.15748 -3.08827
f 167/432/19 160/433/20 161/434/20 168/435/19 

v 299.308 5.41421 -53.4483
vt -8.55961 0.213158
vt -8.64032 0.23622
f 161/417/7 169/436/7 168/437/7

v 299.626 5 -53.4483
vt -8.57213 0.19685
f 161/417/7 170/438/7 169/436/7

f 161/417/7 162/416/7 170/438/7

vt -1.06581e-013 -3.1191
vt -1.06581e-013 -3.09855
vt -0.15748 -3.09855
vt -0.15748 -3.1191
f 164/439/14 165/440/13 170/441/13 162/442/14 

vt -1.06581e-013 -5.06221
vt -1.06581e-013 -5.04165
vt -0.15748 -5.04165
vt -0.15748 -5.06221
f 165/443/13 166/444/12 169/445/12 170/446/13 

vt -1.06581e-013 -6.66104
v 298.894 5.73205 -49.4483
vt -1.06581e-013 -6.64048
v 298.894 5.73205 -53.4483
vt -0.15748 -6.64048
vt -0.15748 -6.66104
f 166/447/12 171/448/11 172/449/11 169/450/12 

vt 8.54331 0.225671
f 166/430/3 167/431/3 171/451/3

v 298.411 5.93185 -49.4483
vt 8.52432 0.233537
f 171/451/3 167/431/3 173/452/3

v 297.894 6 -49.4483
vt 8.50394 0.23622
f 173/452/3 167/431/3 174/453/3

v 300.722 6.82843 -49.4483
vt 8.61529 0.268836
f 174/453/3 167/431/3 175/454/3

vt 1.06581e-013 -5.03138
vt 1.06581e-013 -5.07249
vt 0.15748 -5.07249
v 300.722 6.82843 -53.4483
vt 0.15748 -5.03138
f 175/455/18 167/456/19 168/457/19 176/458/18 

vt -8.61529 0.268836
f 168/437/7 125/326/7 176/459/7

v 297.894 6 -53.4483
vt -8.50394 0.23622
f 177/460/7 125/326/7 168/437/7

v 226.411 5.93185 -53.4483
vt -5.68967 0.233537
f 177/460/7 178/461/7 125/326/7

v 297.376 5.93185 -53.4483
vt -8.48356 0.233537
f 179/462/7 178/461/7 177/460/7

v 226.894 5.73205 -53.4483
vt -5.70866 0.225671
f 179/462/7 180/463/7 178/461/7

v 296.894 5.73205 -53.4483
vt -8.46457 0.225671
f 181/464/7 180/463/7 179/462/7

v 227.308 5.41421 -53.4483
vt -5.72497 0.213158
f 181/464/7 182/465/7 180/463/7

v 296.48 5.41421 -53.4483
vt -8.44826 0.213158
f 183/466/7 182/465/7 181/464/7

v 227.626 5 -53.4483
vt -5.73748 0.19685
f 183/466/7 184/467/7 182/465/7

v 296.162 5 -53.4483
vt -8.43575 0.19685
f 185/468/7 184/467/7 183/466/7

v 227.826 4.51764 -53.4483
vt -5.74535 0.17786
f 185/468/7 186/469/7 184/467/7

v 295.962 4.51764 -53.4483
vt -8.42788 0.17786
f 187/470/7 186/469/7 185/468/7

v 227.894 4 -53.4483
vt -5.74803 0.15748
f 187/470/7 188/471/7 186/469/7

v 295.894 4 -53.4483
vt -8.4252 0.15748
f 189/472/7 188/471/7 187/470/7

v 227.826 3.48236 -53.4483
vt -5.74535 0.137101
f 189/472/7 190/473/7 188/471/7

v 295.962 3.48236 -53.4483
vt -8.42788 0.137101
f 191/474/7 190/473/7 189/472/7

v 227.626 3 -53.4483
vt -5.73748 0.11811
f 191/474/7 192/475/7 190/473/7

v 296.162 3 -53.4483
vt -8.43575 0.11811
f 193/476/7 192/475/7 191/474/7

v 227.308 2.58579 -53.4483
vt -5.72497 0.101803
f 193/476/7 194/477/7 192/475/7

v 296.48 2.58579 -53.4483
vt -8.44826 0.101803
f 195/478/7 194/477/7 193/476/7

v 226.894 2.26795 -53.4483
vt -5.70866 0.0892893
f 195/478/7 196/479/7 194/477/7

v 296.894 2.26795 -53.4483
vt -8.46457 0.0892893
f 197/480/7 196/479/7 195/478/7

f 197/480/7 20/35/7 196/479/7

f 19/34/7 20/35/7 197/480/7

v 296.894 2.26795 -49.4483
vt 1.06581e-013 -7.78607
vt 1.06581e-013 -7.80663
vn 0.258819 0.965926 2.73236e-019
vt 0.15748 -7.80663
vt 0.15748 -7.78607
f 198/481/17 22/482/35 19/483/35 197/484/17 

vt 8.46457 0.0892893
f 21/41/3 22/40/3 198/485/3

v 226.894 2.26795 -49.4483
vt 5.70866 0.0892893
f 21/41/3 198/485/3 199/486/3

v 296.48 2.58579 -49.4483
vt 8.44826 0.101803
f 199/486/3 198/485/3 200/487/3

vt 1.06581e-013 -6.64048
vt 1.06581e-013 -6.66104
vt 0.15748 -6.66104
vt 0.15748 -6.64048
f 200/488/18 198/489/17 197/490/17 195/491/18 

v 296.162 3 -49.4483
vt 1.06581e-013 -5.04165
vt 1.06581e-013 -5.06221
vt 0.15748 -5.06221
vt 0.15748 -5.04165
f 201/492/19 200/493/18 195/494/18 193/495/19 

v 227.308 2.58579 -49.4483
vt 5.72497 0.101803
vt 8.43575 0.11811
f 202/496/3 200/487/3 201/497/3

f 199/486/3 200/487/3 202/496/3

vt -7.10543e-015 4.58334
vt 0 4.6039
vt -0.15748 4.6039
vt -0.15748 4.58334
f 199/498/6 202/499/1 194/500/1 196/501/6 

vt 0 3.56591
v 227.626 3 -49.4483
vt 0 3.58646
vt -0.15748 3.58646
vt -0.15748 3.56591
f 202/502/1 203/503/2 192/504/2 194/505/1 

vt 5.73748 0.11811
f 202/496/3 201/497/3 203/506/3

v 295.962 3.48236 -49.4483
vt 8.42788 0.137101
f 203/506/3 201/497/3 204/507/3

vt 1.06581e-013 -3.09855
vt 1.06581e-013 -3.1191
vt 0.15748 -3.1191
vt 0.15748 -3.09855
f 204/508/20 201/509/19 193/510/19 191/511/20 

v 295.894 4 -49.4483
vt 1.06581e-013 -0.943576
vt 1.06581e-013 -0.964131
vt 0.15748 -0.964131
vt 0.15748 -0.943576
f 205/512/22 204/513/20 191/514/20 189/515/22 

v 227.826 3.48236 -49.4483
vt 5.74535 0.137101
vt 8.4252 0.15748
f 206/516/3 204/507/3 205/517/3

f 203/506/3 204/507/3 206/516/3

vt 0 2.30476
vt 0 2.32531
vt -0.15748 2.32531
vt -0.15748 2.30476
f 203/518/2 206/519/21 190/520/21 192/521/2 

vt 0 0.885846
v 227.894 4 -49.4483
vt 0 0.906402
vt -0.15748 0.906402
vt -0.15748 0.885846
f 206/522/21 207/523/23 188/524/23 190/525/21 

vt 5.74803 0.15748
f 206/516/3 205/517/3 207/526/3

v 295.962 4.51764 -49.4483
vt 8.42788 0.17786
f 207/526/3 205/517/3 208/527/3

vt 1.06581e-013 1.2764
vt 1.06581e-013 1.25584
vt 0.15748 1.25584
vt 0.15748 1.2764
f 208/528/24 205/529/22 189/530/22 187/531/24 

v 296.162 5 -49.4483
vt 1.06581e-013 3.41009
vt 1.06581e-013 3.38953
vt 0.15748 3.38953
vt 0.15748 3.41009
f 209/532/25 208/533/24 187/534/24 185/535/25 

v 227.826 4.51764 -49.4483
vt 5.74535 0.17786
vt 8.43575 0.19685
f 210/536/3 208/527/3 209/537/3

f 207/526/3 208/527/3 210/536/3

vt 0 -0.594136
vt 0 -0.57358
vt -0.15748 -0.57358
vt -0.15748 -0.594136
f 207/538/23 210/539/14 186/540/14 188/541/23 

vt 0 -2.03433
v 227.626 5 -49.4483
vt 0 -2.01377
vt -0.15748 -2.01377
vt -0.15748 -2.03433
f 210/542/14 211/543/13 184/544/13 186/545/14 

vt 5.73748 0.19685
f 210/536/3 209/537/3 211/546/3

v 296.48 5.41421 -49.4483
vt 8.44826 0.213158
f 211/546/3 209/537/3 212/547/3

vt 1.06581e-013 5.31208
vt 1.06581e-013 5.29153
vt 0.15748 5.29153
vt 0.15748 5.31208
f 212/548/26 209/549/25 185/550/25 183/551/26 

v 296.894 5.73205 -49.4483
vt 1.06581e-013 6.85277
vt 1.06581e-013 6.83222
vt 0.15748 6.83222
vt 0.15748 6.85277
f 213/552/27 212/553/26 183/554/26 181/555/27 

v 227.308 5.41421 -49.4483
vt 5.72497 0.213158
vt 8.46457 0.225671
f 214/556/3 212/547/3 213/557/3

f 211/546/3 212/547/3 214/556/3

vt 0 -3.33659
vt 0 -3.31603
vt -0.15748 -3.31603
vt -0.15748 -3.33659
f 211/558/13 214/559/12 182/560/12 184/561/13 

vt 0 -4.41216
v 226.894 5.73205 -49.4483
vt 0 -4.39161
vt -0.15748 -4.39161
vt -0.15748 -4.41216
f 214/562/12 215/563/11 180/564/11 182/565/12 

vt 5.70866 0.225671
f 214/556/3 213/557/3 215/566/3

v 297.376 5.93185 -49.4483
vt 8.48356 0.233537
f 215/566/3 213/557/3 216/567/3

vt 1.06581e-013 7.92716
vt 1.06581e-013 7.9066
vt 0.15748 7.9066
vt 0.15748 7.92716
f 216/568/28 213/569/27 181/570/27 179/571/28 

vt 1.06581e-013 8.46202
vt 1.06581e-013 8.44146
vt 0.15748 8.44146
vt 0.15748 8.46202
f 174/572/29 216/573/28 179/574/28 177/575/29 

v 226.411 5.93185 -49.4483
vt 5.68967 0.233537
f 217/576/3 216/567/3 174/453/3

f 215/566/3 216/567/3 217/576/3

vt 0 -5.18775
vt -7.10543e-015 -5.1672
vt -0.15748 -5.1672
vt -0.15748 -5.18775
f 215/577/11 217/578/10 178/579/10 180/580/11 

vt -7.10543e-015 -5.61051
vt -7.10543e-015 -5.58996
vt -0.15748 -5.58996
vt -0.15748 -5.61051
f 217/581/10 93/582/30 125/583/30 178/584/10 

f 217/576/3 174/453/3 93/213/3

f 174/453/3 175/454/3 93/213/3

v 83.0653 6.82843 -49.4483
vt 0.0461249 0.268836
f 218/585/3 93/213/3 175/454/3

f 218/585/3 92/212/3 93/213/3

v 82.4297 6 -49.4483
vt 0.0210984 0.23622
f 219/586/3 92/212/3 218/585/3

v 85.3761 5.93185 -49.4483
vt 0.137101 0.233537
f 219/586/3 220/587/3 92/212/3

v 84.8938 5.73205 -49.4483
vt 0.11811 0.225671
f 219/586/3 221/588/3 220/587/3

v 84.4796 5.41421 -49.4483
vt 0.101803 0.213158
f 219/586/3 222/589/3 221/588/3

v 82.0301 5.03528 -49.4483
vt 0.00536601 0.198239
f 223/590/3 222/589/3 219/586/3

v 84.1617 5 -49.4483
vt 0.0892893 0.19685
f 223/590/3 224/591/3 222/589/3

v 83.9619 4.51764 -49.4483
vt 0.0814232 0.17786
f 223/590/3 225/592/3 224/591/3

v 83.8938 4 -49.4483
vt 0.0787402 0.15748
f 223/590/3 226/593/3 225/592/3

v 81.8938 4 -49.4483
f 227/336/3 226/593/3 223/590/3

v 83.9619 3.48236 -49.4483
vt 0.0814232 0.137101
f 227/336/3 228/594/3 226/593/3

v 84.1617 3 -49.4483
vt 0.0892893 0.11811
f 227/336/3 229/595/3 228/594/3

f 40/78/3 229/595/3 227/336/3

v 84.4796 2.58579 -49.4483
vt 0.101803 0.101803
f 40/78/3 230/596/3 229/595/3

v 84.8938 2.26795 -49.4483
vt 0.11811 0.0892893
f 40/78/3 231/597/3 230/596/3

f 40/78/3 42/77/3 231/597/3

vt 1.06581e-013 -0.0749501
vt 1.06581e-013 -0.0955054
vt 0.15748 -0.0955054
vt 0.15748 -0.0749501
f 231/598/17 42/599/15 140/600/15 139/601/17 

vt 1.06581e-013 -0.1253
vt 1.06581e-013 -0.145855
vt 0.15748 -0.145855
vt 0.15748 -0.1253
f 42/602/15 43/603/16 46/604/16 140/605/15 

vt 1.06581e-013 -0.0187919
vt 1.06581e-013 -0.0393472
vt 0.15748 -0.0393472
vt 0.15748 -0.0187919
f 230/606/18 231/607/17 139/608/17 138/609/18 

vt 1.06581e-013 0.0393472
vt 1.06581e-013 0.0187919
vt 0.15748 0.0187919
vt 0.15748 0.0393472
f 229/610/19 230/611/18 138/612/18 137/613/19 

vt 1.06581e-013 0.0955054
vt 1.06581e-013 0.0749501
vt 0.15748 0.0749501
vt 0.15748 0.0955054
f 228/614/20 229/615/19 137/616/19 136/617/20 

vt 1.06581e-013 0.145855
vt 1.06581e-013 0.1253
vt 0.15748 0.1253
vt 0.15748 0.145855
f 226/618/22 228/619/20 136/620/20 134/621/22 

vt 1.06581e-013 0.186966
vt 1.06581e-013 0.166411
vt 0.15748 0.166411
vt 0.15748 0.186966
f 225/622/24 226/623/22 134/624/22 133/625/24 

vt 1.06581e-013 0.216036
vt 1.06581e-013 0.19548
vt 0.15748 0.19548
vt 0.15748 0.216036
f 224/626/25 225/627/24 133/628/24 132/629/25 

vt 1.06581e-013 0.231083
vt 1.06581e-013 0.210528
vt 0.15748 0.210528
vt 0.15748 0.231083
f 222/630/26 224/631/25 132/632/25 130/633/26 

f 221/630/27 222/631/26 130/632/26 129/633/27 

f 220/626/28 221/627/27 129/628/27 128/629/28 

f 92/622/29 220/623/28 128/624/28 91/625/29 

vt -1.06581e-013 0.115022
vt -1.06581e-013 0.156133
vt -0.15748 0.156133
vt -0.15748 0.115022
f 40/634/14 227/635/23 135/636/23 41/637/14 

vt -1.06581e-013 0.197244
vt -0.15748 0.197244
f 227/635/23 223/638/21 131/639/21 135/636/23 

vt -1.06581e-013 0.185203
vt -1.06581e-013 0.226313
vt -0.15748 0.226313
vt -0.15748 0.185203
f 223/640/21 219/641/2 127/642/2 131/643/21 

vt -1.06581e-013 0.20025
vt -1.06581e-013 0.241361
vt -0.15748 0.241361
vt -0.15748 0.20025
f 219/644/2 218/645/1 126/646/1 127/647/2 

v 83.8938 7.4641 -49.4483
v 83.8938 7.4641 -53.4483
f 218/644/1 232/645/6 233/646/6 126/647/1 

v 299.894 7.4641 -49.4483
vt 8.58268 0.293862
vt 0.0787402 0.293862
f 218/585/3 234/648/3 232/649/3

f 218/585/3 175/454/3 234/648/3

vt 1.06581e-013 -6.6302
vt 1.06581e-013 -6.67131
vt 0.15748 -6.67131
v 299.894 7.4641 -53.4483
vt 0.15748 -6.6302
f 234/650/17 175/651/18 176/652/18 235/653/17 

vt -8.58268 0.293862
f 176/459/7 126/327/7 235/654/7

f 125/326/7 126/327/7 176/459/7

vt -0.0787402 0.293862
f 235/654/7 126/327/7 233/655/7

v 84.8585 7.8637 -53.4483
vt -0.116721 0.309595
f 235/654/7 233/655/7 236/656/7

v 84.8585 7.8637 -49.4483
f 232/640/6 237/641/5 236/642/5 233/643/6 

v 298.929 7.8637 -49.4483
vt 8.5447 0.309595
vt 0.116721 0.309595
f 232/649/3 238/657/3 237/658/3

f 232/649/3 234/648/3 238/657/3

vt 1.06581e-013 -7.77579
vt 1.06581e-013 -7.8169
vt 0.15748 -7.8169
v 298.929 7.8637 -53.4483
vt 0.15748 -7.77579
f 238/659/15 234/660/17 235/661/17 239/662/15 

vt -8.5447 0.309595
f 235/654/7 236/656/7 239/663/7

v 297.894 8 -53.4483
vt -8.50394 0.314961
f 239/663/7 236/656/7 240/664/7

v 85.8938 8 -53.4483
vt -0.15748 0.314961
f 240/664/7 236/656/7 241/665/7

v 85.8938 8 -49.4483
vn -0.130526 0.991445 -0
f 237/635/5 242/638/36 241/639/36 236/636/5 

v 297.894 8 -49.4483
vt 8.50394 0.314961
vt 0.15748 0.314961
f 237/658/3 243/666/3 242/667/3

f 237/658/3 238/657/3 243/666/3

vt 1.06581e-013 -8.39007
vn 0.130526 0.991445 -0
vt 1.06581e-013 -8.43118
vt 0.15748 -8.43118
vt 0.15748 -8.39007
f 243/668/37 238/669/15 239/670/15 240/671/37 

vt 0.15748 1.06581e-013
vn 1.06414e-016 1 -0
vt 8.50394 1.06581e-013
vt 8.50394 0.15748
vt 0.15748 0.15748
f 242/672/38 243/673/38 240/674/38 241/675/38 

vt -1.06581e-013 -8.42091
vt -1.06581e-013 -8.40035
vt -0.15748 -8.40035
v 298.411 5.93185 -53.4483
vt -0.15748 -8.42091
f 173/676/10 174/677/29 177/678/29 244/679/10 

vt -8.52432 0.233537
f 168/437/7 244/680/7 177/460/7

vt -8.54331 0.225671
f 168/437/7 172/681/7 244/680/7

f 168/437/7 169/436/7 172/681/7

vt -1.06581e-013 -7.80663
vt -1.06581e-013 -7.78607
vt -0.15748 -7.78607
vt -0.15748 -7.80663
f 171/682/11 173/683/10 244/684/10 172/685/11 

vt -7.10543e-015 5.28773
vt -7.10543e-015 5.30828
vt -0.15748 5.30828
vt -0.15748 5.28773
f 21/686/5 199/687/6 196/688/6 20/689/5 

vt 1.06617e-013 -8.40035
vt 1.06617e-013 -8.42091
vt 0.15748 -8.42091
vt 0.15748 -8.40035
f 22/690/35 23/691/33 18/692/33 19/693/35 

