# Alias OBJ Model File
# Exported from SketchUp, (c) 2000-2012 Trimble Navigation Limited
# File units = millimeters

mtllib servo_krep.mtl

g Mesh1 Group1 Model

usemtl Color_M07
v 47.4481 6.93278 -4.46103
vt -8.03051e-006 0.210591
vn -3.71092e-007 -0.965933 -0.258791
v 47.4481 7.00091 -4.97867
vt -8.09261e-006 0.231146
vn -3.84178e-007 -1 2.92849e-005
v 52.4481 7.0002 -4.97846
vt -0.196858 0.231134
v 52.4481 6.93207 -4.46082
vt -0.196858 0.210578
f 1/1/1 2/2/2 3/3/2 4/4/1 

vt -0.176481 0.272944
vn -1 7.08016e-005 -2.1021e-005
v 47.4481 10.0009 -4.97876
vt -0.196864 0.393737
vt -0.196861 0.275626
f 1/5/3 5/6/3 2/7/3

v 47.4481 6.73299 -3.97866
vt -0.157491 0.265078
f 6/8/3 5/6/3 1/5/3

v 47.4481 9.83058 -3.68466
vt -0.145916 0.387031
f 6/8/3 7/9/3 5/6/3

v 47.4481 6.41516 -3.56444
vt -0.141183 0.252566
f 8/10/3 7/9/3 6/8/3

v 47.4481 6.00096 -3.24659
vt -0.128669 0.236258
f 9/11/3 7/9/3 8/10/3

v 47.4481 5.5186 -3.04678
vt -0.120802 0.217268
f 10/12/3 7/9/3 9/11/3

v 47.4481 9.33111 -2.47874
vt -0.0984385 0.367366
f 10/12/3 11/13/3 7/9/3

v 47.4481 5.00097 -2.97861
vt -0.118119 0.196888
f 11/13/3 10/12/3 12/14/3

vt -7.44709e-006 0.210624
vn -1.65483e-011 -2.92849e-005 -1
vt -7.46713e-006 0.23118
vn -9.94485e-008 -0.258847 -0.965918
v 52.4481 5.5179 -3.04657
vt -0.196858 0.231151
v 52.4481 5.00026 -2.9784
vt -0.196858 0.210596
f 12/15/4 10/16/5 13/17/5 14/18/4 

vt -7.48024e-006 0.246959
vt -7.50004e-006 0.267514
vn -1.92103e-007 -0.500025 -0.866011
v 52.4481 6.00025 -3.24638
vt -0.196858 0.267486
vt -0.196858 0.24693
f 10/19/5 9/20/6 15/21/6 13/22/5 

vt -7.5175e-006 0.265764
vt -7.53712e-006 0.286319
vn -2.71666e-007 -0.707127 -0.707086
v 52.4481 6.41446 -3.56423
vt -0.196858 0.286292
vt -0.196858 0.265737
f 9/23/6 8/24/7 16/25/7 15/26/6 

vt -7.56618e-006 0.265756
vt -7.58657e-006 0.286312
vn -3.32716e-007 -0.86604 -0.499975
v 52.4481 6.73228 -3.97845
vt -0.196858 0.286288
vt -0.196858 0.265733
f 8/27/7 6/28/8 17/29/8 16/30/7 

vt -7.6538e-006 0.246938
vt -7.6791e-006 0.267493
vt -0.196858 0.267475
vt -0.196858 0.24692
f 6/31/8 1/32/1 4/33/1 17/34/8 

v 52.4481 10.0002 -4.97855
vt 0.196856 0.393709
vn 1 -3.84178e-007 -5.29764e-012
vt 0.157482 0.265051
vt 0.176473 0.272916
f 18/35/9 17/36/9 4/37/9

v 52.4481 9.82987 -3.68445
vt 0.145907 0.387003
f 19/38/9 17/36/9 18/35/9

vt 0.141174 0.252538
f 19/38/9 16/39/9 17/36/9

vt 0.128661 0.236231
f 19/38/9 15/40/9 16/39/9

vt 0.120794 0.21724
f 19/38/9 13/41/9 15/40/9

v 52.4481 9.3304 -2.47853
vt 0.0984302 0.367339
f 20/42/9 13/41/9 19/38/9

vt 0.11811 0.196861
f 13/41/9 20/42/9 14/43/9

v 52.4481 0.670149 -2.47828
vt 0.0984202 0.0263839
f 20/42/9 21/44/9 14/43/9

v 52.4481 8.53584 -1.44297
vt 0.0576602 0.336057
f 22/45/9 21/44/9 20/42/9

v 52.4481 1.46477 -1.44277
vt 0.0576521 0.0576683
f 22/45/9 23/46/9 21/44/9

v 52.4481 7.50033 -0.64835
vt 0.0263758 0.295289
f 24/47/9 23/46/9 22/45/9

v 52.4481 2.50033 -0.648203
vt 0.0263701 0.0984382
f 24/47/9 25/48/9 23/46/9

v 52.4481 6.29444 -0.148812
vt 0.00670901 0.247813
f 26/49/9 25/48/9 24/47/9

v 52.4481 3.70625 -0.148737
vt 0.00670602 0.145915
f 26/49/9 27/50/9 25/48/9

v 52.4481 5.00035 0.0215963
vt -1.04288e-012 0.196864
f 27/50/9 26/49/9 28/51/9

v 47.4481 6.29515 -0.149023
vt 7.49122e-006 0.246596
vn 9.94485e-008 0.258847 0.965918
v 47.4481 5.00106 0.0213861
vt 7.44112e-006 0.195208
vn 1.65483e-011 2.92849e-005 1
vt 0.196858 0.195179
vt 0.196858 0.246567
f 29/52/10 30/53/11 28/54/11 26/55/10 

vt -0.00671728 0.24784
v 47.4481 3.70696 -0.148947
vt -0.0067143 0.145943
vt -8.27613e-006 0.196892
f 29/56/3 31/57/3 30/58/3

v 47.4481 2.50104 -0.648414
vt -0.0263783 0.098466
f 31/57/3 29/56/3 32/59/3

v 47.4481 7.50104 -0.64856
vt -0.0263841 0.295316
f 32/59/3 29/56/3 33/60/3

vt 7.54145e-006 0.282931
vn 1.92103e-007 0.500025 0.866011
vt 7.49195e-006 0.231543
vt 0.196858 0.231514
vt 0.196858 0.282902
f 33/61/12 29/62/10 26/63/10 24/64/12 

v 47.4481 8.53655 -1.44318
vt 7.59407e-006 0.301735
vn 2.71666e-007 0.707127 0.707086
vt 7.54503e-006 0.250347
vt 0.196858 0.25032
vt 0.196858 0.301708
f 34/65/13 33/66/12 24/67/12 22/68/13 

v 47.4481 1.46548 -1.44298
vt -0.0576603 0.057696
vt -0.0576685 0.336084
f 35/69/3 33/60/3 34/70/3

f 32/59/3 33/60/3 35/69/3

vt 7.33721e-006 0.0620626
vn -1.92075e-007 -0.499975 0.86604
vt 7.28816e-006 0.0106743
vn -2.71643e-007 -0.707086 0.707127
vt 0.196858 0.0106572
vt 0.196858 0.0620455
f 32/71/14 35/72/15 23/73/15 25/74/14 

vt 7.27629e-006 -0.0106196
v 47.4481 0.670855 -2.47849
vt 7.22533e-006 -0.0620078
vn -3.32699e-007 -0.866011 0.500025
vt 0.196858 -0.0620183
vt 0.196858 -0.01063
f 35/75/15 36/76/16 21/77/16 23/78/15 

vt -0.0984285 0.0264116
f 35/69/3 34/70/3 36/79/3

f 36/79/3 34/70/3 11/13/3

vt 7.65691e-006 0.301728
vn 3.32716e-007 0.86604 0.499975
vt 7.60594e-006 0.25034
vt 0.196858 0.250316
vt 0.196858 0.301705
f 11/80/17 34/81/13 22/82/13 20/83/17 

vt 7.76217e-006 0.28291
vn 3.71092e-007 0.965933 0.258791
vt 7.69893e-006 0.231522
vt 0.196858 0.231503
vt 0.196858 0.282891
f 7/84/18 11/85/17 20/86/17 19/87/18 

vt 8.20798e-006 0.246562
vn 3.80893e-007 0.991449 0.130497
vt 8.05272e-006 0.195174
vt 0.196858 0.195162
vt 0.196859 0.24655
f 5/88/19 7/89/18 19/90/18 18/91/19 

v 47.4481 10.0008 -9.97861
vt 6.95722e-006 0.393698
vn 3.84178e-007 1 -2.9285e-005
vt 7.48211e-006 0.196853
vt 0.196858 0.196845
v 52.4481 10.0001 -9.9784
vt 0.196857 0.393689
f 37/92/20 5/93/20 18/94/20 38/95/20 

v 47.4481 6.93275 -5.49631
vt -0.21724 0.272943
vt -0.393709 0.393731
f 39/96/3 5/6/3 37/97/3

f 2/7/3 5/6/3 39/96/3

vt 6.94368e-006 -0.159192
vt 6.88161e-006 -0.179747
vn -3.71083e-007 -0.965918 0.258847
v 52.4481 6.93204 -5.4961
vt 0.196857 -0.179743
vt 0.196857 -0.159188
f 2/98/2 39/99/21 40/100/21 3/101/2 

vt 7.31393e-006 -0.0962434
v 47.4481 6.73293 -5.97866
vt 7.28863e-006 -0.116799
v 52.4481 6.73222 -5.97845
vt 0.196858 -0.116802
vt 0.196858 -0.0962466
f 39/102/21 41/103/16 42/104/16 40/105/21 

vt -0.236231 0.265076
f 39/96/3 37/97/3 41/106/3

v 47.4481 6.41508 -6.39287
vt -0.252538 0.252562
f 41/106/3 37/97/3 43/107/3

v 47.4481 6.00086 -6.71069
vt -0.265051 0.236254
f 43/107/3 37/97/3 44/108/3

v 47.4481 5.51849 -6.91048
vt -0.272916 0.217263
f 44/108/3 37/97/3 45/109/3

v 47.4481 5.00085 -6.97861
vt -0.275599 0.196884
f 45/109/3 37/97/3 46/110/3

v 47.4479 0.00525956 -13.4776
vt -0.531464 0.000207068
f 47/111/3 46/110/3 37/97/3

v 47.4481 4.48321 -6.91045
vt -0.272915 0.176504
f 47/111/3 48/112/3 46/110/3

v 47.4481 4.00086 -6.71064
vt -0.265048 0.157514
f 47/111/3 49/113/3 48/112/3

v 47.4481 3.58665 -6.39279
vt -0.252535 0.141207
f 47/111/3 50/114/3 49/113/3

v 47.4481 3.26883 -5.97856
vt -0.236227 0.128694
f 47/111/3 51/115/3 50/114/3

v 47.4481 3.06904 -5.4962
vt -0.217236 0.120828
f 47/111/3 52/116/3 51/115/3

v 47.4481 3.00091 -4.97856
vt -0.196856 0.118146
f 47/111/3 53/117/3 52/116/3

v 47.4481 0.000908817 -4.97847
vt -0.196853 3.57804e-005
f 54/118/3 53/117/3 47/111/3

v 47.4481 3.06907 -4.46092
vt -0.176477 0.12083
f 54/118/3 55/119/3 53/117/3

v 47.4481 3.26889 -3.97856
vt -0.157487 0.128696
f 54/118/3 56/120/3 55/119/3

v 47.4481 0.171318 -3.68438
vt -0.145904 0.00674479
f 57/121/3 56/120/3 54/118/3

v 47.4481 3.58674 -3.56436
vt -0.141179 0.14121
f 57/121/3 58/122/3 56/120/3

v 47.4481 4.00096 -3.24653
vt -0.128667 0.157518
f 57/121/3 59/123/3 58/122/3

v 47.4481 4.48333 -3.04675
vt -0.120801 0.176509
f 57/121/3 60/124/3 59/123/3

f 36/79/3 60/124/3 57/121/3

f 36/79/3 12/14/3 60/124/3

f 36/79/3 11/13/3 12/14/3

vt -7.4151e-006 0.159235
vn 9.94165e-008 0.258791 -0.965933
vt -7.43514e-006 0.179791
vt -0.196858 0.179764
v 52.4481 4.48262 -3.04654
vt -0.196858 0.159209
f 60/125/22 12/126/4 14/127/4 61/128/22 

vt 0.120793 0.176481
f 14/43/9 21/44/9 61/129/9

v 52.4481 0.170611 -3.68417
vt 0.145896 0.00671706
f 61/129/9 21/44/9 62/130/9

vt 7.18332e-006 -0.080827
vt 7.12008e-006 -0.132215
vt 0.196858 -0.132218
vt 0.196858 -0.0808301
f 36/131/16 57/132/21 62/133/21 21/134/16 

vt 6.82972e-006 -0.143775
vt 6.67453e-006 -0.195163
vn -3.80889e-007 -0.991441 0.130555
v 52.4481 0.000202722 -4.97826
vt 0.196857 -0.195159
vt 0.196857 -0.143771
f 57/135/21 54/136/23 63/137/23 62/138/21 

vt -0.196858 0.196845
vn -6.69922e-005 -1 -4.42e-005
vt -7.24644e-006 0.196853
vt 1.3872e-008 0.531464
v 66.4481 0 -13.4784
vt -0.748039 0.531496
v 66.4481 0.00165159 -63.4784
vt -0.748039 2.5
v 47.4481 0.00235535 -63.4781
vt -7.76877e-006 2.49999
v 47.4481 0.00611526 -71.9781
vt -8.71065e-006 2.83463
v 52.4481 0.00541091 -71.9784
vt -0.196859 2.83465
v 52.4481 0.00541091 -66.9783
vt -0.196859 2.63779
v 69.9481 0.00177108 -66.9784
vt -0.885835 2.6378
v 69.9481 0.0035714 -9.97827
vt -0.885835 0.393696
v 52.4481 5.62933e-005 -9.9784
vt -0.196858 0.393701
f 63/139/24 54/140/24 47/141/24 64/142/24 65/143/24 66/144/24 67/145/24 68/146/24 69/147/24 70/148/24 71/149/24 72/150/24 

vt -0.7481 -6.47943e-006
vn -0.000114454 1.21929e-005 -1
vt -6.08282e-005 0.000200589
v 47.4494 20.0053 -13.4773
vt -0.000121156 0.787602
v 66.4496 20 -13.4782
vt -0.74816 0.787395
f 64/151/25 47/152/25 73/153/25 74/154/25 

vt -0.531454 0.787609
f 47/111/3 37/97/3 73/155/3

v 47.4496 20.0008 -9.97837
vt -0.393699 0.787432
f 73/155/3 37/97/3 75/156/3

vt 0.196853 -2.84071e-006
vn -1.34977e-005 -1.28446e-005 1
vt 0.88583 0.000135549
v 69.9496 20.0036 -9.97803
vt 0.88589 0.787537
vt 6.27885e-005 0.787427
vt 1.79433e-006 0.393726
vt 0.196852 0.393698
f 72/157/26 71/158/26 76/159/26 75/160/26 37/161/26 38/162/26 

vt 0.393696 0.000208477
vn 1 -7.66175e-005 -1.8781e-007
vt 2.6378 0.000137598
v 69.9496 20.0018 -66.9782
vt 2.63779 0.787539
vt 0.393686 0.78761
f 71/163/27 70/164/27 77/165/27 76/166/27 

vt -0.88585 3.67112e-005
vn -5.67819e-006 1.25166e-005 -1
vt -0.196874 0.000180012
v 52.4481 10.0054 -66.9783
vt -0.196875 0.393881
v 47.4481 10.0061 -66.978
vt -2.42295e-005 0.393909
v 47.4496 20.0061 -66.9777
vt -8.35084e-005 0.787609
vt -0.88591 0.787438
f 70/167/28 69/168/28 78/169/28 79/170/28 80/171/28 77/172/28 

vt 2.83465 0.000213086
vn 1 -2.96382e-007 -7.49237e-007
vt 2.63779 0.393914
vt 2.63779 0.000213086
f 68/173/29 78/174/29 69/175/29

v 52.4481 4.00541 -70.2464
vt 2.76646 0.157693
f 78/174/29 68/173/29 81/176/29

v 52.4481 3.5912 -70.5642
vt 2.77897 0.141386
f 81/176/29 68/173/29 82/177/29

v 52.4481 3.27336 -70.9784
vt 2.79528 0.128873
f 82/177/29 68/173/29 83/178/29

v 52.4481 3.07356 -71.4608
vt 2.81427 0.121006
f 83/178/29 68/173/29 84/179/29

v 52.4481 3.00541 -71.9784
vt 2.83465 0.118323
f 84/179/29 68/173/29 85/180/29

v 52.4481 0.175782 -73.2725
vt 2.88559 0.0069206
f 85/180/29 68/173/29 86/181/29

vt -1.7232e-005 2.81042
vn -3.91641e-007 -0.991445 -0.130526
v 47.4481 0.176486 -73.2722
vt -1.73849e-005 2.8618
vn -4.802e-007 -0.965926 -0.258819
vt -0.196868 2.86181
vt -0.196868 2.81042
f 67/182/30 87/183/31 86/184/31 68/185/30 

vt -2.83463 0.000240765
vn -1 7.05831e-005 2.88802e-005
v 47.4481 3.07426 -72.4958
vt -2.85501 0.121034
vt -2.88558 0.00694828
f 67/186/32 88/187/32 87/188/32

v 47.4481 3.00612 -71.9781
vt -2.83463 0.118351
f 67/186/32 89/189/32 88/187/32

v 47.4481 3.07426 -71.4605
vt -2.81426 0.121034
f 67/186/32 90/190/32 89/189/32

v 47.4481 3.27406 -70.9781
vt -2.79526 0.1289
f 67/186/32 91/191/32 90/190/32

v 47.4481 3.5919 -70.5639
vt -2.77896 0.141413
f 67/186/32 92/192/32 91/191/32

v 47.4481 4.00612 -70.2461
vt -2.76644 0.157721
f 67/186/32 93/193/32 92/192/32

vt -2.63778 0.393942
f 67/186/32 79/194/32 93/193/32

vt -2.49999 9.27358e-005
f 66/195/32 79/194/32 67/186/32

vt -2.63777 0.787642
f 66/195/32 80/196/32 79/194/32

v 47.4496 20.0024 -63.4779
vt -2.49998 0.787494
f 80/196/32 66/195/32 94/197/32

vt 7.77498e-006 6.227e-005
vn -3.10284e-012 -1.21841e-005 1
vt 0.748039 3.45631e-005
v 66.4496 20.0017 -63.4782
vt 0.7481 0.787436
vt 6.81037e-005 0.787464
f 66/198/33 65/199/33 95/200/33 94/201/33 

vt -2.5 0.000122336
vn -1 7.66175e-005 2.53085e-009
vt -0.531496 5.73129e-005
vt -0.531486 0.787459
vt -2.49999 0.787524
f 65/202/34 64/203/34 74/204/34 95/205/34 

vt 0.748039 0.531496
vn 7.66175e-005 1 1.21841e-005
vt -1.58651e-008 0.531464
vt 7.77143e-006 0.393709
vt 0.885835 0.393696
vt 0.885835 2.6378
vt 8.18344e-006 2.63778
vt 7.76788e-006 2.49999
vt 0.748039 2.5
f 74/206/35 73/207/35 75/208/35 76/209/35 77/210/35 80/211/35 94/212/35 95/213/35 

v 47.4481 4.48848 -70.0463
vt -2.75858 0.176712
f 93/193/32 79/194/32 96/214/32

v 47.4481 5.00612 -69.9781
vt -2.75589 0.197091
f 96/214/32 79/194/32 97/215/32

v 47.4481 5.52375 -70.0463
vt -2.75858 0.217471
f 79/194/32 98/216/32 97/215/32

v 47.4481 6.00612 -70.2461
vt -2.76644 0.236461
f 98/216/32 79/194/32 99/217/32

v 47.4481 10.0061 -71.9781
vt -2.83463 0.393942
f 99/217/32 79/194/32 100/218/32

vt 8.61002e-006 2.83463
vn 2.96382e-007 1 1.3431e-011
vt 9.13491e-006 2.63778
vt 0.19686 2.63779
v 52.4481 10.0054 -71.9784
vt 0.196859 2.83465
f 100/219/36 79/220/36 78/221/36 101/222/36 

v 52.4481 6.00541 -70.2464
vt 2.76646 0.236434
vt 2.83465 0.393914
f 78/174/29 102/223/29 101/224/29

v 52.4481 5.52305 -70.0466
vt 2.75859 0.217443
f 102/223/29 78/174/29 103/225/29

v 52.4481 5.00541 -69.9784
vt 2.75591 0.197063
f 103/225/29 78/174/29 104/226/29

v 52.4481 4.48777 -70.0466
vt 2.75859 0.176684
f 78/174/29 105/227/29 104/226/29

f 78/174/29 81/176/29 105/227/29

vt -1.04599e-005 -0.912957
vn -5.00668e-007 0.5 -0.866025
vt -1.04549e-005 -0.892402
vn -6.46999e-007 0.258819 -0.965926
vt -0.196861 -0.892432
vt -0.196861 -0.912987
f 93/228/37 96/229/38 105/230/38 81/231/37 

vt -1.0686e-005 -0.184867
vt -1.06841e-005 -0.164311
vn -7.49237e-007 3.77934e-015 -1
vt -0.196861 -0.16434
vt -0.196861 -0.184896
f 96/232/38 97/233/39 104/234/39 105/235/38 

vt -1.08991e-005 0.555121
vt -1.09012e-005 0.575677
vn -8.00417e-007 -0.258819 -0.965926
vt -0.196861 0.575651
vt -0.196861 0.555095
f 97/236/39 98/237/40 103/238/40 104/239/39 

vt -1.11323e-005 1.25658
vt -1.11391e-005 1.27713
vn -7.97049e-007 -0.5 -0.866025
vt -0.196862 1.27711
vt -0.196862 1.25656
f 98/240/40 99/241/41 102/242/41 103/243/40 

vt -1.14286e-005 1.8717
v 47.4481 6.42033 -70.5639
vt -1.14409e-005 1.89226
vn -7.39364e-007 -0.707107 -0.707107
v 52.4481 6.41962 -70.5642
vt -0.196862 1.89224
vt -0.196862 1.87169
f 99/244/41 106/245/42 107/246/42 102/247/41 

vt -2.77896 0.252769
f 99/217/32 100/218/32 106/248/32

v 47.4481 6.73817 -70.9781
vt -2.79526 0.265282
f 106/248/32 100/218/32 108/249/32

v 47.4481 6.93797 -71.4605
vt -2.81426 0.273148
f 108/249/32 100/218/32 109/250/32

v 47.4481 7.00612 -71.9781
vt -2.83463 0.275831
f 109/250/32 100/218/32 110/251/32

v 47.4481 9.83574 -73.2722
vt -2.88558 0.387234
f 110/251/32 100/218/32 111/252/32

vt -4.39261e-006 -2.81035
vn 9.23658e-008 0.965926 -0.258819
vt -4.46914e-006 -2.75896
vn 1.96051e-007 0.991445 -0.130526
vt -0.196855 -2.75898
v 52.4481 9.83504 -73.2725
vt -0.196855 -2.81037
f 111/253/43 100/254/44 101/255/44 112/256/43 

v 52.4481 6.93726 -72.4961
vt 2.85503 0.273121
vt 2.88559 0.387206
f 101/224/29 113/257/29 112/258/29

v 52.4481 7.00541 -71.9784
vt 2.83465 0.275804
f 101/224/29 114/259/29 113/257/29

v 52.4481 6.93726 -71.4608
vt 2.81427 0.273121
f 101/224/29 115/260/29 114/259/29

v 52.4481 6.73746 -70.9784
vt 2.79528 0.265254
f 101/224/29 116/261/29 115/260/29

vt 2.77897 0.252741
f 101/224/29 107/262/29 116/261/29

f 101/224/29 102/223/29 107/262/29

vt -1.18823e-005 2.35857
vt -1.19008e-005 2.37913
vn -6.31293e-007 -0.866025 -0.5
vt -0.196862 2.37912
vt -0.196862 2.35856
f 106/263/42 108/264/45 116/265/45 107/266/42 

vt -1.28212e-005 2.68401
vt -1.2849e-005 2.70456
vt -0.196863 2.70456
vt -0.196863 2.68401
f 108/267/45 109/268/31 115/269/31 116/270/45 

vt -1.71709e-005 2.82583
vt -1.7232e-005 2.84639
vn -2.96382e-007 -1 3.77934e-015
vt -0.196868 2.84639
vt -0.196868 2.82584
f 109/271/31 110/272/46 114/273/46 115/274/31 

vt 4.46914e-006 -2.77438
v 47.4481 6.93797 -72.4958
vt 4.43853e-006 -2.79494
vn -9.23658e-008 -0.965926 0.258819
vt 0.196855 -2.79495
vt 0.196855 -2.7744
f 110/275/46 117/276/47 113/277/47 114/278/46 

vt -2.85501 0.273148
f 110/251/32 111/252/32 117/279/32

v 47.4481 6.73817 -72.9781
vt -2.87401 0.265282
f 117/279/32 111/252/32 118/280/32

v 47.4481 6.42033 -73.3923
vt -2.89031 0.252769
f 118/280/32 111/252/32 119/281/32

v 47.4481 9.33624 -74.4781
vt -2.93306 0.367569
f 119/281/32 111/252/32 120/282/32

vt -8.82564e-006 -2.56913
vn -1.17945e-007 0.866025 -0.5
vt -8.82404e-006 -2.51774
vt -0.196859 -2.51776
v 52.4481 9.33554 -74.4784
vt -0.196859 -2.56915
f 120/283/48 111/284/43 112/285/43 121/286/48 

v 52.4481 6.41962 -73.3926
vt 2.89032 0.252741
vt 2.93307 0.367541
f 112/258/29 122/287/29 121/288/29

v 52.4481 6.73746 -72.9784
vt 2.87402 0.265254
f 112/258/29 123/289/29 122/287/29

f 112/258/29 113/257/29 123/289/29

vt 8.82301e-006 -2.53316
vt 8.82365e-006 -2.55372
vn 1.17945e-007 -0.866025 0.5
vt 0.196859 -2.55374
vt 0.196859 -2.53318
f 117/290/47 118/291/49 123/292/49 113/293/47 

vt 9.77e-006 -2.11861
vt 9.77592e-006 -2.13916
vn 3.20217e-007 -0.707107 0.707107
vt 0.19686 -2.13919
vt 0.19686 -2.11863
f 118/294/49 119/295/50 122/296/50 123/297/49 

vt 1.0235e-005 -1.55898
v 47.4481 6.00612 -73.7102
vt 1.02415e-005 -1.57953
vn 5.00668e-007 -0.5 0.866025
v 52.4481 6.00541 -73.7105
vt 0.196861 -1.57956
vt 0.196861 -1.559
f 119/298/50 124/299/51 125/300/51 122/301/50 

vt -2.90283 0.236461
f 119/281/32 120/282/32 124/302/32

v 47.4481 5.52375 -73.91
vt -2.91069 0.217471
f 124/302/32 120/282/32 126/303/32

v 47.4481 5.00612 -73.9781
vt -2.91338 0.197091
f 126/303/32 120/282/32 127/304/32

v 47.4481 0.675988 -74.4781
vt -2.93306 0.0266137
f 128/305/32 127/304/32 120/282/32

v 47.4481 4.48848 -73.91
vt -2.91069 0.176712
f 128/305/32 129/306/32 127/304/32

v 47.4481 4.00612 -73.7102
vt -2.90283 0.157721
f 128/305/32 130/307/32 129/306/32

v 47.4481 3.5919 -73.3923
vt -2.89031 0.141413
f 128/305/32 131/308/32 130/307/32

f 87/188/32 131/308/32 128/305/32

v 47.4481 3.27406 -72.9781
vt -2.87401 0.1289
f 87/188/32 132/309/32 131/308/32

f 87/188/32 88/187/32 132/309/32

vt 1.29365e-005 2.70456
vn 6.31293e-007 0.866025 0.5
vt 1.29087e-005 2.68401
vn 4.802e-007 0.965926 0.258819
v 52.4481 3.07356 -72.4961
vt 0.196863 2.68401
v 52.4481 3.27336 -72.9784
vt 0.196863 2.70456
f 132/310/52 88/311/53 133/312/53 134/313/52 

vt 1.72932e-005 2.84639
vt 1.7232e-005 2.82583
vn 2.96382e-007 1 -3.77934e-015
vt 0.196868 2.82584
vt 0.196868 2.84639
f 88/314/53 89/315/54 85/316/54 133/317/53 

vt -4.46914e-006 -2.79494
vt -4.49975e-006 -2.77438
vt -0.196855 -2.7744
vt -0.196855 -2.79495
f 89/318/54 90/319/43 84/320/43 85/321/54 

vt -8.82164e-006 -2.55372
vt -8.821e-006 -2.53316
vt -0.196859 -2.53318
vt -0.196859 -2.55374
f 90/322/43 91/323/48 83/324/48 84/325/43 

vt -9.74141e-006 -2.13916
vt -9.7355e-006 -2.11861
vn -3.20217e-007 0.707107 -0.707107
vt -0.19686 -2.11863
vt -0.19686 -2.13919
f 91/326/48 92/327/55 82/328/55 83/329/48 

vt -1.01769e-005 -1.57953
vt -1.01703e-005 -1.55898
vt -0.196861 -1.559
vt -0.196861 -1.57956
f 92/330/55 93/331/37 81/332/37 82/333/55 

vt 2.85503 0.121006
f 85/180/29 86/181/29 133/334/29

vt 2.87402 0.128873
f 133/334/29 86/181/29 134/335/29

v 52.4481 3.5912 -73.3926
vt 2.89032 0.141386
f 134/335/29 86/181/29 135/336/29

v 52.4481 0.675284 -74.4784
vt 2.93307 0.026586
f 135/336/29 86/181/29 136/337/29

vt -1.29535e-005 2.66859
vt -1.3023e-005 2.71998
vt -0.196863 2.71998
vt -0.196863 2.66859
f 87/338/31 128/339/45 136/340/45 86/341/31 

vt -1.20572e-005 2.34315
v 47.4481 1.47058 -75.5137
vt -1.21035e-005 2.39454
v 52.4481 1.46988 -75.514
vt -0.196862 2.39453
vt -0.196862 2.34315
f 128/342/45 137/343/42 138/344/42 136/345/45 

v 47.4481 8.54165 -75.5137
vt -2.97383 0.336285
vt -2.97383 0.0578969
f 128/305/32 139/346/32 137/347/32

f 128/305/32 120/282/32 139/346/32

vt -9.80623e-006 -2.15458
vt -9.79143e-006 -2.10319
vt -0.19686 -2.10322
v 52.4481 8.54094 -75.514
vt -0.19686 -2.15461
f 139/348/55 120/349/48 121/350/48 140/351/55 

vt 2.97384 0.0578692
vt 2.97384 0.336258
f 121/288/29 138/352/29 140/353/29

f 121/288/29 136/337/29 138/352/29

v 52.4481 5.00541 -73.9784
vt 2.91339 0.197063
f 121/288/29 141/354/29 136/337/29

v 52.4481 5.52305 -73.9103
vt 2.9107 0.217443
f 121/288/29 142/355/29 141/354/29

vt 2.90284 0.236434
f 121/288/29 125/356/29 142/355/29

f 121/288/29 122/287/29 125/356/29

vt 1.05453e-005 -0.892402
vt 1.05502e-005 -0.912957
vn 6.46999e-007 -0.258819 0.965926
vt 0.196861 -0.912987
vt 0.196861 -0.892432
f 124/357/51 126/358/56 142/359/56 125/360/51 

vt 1.0794e-005 -0.164311
vt 1.07959e-005 -0.184867
vn 7.49237e-007 -3.77934e-015 1
vt 0.196861 -0.184896
vt 0.196861 -0.16434
f 126/361/56 127/362/57 141/363/57 142/364/56 

vt 1.10233e-005 0.575677
vt 1.10211e-005 0.555121
vn 8.00417e-007 0.258819 0.965926
v 52.4481 4.48777 -73.9103
vt 0.196861 0.555095
vt 0.196861 0.575651
f 127/365/57 129/366/58 143/367/58 141/368/57 

vt 1.12649e-005 1.27713
vt 1.1258e-005 1.25658
vn 7.97049e-007 0.5 0.866025
v 52.4481 4.00541 -73.7105
vt 0.196862 1.25656
vt 0.196862 1.27711
f 129/369/58 130/370/59 144/371/59 143/372/58 

vt 1.15618e-005 1.89226
vt 1.15496e-005 1.8717
vn 7.39364e-007 0.707107 0.707107
vt 0.196862 1.87169
vt 0.196862 1.89224
f 130/373/59 131/374/60 135/375/60 144/376/59 

vt 1.20087e-005 2.37913
vt 1.19902e-005 2.35857
vt 0.196862 2.35856
vt 0.196862 2.37912
f 131/377/60 132/378/52 134/379/52 135/380/60 

vt 2.90284 0.157693
f 135/336/29 136/337/29 144/381/29

vt 2.9107 0.176684
f 144/381/29 136/337/29 143/382/29

f 143/382/29 136/337/29 141/354/29

v 52.4481 2.50541 -76.3085
vt 3.00512 0.0986383
f 140/353/29 138/352/29 145/383/29

vt -1.16312e-005 1.85629
v 47.4481 2.50612 -76.3083
vt -1.16617e-005 1.90767
vt -0.196862 1.90766
vt -0.196862 1.85627
f 137/384/42 146/385/41 145/386/41 138/387/42 

v 47.4481 7.50612 -76.3083
vt -3.00511 0.295516
vt -3.00511 0.098666
f 137/347/32 147/388/32 146/389/32

f 137/347/32 139/346/32 147/388/32

vt -1.02949e-005 -1.59495
vt -1.02786e-005 -1.54356
vt -0.196861 -1.54359
v 52.4481 7.50541 -76.3085
vt -0.196861 -1.59498
f 147/390/37 139/391/55 140/392/55 148/393/37 

vt 3.00512 0.295489
f 140/353/29 145/383/29 148/394/29

v 52.4481 3.71132 -76.808
vt 3.02479 0.146115
f 148/394/29 145/383/29 149/395/29

vt -1.13472e-005 1.24116
v 47.4481 3.71202 -76.8078
vt -1.13644e-005 1.29255
vt -0.196862 1.29253
vt -0.196862 1.24114
f 146/396/41 150/397/40 149/398/40 145/399/41 

v 47.4481 6.30021 -76.8078
vt -3.02478 0.24804
vt -3.02478 0.146143
f 146/389/32 151/400/32 150/401/32

f 146/389/32 147/388/32 151/400/32

vt -1.06217e-005 -0.928373
vt -1.06094e-005 -0.876985
vt -0.196861 -0.877015
v 52.4481 6.29951 -76.808
vt -0.196861 -0.928403
f 151/402/38 147/403/37 148/404/37 152/405/38 

vt 3.02479 0.248012
f 148/394/29 149/395/29 152/406/29

v 52.4481 5.00541 -76.9784
vt 3.0315 0.197063
f 152/406/29 149/395/29 153/407/29

vt -1.11111e-005 0.539705
v 47.4481 5.00612 -76.9781
vt -1.11164e-005 0.591093
vn -7.49237e-007 3.80733e-015 -1
vt -0.196862 0.591067
vt -0.196862 0.539679
f 150/408/40 154/409/61 153/410/61 149/411/40 

vt -3.03149 0.197091
f 150/401/32 151/400/32 154/412/32

vt -1.08798e-005 -0.200283
vt -1.0875e-005 -0.148895
vt -0.196861 -0.148924
vt -0.196861 -0.200312
f 154/413/61 151/414/38 152/415/38 153/416/61 

v 52.4481 5.00014 -6.9784
vt 0.275591 0.196856
vt 0.393701 2.2919e-006
vt 0.393701 0.393703
f 155/417/9 72/418/9 38/419/9

v 52.4481 4.48251 -6.91024
vt 0.272907 0.176477
f 156/420/9 72/418/9 155/417/9

v 52.4481 4.00015 -6.71043
vt 0.26504 0.157486
f 157/421/9 72/418/9 156/420/9

v 52.4481 3.58595 -6.39258
vt 0.252526 0.141179
f 158/422/9 72/418/9 157/421/9

v 52.4481 3.26812 -5.97835
vt 0.236218 0.128666
f 159/423/9 72/418/9 158/422/9

v 52.4481 3.06834 -5.49599
vt 0.217228 0.120801
f 160/424/9 72/418/9 159/423/9

v 52.4481 3.0002 -4.97835
vt 0.196848 0.118118
f 161/425/9 72/418/9 160/424/9

vt 0.196845 8.05682e-006
f 161/425/9 63/426/9 72/418/9

v 52.4481 3.06837 -4.46071
vt 0.176469 0.120802
f 162/427/9 63/426/9 161/425/9

v 52.4481 3.26818 -3.97835
vt 0.157478 0.128669
f 163/428/9 63/426/9 162/427/9

f 163/428/9 62/130/9 63/426/9

v 52.4481 3.58603 -3.56415
vt 0.141171 0.141182
f 164/429/9 62/130/9 163/428/9

v 52.4481 4.00025 -3.24632
vt 0.128658 0.15749
f 165/430/9 62/130/9 164/429/9

f 61/129/9 62/130/9 165/430/9

vt -7.38219e-006 0.0962944
vn 1.92075e-007 0.499975 -0.86604
vt -7.40199e-006 0.11685
vt -0.196858 0.116827
vt -0.196858 0.0962719
f 59/431/62 60/432/22 61/433/22 165/434/62 

vt -7.34511e-006 0.0260908
vn 2.71643e-007 0.707086 -0.707127
vt -7.36473e-006 0.0466461
vt -0.196858 0.046629
vt -0.196858 0.0260737
f 58/435/63 59/436/62 165/437/62 164/438/63 

vt -7.29566e-006 -0.0465913
vn 3.32699e-007 0.866011 -0.500025
vt -7.31605e-006 -0.026036
vt -0.196858 -0.0260465
vt -0.196858 -0.0466018
f 56/439/64 58/440/63 164/441/63 163/442/64 

vt -7.20316e-006 -0.116799
vn 3.71083e-007 0.965918 -0.258847
vt -7.22845e-006 -0.0962434
vt -0.196858 -0.0962466
vt -0.196858 -0.116802
f 55/443/65 56/444/64 163/445/64 162/446/65 

vt -6.78988e-006 -0.179747
vn 3.84178e-007 1 -2.92849e-005
vt -6.85196e-006 -0.159192
vt -0.196857 -0.159188
vt -0.196857 -0.179743
f 53/447/66 55/448/65 162/449/65 161/450/66 

vt 8.00089e-006 0.231146
vt 7.93878e-006 0.210591
vt 0.196858 0.210578
vt 0.196858 0.231134
f 52/451/18 53/452/66 161/453/66 160/454/18 

vt 7.59362e-006 0.267493
vt 7.56832e-006 0.246938
vt 0.196858 0.24692
vt 0.196858 0.267475
f 51/455/17 52/456/18 160/457/18 159/458/17 

vt 7.51317e-006 0.286312
vt 7.49278e-006 0.265756
vt 0.196858 0.265733
vt 0.196858 0.286288
f 50/459/13 51/460/17 159/461/17 158/462/13 

vt 7.48079e-006 0.286319
vt 7.46118e-006 0.265764
vt 0.196858 0.265737
vt 0.196858 0.286292
f 49/463/12 50/464/13 158/465/13 157/466/12 

vt 7.46464e-006 0.267514
vt 7.44484e-006 0.246959
vt 0.196858 0.24693
vt 0.196858 0.267486
f 48/467/10 49/468/12 157/469/12 156/470/10 

vt 7.45505e-006 0.23118
vt 7.43501e-006 0.210624
vt 0.196858 0.210596
vt 0.196858 0.231151
f 46/471/11 48/472/10 156/473/10 155/474/11 

vt 7.44721e-006 0.179791
vn -9.94165e-008 -0.258791 0.965933
vt 7.42717e-006 0.159235
vt 0.196858 0.159209
v 52.4481 5.51778 -6.91027
vt 0.196858 0.179764
f 45/475/67 46/476/11 155/477/11 166/478/67 

vt 0.272908 0.217236
f 38/419/9 166/479/9 155/417/9

v 52.4481 6.00015 -6.71048
vt 0.265043 0.236227
f 38/419/9 167/480/9 166/479/9

v 52.4481 6.41437 -6.39266
vt 0.25253 0.252535
f 38/419/9 168/481/9 167/480/9

vt 0.236222 0.265048
f 38/419/9 42/482/9 168/481/9

vt 0.217232 0.272915
f 38/419/9 40/483/9 42/482/9

f 18/35/9 40/483/9 38/419/9

vt 0.196853 0.275599
f 18/35/9 3/484/9 40/483/9

f 18/35/9 4/37/9 3/484/9

vt 7.38945e-006 -0.026036
vt 7.36906e-006 -0.0465913
vt 0.196858 -0.0466018
vt 0.196858 -0.0260465
f 41/485/16 43/486/15 168/487/15 42/488/16 

vt 7.42105e-006 0.0466461
vt 7.40143e-006 0.0260908
vt 0.196858 0.0260737
vt 0.196858 0.046629
f 43/489/15 44/490/14 167/491/14 168/492/15 

vt 7.43739e-006 0.11685
vt 7.41759e-006 0.0962944
vt 0.196858 0.0962719
vt 0.196858 0.116827
f 44/493/14 45/494/67 166/495/67 167/496/14 

vt 7.39029e-006 0.132266
vt 7.34078e-006 0.080878
vt 0.196858 0.0808554
vt 0.196858 0.132244
f 31/497/67 32/498/14 25/499/14 27/500/67 

vt 7.44112e-006 0.195207
vt 7.39101e-006 0.143819
vt 0.196858 0.143792
vt 0.196858 0.195181
f 30/501/11 31/502/67 27/503/67 28/504/11 

