# Alias OBJ Model File
# Exported from SketchUp, (c) 2000-2012 Trimble Navigation Limited
# File units = millimeters

mtllib vacuum_crep_2.mtl

g Mesh1 Model

usemtl FrontColor
v 65.59 0 -155.211
vt -2.58228 0
vn 0 0 -1
v 67.59 1.98305 -155.211
vt -2.66102 0.0780729
v 175.59 0 -155.211
vt -6.91299 0
f 1/1/1 2/2/1 3/3/1

v 65.59 8.98305 -155.211
vt -2.58228 0.353663
f 2/2/1 1/1/1 4/4/1

vt -6.11068 0.353663
vn -1 0 -0
vt -6.11068 0
v 65.59 0 -154.211
vt -6.07131 0
v 65.59 -15 -154.211
vt -6.07131 -0.590551
v 65.59 -15 -135.211
vt -5.32328 -0.590551
v 65.59 8.98305 -135.211
vt -5.32328 0.353663
f 4/5/2 1/6/2 5/7/2 6/8/2 7/9/2 8/10/2 

vt -6.91299 6.11068
vn 0 -1 -0
v 175.59 0 -154.211
vt -6.91299 6.07131
vt -2.58228 6.07131
vt -2.58228 6.11068
f 3/11/3 9/12/3 5/13/3 1/14/3 

vt 6.11068 0
vn 1 0 -0
v 175.59 8.98305 -155.211
vt 6.11068 0.353663
v 175.59 8.98305 -135.211
vt 5.32328 0.353663
v 175.59 -15 -135.211
vt 5.32328 -0.590551
v 175.59 -15 -154.211
vt 6.07131 -0.590551
vt 6.07131 0
f 3/15/4 10/16/4 11/17/4 12/18/4 13/19/4 9/20/4 

v 173.59 1.98305 -155.211
vt -6.83425 0.0780729
vt -6.91299 0.353663
f 3/3/1 14/21/1 10/22/1

f 14/21/1 3/3/1 2/2/1

vt -2.66102 -6.11038
vn -2.46918e-021 0.999994 -0.00338978
v 67.59 2 -150.211
vt -2.66102 -5.91353
v 173.59 2 -150.211
vt -6.83425 -5.91353
vt -6.83425 -6.11038
f 2/23/5 15/24/5 16/25/5 14/26/5 

v 67.59 5.98305 -138.211
vt 5.44139 0.235553
vn 1 3.43167e-015 4.63676e-017
v 67.59 1.98305 -138.211
vt 5.44139 0.0780729
v 67.59 -15 -138.211
vt 5.44139 -0.590551
v 67.59 -15 -150.211
vt 5.91383 -0.590551
vt 5.91383 0.0787402
vt 6.11068 0.0780729
v 67.59 5.98305 -155.211
vt 6.11068 0.235553
f 17/27/6 18/28/6 19/29/6 20/30/6 15/31/6 2/32/6 21/33/6 

v 173.59 5.98305 -138.211
vt -6.83425 0.235553
v 173.59 -15 -138.211
vt -6.83425 -0.590551
vt -2.66102 -0.590551
vt -2.66102 0.235553
f 22/34/1 23/35/1 19/36/1 18/2/1 17/37/1 

vt -6.11068 0.0780729
vt -5.91383 0.0787402
v 173.59 -15 -150.211
vt -5.91383 -0.590551
vt -5.44139 -0.590551
vt -5.44139 0.235553
v 173.59 5.98305 -155.211
vt -6.11068 0.235553
f 14/38/2 16/39/2 24/40/2 23/41/2 22/42/2 25/43/2 

vt 2.66102 0.0787402
vn 0 0 1
vt 2.66102 -0.590551
vt 6.83425 -0.590551
vt 6.83425 0.0787402
f 15/44/7 20/45/7 24/46/7 16/47/7 

vt -2.66102 5.91383
vt -6.83425 5.91383
f 20/48/3 13/12/3 24/49/3

f 20/48/3 6/13/3 13/12/3

vt -2.58228 5.32328
f 6/13/3 20/48/3 7/50/3

vt -2.66102 5.44139
f 19/51/3 7/50/3 20/48/3

vt -6.91299 5.32328
f 7/50/3 19/51/3 12/52/3

vt -6.83425 5.44139
f 12/52/3 19/51/3 23/53/3

f 12/52/3 23/53/3 13/12/3

f 24/49/3 13/12/3 23/53/3

vt 2.58228 0.353663
vt 2.58228 -0.590551
vt 6.91299 -0.590551
vt 6.91299 0.353663
f 8/54/7 7/55/7 12/56/7 11/57/7 

vt 6.91299 6.11068
vn 0 1 -0
vt 2.58228 6.11068
vt 2.58228 5.32328
vt 6.91299 5.32328
f 10/58/8 4/59/8 8/60/8 11/61/8 

f 10/22/1 25/34/1 4/4/1

f 10/22/1 14/21/1 25/34/1

f 21/37/1 4/4/1 25/34/1

f 2/2/1 4/4/1 21/37/1

vt -2.66102 6.11068
vt -6.83425 6.11068
f 21/62/3 25/63/3 22/53/3 17/51/3 

vt -6.91299 -0.590551
vt -2.58228 -0.590551
f 5/1/1 9/3/1 13/64/1 6/65/1 

