# Alias OBJ Model File
# Exported from SketchUp, (c) 2000-2012 Trimble Navigation Limited
# File units = millimeters

mtllib kola koporka dla dpaibebepa.mtl

g Mesh1 Model

usemtl FrontColor
v 195.838 40 -87.8691
vt -7.19266 1.5748
vn 0.258819 0 -0.965926
v 196.097 40 -87.8351
vt -7.20293 1.5748
vn 2.14022e-014 0 -1
v 196.097 30 -87.8351
vt -7.20293 1.1811
v 195.838 30 -87.8691
vt -7.19266 1.1811
f 1/1/1 2/2/2 3/3/2 4/4/1 

vt 7.71016 3.45942
vn 0 1 -0
v 199.039 40 -85.6431
vt 7.83618 3.37178
vt 7.72035 3.45807
f 1/5/3 5/6/3 2/7/3

v 195.597 40 -87.969
vt 7.70067 3.46335
f 6/8/3 5/6/3 1/5/3

v 191.815 40 -89.8844
vt 7.55178 3.53876
f 7/9/3 5/6/3 6/8/3

v 191.642 40 -89.2716
vt 7.54495 3.51463
f 8/10/3 5/6/3 7/9/3

v 191.539 40 -88.6431
vt 7.5409 3.48989
f 9/11/3 5/6/3 8/10/3

v 81.5389 40 -88.6431
vt 3.21019 3.48989
f 10/12/3 5/6/3 9/11/3

v 77.9467 40 -88.5762
vt 3.06877 3.48725
f 11/13/3 5/6/3 10/12/3

v 77.8468 40 -88.3351
vt 3.06484 3.47776
f 12/14/3 5/6/3 11/13/3

v 77.6879 40 -88.128
vt 3.05858 3.4696
f 13/15/3 5/6/3 12/14/3

v 77.4808 40 -87.969
vt 3.05043 3.46335
f 14/16/3 5/6/3 13/15/3

v 77.2396 40 -87.8691
vt 3.04093 3.45942
f 15/17/3 5/6/3 14/16/3

v 76.9808 40 -87.8351
vt 3.03074 3.45807
f 16/18/3 5/6/3 15/17/3

v 74.0389 40 -85.6431
vt 2.91492 3.37178
f 16/18/3 17/19/3 5/6/3

v 76.722 40 -87.8691
vt 3.02055 3.45942
f 18/20/3 17/19/3 16/18/3

v 76.4808 40 -87.969
vt 3.01106 3.46335
f 19/21/3 17/19/3 18/20/3

v 76.3061 40 -88.1031
vt 3.00418 3.46862
f 20/22/3 17/19/3 19/21/3

v 76.2737 40 -88.128
vt 3.0029 3.4696
f 21/23/3 17/19/3 20/22/3

v 76.1148 40 -88.3351
vt 2.99664 3.47776
f 22/24/3 17/19/3 21/23/3

v 76.0149 40 -88.5762
vt 2.99271 3.48725
f 23/25/3 17/19/3 22/24/3

v 75.9808 40 -88.8351
vt 2.99137 3.49744
f 24/26/3 17/19/3 23/25/3

v 74.0389 40 -149.643
vt 2.91492 5.89146
f 17/19/3 24/26/3 25/27/3

v 75.9808 40 -146.451
vt 2.99137 5.76579
f 26/28/3 25/27/3 24/26/3

v 76.0149 40 -146.71
vt 2.99271 5.77598
f 27/29/3 25/27/3 26/28/3

v 76.1148 40 -146.951
vt 2.99664 5.78548
f 28/30/3 25/27/3 27/29/3

v 76.2737 40 -147.158
vt 3.0029 5.79363
f 29/31/3 25/27/3 28/30/3

v 76.3061 40 -147.183
vt 3.00418 5.79461
f 30/32/3 25/27/3 29/31/3

v 76.4808 40 -147.317
vt 3.01106 5.79989
f 31/33/3 25/27/3 30/32/3

v 76.722 40 -147.417
vt 3.02055 5.80382
f 32/34/3 25/27/3 31/33/3

v 76.9808 40 -147.451
vt 3.03074 5.80516
f 33/35/3 25/27/3 32/34/3

v 199.039 40 -149.643
vt 7.83618 5.89146
f 25/27/3 33/35/3 34/36/3

v 77.2396 40 -147.417
vt 3.04093 5.80382
f 34/36/3 33/35/3 35/37/3

vt 2.25736 1.5748
vn -0.258819 0 0.965926
vt 2.24709 1.5748
vn 0 0 1
v 76.9808 30 -147.451
vt 2.24709 1.1811
v 77.2396 30 -147.417
vt 2.25736 1.1811
f 35/38/4 33/39/5 36/40/5 37/41/4 

vt 3.76254 1.5748
vt 3.75226 1.5748
vn 0.258819 0 0.965926
v 76.722 30 -147.417
vt 3.75226 1.1811
vt 3.76254 1.1811
f 33/42/5 32/43/6 38/44/6 36/45/5 

vt 5.01165 1.5748
vt 5.00137 1.5748
vn 0.5 0 0.866025
v 76.4808 30 -147.317
vt 5.00137 1.1811
vt 5.01165 1.1811
f 32/46/6 31/47/7 39/48/7 38/49/6 

vt 5.91958 1.5748
vt 5.91091 1.5748
vn 0.608761 0 0.793353
v 76.3061 30 -147.183
vt 5.91091 1.1811
vt 5.91958 1.1811
f 31/50/7 30/51/8 40/52/8 39/53/7 

vt 5.9093 1.5748
vn 0.707107 0 0.707107
v 76.2737 30 -147.158
vt 5.9093 1.1811
f 30/51/8 29/54/9 41/55/9 40/52/8 

vt 6.42445 1.5748
vt 6.41417 1.5748
vn 0.866025 0 0.5
v 76.1148 30 -146.951
vt 6.41417 1.1811
vt 6.42445 1.1811
f 29/56/9 28/57/10 42/58/10 41/59/9 

vt 6.49185 1.5748
vt 6.48157 1.5748
vn 0.965926 0 0.258819
v 76.0149 30 -146.71
vt 6.48157 1.1811
vt 6.49185 1.1811
f 28/60/10 27/61/11 43/62/11 42/63/10 

vt 6.1172 1.5748
vt 6.10692 1.5748
vn 1 0 -0
v 75.9808 30 -146.451
vt 6.10692 1.1811
vt 6.1172 1.1811
f 27/64/11 26/65/12 44/66/12 43/67/11 

vt 5.32602 1.5748
v 76.0149 40 -146.192
vt 5.31574 1.5748
vn 0.965926 0 -0.258819
v 76.0149 30 -146.192
vt 5.31574 1.1811
vt 5.32602 1.1811
f 26/68/12 45/69/13 46/70/13 44/71/12 

v 76.0149 40 -89.0939
vt 2.99271 3.50763
vt 2.99271 5.7556
f 26/28/3 47/72/3 45/73/3

f 47/72/3 26/28/3 24/26/3

vt 3.86825 1.5748
vt 3.85797 1.5748
v 75.9808 30 -88.8351
vt 3.85797 1.1811
v 76.0149 30 -89.0939
vt 3.86825 1.1811
f 47/74/11 24/75/12 48/76/12 49/77/11 

vt 3.07707 1.5748
vt 3.06679 1.5748
v 76.0149 30 -88.5762
vt 3.06679 1.1811
vt 3.07707 1.1811
f 24/78/12 23/79/13 50/80/13 48/81/12 

vt 2.07654 1.5748
vt 2.06626 1.5748
vn 0.866025 0 -0.5
v 76.1148 30 -88.3351
vt 2.06626 1.1811
vt 2.07654 1.1811
f 23/82/13 22/83/14 51/84/14 50/85/13 

vt 0.93485 1.5748
vt 0.924572 1.5748
vn 0.707107 0 -0.707107
v 76.2737 30 -88.128
vt 0.924572 1.1811
vt 0.93485 1.1811
f 22/86/14 21/87/15 52/88/15 51/89/14 

vt -0.2702 1.5748
vt -0.27181 1.5748
vn 0.608761 0 -0.793353
v 76.3061 30 -88.1031
vt -0.27181 1.1811
vt -0.2702 1.1811
f 21/90/15 20/91/16 53/92/16 52/93/15 

vt -0.280478 1.5748
vn 0.5 0 -0.866025
v 76.4808 30 -87.969
vt -0.280478 1.1811
f 20/91/16 19/94/17 54/95/17 53/92/16 

vt -1.45649 1.5748
vt -1.46676 1.5748
v 76.722 30 -87.8691
vt -1.46676 1.1811
vt -1.45649 1.1811
f 19/96/17 18/97/1 55/98/1 54/99/17 

vt -2.54317 1.5748
vt -2.55344 1.5748
vn 2.14162e-014 0 -1
v 76.9808 30 -87.8351
vt -2.55344 1.1811
vt -2.54317 1.1811
f 18/100/1 16/101/18 56/102/18 55/103/1 

vt -3.45618 1.5748
vt -3.46646 1.5748
vn -0.258819 0 -0.965926
v 77.2396 30 -87.8691
vt -3.46646 1.1811
vt -3.45618 1.1811
f 16/104/18 15/105/19 57/106/19 56/107/18 

vt -4.13331 1.5748
vt -4.14359 1.5748
vn -0.5 0 -0.866025
v 77.4808 30 -87.969
vt -4.14359 1.1811
vt -4.13331 1.1811
f 15/108/19 14/109/20 58/110/20 57/111/19 

vt -4.52842 1.5748
vt -4.5387 1.5748
vn -0.707107 0 -0.707107
v 77.6879 30 -88.128
vt -4.5387 1.1811
vt -4.52842 1.1811
f 14/112/20 13/113/21 59/114/21 58/115/20 

vt -4.61457 1.5748
vt -4.62485 1.5748
vn -0.866025 0 -0.5
v 77.8468 30 -88.3351
vt -4.62485 1.1811
vt -4.61457 1.1811
f 13/116/21 12/117/22 60/118/22 59/119/21 

vt -4.38589 1.5748
vt -4.39617 1.5748
vn -0.965926 0 -0.258819
v 77.9467 30 -88.5762
vt -4.39617 1.1811
vt -4.38589 1.1811
f 12/120/22 11/121/23 61/122/23 60/123/22 

vt -3.85797 1.5748
v 77.9808 40 -88.8351
vt -3.86825 1.5748
vn -1 0 -0
v 77.9808 30 -88.8351
vt -3.86825 1.1811
vt -3.85797 1.1811
f 11/124/23 62/125/24 63/126/24 61/127/23 

vt 3.07011 3.49744
f 11/13/3 10/12/3 62/128/3

v 78.3694 40 -93.1254
vt 3.08541 3.66635
f 62/128/3 10/12/3 64/129/3

v 78.9277 40 -92.8188
vt 3.10739 3.65428
f 64/129/3 10/12/3 65/130/3

v 79.4477 40 -92.4511
vt 3.12786 3.63981
f 65/130/3 10/12/3 66/131/3

v 79.9227 40 -92.027
vt 3.14656 3.62311
f 66/131/3 10/12/3 67/132/3

v 80.3469 40 -91.5519
vt 3.16326 3.60441
f 67/132/3 10/12/3 68/133/3

v 80.7145 40 -91.0319
vt 3.17774 3.58393
f 68/133/3 10/12/3 69/134/3

v 81.0211 40 -90.4737
vt 3.18981 3.56196
f 69/134/3 10/12/3 70/135/3

v 81.2626 40 -89.8844
vt 3.19931 3.53876
f 70/135/3 10/12/3 71/136/3

v 81.4359 40 -89.2716
vt 3.20614 3.51463
f 71/136/3 10/12/3 72/137/3

v 81.5389 0 -88.6431
vt 2.92506 0
vn 0.986848 0 -0.161651
v 81.4359 0 -89.2716
vt 2.95013 0
vn 0.976114 0 -0.217257
vt 2.95013 1.5748
vt 2.92506 1.5748
f 73/138/25 74/139/26 72/140/26 10/141/25 

v 81.4359 0 -146.015
vt 3.20614 5.74861
f 75/142/3 74/137/3 73/12/3

v 81.2626 0 -145.402
vt 3.19931 5.72448
f 76/143/3 74/137/3 75/142/3

v 81.2626 0 -89.8844
f 76/143/3 77/136/3 74/137/3

v 81.0211 0 -144.813
vt 3.18981 5.70128
f 78/144/3 77/136/3 76/143/3

v 81.0211 0 -90.4737
f 78/144/3 79/135/3 77/136/3

v 80.7145 0 -144.254
vt 3.17774 5.6793
f 80/145/3 79/135/3 78/144/3

v 80.7145 0 -91.0319
f 80/145/3 81/134/3 79/135/3

v 80.3469 0 -143.734
vt 3.16326 5.65883
f 82/146/3 81/134/3 80/145/3

v 80.3469 0 -91.5519
f 82/146/3 83/133/3 81/134/3

v 79.9227 0 -143.259
vt 3.14656 5.64013
f 84/147/3 83/133/3 82/146/3

v 79.9227 0 -92.027
f 84/147/3 85/132/3 83/133/3

v 79.4477 0 -142.835
vt 3.12786 5.62343
f 86/148/3 85/132/3 84/147/3

v 79.4477 0 -92.4511
f 86/148/3 87/131/3 85/132/3

v 78.9277 0 -142.467
vt 3.10739 5.60895
f 88/149/3 87/131/3 86/148/3

v 78.9277 0 -92.8188
f 88/149/3 89/130/3 87/131/3

v 78.3694 0 -142.161
vt 3.08541 5.59689
f 90/150/3 89/130/3 88/149/3

v 78.3694 0 -93.1254
f 90/150/3 91/129/3 89/130/3

v 77.7802 0 -141.919
vt 3.06221 5.58738
f 92/151/3 91/129/3 90/150/3

v 77.7802 0 -93.3668
vt 3.06221 3.67586
f 92/151/3 93/152/3 91/129/3

v 77.1673 0 -141.746
vt 3.03808 5.58055
f 94/153/3 93/152/3 92/151/3

v 77.1673 0 -93.5402
vt 3.03808 3.68268
f 94/153/3 95/154/3 93/152/3

v 76.5389 0 -141.643
vt 3.01334 5.5765
f 96/155/3 95/154/3 94/153/3

v 76.5389 0 -138.643
vt 3.01334 5.45839
f 97/156/3 95/154/3 96/155/3

v 76.5389 0 -121.643
vt 3.01334 4.7891
f 98/157/3 95/154/3 97/156/3

v 76.5389 0 -93.6431
vt 3.01334 3.68674
f 95/154/3 98/157/3 99/158/3

vt 3.68674 0
vt 4.7891 0
vt 5.45839 0
vt 5.5765 0
v 76.5389 40 -141.643
vt 5.5765 1.5748
v 76.5389 40 -93.6431
vt 3.68674 1.5748
f 99/159/12 98/160/12 97/161/12 96/162/12 100/163/12 101/164/12 

vt 3.87516 0
vn 0.161651 0 0.986848
vt 3.90023 0
vn 0.217257 0 0.976114
v 77.1673 40 -141.746
vt 3.90023 1.5748
vt 3.87516 1.5748
f 96/165/27 94/166/28 102/167/28 100/168/27 

vt 4.44223 0
vt 4.46731 0
vn 0.326201 0 0.9453
v 77.7802 40 -141.919
vt 4.46731 1.5748
vt 4.44223 1.5748
f 94/169/28 92/170/29 103/171/29 102/172/28 

vt 4.9522 0
vt 4.97728 0
vn 0.430964 0 0.902369
v 78.3694 40 -142.161
vt 4.97728 1.5748
vt 4.9522 1.5748
f 92/173/29 90/174/30 104/175/30 103/176/29 

vt 5.39853 0
vt 5.42361 0
vn 0.530203 0 0.847871
v 78.9277 40 -142.467
vt 5.42361 1.5748
vt 5.39853 1.5748
f 90/177/30 88/178/31 105/179/31 104/180/30 

vt 5.7755 0
vt 5.80058 0
vn 0.622646 0 0.782504
v 79.4477 40 -142.835
vt 5.80058 1.5748
vt 5.7755 1.5748
f 88/181/31 86/182/32 106/183/32 105/184/31 

vt 6.07828 0
vt 6.10335 0
v 79.9227 40 -143.259
vt 6.10335 1.5748
vt 6.07828 1.5748
f 86/185/32 84/186/9 107/187/9 106/188/32 

vt 6.30298 0
vt 6.32805 0
vn 0.782504 0 0.622646
v 80.3469 40 -143.734
vt 6.32805 1.5748
vt 6.30298 1.5748
f 84/189/9 82/190/33 108/191/33 107/192/9 

vt 6.44673 0
vt 6.4718 0
vn 0.847871 0 0.530203
v 80.7145 40 -144.254
vt 6.4718 1.5748
vt 6.44673 1.5748
f 82/193/33 80/194/34 109/195/34 108/196/33 

vt 6.50768 0
vt 6.53275 0
vn 0.902369 0 0.430964
v 81.0211 40 -144.813
vt 6.53275 1.5748
vt 6.50768 1.5748
f 80/197/34 78/198/35 110/199/35 109/200/34 

vt 6.48505 0
vt 6.51012 0
vn 0.9453 0 0.326201
v 81.2626 40 -145.402
vt 6.51012 1.5748
vt 6.48505 1.5748
f 78/201/35 76/202/36 111/203/36 110/204/35 

vt 6.37913 0
vt 6.4042 0
vn 0.976114 0 0.217257
v 81.4359 40 -146.015
vt 6.4042 1.5748
vt 6.37913 1.5748
f 76/205/36 75/206/37 112/207/37 111/208/36 

vt 6.19128 0
v 81.5389 0 -146.643
vt 6.21635 0
vn 0.986848 0 0.161651
v 81.5389 40 -146.643
vt 6.21635 1.5748
vt 6.19128 1.5748
f 75/209/37 113/210/38 114/211/38 112/212/37 

vt 3.21019 5.77335
f 75/142/3 73/12/3 113/213/3

v 145.296 0 -98.0762
vt 5.72031 3.86127
f 113/213/3 73/12/3 115/214/3

v 145.744 0 -97.8079
vt 5.73795 3.85071
f 115/214/3 73/12/3 116/215/3

v 146.246 0 -97.6647
vt 5.75771 3.84507
f 116/215/3 73/12/3 117/216/3

v 191.539 0 -88.6431
f 117/216/3 73/12/3 118/11/3

vt -7.5409 1.5748
vn 0 0 -1
vt -7.5409 0
vt -3.21019 0
vt -3.21019 1.5748
f 9/217/39 118/218/39 73/219/39 10/220/39 

v 191.642 0 -89.2716
vt -4.68806 0
vn -0.976114 0 -0.217257
vt -4.66298 0
vn -0.986848 0 -0.161651
vt -4.66298 1.5748
vt -4.68806 1.5748
f 119/221/40 118/222/41 9/223/41 8/224/40 

v 191.539 0 -146.643
vt 7.5409 5.77335
f 120/225/3 118/11/3 119/10/3

v 184.539 0 -99.629
vt 7.26531 3.9224
f 120/225/3 121/226/3 118/11/3

v 184.537 0 -135.736
vt 7.26522 5.34395
f 120/225/3 122/227/3 121/226/3

v 184.444 0 -136.25
vt 7.26159 5.36418
f 120/225/3 123/228/3 122/227/3

v 184.222 0 -136.723
vt 7.25285 5.38279
f 120/225/3 124/229/3 123/228/3

v 183.886 0 -137.122
vt 7.23959 5.39849
f 120/225/3 125/230/3 124/229/3

v 183.457 0 -137.42
vt 7.22272 5.41023
f 120/225/3 126/231/3 125/230/3

v 182.966 0 -137.597
vt 7.20338 5.41721
f 120/225/3 127/232/3 126/231/3

v 182.446 0 -137.641
vt 7.1829 5.41894
f 120/225/3 128/233/3 127/232/3

v 181.932 0 -137.549
vt 7.16267 5.41531
f 120/225/3 129/234/3 128/233/3

v 181.459 0 -137.327
vt 7.14406 5.40656
f 120/225/3 130/235/3 129/234/3

v 181.06 0 -136.99
vt 7.12836 5.3933
f 120/225/3 131/236/3 130/235/3

v 148.523 0 -135.896
vt 5.84735 5.35024
f 120/225/3 132/237/3 131/236/3

v 148.39 0 -136.401
vt 5.84211 5.37012
f 120/225/3 133/238/3 132/237/3

v 148.13 0 -136.854
vt 5.83191 5.38796
f 120/225/3 134/239/3 133/238/3

v 147.763 0 -137.225
vt 5.81743 5.40255
f 120/225/3 135/240/3 134/239/3

v 147.312 0 -137.488
vt 5.79967 5.4129
f 120/225/3 136/241/3 135/240/3

v 146.808 0 -137.625
vt 5.77984 5.4183
f 120/225/3 137/242/3 136/241/3

v 146.286 0 -137.627
vt 5.75928 5.41839
f 120/225/3 138/243/3 137/242/3

f 113/213/3 138/243/3 120/225/3

v 145.781 0 -137.494
vt 5.73941 5.41315
f 138/243/3 113/213/3 139/244/3

v 145.328 0 -137.235
vt 5.72157 5.40294
f 139/244/3 113/213/3 140/245/3

v 144.957 0 -136.867
vt 5.70697 5.38847
f 140/245/3 113/213/3 141/246/3

v 144.694 0 -136.416
vt 5.69662 5.37071
f 141/246/3 113/213/3 142/247/3

v 144.557 0 -135.912
vt 5.69122 5.35087
f 142/247/3 113/213/3 143/248/3

v 144.555 0 -135.39
vt 5.69114 5.33032
f 143/248/3 113/213/3 144/249/3

v 144.552 0 -99.4141
vt 5.69102 3.91394
f 144/249/3 113/213/3 145/250/3

v 144.679 0 -98.9076
vt 5.69602 3.894
f 113/213/3 146/251/3 145/250/3

v 144.933 0 -98.4513
vt 5.70601 3.87604
f 113/213/3 147/252/3 146/251/3

f 113/213/3 115/214/3 147/252/3

vt -1.18463 0
vn 0.803061 0 -0.595897
vt -1.20518 0
vn 0.621468 0 -0.78344
v 145.296 -3 -98.0762
vt -1.20518 -0.11811
v 144.933 -3 -98.4513
vt -1.18463 -0.11811
f 147/253/42 115/254/43 148/255/43 149/256/42 

vt -2.92293 0
vt -2.94348 0
vn 0.397523 0 -0.917592
v 145.744 -3 -97.8079
vt -2.94348 -0.11811
vt -2.92293 -0.11811
f 115/257/43 116/258/44 150/259/44 148/260/43 

vt -4.46133 0
vt -4.48188 0
vn 0.146487 0 -0.989213
v 146.246 -3 -97.6647
vt -4.48188 -0.11811
vt -4.46133 -0.11811
f 116/261/44 117/262/45 151/263/45 150/264/44 

vt -5.695 0
v 146.768 0 -97.6563
vt -5.71555 0
vn -0.114532 0 -0.99342
v 146.768 -3 -97.6563
vt -5.71555 -0.11811
vt -5.695 -0.11811
f 117/265/45 152/266/46 153/267/46 151/268/45 

vt 5.77826 3.84474
f 117/216/3 118/11/3 152/269/3

v 147.274 0 -97.7833
vt 5.7982 3.84974
f 152/269/3 118/11/3 154/270/3

v 147.731 0 -98.037
vt 5.81617 3.85972
f 154/270/3 118/11/3 155/271/3

v 148.106 0 -98.4002
vt 5.83093 3.87402
f 155/271/3 118/11/3 156/272/3

v 148.374 0 -98.8481
vt 5.8415 3.89166
f 156/272/3 118/11/3 157/273/3

v 148.517 0 -99.3502
vt 5.84714 3.91142
f 157/273/3 118/11/3 158/274/3

v 148.522 0 -99.6431
vt 5.84732 3.92296
f 158/274/3 118/11/3 159/275/3

v 148.526 0 -99.8722
vt 5.84747 3.93198
f 159/275/3 118/11/3 160/276/3

v 181.115 0 -98.2389
vt 7.1305 3.86768
f 160/276/3 118/11/3 161/277/3

v 181.527 0 -97.9182
vt 7.14672 3.85505
f 161/277/3 118/11/3 162/278/3

v 182.008 0 -97.715
vt 7.16565 3.84705
f 162/278/3 118/11/3 163/279/3

v 182.525 0 -97.6432
vt 7.18601 3.84422
f 163/279/3 118/11/3 164/280/3

v 183.043 0 -97.7077
vt 7.20641 3.84676
f 164/280/3 118/11/3 165/281/3

v 183.527 0 -97.9041
vt 7.22546 3.85449
f 165/281/3 118/11/3 166/282/3

v 183.943 0 -98.219
vt 7.24185 3.86689
f 166/282/3 118/11/3 167/283/3

v 184.264 0 -98.6309
vt 7.25448 3.88311
f 167/283/3 118/11/3 168/284/3

v 184.467 0 -99.1118
vt 7.26248 3.90204
f 168/284/3 118/11/3 169/285/3

f 169/285/3 118/11/3 121/226/3

vt -4.86378 0
vn -0.964072 0 -0.26564
vt -4.88433 0
vn -0.999975 0 -0.00706875
v 184.539 -3 -99.629
vt -4.88433 -0.11811
v 184.467 -3 -99.1118
vt -4.86378 -0.11811
f 169/286/47 121/287/48 170/288/48 171/289/47 

vt -2.99499 0
v 184.474 0 -100.147
vt -3.01555 0
vn -0.967731 0 0.251985
v 184.474 -3 -100.147
vt -3.01555 -0.11811
vt -2.99499 -0.11811
f 121/290/48 172/291/49 173/292/49 170/293/48 

v 184.493 0 -135.216
vt 7.26349 5.32347
vt 7.26277 3.9428
f 174/294/3 172/295/3 121/226/3

v 184.316 0 -134.725
vt 7.25652 5.30413
f 175/296/3 172/295/3 174/294/3

v 184.278 0 -100.631
vt 7.25504 3.96184
f 175/296/3 176/297/3 172/295/3

v 184.017 0 -134.296
vt 7.24478 5.28726
f 177/298/3 176/297/3 175/296/3

v 183.963 0 -101.047
vt 7.24264 3.97824
f 177/298/3 178/299/3 176/297/3

v 183.619 0 -133.96
vt 7.22908 5.274
f 179/300/3 178/299/3 177/298/3

v 183.551 0 -101.368
vt 7.22642 3.99087
f 179/300/3 180/301/3 178/299/3

v 183.146 0 -133.738
vt 7.21047 5.26526
f 181/302/3 180/301/3 179/300/3

v 183.07 0 -101.571
vt 7.20749 3.99887
f 181/302/3 182/303/3 180/301/3

v 182.632 0 -133.645
vt 7.19024 5.26163
f 183/304/3 182/303/3 181/302/3

v 182.553 0 -101.643
vt 7.18713 4.0017
f 183/304/3 184/305/3 182/303/3

v 182.54 0 -133.653
vt 7.1866 5.26193
f 185/306/3 184/305/3 183/304/3

v 182.112 0 -133.689
vt 7.16976 5.26336
f 186/307/3 184/305/3 185/306/3

v 182.035 0 -101.579
vt 7.16673 3.99916
f 186/307/3 187/308/3 184/305/3

v 181.621 0 -133.866
vt 7.15042 5.27033
f 188/309/3 187/308/3 186/307/3

v 181.551 0 -101.382
vt 7.14768 3.99143
f 188/309/3 189/310/3 187/308/3

v 181.192 0 -134.165
vt 7.13355 5.28207
f 190/311/3 189/310/3 188/309/3

v 181.135 0 -101.067
vt 7.13129 3.97903
f 190/311/3 191/312/3 189/310/3

v 180.855 0 -134.563
vt 7.12029 5.29777
f 192/313/3 191/312/3 190/311/3

v 180.814 0 -100.655
vt 7.11866 3.96281
f 192/313/3 193/314/3 191/312/3

v 180.633 0 -135.036
vt 7.11154 5.31638
f 194/315/3 193/314/3 192/313/3

v 180.611 0 -100.174
vt 7.11066 3.94387
f 194/315/3 195/316/3 193/314/3

v 180.541 0 -135.55
vt 7.10791 5.33661
f 196/317/3 195/316/3 194/315/3

v 180.539 0 -99.6573
vt 7.10783 3.92351
f 195/316/3 196/317/3 197/318/3

f 196/317/3 160/276/3 197/318/3

v 180.585 0 -136.07
vt 7.10964 5.35709
f 198/319/3 160/276/3 196/317/3

v 180.762 0 -136.561
vt 7.11662 5.37643
f 199/320/3 160/276/3 198/319/3

f 131/236/3 160/276/3 199/320/3

f 131/236/3 132/237/3 160/276/3

v 148.522 0 -135.643
vt 5.84731 5.34028
f 200/321/3 160/276/3 132/237/3

v 148.521 0 -135.374
vt 5.84727 5.32969
f 201/322/3 160/276/3 200/321/3

v 148.399 0 -100.379
vt 5.84247 3.95191
f 201/322/3 202/323/3 160/276/3

v 148.384 0 -134.87
vt 5.84187 5.30985
f 203/324/3 202/323/3 201/322/3

v 148.145 0 -100.835
vt 5.83248 3.96988
f 203/324/3 204/325/3 202/323/3

v 148.121 0 -134.419
vt 5.83152 5.29209
f 205/326/3 204/325/3 203/324/3

v 147.782 0 -101.21
vt 5.81818 3.98465
f 205/326/3 206/327/3 204/325/3

v 147.75 0 -134.052
vt 5.81693 5.27762
f 207/328/3 206/327/3 205/326/3

v 147.334 0 -101.478
vt 5.80055 3.99521
f 207/328/3 208/329/3 206/327/3

v 147.297 0 -133.792
vt 5.79908 5.26741
f 209/330/3 208/329/3 207/328/3

v 146.832 0 -101.622
vt 5.78078 4.00085
f 209/330/3 210/331/3 208/329/3

v 146.792 0 -133.659
vt 5.77921 5.26217
f 211/332/3 210/331/3 209/330/3

v 146.539 0 -133.66
vt 5.76925 5.26221
f 212/333/3 210/331/3 211/332/3

v 146.539 0 -101.626
vt 5.76925 4.00103
f 212/333/3 213/334/3 210/331/3

v 146.31 0 -101.63
vt 5.76023 4.00118
f 212/333/3 214/335/3 213/334/3

v 146.27 0 -133.661
vt 5.75865 5.26226
f 215/336/3 214/335/3 212/333/3

v 145.803 0 -101.503
vt 5.74029 3.99618
f 215/336/3 216/337/3 214/335/3

v 145.766 0 -133.798
vt 5.73882 5.26766
f 217/338/3 216/337/3 215/336/3

v 145.347 0 -101.249
vt 5.72233 3.98619
f 217/338/3 218/339/3 216/337/3

v 145.315 0 -134.061
vt 5.72106 5.27801
f 219/340/3 218/339/3 217/338/3

v 144.972 0 -100.886
vt 5.70756 3.97189
f 219/340/3 220/341/3 218/339/3

v 144.947 0 -134.432
vt 5.70658 5.2926
f 221/342/3 220/341/3 219/340/3

v 144.704 0 -100.438
vt 5.697 3.95426
f 221/342/3 222/343/3 220/341/3

v 144.688 0 -134.885
vt 5.69638 5.31044
f 223/344/3 222/343/3 221/342/3

v 144.56 0 -99.9361
vt 5.69136 3.93449
f 223/344/3 224/345/3 222/343/3

f 144/249/3 224/345/3 223/344/3

f 224/345/3 144/249/3 145/250/3

vt 4.0257 0
vn 0.989213 0 0.146487
vt 4.00515 0
vn 0.99342 0 -0.114532
v 144.552 -3 -99.4141
vt 4.00515 -0.11811
v 144.56 -3 -99.9361
vt 4.0257 -0.11811
f 224/346/50 145/347/51 225/348/51 226/349/50 

vt 2.41224 0
vt 2.39169 0
vn 0.929927 0 -0.367745
v 144.679 -3 -98.9076
vt 2.39169 -0.11811
vt 2.41224 -0.11811
f 145/350/51 146/351/52 227/352/52 225/353/51 

vt 0.635098 0
vt 0.614543 0
vt 0.614543 -0.11811
vt 0.635098 -0.11811
f 146/354/52 147/355/42 149/356/42 227/357/52 

vt -5.70601 3.87604
vn 0 -1 -0
v 74.0389 -3 -85.6431
vt -2.91492 3.37178
vt -5.69602 3.894
f 149/358/53 228/359/53 227/360/53

vt -5.72031 3.86127
f 148/361/53 228/359/53 149/358/53

vt -5.73795 3.85071
f 150/362/53 228/359/53 148/361/53

vt -5.75771 3.84507
f 151/363/53 228/359/53 150/362/53

v 199.039 -3 -85.6431
vt -7.83618 3.37178
f 228/359/53 151/363/53 229/364/53

vt -5.77826 3.84474
f 229/364/53 151/363/53 153/365/53

v 147.274 -3 -97.7833
vt -5.7982 3.84974
f 229/364/53 153/365/53 230/366/53

vt -6.53986 0
vt -6.56042 0
vn -0.367745 0 -0.929927
vt -6.56042 -0.11811
vt -6.53986 -0.11811
f 152/367/46 154/368/54 230/369/54 153/370/46 

vt -6.93835 0
vt -6.9589 0
vn -0.595897 0 -0.803061
v 147.731 -3 -98.037
vt -6.9589 -0.11811
vt -6.93835 -0.11811
f 154/371/54 155/372/55 231/373/55 230/374/54 

vt -6.8633 0
vt -6.88385 0
vn -0.78344 0 -0.621468
v 148.106 -3 -98.4002
vt -6.88385 -0.11811
vt -6.8633 -0.11811
f 155/375/55 156/376/56 232/377/56 231/378/55 

vt -6.31982 0
vt -6.34037 0
vn -0.917592 0 -0.397523
v 148.374 -3 -98.8481
vt -6.34037 -0.11811
vt -6.31982 -0.11811
f 156/379/56 157/380/57 233/381/57 232/382/56 

vt -5.34496 0
vt -5.36551 0
vn -0.989213 0 -0.146487
v 148.517 -3 -99.3502
vt -5.36551 -0.11811
vt -5.34496 -0.11811
f 157/383/57 158/384/58 234/385/58 233/386/57 

vt -4.00515 0
vt -4.01668 0
vn -0.99987 0 -0.0161156
v 148.522 -3 -99.6431
vt -4.01668 -0.11811
vt -4.00515 -0.11811
f 158/387/58 159/388/59 235/389/59 234/390/58 

vt -4.0257 0
vn -0.99342 0 0.114532
v 148.526 -3 -99.8722
vt -4.0257 -0.11811
f 159/388/59 160/391/60 236/392/60 235/389/59 

vt -2.39169 0
vt -2.41224 0
vn -0.929927 0 0.367745
v 148.399 -3 -100.379
vt -2.41224 -0.11811
vt -2.39169 -0.11811
f 160/393/60 202/394/61 237/395/61 236/396/60 

vt -0.614543 0
vt -0.635098 0
vn -0.803061 0 0.595897
v 148.145 -3 -100.835
vt -0.635098 -0.11811
vt -0.614543 -0.11811
f 202/397/61 204/398/62 238/399/62 237/400/61 

vt 1.20518 0
vt 1.18463 0
vn -0.621468 0 0.78344
v 147.782 -3 -101.21
vt 1.18463 -0.11811
vt 1.20518 -0.11811
f 204/401/62 206/402/63 239/403/63 238/404/62 

vt 2.94348 0
vt 2.92293 0
vn -0.397523 0 0.917592
v 147.334 -3 -101.478
vt 2.92293 -0.11811
vt 2.94348 -0.11811
f 206/405/63 208/406/64 240/407/64 239/408/63 

vt 4.48188 0
vt 4.46133 0
vn -0.146487 0 0.989213
v 146.832 -3 -101.622
vt 4.46133 -0.11811
vt 4.48188 -0.11811
f 208/409/64 210/410/65 241/411/65 240/412/64 

vt 5.71555 0
vt 5.70402 0
vn -0.0161156 0 0.99987
v 146.539 -3 -101.626
vt 5.70402 -0.11811
vt 5.71555 -0.11811
f 210/413/65 213/414/66 242/415/66 241/416/65 

vt 5.695 0
vn 0.114532 0 0.99342
v 146.31 -3 -101.63
vt 5.695 -0.11811
f 213/414/66 214/417/67 243/418/67 242/415/66 

vt 6.56042 0
vt 6.53986 0
vn 0.367745 0 0.929927
v 145.803 -3 -101.503
vt 6.53986 -0.11811
vt 6.56042 -0.11811
f 214/419/67 216/420/68 244/421/68 243/422/67 

vt 6.9589 0
vt 6.93835 0
vn 0.595897 0 0.803061
v 145.347 -3 -101.249
vt 6.93835 -0.11811
vt 6.9589 -0.11811
f 216/423/68 218/424/69 245/425/69 244/426/68 

vt 6.88385 0
vt 6.8633 0
vn 0.78344 0 0.621468
v 144.972 -3 -100.886
vt 6.8633 -0.11811
vt 6.88385 -0.11811
f 218/427/69 220/428/70 246/429/70 245/430/69 

vt 6.34037 0
vt 6.31982 0
vn 0.917592 0 0.397523
v 144.704 -3 -100.438
vt 6.31982 -0.11811
vt 6.34037 -0.11811
f 220/431/70 222/432/71 247/433/71 246/434/70 

vt 5.36551 0
vt 5.34496 0
vt 5.34496 -0.11811
vt 5.36551 -0.11811
f 222/435/71 224/436/50 226/437/50 247/438/71 

vt -5.69136 3.93449
v 144.688 -3 -134.885
vt -5.69638 5.31044
vt -5.697 3.95426
f 226/439/53 248/440/53 247/441/53

v 144.555 -3 -135.39
vt -5.69114 5.33032
f 226/439/53 249/442/53 248/440/53

vt -5.69102 3.91394
f 249/442/53 226/439/53 225/443/53

f 228/359/53 249/442/53 225/443/53

v 144.557 -3 -135.912
vt -5.69122 5.35087
f 228/359/53 250/444/53 249/442/53

v 144.694 -3 -136.416
vt -5.69662 5.37071
f 228/359/53 251/445/53 250/444/53

v 144.957 -3 -136.867
vt -5.70697 5.38847
f 228/359/53 252/446/53 251/445/53

v 145.328 -3 -137.235
vt -5.72157 5.40294
f 228/359/53 253/447/53 252/446/53

v 74.0389 -3 -149.643
vt -2.91492 5.89146
f 254/448/53 253/447/53 228/359/53

v 145.781 -3 -137.494
vt -5.73941 5.41315
f 253/447/53 254/448/53 255/449/53

v 146.286 -3 -137.627
vt -5.75928 5.41839
f 255/449/53 254/448/53 256/450/53

v 199.039 -3 -149.643
vt -7.83618 5.89146
f 256/450/53 254/448/53 257/451/53

vt -2.91492 -0.11811
vt -2.91492 1.5748
vt -7.83618 1.5748
vt -7.83618 -0.11811
f 254/452/39 25/453/39 34/454/39 257/455/39 

vt -3.37178 -0.11811
vt -3.37178 1.5748
vt -5.89146 1.5748
vt -5.89146 -0.11811
f 228/456/24 17/457/24 25/458/24 254/459/24 

vt 7.83618 -0.11811
vt 7.83618 1.5748
vt 2.91492 1.5748
vt 2.91492 -0.11811
f 229/460/5 5/461/5 17/462/5 228/463/5 

vt 5.89146 -0.11811
vt 5.89146 1.5748
vt 3.37178 1.5748
vt 3.37178 -0.11811
f 257/464/12 34/465/12 5/466/12 229/467/12 

v 197.097 40 -88.8351
vt 7.75972 3.49744
f 34/36/3 258/468/3 5/6/3

v 197.096 40 -146.402
vt 7.75967 5.76384
f 34/36/3 259/469/3 258/468/3

v 197.074 40 -146.662
vt 7.75884 5.77409
f 34/36/3 260/470/3 259/469/3

v 196.987 40 -146.908
vt 7.75538 5.78377
f 34/36/3 261/471/3 260/470/3

v 196.838 40 -147.122
vt 7.74954 5.79222
f 34/36/3 262/472/3 261/471/3

v 196.769 40 -147.181
vt 7.74683 5.79452
f 34/36/3 263/473/3 262/472/3

v 196.639 40 -147.291
vt 7.7417 5.79887
f 34/36/3 264/474/3 263/473/3

v 196.403 40 -147.403
vt 7.73241 5.80327
f 34/36/3 265/475/3 264/474/3

v 196.147 40 -147.45
vt 7.7223 5.80512
f 34/36/3 266/476/3 265/475/3

v 195.886 40 -147.429
vt 7.71206 5.80428
f 34/36/3 267/477/3 266/476/3

v 195.64 40 -147.341
vt 7.70238 5.80082
f 34/36/3 268/478/3 267/477/3

v 191.815 40 -145.402
vt 7.55178 5.72448
f 34/36/3 269/479/3 268/478/3

v 191.642 40 -146.015
vt 7.54495 5.74861
f 34/36/3 270/480/3 269/479/3

v 191.539 40 -146.643
f 34/36/3 271/225/3 270/480/3

f 34/36/3 114/213/3 271/225/3

v 77.9467 40 -146.71
vt 3.06877 5.77598
f 34/36/3 272/481/3 114/213/3

v 77.8468 40 -146.951
vt 3.06484 5.78548
f 34/36/3 273/482/3 272/481/3

v 77.6879 40 -147.158
vt 3.05858 5.79363
f 34/36/3 274/483/3 273/482/3

v 77.4808 40 -147.317
vt 3.05043 5.79989
f 34/36/3 275/484/3 274/483/3

f 34/36/3 35/37/3 275/484/3

vt 0.598704 1.5748
vn -0.5 0 0.866025
vt 0.588426 1.5748
vt 0.588426 1.1811
v 77.4808 30 -147.317
vt 0.598704 1.1811
f 275/485/72 35/486/4 37/487/4 276/488/72 

v 76.1148 30 -145.951
vt 2.99664 5.74611
v 76.2737 30 -145.744
vt 3.0029 5.73796
v 76.4808 30 -145.585
vt 3.01106 5.7317
v 76.722 30 -145.485
vt 3.02055 5.72777
v 76.9808 30 -145.451
vt 3.03074 5.72642
v 77.2396 30 -145.485
vt 3.04093 5.72777
v 77.4808 30 -145.585
vt 3.05043 5.7317
v 77.6555 30 -145.719
vt 3.0573 5.73698
v 77.6879 30 -145.744
vt 3.05858 5.73796
v 77.8468 30 -145.951
vt 3.06484 5.74611
v 77.9467 30 -146.192
vt 3.06877 5.7556
v 77.9808 30 -146.451
vt 3.07011 5.76579
v 77.9467 30 -146.71
v 77.8468 30 -146.951
v 77.6879 30 -147.158
f 40/32/3 41/31/3 42/30/3 43/29/3 44/28/3 46/73/3 277/489/3 278/490/3 279/491/3 280/492/3 281/493/3 282/494/3 283/495/3 284/496/3 285/497/3 286/498/3 287/499/3 288/500/3 289/481/3 290/482/3 291/483/3 276/484/3 37/37/3 36/35/3 38/34/3 39/33/3 

vt 4.17222 1.5748
v 76.1148 40 -145.951
vt 4.16195 1.5748
vt 4.16195 1.1811
vt 4.17222 1.1811
f 45/501/13 292/502/14 277/503/14 46/504/13 

v 76.1148 40 -89.3351
vt 2.99664 3.51713
f 45/73/3 293/505/3 292/489/3

f 45/73/3 47/72/3 293/505/3

vt 4.39617 1.5748
vt 4.38589 1.5748
vt 4.38589 1.1811
v 76.1148 30 -89.3351
vt 4.39617 1.1811
f 293/506/10 47/507/11 49/508/11 294/509/10 

v 77.9467 30 -89.0939
vt 3.06877 3.50763
v 77.8468 30 -89.3351
vt 3.06484 3.51713
v 77.6879 30 -89.5422
vt 3.05858 3.52528
v 77.6555 30 -89.5671
vt 3.0573 3.52626
v 77.4808 30 -89.7011
vt 3.05043 3.53154
v 77.2396 30 -89.801
vt 3.04093 3.53547
v 76.9808 30 -89.8351
vt 3.03074 3.53681
v 76.722 30 -89.801
vt 3.02055 3.53547
v 76.4808 30 -89.7011
vt 3.01106 3.53154
v 76.2737 30 -89.5422
vt 3.0029 3.52528
f 53/22/3 54/21/3 55/20/3 56/18/3 57/17/3 58/16/3 59/15/3 60/14/3 61/13/3 63/128/3 295/510/3 296/511/3 297/512/3 298/513/3 299/514/3 300/515/3 301/516/3 302/517/3 303/518/3 304/519/3 294/505/3 49/72/3 48/26/3 50/25/3 51/24/3 52/23/3 

vt -3.06679 1.5748
v 77.9467 40 -89.0939
vt -3.07707 1.5748
vn -0.965926 0 0.258819
vt -3.07707 1.1811
vt -3.06679 1.1811
f 62/520/24 305/521/73 295/522/73 63/523/24 

f 64/129/3 305/510/3 62/128/3

v 77.8468 40 -89.3351
f 64/129/3 306/511/3 305/510/3

v 77.7802 40 -93.3668
f 307/152/3 306/511/3 64/129/3

v 77.6879 40 -89.5422
f 307/152/3 308/512/3 306/511/3

v 77.6555 40 -89.5671
f 307/152/3 309/513/3 308/512/3

v 77.4808 40 -89.7011
f 307/152/3 310/514/3 309/513/3

v 77.2396 40 -89.801
f 307/152/3 311/515/3 310/514/3

v 77.1673 40 -93.5402
f 312/154/3 311/515/3 307/152/3

v 76.9808 40 -89.8351
f 312/154/3 313/516/3 311/515/3

v 76.722 40 -89.801
f 312/154/3 314/517/3 313/516/3

f 101/158/3 314/517/3 312/154/3

v 76.4808 40 -89.7011
f 101/158/3 315/518/3 314/517/3

v 76.4808 40 -145.585
f 316/491/3 315/518/3 101/158/3

v 76.2737 40 -145.744
f 317/490/3 315/518/3 316/491/3

v 76.2737 40 -89.5422
f 317/490/3 318/519/3 315/518/3

f 292/489/3 318/519/3 317/490/3

f 292/489/3 293/505/3 318/519/3

vt 4.62485 1.5748
vt 4.61457 1.5748
vt 4.61457 1.1811
vt 4.62485 1.1811
f 318/524/9 293/525/10 294/526/10 304/527/9 

vt 4.5387 1.5748
vt 4.52842 1.5748
vt 4.52842 1.1811
vt 4.5387 1.1811
f 315/528/7 318/529/9 304/530/9 303/531/7 

vt 4.14359 1.5748
vt 4.13331 1.5748
vt 4.13331 1.1811
vt 4.14359 1.1811
f 314/532/6 315/533/7 303/534/7 302/535/6 

vt 3.46646 1.5748
vn -2.14162e-014 0 1
vt 3.45618 1.5748
vt 3.45618 1.1811
vt 3.46646 1.1811
f 313/536/74 314/537/6 302/538/6 301/539/74 

vt 2.55344 1.5748
vt 2.54317 1.5748
vt 2.54317 1.1811
vt 2.55344 1.1811
f 311/540/4 313/541/74 301/542/74 300/543/4 

vt 1.46676 1.5748
vt 1.45649 1.5748
vt 1.45649 1.1811
vt 1.46676 1.1811
f 310/544/72 311/545/4 300/546/4 299/547/72 

vt 0.278868 1.5748
vn -0.608761 0 0.793353
vt 0.2702 1.5748
vt 0.2702 1.1811
vt 0.278868 1.1811
f 309/548/75 310/549/72 299/550/72 298/551/75 

vt 0.280478 1.5748
vn -0.707107 0 0.707107
vt 0.280478 1.1811
f 308/552/76 309/548/75 298/551/75 297/553/76 

vt -0.924572 1.5748
vn -0.866025 0 0.5
vt -0.93485 1.5748
vt -0.93485 1.1811
vt -0.924572 1.1811
f 306/554/77 308/555/76 297/556/76 296/557/77 

vt -2.06626 1.5748
vt -2.07654 1.5748
vt -2.07654 1.1811
vt -2.06626 1.1811
f 305/558/73 306/559/77 296/560/77 295/561/73 

vt 2.73445 1.5748
vt 2.72418 1.5748
vt 2.72418 1.1811
vt 2.73445 1.1811
f 292/562/14 317/563/15 278/564/15 277/565/14 

vt 1.11068 1.5748
vt 1.10041 1.5748
vt 1.10041 1.1811
vt 1.11068 1.1811
f 317/566/15 316/567/17 279/568/17 278/569/15 

vt -0.588426 1.5748
v 76.722 40 -145.485
vt -0.598704 1.5748
vt -0.598704 1.1811
vt -0.588426 1.1811
f 316/570/17 319/571/1 280/572/1 279/573/17 

f 316/491/3 100/155/3 319/492/3

f 100/155/3 316/491/3 101/158/3

f 319/492/3 100/155/3 102/153/3

v 76.9808 40 -145.451
f 319/492/3 102/153/3 320/493/3

v 77.2396 40 -145.485
f 320/493/3 102/153/3 321/494/3

f 321/494/3 102/153/3 103/151/3

v 77.4808 40 -145.585
f 321/494/3 103/151/3 322/495/3

v 77.6555 40 -145.719
f 322/495/3 103/151/3 323/496/3

v 77.6879 40 -145.744
f 323/496/3 103/151/3 324/497/3

v 77.8468 40 -145.951
f 324/497/3 103/151/3 325/498/3

f 325/498/3 103/151/3 104/150/3

v 77.9467 40 -146.192
f 325/498/3 104/150/3 326/499/3

v 77.9808 40 -146.451
f 326/499/3 104/150/3 327/500/3

f 114/213/3 327/500/3 104/150/3

f 114/213/3 272/481/3 327/500/3

vt -5.31574 1.5748
vt -5.32602 1.5748
vt -5.32602 1.1811
vt -5.31574 1.1811
f 327/574/24 272/575/73 289/576/73 288/577/24 

vt -4.16195 1.5748
vt -4.17222 1.5748
vt -4.17222 1.1811
vt -4.16195 1.1811
f 272/578/73 273/579/77 290/580/77 289/581/73 

vt -2.72418 1.5748
vt -2.73445 1.5748
vt -2.73445 1.1811
vt -2.72418 1.1811
f 273/582/77 274/583/76 291/584/76 290/585/77 

vt -1.10041 1.5748
vt -1.11068 1.5748
vt -1.11068 1.1811
vt -1.10041 1.1811
f 274/586/76 275/587/72 276/588/72 291/589/76 

vt -6.10692 1.5748
vt -6.1172 1.5748
vt -6.1172 1.1811
vt -6.10692 1.1811
f 326/590/23 327/591/24 288/592/24 287/593/23 

vt -6.48157 1.5748
vt -6.49185 1.5748
vt -6.49185 1.1811
vt -6.48157 1.1811
f 325/594/22 326/595/23 287/596/23 286/597/22 

vt -6.41417 1.5748
vt -6.42445 1.5748
vt -6.42445 1.1811
vt -6.41417 1.1811
f 324/598/21 325/599/22 286/600/22 285/601/21 

vt -5.91797 1.5748
vn -0.608761 0 -0.793353
vt -5.91958 1.5748
vt -5.91958 1.1811
vt -5.91797 1.1811
f 323/602/78 324/603/21 285/604/21 284/605/78 

vt -5.9093 1.5748
vt -5.9093 1.1811
f 322/606/20 323/602/78 284/605/78 283/607/20 

vt -5.00137 1.5748
vt -5.01165 1.5748
vt -5.01165 1.1811
vt -5.00137 1.1811
f 321/608/19 322/609/20 283/610/20 282/611/19 

vt -3.75226 1.5748
vt -3.76254 1.5748
vt -3.76254 1.1811
vt -3.75226 1.1811
f 320/612/39 321/613/19 282/614/19 281/615/39 

vt -2.24709 1.5748
vt -2.25736 1.5748
vt -2.25736 1.1811
vt -2.24709 1.1811
f 319/616/1 320/617/39 281/618/39 280/619/1 

f 114/213/3 104/150/3 105/149/3

f 114/213/3 105/149/3 106/148/3

f 114/213/3 106/148/3 107/147/3

f 114/213/3 107/147/3 108/146/3

f 114/213/3 108/146/3 109/145/3

f 114/213/3 109/145/3 110/144/3

f 114/213/3 110/144/3 111/143/3

f 114/213/3 111/143/3 112/142/3

vt -2.40282 0
vn 0.217257 0 -0.976114
vt -2.37774 0
vn 0.161651 0 -0.986848
vt -2.37774 1.5748
vt -2.40282 1.5748
f 95/620/79 99/621/80 101/622/80 312/623/79 

vt -1.94617 0
vn 0.326201 0 -0.9453
vt -1.9211 0
vt -1.9211 1.5748
vt -1.94617 1.5748
f 93/624/81 95/625/79 312/626/79 307/627/81 

vt -1.46474 0
vn 0.430964 0 -0.902369
vt -1.43967 0
vt -1.43967 1.5748
vt -1.46474 1.5748
f 91/628/82 93/629/81 307/630/81 64/631/82 

vt -0.964694 0
vn 0.530203 0 -0.847871
vt -0.939621 0
vt -0.939621 1.5748
vt -0.964694 1.5748
f 89/632/83 91/633/82 64/634/82 65/635/83 

vt -0.452443 0
vn 0.622646 0 -0.782504
vt -0.42737 0
vt -0.42737 1.5748
vt -0.452443 1.5748
f 87/636/84 89/637/83 65/638/83 66/639/84 

vt 0.0654467 0
vt 0.0905197 0
vt 0.0905197 1.5748
vt 0.0654467 1.5748
f 85/640/15 87/641/84 66/642/84 67/643/15 

vt 0.582337 0
vn 0.782504 0 -0.622646
vt 0.60741 0
vt 0.60741 1.5748
vt 0.582337 1.5748
f 83/644/85 85/645/15 67/646/15 68/647/85 

vt 1.0916 0
vn 0.847871 0 -0.530203
vt 1.11668 0
vt 1.11668 1.5748
vt 1.0916 1.5748
f 81/648/86 83/649/85 68/650/85 69/651/86 

vt 1.58671 0
vn 0.902369 0 -0.430964
vt 1.61179 0
vt 1.61179 1.5748
vt 1.58671 1.5748
f 79/652/87 81/653/86 69/654/86 70/655/87 

vt 2.06133 0
vn 0.9453 0 -0.326201
vt 2.0864 0
vt 2.0864 1.5748
vt 2.06133 1.5748
f 77/656/88 79/657/87 70/658/87 71/659/88 

vt 2.50935 0
vt 2.53443 0
vt 2.53443 1.5748
vt 2.50935 1.5748
f 74/660/26 77/661/88 71/662/88 72/663/26 

vt 7.5409 1.5748
vt 3.21019 1.5748
vt 3.21019 0
vt 7.5409 0
f 271/664/5 114/665/5 113/666/5 120/667/5 

vt -4.47842 0
vn -0.986848 0 0.161651
v 191.642 0 -146.015
vt -4.45335 0
vn -0.976114 0 0.217257
vt -4.45335 1.5748
vt -4.47842 1.5748
f 120/668/89 328/669/90 270/670/90 271/671/89 

f 120/225/3 119/10/3 328/480/3

v 191.815 0 -89.8844
f 328/480/3 119/10/3 329/9/3

vt -5.4605 0
vn -0.9453 0 -0.326201
vt -5.43543 0
vt -5.43543 1.5748
vt -5.4605 1.5748
f 329/672/91 119/673/40 8/674/40 7/675/91 

v 192.057 0 -90.4737
vt -6.16312 0
vn -0.902369 0 -0.430964
vt -6.13804 0
vt -6.13804 1.5748
v 192.057 40 -90.4737
vt -6.16312 1.5748
f 330/676/92 329/677/91 7/678/91 331/679/92 

v 191.815 0 -145.402
vt 7.56128 3.56196
f 332/479/3 329/9/3 330/680/3

f 328/480/3 329/9/3 332/479/3

vt -3.47812 0
vt -3.45305 0
vn -0.9453 0 0.326201
vt -3.45305 1.5748
vt -3.47812 1.5748
f 328/681/90 332/682/93 269/683/93 270/684/90 

vt -2.4334 0
v 192.057 0 -144.813
vt -2.40833 0
vn -0.902369 0 0.430964
v 192.057 40 -144.813
vt -2.40833 1.5748
vt -2.4334 1.5748
f 332/685/93 333/686/94 334/687/94 269/688/93 

vt 7.56128 5.70128
f 332/479/3 330/680/3 333/689/3

v 192.363 0 -91.0319
vt 7.57335 3.58393
f 333/689/3 330/680/3 335/690/3

vt -6.78689 0
vn -0.847871 0 -0.530203
vt -6.76181 0
vt -6.76181 1.5748
v 192.363 40 -91.0319
vt -6.78689 1.5748
f 335/691/95 330/692/92 331/693/92 336/694/95 

v 195.39 40 -88.128
vt 7.69251 3.4696
f 331/680/3 337/695/3 336/690/3

f 331/680/3 6/8/3 337/695/3

f 7/9/3 6/8/3 331/680/3

vt -3.99072 1.5748
vt -4.001 1.5748
v 195.597 30 -87.969
vt -4.001 1.1811
v 195.39 30 -88.128
vt -3.99072 1.1811
f 337/696/15 6/697/17 338/698/17 339/699/15 

vt -5.78912 1.5748
vt -5.7994 1.5748
vt -5.7994 1.1811
vt -5.78912 1.1811
f 6/700/17 1/701/1 4/702/1 338/703/17 

v 196.772 30 -88.1031
vt 7.74691 3.46862
v 196.804 30 -88.128
vt 7.74819 3.4696
v 196.963 30 -88.3351
vt 7.75445 3.47776
v 197.063 30 -88.5762
vt 7.75838 3.48725
v 197.097 30 -88.8351
v 197.063 30 -89.0939
vt 7.75838 3.50763
v 196.963 30 -89.3351
vt 7.75445 3.51713
v 196.804 30 -89.5422
vt 7.74819 3.52528
v 196.597 30 -89.7011
vt 7.74004 3.53154
v 196.356 30 -89.801
vt 7.73054 3.53547
v 196.097 30 -89.8351
vt 7.72035 3.53681
v 195.838 30 -89.801
vt 7.71016 3.53547
v 195.597 30 -89.7011
vt 7.70067 3.53154
v 195.422 30 -89.5671
vt 7.69379 3.52626
v 195.39 30 -89.5422
vt 7.69251 3.52528
v 195.231 30 -89.3351
vt 7.68626 3.51713
v 195.131 30 -89.0939
vt 7.68232 3.50763
v 195.097 30 -88.8351
vt 7.68098 3.49744
v 195.131 30 -88.5762
vt 7.68232 3.48725
v 195.231 30 -88.3351
vt 7.68626 3.47776
v 196.356 30 -87.8691
vt 7.73054 3.45942
v 196.597 30 -87.969
vt 7.74004 3.46335
f 340/704/3 341/705/3 342/706/3 343/707/3 344/468/3 345/708/3 346/709/3 347/710/3 348/711/3 349/712/3 350/713/3 351/714/3 352/715/3 353/716/3 354/717/3 355/718/3 356/719/3 357/720/3 358/721/3 359/722/3 339/695/3 338/8/3 4/5/3 3/7/3 360/723/3 361/724/3 

v 196.772 40 -88.1031
vt -8.2576 1.5748
v 196.804 40 -88.128
vt -8.25921 1.5748
vt -8.25921 1.1811
vt -8.2576 1.1811
f 362/725/78 363/726/21 341/727/21 340/728/78 

f 362/704/3 5/6/3 363/705/3

v 196.597 40 -87.969
f 364/724/3 5/6/3 362/704/3

v 196.356 40 -87.8691
f 365/723/3 5/6/3 364/724/3

f 2/7/3 5/6/3 365/723/3

vt -8.10567 1.5748
vt -8.11595 1.5748
vt -8.11595 1.1811
vt -8.10567 1.1811
f 2/729/2 365/730/19 360/731/19 3/732/2 

vt -8.46595 1.5748
vt -8.47623 1.5748
vt -8.47623 1.1811
vt -8.46595 1.1811
f 365/733/19 364/734/20 361/735/20 360/736/19 

vt -8.24894 1.5748
vt -8.24894 1.1811
f 364/737/20 362/725/78 340/728/78 361/738/20 

v 196.963 40 -88.3351
f 363/705/3 5/6/3 366/706/3

v 197.063 40 -88.5762
f 366/706/3 5/6/3 367/707/3

f 367/707/3 5/6/3 258/468/3

vt -4.47009 1.5748
vt -4.48037 1.5748
vn -1 0 -2.14022e-014
vt -4.48037 1.1811
vt -4.47009 1.1811
f 367/739/23 258/740/96 344/741/96 343/742/23 

vt -2.45468 1.5748
v 197.063 40 -89.0939
vt -2.46495 1.5748
vt -2.46495 1.1811
vt -2.45468 1.1811
f 258/743/96 368/744/73 345/745/73 344/746/96 

f 259/469/3 368/708/3 258/468/3

v 197.049 40 -146.145
vt 7.75783 5.75373
f 369/747/3 368/708/3 259/469/3

v 196.963 40 -89.3351
f 369/747/3 370/709/3 368/708/3

v 196.937 40 -145.909
vt 7.75343 5.74444
f 371/748/3 370/709/3 369/747/3

v 196.804 40 -89.5422
f 371/748/3 372/710/3 370/709/3

v 196.768 40 -145.71
vt 7.74678 5.73661
f 373/749/3 372/710/3 371/748/3

v 196.597 40 -89.7011
f 373/749/3 374/711/3 372/710/3

v 196.553 40 -145.561
vt 7.73832 5.73077
f 375/750/3 374/711/3 373/749/3

v 196.539 40 -141.643
vt 7.73775 5.5765
f 376/751/3 374/711/3 375/750/3

v 196.539 40 -93.6431
vt 7.73775 3.68674
f 377/752/3 374/711/3 376/751/3

v 196.356 40 -89.801
f 377/752/3 378/712/3 374/711/3

v 196.097 40 -89.8351
f 377/752/3 379/713/3 378/712/3

v 195.91 40 -93.5402
vt 7.71301 3.68268
f 380/753/3 379/713/3 377/752/3

v 195.838 40 -89.801
f 380/753/3 381/714/3 379/713/3

v 195.597 40 -89.7011
f 380/753/3 382/715/3 381/714/3

v 195.422 40 -89.5671
f 380/753/3 383/716/3 382/715/3

v 195.39 40 -89.5422
f 380/753/3 384/717/3 383/716/3

v 195.298 40 -93.3668
vt 7.68888 3.67586
f 385/754/3 384/717/3 380/753/3

v 195.231 40 -89.3351
f 385/754/3 386/718/3 384/717/3

v 195.131 40 -89.0939
f 385/754/3 387/719/3 386/718/3

v 195.097 40 -88.8351
f 385/754/3 388/720/3 387/719/3

v 194.708 40 -93.1254
vt 7.66568 3.66635
f 388/720/3 385/754/3 389/755/3

v 195.298 0 -93.3668
vt -8.50852 0
vn -0.326201 0 -0.9453
v 194.708 0 -93.1254
vt -8.48344 0
vn -0.430964 0 -0.902369
vt -8.48344 1.5748
vt -8.50852 1.5748
f 390/756/97 391/757/98 389/758/98 385/759/97 

v 194.708 0 -142.161
vt 7.66568 5.59689
f 392/760/3 391/755/3 390/754/3

v 194.15 0 -142.467
vt 7.6437 5.60895
f 393/761/3 391/755/3 392/760/3

v 194.15 0 -92.8188
vt 7.6437 3.65428
f 393/761/3 394/762/3 391/755/3

v 193.63 0 -142.835
vt 7.62323 5.62343
f 395/763/3 394/762/3 393/761/3

v 193.63 0 -92.4511
vt 7.62323 3.63981
f 395/763/3 396/764/3 394/762/3

v 193.155 0 -143.259
vt 7.60453 5.64013
f 397/765/3 396/764/3 395/763/3

v 193.155 0 -92.027
vt 7.60453 3.62311
f 397/765/3 398/766/3 396/764/3

v 192.731 0 -143.734
vt 7.58783 5.65883
f 399/767/3 398/766/3 397/765/3

v 192.731 0 -91.5519
vt 7.58783 3.60441
f 399/767/3 400/768/3 398/766/3

v 192.363 0 -144.254
vt 7.57335 5.6793
f 401/769/3 400/768/3 399/767/3

f 401/769/3 335/690/3 400/768/3

f 333/689/3 335/690/3 401/769/3

vt -1.35765 0
vt -1.33258 0
vn -0.847871 0 0.530203
v 192.363 40 -144.254
vt -1.33258 1.5748
vt -1.35765 1.5748
f 333/770/94 401/771/99 402/772/99 334/773/94 

vt -0.264655 0
vt -0.239582 0
vn -0.782504 0 0.622646
v 192.731 40 -143.734
vt -0.239582 1.5748
vt -0.264655 1.5748
f 401/774/99 399/775/100 403/776/100 402/777/99 

vt 0.831572 0
vt 0.856645 0
v 193.155 40 -143.259
vt 0.856645 1.5748
vt 0.831572 1.5748
f 399/778/100 397/779/76 404/780/76 403/781/100 

vt 1.91698 0
vt 1.94205 0
vn -0.622646 0 0.782504
v 193.63 40 -142.835
vt 1.94205 1.5748
vt 1.91698 1.5748
f 397/782/76 395/783/101 405/784/101 404/785/76 

vt 2.97765 0
vt 3.00273 0
vn -0.530203 0 0.847871
v 194.15 40 -142.467
vt 3.00273 1.5748
vt 2.97765 1.5748
f 395/786/101 393/787/102 406/788/102 405/789/101 

vt 4 0
vt 4.02507 0
vn -0.430964 0 0.902369
v 194.708 40 -142.161
vt 4.02507 1.5748
vt 4 1.5748
f 393/790/102 392/791/103 407/792/103 406/793/102 

vt 4.97091 0
v 195.298 0 -141.919
vt 4.99598 0
vn -0.326201 0 0.9453
v 195.298 40 -141.919
vt 4.99598 1.5748
vt 4.97091 1.5748
f 392/794/103 408/795/104 409/796/104 407/797/103 

vt 7.68888 5.58738
f 392/760/3 390/754/3 408/798/3

v 195.91 0 -93.5402
f 408/798/3 390/754/3 410/753/3

vt -8.42414 0
vn -0.217257 0 -0.976114
vt -8.39907 0
vt -8.39907 1.5748
vt -8.42414 1.5748
f 410/799/105 390/800/97 385/801/97 380/802/105 

v 196.539 0 -93.6431
vt -8.23195 0
vn -0.161651 0 -0.986848
vt -8.20688 0
vt -8.20688 1.5748
vt -8.23195 1.5748
f 411/803/106 410/804/105 380/805/105 377/806/106 

v 195.91 0 -141.746
vt 7.71301 5.58055
f 412/807/3 410/753/3 411/752/3

f 408/798/3 410/753/3 412/807/3

vt 5.87794 0
vt 5.90301 0
vn -0.217257 0 0.976114
v 195.91 40 -141.746
vt 5.90301 1.5748
vt 5.87794 1.5748
f 408/808/104 412/809/107 413/810/107 409/811/104 

vt 6.70946 0
v 196.539 0 -141.643
vt 6.73453 0
vn -0.161651 0 0.986848
vt 6.73453 1.5748
vt 6.70946 1.5748
f 412/812/107 414/813/108 376/814/108 413/815/107 

f 412/807/3 411/752/3 414/751/3

vt -5.5765 1.5748
vt -5.5765 0
vt -3.68674 0
vt -3.68674 1.5748
f 376/816/24 414/817/24 411/818/24 377/819/24 

v 196.047 40 -145.452
vt 7.7184 5.72647
f 415/820/3 413/807/3 376/751/3

v 195.791 40 -145.499
vt 7.70829 5.72832
f 416/821/3 413/807/3 415/820/3

v 195.555 40 -145.611
vt 7.699 5.73272
f 417/822/3 413/807/3 416/821/3

v 195.424 40 -145.722
vt 7.69388 5.73707
f 418/823/3 413/807/3 417/822/3

v 195.356 40 -145.78
vt 7.69117 5.73937
f 419/824/3 413/807/3 418/823/3

f 419/824/3 409/798/3 413/807/3

v 195.207 40 -145.995
vt 7.68532 5.74782
f 420/825/3 409/798/3 419/824/3

v 195.119 40 -146.241
vt 7.68186 5.7575
f 421/826/3 409/798/3 420/825/3

v 195.098 40 -146.501
vt 7.68103 5.76775
f 422/827/3 409/798/3 421/826/3

f 409/798/3 422/827/3 407/760/3

f 422/827/3 406/761/3 407/760/3

v 195.145 40 -146.758
vt 7.68287 5.77786
f 423/828/3 406/761/3 422/827/3

f 423/828/3 405/763/3 406/761/3

f 423/828/3 404/765/3 405/763/3

v 195.257 40 -146.994
vt 7.68727 5.78715
f 424/829/3 404/765/3 423/828/3

f 424/829/3 403/767/3 404/765/3

f 424/829/3 402/769/3 403/767/3

v 195.426 40 -147.192
vt 7.69393 5.79498
f 425/830/3 402/769/3 424/829/3

f 425/830/3 334/689/3 402/769/3

f 425/830/3 269/479/3 334/689/3

f 268/478/3 269/479/3 425/830/3

vt 9.63447 1.5748
vn 0.456448 0 0.88975
vt 9.6242 1.5748
vn 0.671179 0 0.741295
v 195.426 30 -147.192
vt 9.6242 1.1811
v 195.64 30 -147.341
vt 9.63447 1.1811
f 268/831/109 425/832/110 426/833/110 427/834/109 

vt 9.39755 1.5748
vt 9.38727 1.5748
vn 0.840171 0 0.542322
v 195.257 30 -146.994
vt 9.38727 1.1811
vt 9.39755 1.1811
f 425/835/110 424/836/111 428/837/111 426/838/110 

vt 8.52054 1.5748
vt 8.51026 1.5748
vn 0.951906 0 0.306391
v 195.145 30 -146.758
vt 8.51026 1.1811
vt 8.52054 1.1811
f 424/839/111 423/840/112 429/841/112 428/842/111 

vt 7.06323 1.5748
vt 7.05295 1.5748
vn 0.99877 0 0.0495793
v 195.098 30 -146.501
vt 7.05295 1.1811
vt 7.06323 1.1811
f 423/843/112 422/844/113 430/845/113 429/846/112 

vt 5.12492 1.5748
vt 5.11464 1.5748
vn 0.97757 0 -0.210611
v 195.119 30 -146.241
vt 5.11464 1.1811
vt 5.12492 1.1811
f 422/847/113 421/848/114 431/849/114 430/850/113 

vt 2.8377 1.5748
vt 2.82742 1.5748
vn 0.88975 0 -0.456448
v 195.207 30 -145.995
vt 2.82742 1.1811
vt 2.8377 1.1811
f 421/851/114 420/852/115 432/853/115 431/854/114 

vt 0.357448 1.5748
vt 0.347171 1.5748
vn 0.741295 0 -0.671179
v 195.356 30 -145.78
vt 0.347171 1.1811
vt 0.357448 1.1811
f 420/855/115 419/856/116 433/857/116 432/858/115 

vt -2.14681 1.5748
vt -2.15037 1.5748
vn 0.647347 0 -0.762196
v 195.424 30 -145.722
vt -2.15037 1.1811
vt -2.14681 1.1811
f 419/859/116 418/860/117 434/861/117 433/862/116 

vt -2.15709 1.5748
vn 0.542322 0 -0.840171
v 195.555 30 -145.611
vt -2.15709 1.1811
f 418/860/117 417/863/118 435/864/118 434/861/117 

vt -4.50442 1.5748
vt -4.5147 1.5748
vn 0.306391 0 -0.951906
v 195.791 30 -145.499
vt -4.5147 1.1811
vt -4.50442 1.1811
f 417/865/118 416/866/119 436/867/119 435/868/118 

vt -6.55471 1.5748
vt -6.56499 1.5748
vn 0.0495793 0 -0.99877
v 196.047 30 -145.452
vt -6.56499 1.1811
vt -6.55471 1.1811
f 416/869/119 415/870/120 437/871/120 436/872/119 

vt -8.15796 1.5748
v 196.308 40 -145.474
vt -8.16823 1.5748
vn -0.210611 0 -0.97757
v 196.308 30 -145.474
vt -8.16823 1.1811
vt -8.15796 1.1811
f 415/873/120 438/874/121 439/875/121 437/876/120 

vt 7.72864 5.72731
f 415/820/3 376/751/3 438/877/3

f 438/877/3 376/751/3 375/750/3

vt -9.2049 1.5748
vt -9.21518 1.5748
vn -0.456448 0 -0.88975
v 196.553 30 -145.561
vt -9.21518 1.1811
vt -9.2049 1.1811
f 438/878/121 375/879/122 440/880/122 439/881/121 

vt -9.6242 1.5748
vt -9.63447 1.5748
vn -0.671179 0 -0.741295
v 196.768 30 -145.71
vt -9.63447 1.1811
vt -9.6242 1.1811
f 375/882/122 373/883/123 441/884/123 440/885/122 

vt -9.38727 1.5748
vt -9.39755 1.5748
vn -0.840171 0 -0.542322
v 196.937 30 -145.909
vt -9.39755 1.1811
vt -9.38727 1.1811
f 373/886/123 371/887/124 442/888/124 441/889/123 

vt -8.51026 1.5748
vt -8.52054 1.5748
vn -0.951906 0 -0.306391
v 197.049 30 -146.145
vt -8.52054 1.1811
vt -8.51026 1.1811
f 371/890/124 369/891/125 443/892/125 442/893/124 

vt -7.05295 1.5748
vt -7.06323 1.5748
vn -0.99877 0 -0.0495793
v 197.096 30 -146.402
vt -7.06323 1.1811
vt -7.05295 1.1811
f 369/894/125 259/895/126 444/896/126 443/897/125 

vt -5.11464 1.5748
vt -5.12492 1.5748
vn -0.97757 0 0.210611
v 197.074 30 -146.662
vt -5.12492 1.1811
vt -5.11464 1.1811
f 259/898/126 260/899/127 445/900/127 444/901/126 

vt -2.82742 1.5748
vt -2.8377 1.5748
vn -0.88975 0 0.456448
v 196.987 30 -146.908
vt -2.8377 1.1811
vt -2.82742 1.1811
f 260/902/127 261/903/128 446/904/128 445/905/127 

vt -0.347171 1.5748
vt -0.357448 1.5748
vn -0.741295 0 0.671179
v 196.838 30 -147.122
vt -0.357448 1.1811
vt -0.347171 1.1811
f 261/906/128 262/907/129 447/908/129 446/909/128 

vt 2.15709 1.5748
vt 2.15353 1.5748
vn -0.647347 0 0.762196
v 196.769 30 -147.181
vt 2.15353 1.1811
vt 2.15709 1.1811
f 262/910/129 263/911/130 448/912/130 447/913/129 

vt 2.14681 1.5748
vn -0.542322 0 0.840171
v 196.639 30 -147.291
vt 2.14681 1.1811
f 263/911/130 264/914/131 449/915/131 448/912/130 

vt 4.5147 1.5748
vt 4.50442 1.5748
vn -0.306391 0 0.951906
v 196.403 30 -147.403
vt 4.50442 1.1811
vt 4.5147 1.1811
f 264/916/131 265/917/132 450/918/132 449/919/131 

vt 6.56499 1.5748
vt 6.55471 1.5748
vn -0.0495793 0 0.99877
v 196.147 30 -147.45
vt 6.55471 1.1811
vt 6.56499 1.1811
f 265/920/132 266/921/133 451/922/133 450/923/132 

vt 8.16823 1.5748
vt 8.15796 1.5748
vn 0.210611 0 0.97757
v 195.886 30 -147.429
vt 8.15796 1.1811
vt 8.16823 1.1811
f 266/924/133 267/925/134 452/926/134 451/927/133 

vt 9.21518 1.5748
vt 9.2049 1.5748
vt 9.2049 1.1811
vt 9.21518 1.1811
f 267/928/134 268/929/109 427/930/109 452/931/134 

f 448/473/3 449/474/3 450/475/3 451/476/3 452/477/3 427/478/3 426/830/3 428/829/3 429/828/3 430/827/3 431/826/3 432/825/3 433/824/3 434/823/3 435/822/3 436/821/3 437/820/3 439/877/3 440/750/3 441/749/3 442/748/3 443/747/3 444/469/3 445/470/3 446/471/3 447/472/3 

vt -7.32382 0
vn -0.782504 0 -0.622646
vt -7.29875 0
vt -7.29875 1.5748
v 192.731 40 -91.5519
vt -7.32382 1.5748
f 400/932/135 335/933/95 336/934/95 453/935/135 

f 336/690/3 337/695/3 453/768/3

v 195.231 40 -88.3351
f 453/768/3 337/695/3 454/722/3

vt -1.92 1.5748
vt -1.93028 1.5748
vt -1.93028 1.1811
vt -1.92 1.1811
f 454/936/14 337/937/15 339/938/15 359/939/14 

v 195.131 40 -88.5762
vt 0.281905 1.5748
vt 0.271627 1.5748
vt 0.271627 1.1811
vt 0.281905 1.1811
f 455/940/13 454/941/14 359/942/14 358/943/13 

v 193.155 40 -92.027
f 456/766/3 454/722/3 455/721/3

f 453/768/3 454/722/3 456/766/3

vt -7.76704 0
vt -7.74196 0
vt -7.74196 1.5748
vt -7.76704 1.5748
f 398/944/21 400/945/135 453/946/135 456/947/21 

vt -8.11085 0
vn -0.622646 0 -0.782504
vt -8.08578 0
vt -8.08578 1.5748
v 193.63 40 -92.4511
vt -8.11085 1.5748
f 396/948/136 398/949/21 456/950/21 457/951/136 

f 456/766/3 455/721/3 457/764/3

v 194.15 40 -92.8188
f 457/764/3 455/721/3 458/762/3

f 458/762/3 455/721/3 388/720/3

vt 2.46495 1.5748
vn 1 0 2.14022e-014
vt 2.45468 1.5748
vt 2.45468 1.1811
vt 2.46495 1.1811
f 388/952/137 455/953/13 358/954/13 357/955/137 

vt 4.48037 1.5748
vt 4.47009 1.5748
vt 4.47009 1.1811
vt 4.48037 1.1811
f 387/956/11 388/957/137 357/958/137 356/959/11 

vt 6.19081 1.5748
vt 6.18053 1.5748
vt 6.18053 1.1811
vt 6.19081 1.1811
f 386/960/10 387/961/11 356/962/11 355/963/10 

vt 7.4797 1.5748
vt 7.46942 1.5748
vt 7.46942 1.1811
vt 7.4797 1.1811
f 384/964/9 386/965/10 355/966/10 354/967/9 

vt 8.25055 1.5748
vt 8.24894 1.5748
vt 8.24894 1.1811
vt 8.25055 1.1811
f 383/968/8 384/969/9 354/970/9 353/971/8 

vt 8.25921 1.5748
vt 8.25921 1.1811
f 382/972/7 383/968/8 353/971/8 352/973/7 

vt 8.47623 1.5748
vt 8.46595 1.5748
vt 8.46595 1.1811
vt 8.47623 1.1811
f 381/974/6 382/975/7 352/976/7 351/977/6 

vt 8.11595 1.5748
vn -2.14022e-014 0 1
vt 8.10567 1.5748
vt 8.10567 1.1811
vt 8.11595 1.1811
f 379/978/138 381/979/6 351/980/6 350/981/138 

vt 7.20293 1.5748
vt 7.19266 1.5748
vt 7.19266 1.1811
vt 7.20293 1.1811
f 378/982/4 379/983/138 350/984/138 349/985/4 

vt 5.7994 1.5748
vt 5.78912 1.5748
vt 5.78912 1.1811
vt 5.7994 1.1811
f 374/986/72 378/987/4 349/988/4 348/989/72 

vt 4.001 1.5748
vt 3.99072 1.5748
vt 3.99072 1.1811
vt 4.001 1.1811
f 372/990/76 374/991/72 348/992/72 347/993/76 

vt 1.93028 1.5748
vt 1.92 1.5748
vt 1.92 1.1811
vt 1.93028 1.1811
f 370/994/77 372/995/76 347/996/76 346/997/77 

vt -0.271627 1.5748
vt -0.281905 1.5748
vt -0.281905 1.1811
vt -0.271627 1.1811
f 368/998/73 370/999/77 346/1000/77 345/1001/73 

f 458/762/3 388/720/3 389/755/3

vt -8.48398 0
vt -8.45891 0
vn -0.530203 0 -0.847871
vt -8.45891 1.5748
vt -8.48398 1.5748
f 391/1002/98 394/1003/139 458/1004/139 389/1005/98 

vt -8.35086 0
vt -8.32579 0
vt -8.32579 1.5748
vt -8.35086 1.5748
f 394/1006/139 396/1007/136 457/1008/136 458/1009/139 

vt -6.18053 1.5748
vt -6.19081 1.5748
vt -6.19081 1.1811
vt -6.18053 1.1811
f 366/1010/22 367/1011/23 343/1012/23 342/1013/22 

vt -7.46942 1.5748
vt -7.4797 1.5748
vt -7.4797 1.1811
vt -7.46942 1.1811
f 363/1014/21 366/1015/22 342/1016/22 341/1017/21 

vt -7.26531 3.9224
f 229/364/53 170/1018/53 257/451/53

vt -7.26248 3.90204
f 229/364/53 171/1019/53 170/1018/53

v 184.264 -3 -98.6309
vt -7.25448 3.88311
f 229/364/53 459/1020/53 171/1019/53

v 183.943 -3 -98.219
vt -7.24185 3.86689
f 229/364/53 460/1021/53 459/1020/53

v 183.527 -3 -97.9041
vt -7.22546 3.85449
f 229/364/53 461/1022/53 460/1021/53

v 183.043 -3 -97.7077
vt -7.20641 3.84676
f 229/364/53 462/1023/53 461/1022/53

v 182.525 -3 -97.6432
vt -7.18601 3.84422
f 229/364/53 463/1024/53 462/1023/53

v 182.008 -3 -97.715
vt -7.16565 3.84705
f 229/364/53 464/1025/53 463/1024/53

v 181.527 -3 -97.9182
vt -7.14672 3.85505
f 229/364/53 465/1026/53 464/1025/53

vt -5.84747 3.93198
f 229/364/53 236/1027/53 465/1026/53

vt -5.84732 3.92296
f 229/364/53 235/1028/53 236/1027/53

vt -5.84714 3.91142
f 229/364/53 234/1029/53 235/1028/53

vt -5.8415 3.89166
f 229/364/53 233/1030/53 234/1029/53

vt -5.83093 3.87402
f 229/364/53 232/1031/53 233/1030/53

vt -5.81617 3.85972
f 229/364/53 231/1032/53 232/1031/53

f 229/364/53 230/366/53 231/1032/53

v 181.115 -3 -98.2389
vt -7.1305 3.86768
f 465/1026/53 236/1027/53 466/1033/53

v 180.8 -3 -98.6554
vt -7.1181 3.88407
f 466/1033/53 236/1027/53 467/1034/53

v 180.603 -3 -99.1392
vt -7.11037 3.90312
f 467/1034/53 236/1027/53 468/1035/53

v 180.539 -3 -99.6573
vt -7.10783 3.92351
f 468/1035/53 236/1027/53 469/1036/53

v 180.541 -3 -135.55
vt -7.10791 5.33661
f 236/1027/53 470/1037/53 469/1036/53

v 180.585 -3 -136.07
vt -7.10964 5.35709
f 236/1027/53 471/1038/53 470/1037/53

v 180.762 -3 -136.561
vt -7.11662 5.37643
f 236/1027/53 472/1039/53 471/1038/53

v 181.06 -3 -136.99
vt -7.12836 5.3933
f 236/1027/53 473/1040/53 472/1039/53

v 148.523 -3 -135.896
vt -5.84735 5.35024
f 474/1041/53 473/1040/53 236/1027/53

v 181.459 -3 -137.327
vt -7.14406 5.40656
f 474/1041/53 475/1042/53 473/1040/53

f 474/1041/53 257/451/53 475/1042/53

v 148.39 -3 -136.401
vt -5.84211 5.37012
f 476/1043/53 257/451/53 474/1041/53

v 148.13 -3 -136.854
vt -5.83191 5.38796
f 477/1044/53 257/451/53 476/1043/53

v 147.763 -3 -137.225
vt -5.81743 5.40255
f 478/1045/53 257/451/53 477/1044/53

v 147.312 -3 -137.488
vt -5.79967 5.4129
f 479/1046/53 257/451/53 478/1045/53

v 146.808 -3 -137.625
vt -5.77984 5.4183
f 480/1047/53 257/451/53 479/1046/53

f 256/450/53 257/451/53 480/1047/53

vt 5.75786 0
vn -0.134538 0 0.990908
vt 5.73731 0
vn 0.126513 0 0.991965
vt 5.73731 -0.11811
vt 5.75786 -0.11811
f 137/1048/140 138/1049/141 256/1050/141 480/1051/140 

vt 6.95022 0
vt 6.92966 0
vn 0.378941 0 0.925421
vt 6.92966 -0.11811
vt 6.95022 -0.11811
f 138/1052/141 139/1053/142 255/1054/142 256/1055/141 

vt 7.66963 0
vt 7.64907 0
vn 0.605546 0 0.795811
vt 7.64907 -0.11811
vt 7.66963 -0.11811
f 139/1056/142 140/1057/143 253/1058/143 255/1059/142 

vt 7.86706 0
vt 7.84651 0
vn 0.790883 0 0.611967
vt 7.84651 -0.11811
vt 7.86706 -0.11811
f 140/1060/143 141/1061/144 252/1062/144 253/1063/143 

vt 7.52907 0
vt 7.50852 0
vn 0.922323 0 0.386419
vt 7.50852 -0.11811
vt 7.52907 -0.11811
f 141/1064/144 142/1065/145 251/1066/145 252/1067/144 

vt 6.67869 0
vt 6.65813 0
vn 0.990908 0 0.134538
vt 6.65813 -0.11811
vt 6.67869 -0.11811
f 142/1068/145 143/1069/146 250/1070/146 251/1071/145 

vt 5.37386 0
vt 5.35331 0
vn 0.991965 0 -0.126513
vt 5.35331 -0.11811
vt 5.37386 -0.11811
f 143/1072/146 144/1073/147 249/1074/147 250/1075/146 

vt 3.70352 0
vt 3.68296 0
vn 0.925421 0 -0.378941
vt 3.68296 -0.11811
vt 3.70352 -0.11811
f 144/1076/147 223/1077/148 248/1078/148 249/1079/147 

vt 1.78149 0
vt 1.76093 0
vn 0.795811 0 -0.605546
v 144.947 -3 -134.432
vt 1.76093 -0.11811
vt 1.78149 -0.11811
f 223/1080/148 221/1081/149 481/1082/149 248/1083/148 

vt -0.261252 0
vt -0.281807 0
vn 0.611967 0 -0.790883
v 145.315 -3 -134.061
vt -0.281807 -0.11811
vt -0.261252 -0.11811
f 221/1084/149 219/1085/150 482/1086/150 481/1087/149 

vt -2.28549 0
vt -2.30604 0
vn 0.386419 0 -0.922323
v 145.766 -3 -133.798
vt -2.30604 -0.11811
vt -2.28549 -0.11811
f 219/1088/150 217/1089/151 483/1090/151 482/1091/150 

vt -4.15327 0
vt -4.17382 0
vn 0.134538 0 -0.990908
v 146.27 -3 -133.661
vt -4.17382 -0.11811
vt -4.15327 -0.11811
f 217/1092/151 215/1093/152 484/1094/152 483/1095/151 

vt -5.73731 0
vt -5.7479 0
vn 0.00404713 0 -0.999992
v 146.539 -3 -133.66
vt -5.7479 -0.11811
vt -5.73731 -0.11811
f 215/1096/152 212/1097/153 485/1098/153 484/1099/152 

vt -5.75786 0
vn -0.126513 0 -0.991965
v 146.792 -3 -133.659
vt -5.75786 -0.11811
f 212/1097/153 211/1100/154 486/1101/154 485/1098/153 

vt -6.92966 0
vt -6.95022 0
vn -0.378941 0 -0.925421
v 147.297 -3 -133.792
vt -6.95022 -0.11811
vt -6.92966 -0.11811
f 211/1102/154 209/1103/155 487/1104/155 486/1105/154 

vt -7.64907 0
vt -7.66963 0
vn -0.605546 0 -0.795811
v 147.75 -3 -134.052
vt -7.66963 -0.11811
vt -7.64907 -0.11811
f 209/1106/155 207/1107/156 488/1108/156 487/1109/155 

vt -7.84651 0
vt -7.86706 0
vn -0.790883 0 -0.611967
v 148.121 -3 -134.419
vt -7.86706 -0.11811
vt -7.84651 -0.11811
f 207/1110/156 205/1111/157 489/1112/157 488/1113/156 

vt -7.50852 0
vt -7.52907 0
vn -0.922323 0 -0.386419
v 148.384 -3 -134.87
vt -7.52907 -0.11811
vt -7.50852 -0.11811
f 205/1114/157 203/1115/158 490/1116/158 489/1117/157 

vt -6.65813 0
vt -6.67869 0
vn -0.990908 0 -0.134538
v 148.521 -3 -135.374
vt -6.67869 -0.11811
vt -6.65813 -0.11811
f 203/1118/158 201/1119/159 491/1120/159 490/1121/158 

vt -5.35331 0
vt -5.3639 0
vn -0.999992 0 -0.00404713
v 148.522 -3 -135.643
vt -5.3639 -0.11811
vt -5.35331 -0.11811
f 201/1122/159 200/1123/160 492/1124/160 491/1125/159 

vt -5.37386 0
vn -0.991965 0 0.126513
vt -5.37386 -0.11811
f 200/1123/160 132/1126/161 474/1127/161 492/1124/160 

vt -3.68296 0
vt -3.70352 0
vn -0.925421 0 0.378941
vt -3.70352 -0.11811
vt -3.68296 -0.11811
f 132/1128/161 133/1129/162 476/1130/162 474/1131/161 

vt -1.76093 0
vt -1.78149 0
vn -0.795811 0 0.605546
vt -1.78149 -0.11811
vt -1.76093 -0.11811
f 133/1132/162 134/1133/163 477/1134/163 476/1135/162 

vt 0.281807 0
vt 0.261252 0
vn -0.611967 0 0.790883
vt 0.261252 -0.11811
vt 0.281807 -0.11811
f 134/1136/163 135/1137/164 478/1138/164 477/1139/163 

vt 2.30604 0
vt 2.28549 0
vn -0.386419 0 0.922323
vt 2.28549 -0.11811
vt 2.30604 -0.11811
f 135/1140/164 136/1141/165 479/1142/165 478/1143/164 

vt 4.17382 0
vt 4.15327 0
vt 4.15327 -0.11811
vt 4.17382 -0.11811
f 136/1144/165 137/1145/140 480/1146/140 479/1147/165 

vt -5.84731 5.34028
f 236/1027/53 492/1148/53 474/1041/53

vt -5.84727 5.32969
f 236/1027/53 491/1149/53 492/1148/53

vt -5.84247 3.95191
f 237/1150/53 491/1149/53 236/1027/53

vt -5.84187 5.30985
f 237/1150/53 490/1151/53 491/1149/53

vt -5.83248 3.96988
f 238/1152/53 490/1151/53 237/1150/53

vt -5.83152 5.29209
f 238/1152/53 489/1153/53 490/1151/53

vt -5.81818 3.98465
f 239/1154/53 489/1153/53 238/1152/53

vt -5.81693 5.27762
f 239/1154/53 488/1155/53 489/1153/53

vt -5.80055 3.99521
f 240/1156/53 488/1155/53 239/1154/53

vt -5.79908 5.26741
f 240/1156/53 487/1157/53 488/1155/53

vt -5.78078 4.00085
f 241/1158/53 487/1157/53 240/1156/53

vt -5.77921 5.26217
f 241/1158/53 486/1159/53 487/1157/53

vt -5.76925 4.00103
f 242/1160/53 486/1159/53 241/1158/53

vt -5.76925 5.26221
f 242/1160/53 485/1161/53 486/1159/53

vt -5.76023 4.00118
f 243/1162/53 485/1161/53 242/1160/53

vt -5.75865 5.26226
f 243/1162/53 484/1163/53 485/1161/53

vt -5.74029 3.99618
f 244/1164/53 484/1163/53 243/1162/53

vt -5.73882 5.26766
f 244/1164/53 483/1165/53 484/1163/53

vt -5.72233 3.98619
f 245/1166/53 483/1165/53 244/1164/53

vt -5.72106 5.27801
f 245/1166/53 482/1167/53 483/1165/53

vt -5.70756 3.97189
f 246/1168/53 482/1167/53 245/1166/53

vt -5.70658 5.2926
f 246/1168/53 481/1169/53 482/1167/53

f 247/441/53 481/1169/53 246/1168/53

f 247/441/53 248/440/53 481/1169/53

v 181.932 -3 -137.549
vt -7.16267 5.41531
f 475/1042/53 257/451/53 493/1170/53

v 182.446 -3 -137.641
vt -7.1829 5.41894
f 493/1170/53 257/451/53 494/1171/53

v 182.966 -3 -137.597
vt -7.20338 5.41721
f 494/1171/53 257/451/53 495/1172/53

v 183.457 -3 -137.42
vt -7.22272 5.41023
f 495/1172/53 257/451/53 496/1173/53

v 183.886 -3 -137.122
vt -7.23959 5.39849
f 496/1173/53 257/451/53 497/1174/53

v 184.222 -3 -136.723
vt -7.25285 5.38279
f 497/1174/53 257/451/53 498/1175/53

v 184.444 -3 -136.25
vt -7.26159 5.36418
f 498/1175/53 257/451/53 499/1176/53

v 184.537 -3 -135.736
vt -7.26522 5.34395
f 499/1176/53 257/451/53 500/1177/53

f 500/1177/53 257/451/53 170/1018/53

v 184.493 -3 -135.216
vt -7.26349 5.32347
f 170/1018/53 501/1178/53 500/1177/53

vt -7.26277 3.9428
f 173/1179/53 501/1178/53 170/1018/53

v 184.316 -3 -134.725
vt -7.25652 5.30413
f 173/1179/53 502/1180/53 501/1178/53

v 184.278 -3 -100.631
vt -7.25504 3.96184
f 503/1181/53 502/1180/53 173/1179/53

v 184.017 -3 -134.296
vt -7.24478 5.28726
f 503/1181/53 504/1182/53 502/1180/53

v 183.963 -3 -101.047
vt -7.24264 3.97824
f 505/1183/53 504/1182/53 503/1181/53

v 183.619 -3 -133.96
vt -7.22908 5.274
f 505/1183/53 506/1184/53 504/1182/53

v 183.551 -3 -101.368
vt -7.22642 3.99087
f 507/1185/53 506/1184/53 505/1183/53

v 183.146 -3 -133.738
vt -7.21047 5.26526
f 507/1185/53 508/1186/53 506/1184/53

v 183.07 -3 -101.571
vt -7.20749 3.99887
f 509/1187/53 508/1186/53 507/1185/53

v 182.632 -3 -133.645
vt -7.19024 5.26163
f 509/1187/53 510/1188/53 508/1186/53

v 182.553 -3 -101.643
vt -7.18713 4.0017
f 511/1189/53 510/1188/53 509/1187/53

v 182.54 -3 -133.653
vt -7.1866 5.26193
f 511/1189/53 512/1190/53 510/1188/53

v 182.112 -3 -133.689
vt -7.16976 5.26336
f 511/1189/53 513/1191/53 512/1190/53

v 182.035 -3 -101.579
vt -7.16673 3.99916
f 514/1192/53 513/1191/53 511/1189/53

v 181.621 -3 -133.866
vt -7.15042 5.27033
f 514/1192/53 515/1193/53 513/1191/53

v 181.551 -3 -101.382
vt -7.14768 3.99143
f 516/1194/53 515/1193/53 514/1192/53

v 181.192 -3 -134.165
vt -7.13355 5.28207
f 516/1194/53 517/1195/53 515/1193/53

v 181.135 -3 -101.067
vt -7.13129 3.97903
f 518/1196/53 517/1195/53 516/1194/53

v 180.855 -3 -134.563
vt -7.12029 5.29777
f 518/1196/53 519/1197/53 517/1195/53

v 180.814 -3 -100.655
vt -7.11866 3.96281
f 520/1198/53 519/1197/53 518/1196/53

v 180.633 -3 -135.036
vt -7.11154 5.31638
f 520/1198/53 521/1199/53 519/1197/53

v 180.611 -3 -100.174
vt -7.11066 3.94387
f 522/1200/53 521/1199/53 520/1198/53

f 522/1200/53 470/1037/53 521/1199/53

f 470/1037/53 522/1200/53 469/1036/53

vt 4.88433 0
vn 0.964072 0 0.26564
vt 4.86378 0
vn 0.999975 0 0.00706875
vt 4.86378 -0.11811
vt 4.88433 -0.11811
f 195/1201/166 197/1202/167 469/1203/167 522/1204/166 

vt 3.01555 0
v 180.603 0 -99.1392
vt 2.99499 0
vn 0.967731 0 -0.251985
vt 2.99499 -0.11811
vt 3.01555 -0.11811
f 197/1205/167 523/1206/168 468/1207/168 469/1208/167 

vt 7.11037 3.90312
f 160/276/3 523/1209/3 197/318/3

v 180.8 0 -98.6554
vt 7.1181 3.88407
f 160/276/3 524/1210/3 523/1209/3

f 160/276/3 161/277/3 524/1210/3

vt -1.19512 0
vn 0.869538 0 -0.493866
vt -1.21568 0
vn 0.712087 0 -0.702091
vt -1.21568 -0.11811
vt -1.19512 -0.11811
f 524/1211/169 161/1212/170 466/1213/170 467/1214/169 

vt -3.25006 0
vt -3.27061 0
vn 0.506109 0 -0.862469
vt -3.27061 -0.11811
vt -3.25006 -0.11811
f 161/1215/170 162/1216/171 465/1217/171 466/1218/170 

vt -5.08281 0
vt -5.10336 0
vn 0.26564 0 -0.964072
vt -5.10336 -0.11811
vt -5.08281 -0.11811
f 162/1219/171 163/1220/172 464/1221/172 465/1222/171 

vt -6.56847 0
vt -6.58903 0
vn 0.00706875 0 -0.999975
vt -6.58903 -0.11811
vt -6.56847 -0.11811
f 163/1223/172 164/1224/173 463/1225/173 464/1226/172 

vt -7.60581 0
vt -7.62636 0
vn -0.251985 0 -0.967731
vt -7.62636 -0.11811
vt -7.60581 -0.11811
f 164/1227/173 165/1228/174 462/1229/174 463/1230/173 

vt -8.12412 0
vt -8.14467 0
vn -0.493866 0 -0.869538
vt -8.14467 -0.11811
vt -8.12412 -0.11811
f 165/1231/174 166/1232/175 461/1233/175 462/1234/174 

vt -8.08808 0
vt -8.10863 0
vn -0.702091 0 -0.712087
vt -8.10863 -0.11811
vt -8.08808 -0.11811
f 166/1235/175 167/1236/176 460/1237/176 461/1238/175 

vt -7.50015 0
vt -7.52071 0
vn -0.862469 0 -0.506109
vt -7.52071 -0.11811
vt -7.50015 -0.11811
f 167/1239/176 168/1240/177 459/1241/177 460/1242/176 

vt -6.40041 0
vt -6.42096 0
vt -6.42096 -0.11811
vt -6.40041 -0.11811
f 168/1243/177 169/1244/47 171/1245/47 459/1246/177 

vt 0.94196 0
vt 0.921405 0
vt 0.921405 -0.11811
vt 0.94196 -0.11811
f 523/1247/168 524/1248/169 467/1249/169 468/1250/168 

vt 6.42096 0
vn 0.862469 0 0.506109
vt 6.40041 0
vt 6.40041 -0.11811
vt 6.42096 -0.11811
f 193/1251/178 195/1252/166 522/1253/166 520/1254/178 

vt 7.52071 0
vn 0.702091 0 0.712087
vt 7.50015 0
vt 7.50015 -0.11811
vt 7.52071 -0.11811
f 191/1255/179 193/1256/178 520/1257/178 518/1258/179 

vt 8.10863 0
vn 0.493866 0 0.869538
vt 8.08808 0
vt 8.08808 -0.11811
vt 8.10863 -0.11811
f 189/1259/180 191/1260/179 518/1261/179 516/1262/180 

vt 8.14467 0
vn 0.251985 0 0.967731
vt 8.12412 0
vt 8.12412 -0.11811
vt 8.14467 -0.11811
f 187/1263/181 189/1264/180 516/1265/180 514/1266/181 

vt 7.62636 0
vn -0.00706875 0 0.999975
vt 7.60581 0
vt 7.60581 -0.11811
vt 7.62636 -0.11811
f 184/1267/182 187/1268/181 514/1269/181 511/1270/182 

vt 6.58903 0
vn -0.26564 0 0.964072
vt 6.56847 0
vt 6.56847 -0.11811
vt 6.58903 -0.11811
f 182/1271/183 184/1272/182 511/1273/182 509/1274/183 

vt 5.10336 0
vn -0.506109 0 0.862469
vt 5.08281 0
vt 5.08281 -0.11811
vt 5.10336 -0.11811
f 180/1275/184 182/1276/183 509/1277/183 507/1278/184 

vt 3.27061 0
vn -0.712087 0 0.702091
vt 3.25006 0
vt 3.25006 -0.11811
vt 3.27061 -0.11811
f 178/1279/185 180/1280/184 507/1281/184 505/1282/185 

vt 1.21568 0
vn -0.869538 0 0.493866
vt 1.19512 0
vt 1.19512 -0.11811
vt 1.21568 -0.11811
f 176/1283/186 178/1284/185 505/1285/185 503/1286/186 

vt -0.921405 0
vt -0.94196 0
vt -0.94196 -0.11811
vt -0.921405 -0.11811
f 172/1287/49 176/1288/186 503/1289/186 173/1290/49 

vt 3.99748 0
vn 0.998913 0 -0.0466134
vt 3.97693 0
vn 0.952811 0 -0.303563
vt 3.97693 -0.11811
vt 3.99748 -0.11811
f 196/1291/187 194/1292/188 521/1293/188 470/1294/187 

vt 1.78675 0
vt 1.76619 0
vn 0.841777 0 -0.539825
vt 1.76619 -0.11811
vt 1.78675 -0.11811
f 194/1295/188 192/1296/189 519/1297/189 521/1298/188 

vt -0.545053 0
vt -0.565608 0
vn 0.673378 0 -0.739299
vt -0.565608 -0.11811
vt -0.545053 -0.11811
f 192/1299/189 190/1300/190 517/1301/190 519/1302/189 

vt -2.83901 0
vt -2.85956 0
vn 0.459088 0 -0.888391
vt -2.85956 -0.11811
vt -2.83901 -0.11811
f 190/1303/190 188/1304/191 515/1305/191 517/1306/190 

vt -4.93879 0
vt -4.95934 0
vn 0.213513 0 -0.97694
vt -4.95934 -0.11811
vt -4.93879 -0.11811
f 188/1307/191 186/1308/192 513/1309/192 515/1310/191 

vt -6.7013 0
vt -6.7182 0
vn 0.0841697 0 -0.996451
vt -6.7182 -0.11811
vt -6.7013 -0.11811
f 186/1311/192 185/1312/193 512/1313/193 513/1314/192 

vt -6.72186 0
vn -0.0466134 0 -0.998913
vt -6.72186 -0.11811
f 185/1312/193 183/1315/194 510/1316/194 512/1313/193 

vt -8.00643 0
vt -8.02698 0
vn -0.303563 0 -0.952811
vt -8.02698 -0.11811
vt -8.00643 -0.11811
f 183/1317/194 181/1318/195 508/1319/195 510/1320/194 

vt -8.76523 0
vt -8.78579 0
vn -0.539825 0 -0.841777
vt -8.78579 -0.11811
vt -8.76523 -0.11811
f 181/1321/195 179/1322/196 506/1323/196 508/1324/195 

vt -8.926 0
vt -8.94655 0
vn -0.739299 0 -0.673378
vt -8.94655 -0.11811
vt -8.926 -0.11811
f 179/1325/196 177/1326/197 504/1327/197 506/1328/196 

vt -8.47777 0
vt -8.49833 0
vn -0.888391 0 -0.459088
vt -8.49833 -0.11811
vt -8.47777 -0.11811
f 177/1329/197 175/1330/198 502/1331/198 504/1332/197 

vt -7.4511 0
vt -7.47165 0
vn -0.97694 0 -0.213513
vt -7.47165 -0.11811
vt -7.4511 -0.11811
f 175/1333/198 174/1334/199 501/1335/199 502/1336/198 

vt -5.91594 0
vt -5.9365 0
vn -0.998913 0 0.0466134
vt -5.9365 -0.11811
vt -5.91594 -0.11811
f 174/1337/199 122/1338/200 500/1339/200 501/1340/199 

f 174/294/3 121/226/3 122/227/3

vt -3.97693 0
vt -3.99748 0
vn -0.952811 0 0.303563
vt -3.99748 -0.11811
vt -3.97693 -0.11811
f 122/1341/200 123/1342/201 499/1343/201 500/1344/200 

vt -1.76619 0
vt -1.78675 0
vn -0.841777 0 0.539825
vt -1.78675 -0.11811
vt -1.76619 -0.11811
f 123/1345/201 124/1346/202 498/1347/202 499/1348/201 

vt 0.565608 0
vt 0.545053 0
vn -0.673378 0 0.739299
vt 0.545053 -0.11811
vt 0.565608 -0.11811
f 124/1349/202 125/1350/203 497/1351/203 498/1352/202 

vt 2.85956 0
vt 2.83901 0
vn -0.459088 0 0.888391
vt 2.83901 -0.11811
vt 2.85956 -0.11811
f 125/1353/203 126/1354/204 496/1355/204 497/1356/203 

vt 4.95934 0
vt 4.93879 0
vn -0.213513 0 0.97694
vt 4.93879 -0.11811
vt 4.95934 -0.11811
f 126/1357/204 127/1358/205 495/1359/205 496/1360/204 

vt 6.72186 0
vt 6.7013 0
vn 0.0466134 0 0.998913
vt 6.7013 -0.11811
vt 6.72186 -0.11811
f 127/1361/205 128/1362/206 494/1363/206 495/1364/205 

vt 8.02698 0
vt 8.00643 0
vn 0.303563 0 0.952811
vt 8.00643 -0.11811
vt 8.02698 -0.11811
f 128/1365/206 129/1366/207 493/1367/207 494/1368/206 

vt 8.78579 0
vt 8.76523 0
vn 0.539825 0 0.841777
vt 8.76523 -0.11811
vt 8.78579 -0.11811
f 129/1369/207 130/1370/208 475/1371/208 493/1372/207 

vt 8.94655 0
vt 8.926 0
vn 0.739299 0 0.673378
vt 8.926 -0.11811
vt 8.94655 -0.11811
f 130/1373/208 131/1374/209 473/1375/209 475/1376/208 

vt 8.49833 0
vt 8.47777 0
vn 0.888391 0 0.459088
vt 8.47777 -0.11811
vt 8.49833 -0.11811
f 131/1377/209 199/1378/210 472/1379/210 473/1380/209 

vt 7.47165 0
vt 7.4511 0
vn 0.97694 0 0.213513
vt 7.4511 -0.11811
vt 7.47165 -0.11811
f 199/1381/210 198/1382/211 471/1383/211 472/1384/210 

vt 5.9365 0
v 180.549 0 -135.643
vt 5.91963 0
vn 0.996451 0 0.0841697
v 180.549 -3 -135.643
vt 5.91963 -0.11811
vt 5.9365 -0.11811
f 198/1385/211 525/1386/212 526/1387/212 471/1388/211 

vt 7.10822 5.34028
f 198/319/3 196/317/3 525/1389/3

vt 5.91594 0
vt 5.91594 -0.11811
f 525/1386/212 196/1390/187 470/1391/187 526/1387/212 

vt -7.10822 5.34028
f 470/1037/53 471/1038/53 526/1392/53

f 227/360/53 228/359/53 225/443/53

