(kicad_sch
	(version 20231120)
	(generator "eeschema")
	(generator_version "8.0")
	(uuid "59ab5fdf-8303-4773-966e-0f1c7a8a9c26")
	(paper "A4")
	(lib_symbols
		(symbol "Connector:Conn_01x02_Socket"
			(pin_names
				(offset 1.016) hide)
			(exclude_from_sim no)
			(in_bom yes)
			(on_board yes)
			(property "Reference" "J"
				(at 0 2.54 0)
				(effects
					(font
						(size 1.27 1.27)
					)
				)
			)
			(property "Value" "Conn_01x02_Socket"
				(at 0 -5.08 0)
				(effects
					(font
						(size 1.27 1.27)
					)
				)
			)
			(property "Footprint" ""
				(at 0 0 0)
				(effects
					(font
						(size 1.27 1.27)
					)
					(hide yes)
				)
			)
			(property "Datasheet" "~"
				(at 0 0 0)
				(effects
					(font
						(size 1.27 1.27)
					)
					(hide yes)
				)
			)
			(property "Description" "Generic connector, single row, 01x02, script generated"
				(at 0 0 0)
				(effects
					(font
						(size 1.27 1.27)
					)
					(hide yes)
				)
			)
			(property "ki_locked" ""
				(at 0 0 0)
				(effects
					(font
						(size 1.27 1.27)
					)
				)
			)
			(property "ki_keywords" "connector"
				(at 0 0 0)
				(effects
					(font
						(size 1.27 1.27)
					)
					(hide yes)
				)
			)
			(property "ki_fp_filters" "Connector*:*_1x??_*"
				(at 0 0 0)
				(effects
					(font
						(size 1.27 1.27)
					)
					(hide yes)
				)
			)
			(symbol "Conn_01x02_Socket_1_1"
				(arc
					(start 0 -2.032)
					(mid -0.5058 -2.54)
					(end 0 -3.048)
					(stroke
						(width 0.1524)
						(type default)
					)
					(fill
						(type none)
					)
				)
				(polyline
					(pts
						(xy -1.27 -2.54) (xy -0.508 -2.54)
					)
					(stroke
						(width 0.1524)
						(type default)
					)
					(fill
						(type none)
					)
				)
				(polyline
					(pts
						(xy -1.27 0) (xy -0.508 0)
					)
					(stroke
						(width 0.1524)
						(type default)
					)
					(fill
						(type none)
					)
				)
				(arc
					(start 0 0.508)
					(mid -0.5058 0)
					(end 0 -0.508)
					(stroke
						(width 0.1524)
						(type default)
					)
					(fill
						(type none)
					)
				)
				(pin passive line
					(at -5.08 0 0)
					(length 3.81)
					(name "Pin_1"
						(effects
							(font
								(size 1.27 1.27)
							)
						)
					)
					(number "1"
						(effects
							(font
								(size 1.27 1.27)
							)
						)
					)
				)
				(pin passive line
					(at -5.08 -2.54 0)
					(length 3.81)
					(name "Pin_2"
						(effects
							(font
								(size 1.27 1.27)
							)
						)
					)
					(number "2"
						(effects
							(font
								(size 1.27 1.27)
							)
						)
					)
				)
			)
		)
		(symbol "Connector:Conn_01x04_Socket"
			(pin_names
				(offset 1.016) hide)
			(exclude_from_sim no)
			(in_bom yes)
			(on_board yes)
			(property "Reference" "J"
				(at 0 5.08 0)
				(effects
					(font
						(size 1.27 1.27)
					)
				)
			)
			(property "Value" "Conn_01x04_Socket"
				(at 0 -7.62 0)
				(effects
					(font
						(size 1.27 1.27)
					)
				)
			)
			(property "Footprint" ""
				(at 0 0 0)
				(effects
					(font
						(size 1.27 1.27)
					)
					(hide yes)
				)
			)
			(property "Datasheet" "~"
				(at 0 0 0)
				(effects
					(font
						(size 1.27 1.27)
					)
					(hide yes)
				)
			)
			(property "Description" "Generic connector, single row, 01x04, script generated"
				(at 0 0 0)
				(effects
					(font
						(size 1.27 1.27)
					)
					(hide yes)
				)
			)
			(property "ki_locked" ""
				(at 0 0 0)
				(effects
					(font
						(size 1.27 1.27)
					)
				)
			)
			(property "ki_keywords" "connector"
				(at 0 0 0)
				(effects
					(font
						(size 1.27 1.27)
					)
					(hide yes)
				)
			)
			(property "ki_fp_filters" "Connector*:*_1x??_*"
				(at 0 0 0)
				(effects
					(font
						(size 1.27 1.27)
					)
					(hide yes)
				)
			)
			(symbol "Conn_01x04_Socket_1_1"
				(arc
					(start 0 -4.572)
					(mid -0.5058 -5.08)
					(end 0 -5.588)
					(stroke
						(width 0.1524)
						(type default)
					)
					(fill
						(type none)
					)
				)
				(arc
					(start 0 -2.032)
					(mid -0.5058 -2.54)
					(end 0 -3.048)
					(stroke
						(width 0.1524)
						(type default)
					)
					(fill
						(type none)
					)
				)
				(polyline
					(pts
						(xy -1.27 -5.08) (xy -0.508 -5.08)
					)
					(stroke
						(width 0.1524)
						(type default)
					)
					(fill
						(type none)
					)
				)
				(polyline
					(pts
						(xy -1.27 -2.54) (xy -0.508 -2.54)
					)
					(stroke
						(width 0.1524)
						(type default)
					)
					(fill
						(type none)
					)
				)
				(polyline
					(pts
						(xy -1.27 0) (xy -0.508 0)
					)
					(stroke
						(width 0.1524)
						(type default)
					)
					(fill
						(type none)
					)
				)
				(polyline
					(pts
						(xy -1.27 2.54) (xy -0.508 2.54)
					)
					(stroke
						(width 0.1524)
						(type default)
					)
					(fill
						(type none)
					)
				)
				(arc
					(start 0 0.508)
					(mid -0.5058 0)
					(end 0 -0.508)
					(stroke
						(width 0.1524)
						(type default)
					)
					(fill
						(type none)
					)
				)
				(arc
					(start 0 3.048)
					(mid -0.5058 2.54)
					(end 0 2.032)
					(stroke
						(width 0.1524)
						(type default)
					)
					(fill
						(type none)
					)
				)
				(pin passive line
					(at -5.08 2.54 0)
					(length 3.81)
					(name "Pin_1"
						(effects
							(font
								(size 1.27 1.27)
							)
						)
					)
					(number "1"
						(effects
							(font
								(size 1.27 1.27)
							)
						)
					)
				)
				(pin passive line
					(at -5.08 0 0)
					(length 3.81)
					(name "Pin_2"
						(effects
							(font
								(size 1.27 1.27)
							)
						)
					)
					(number "2"
						(effects
							(font
								(size 1.27 1.27)
							)
						)
					)
				)
				(pin passive line
					(at -5.08 -2.54 0)
					(length 3.81)
					(name "Pin_3"
						(effects
							(font
								(size 1.27 1.27)
							)
						)
					)
					(number "3"
						(effects
							(font
								(size 1.27 1.27)
							)
						)
					)
				)
				(pin passive line
					(at -5.08 -5.08 0)
					(length 3.81)
					(name "Pin_4"
						(effects
							(font
								(size 1.27 1.27)
							)
						)
					)
					(number "4"
						(effects
							(font
								(size 1.27 1.27)
							)
						)
					)
				)
			)
		)
		(symbol "Connector:Conn_01x05_Socket"
			(pin_names
				(offset 1.016) hide)
			(exclude_from_sim no)
			(in_bom yes)
			(on_board yes)
			(property "Reference" "J"
				(at 0 7.62 0)
				(effects
					(font
						(size 1.27 1.27)
					)
				)
			)
			(property "Value" "Conn_01x05_Socket"
				(at 0 -7.62 0)
				(effects
					(font
						(size 1.27 1.27)
					)
				)
			)
			(property "Footprint" ""
				(at 0 0 0)
				(effects
					(font
						(size 1.27 1.27)
					)
					(hide yes)
				)
			)
			(property "Datasheet" "~"
				(at 0 0 0)
				(effects
					(font
						(size 1.27 1.27)
					)
					(hide yes)
				)
			)
			(property "Description" "Generic connector, single row, 01x05, script generated"
				(at 0 0 0)
				(effects
					(font
						(size 1.27 1.27)
					)
					(hide yes)
				)
			)
			(property "ki_locked" ""
				(at 0 0 0)
				(effects
					(font
						(size 1.27 1.27)
					)
				)
			)
			(property "ki_keywords" "connector"
				(at 0 0 0)
				(effects
					(font
						(size 1.27 1.27)
					)
					(hide yes)
				)
			)
			(property "ki_fp_filters" "Connector*:*_1x??_*"
				(at 0 0 0)
				(effects
					(font
						(size 1.27 1.27)
					)
					(hide yes)
				)
			)
			(symbol "Conn_01x05_Socket_1_1"
				(arc
					(start 0 -4.572)
					(mid -0.5058 -5.08)
					(end 0 -5.588)
					(stroke
						(width 0.1524)
						(type default)
					)
					(fill
						(type none)
					)
				)
				(arc
					(start 0 -2.032)
					(mid -0.5058 -2.54)
					(end 0 -3.048)
					(stroke
						(width 0.1524)
						(type default)
					)
					(fill
						(type none)
					)
				)
				(polyline
					(pts
						(xy -1.27 -5.08) (xy -0.508 -5.08)
					)
					(stroke
						(width 0.1524)
						(type default)
					)
					(fill
						(type none)
					)
				)
				(polyline
					(pts
						(xy -1.27 -2.54) (xy -0.508 -2.54)
					)
					(stroke
						(width 0.1524)
						(type default)
					)
					(fill
						(type none)
					)
				)
				(polyline
					(pts
						(xy -1.27 0) (xy -0.508 0)
					)
					(stroke
						(width 0.1524)
						(type default)
					)
					(fill
						(type none)
					)
				)
				(polyline
					(pts
						(xy -1.27 2.54) (xy -0.508 2.54)
					)
					(stroke
						(width 0.1524)
						(type default)
					)
					(fill
						(type none)
					)
				)
				(polyline
					(pts
						(xy -1.27 5.08) (xy -0.508 5.08)
					)
					(stroke
						(width 0.1524)
						(type default)
					)
					(fill
						(type none)
					)
				)
				(arc
					(start 0 0.508)
					(mid -0.5058 0)
					(end 0 -0.508)
					(stroke
						(width 0.1524)
						(type default)
					)
					(fill
						(type none)
					)
				)
				(arc
					(start 0 3.048)
					(mid -0.5058 2.54)
					(end 0 2.032)
					(stroke
						(width 0.1524)
						(type default)
					)
					(fill
						(type none)
					)
				)
				(arc
					(start 0 5.588)
					(mid -0.5058 5.08)
					(end 0 4.572)
					(stroke
						(width 0.1524)
						(type default)
					)
					(fill
						(type none)
					)
				)
				(pin passive line
					(at -5.08 5.08 0)
					(length 3.81)
					(name "Pin_1"
						(effects
							(font
								(size 1.27 1.27)
							)
						)
					)
					(number "1"
						(effects
							(font
								(size 1.27 1.27)
							)
						)
					)
				)
				(pin passive line
					(at -5.08 2.54 0)
					(length 3.81)
					(name "Pin_2"
						(effects
							(font
								(size 1.27 1.27)
							)
						)
					)
					(number "2"
						(effects
							(font
								(size 1.27 1.27)
							)
						)
					)
				)
				(pin passive line
					(at -5.08 0 0)
					(length 3.81)
					(name "Pin_3"
						(effects
							(font
								(size 1.27 1.27)
							)
						)
					)
					(number "3"
						(effects
							(font
								(size 1.27 1.27)
							)
						)
					)
				)
				(pin passive line
					(at -5.08 -2.54 0)
					(length 3.81)
					(name "Pin_4"
						(effects
							(font
								(size 1.27 1.27)
							)
						)
					)
					(number "4"
						(effects
							(font
								(size 1.27 1.27)
							)
						)
					)
				)
				(pin passive line
					(at -5.08 -5.08 0)
					(length 3.81)
					(name "Pin_5"
						(effects
							(font
								(size 1.27 1.27)
							)
						)
					)
					(number "5"
						(effects
							(font
								(size 1.27 1.27)
							)
						)
					)
				)
			)
		)
		(symbol "Connector:Conn_01x08_Socket"
			(pin_names
				(offset 1.016) hide)
			(exclude_from_sim no)
			(in_bom yes)
			(on_board yes)
			(property "Reference" "J"
				(at 0 10.16 0)
				(effects
					(font
						(size 1.27 1.27)
					)
				)
			)
			(property "Value" "Conn_01x08_Socket"
				(at 0 -12.7 0)
				(effects
					(font
						(size 1.27 1.27)
					)
				)
			)
			(property "Footprint" ""
				(at 0 0 0)
				(effects
					(font
						(size 1.27 1.27)
					)
					(hide yes)
				)
			)
			(property "Datasheet" "~"
				(at 0 0 0)
				(effects
					(font
						(size 1.27 1.27)
					)
					(hide yes)
				)
			)
			(property "Description" "Generic connector, single row, 01x08, script generated"
				(at 0 0 0)
				(effects
					(font
						(size 1.27 1.27)
					)
					(hide yes)
				)
			)
			(property "ki_locked" ""
				(at 0 0 0)
				(effects
					(font
						(size 1.27 1.27)
					)
				)
			)
			(property "ki_keywords" "connector"
				(at 0 0 0)
				(effects
					(font
						(size 1.27 1.27)
					)
					(hide yes)
				)
			)
			(property "ki_fp_filters" "Connector*:*_1x??_*"
				(at 0 0 0)
				(effects
					(font
						(size 1.27 1.27)
					)
					(hide yes)
				)
			)
			(symbol "Conn_01x08_Socket_1_1"
				(arc
					(start 0 -9.652)
					(mid -0.5058 -10.16)
					(end 0 -10.668)
					(stroke
						(width 0.1524)
						(type default)
					)
					(fill
						(type none)
					)
				)
				(arc
					(start 0 -7.112)
					(mid -0.5058 -7.62)
					(end 0 -8.128)
					(stroke
						(width 0.1524)
						(type default)
					)
					(fill
						(type none)
					)
				)
				(arc
					(start 0 -4.572)
					(mid -0.5058 -5.08)
					(end 0 -5.588)
					(stroke
						(width 0.1524)
						(type default)
					)
					(fill
						(type none)
					)
				)
				(arc
					(start 0 -2.032)
					(mid -0.5058 -2.54)
					(end 0 -3.048)
					(stroke
						(width 0.1524)
						(type default)
					)
					(fill
						(type none)
					)
				)
				(polyline
					(pts
						(xy -1.27 -10.16) (xy -0.508 -10.16)
					)
					(stroke
						(width 0.1524)
						(type default)
					)
					(fill
						(type none)
					)
				)
				(polyline
					(pts
						(xy -1.27 -7.62) (xy -0.508 -7.62)
					)
					(stroke
						(width 0.1524)
						(type default)
					)
					(fill
						(type none)
					)
				)
				(polyline
					(pts
						(xy -1.27 -5.08) (xy -0.508 -5.08)
					)
					(stroke
						(width 0.1524)
						(type default)
					)
					(fill
						(type none)
					)
				)
				(polyline
					(pts
						(xy -1.27 -2.54) (xy -0.508 -2.54)
					)
					(stroke
						(width 0.1524)
						(type default)
					)
					(fill
						(type none)
					)
				)
				(polyline
					(pts
						(xy -1.27 0) (xy -0.508 0)
					)
					(stroke
						(width 0.1524)
						(type default)
					)
					(fill
						(type none)
					)
				)
				(polyline
					(pts
						(xy -1.27 2.54) (xy -0.508 2.54)
					)
					(stroke
						(width 0.1524)
						(type default)
					)
					(fill
						(type none)
					)
				)
				(polyline
					(pts
						(xy -1.27 5.08) (xy -0.508 5.08)
					)
					(stroke
						(width 0.1524)
						(type default)
					)
					(fill
						(type none)
					)
				)
				(polyline
					(pts
						(xy -1.27 7.62) (xy -0.508 7.62)
					)
					(stroke
						(width 0.1524)
						(type default)
					)
					(fill
						(type none)
					)
				)
				(arc
					(start 0 0.508)
					(mid -0.5058 0)
					(end 0 -0.508)
					(stroke
						(width 0.1524)
						(type default)
					)
					(fill
						(type none)
					)
				)
				(arc
					(start 0 3.048)
					(mid -0.5058 2.54)
					(end 0 2.032)
					(stroke
						(width 0.1524)
						(type default)
					)
					(fill
						(type none)
					)
				)
				(arc
					(start 0 5.588)
					(mid -0.5058 5.08)
					(end 0 4.572)
					(stroke
						(width 0.1524)
						(type default)
					)
					(fill
						(type none)
					)
				)
				(arc
					(start 0 8.128)
					(mid -0.5058 7.62)
					(end 0 7.112)
					(stroke
						(width 0.1524)
						(type default)
					)
					(fill
						(type none)
					)
				)
				(pin passive line
					(at -5.08 7.62 0)
					(length 3.81)
					(name "Pin_1"
						(effects
							(font
								(size 1.27 1.27)
							)
						)
					)
					(number "1"
						(effects
							(font
								(size 1.27 1.27)
							)
						)
					)
				)
				(pin passive line
					(at -5.08 5.08 0)
					(length 3.81)
					(name "Pin_2"
						(effects
							(font
								(size 1.27 1.27)
							)
						)
					)
					(number "2"
						(effects
							(font
								(size 1.27 1.27)
							)
						)
					)
				)
				(pin passive line
					(at -5.08 2.54 0)
					(length 3.81)
					(name "Pin_3"
						(effects
							(font
								(size 1.27 1.27)
							)
						)
					)
					(number "3"
						(effects
							(font
								(size 1.27 1.27)
							)
						)
					)
				)
				(pin passive line
					(at -5.08 0 0)
					(length 3.81)
					(name "Pin_4"
						(effects
							(font
								(size 1.27 1.27)
							)
						)
					)
					(number "4"
						(effects
							(font
								(size 1.27 1.27)
							)
						)
					)
				)
				(pin passive line
					(at -5.08 -2.54 0)
					(length 3.81)
					(name "Pin_5"
						(effects
							(font
								(size 1.27 1.27)
							)
						)
					)
					(number "5"
						(effects
							(font
								(size 1.27 1.27)
							)
						)
					)
				)
				(pin passive line
					(at -5.08 -5.08 0)
					(length 3.81)
					(name "Pin_6"
						(effects
							(font
								(size 1.27 1.27)
							)
						)
					)
					(number "6"
						(effects
							(font
								(size 1.27 1.27)
							)
						)
					)
				)
				(pin passive line
					(at -5.08 -7.62 0)
					(length 3.81)
					(name "Pin_7"
						(effects
							(font
								(size 1.27 1.27)
							)
						)
					)
					(number "7"
						(effects
							(font
								(size 1.27 1.27)
							)
						)
					)
				)
				(pin passive line
					(at -5.08 -10.16 0)
					(length 3.81)
					(name "Pin_8"
						(effects
							(font
								(size 1.27 1.27)
							)
						)
					)
					(number "8"
						(effects
							(font
								(size 1.27 1.27)
							)
						)
					)
				)
			)
		)
		(symbol "Device:C_Polarized_Small"
			(pin_numbers hide)
			(pin_names
				(offset 0.254) hide)
			(exclude_from_sim no)
			(in_bom yes)
			(on_board yes)
			(property "Reference" "C"
				(at 0.254 1.778 0)
				(effects
					(font
						(size 1.27 1.27)
					)
					(justify left)
				)
			)
			(property "Value" "C_Polarized_Small"
				(at 0.254 -2.032 0)
				(effects
					(font
						(size 1.27 1.27)
					)
					(justify left)
				)
			)
			(property "Footprint" ""
				(at 0 0 0)
				(effects
					(font
						(size 1.27 1.27)
					)
					(hide yes)
				)
			)
			(property "Datasheet" "~"
				(at 0 0 0)
				(effects
					(font
						(size 1.27 1.27)
					)
					(hide yes)
				)
			)
			(property "Description" "Polarized capacitor, small symbol"
				(at 0 0 0)
				(effects
					(font
						(size 1.27 1.27)
					)
					(hide yes)
				)
			)
			(property "ki_keywords" "cap capacitor"
				(at 0 0 0)
				(effects
					(font
						(size 1.27 1.27)
					)
					(hide yes)
				)
			)
			(property "ki_fp_filters" "CP_*"
				(at 0 0 0)
				(effects
					(font
						(size 1.27 1.27)
					)
					(hide yes)
				)
			)
			(symbol "C_Polarized_Small_0_1"
				(rectangle
					(start -1.524 -0.3048)
					(end 1.524 -0.6858)
					(stroke
						(width 0)
						(type default)
					)
					(fill
						(type outline)
					)
				)
				(rectangle
					(start -1.524 0.6858)
					(end 1.524 0.3048)
					(stroke
						(width 0)
						(type default)
					)
					(fill
						(type none)
					)
				)
				(polyline
					(pts
						(xy -1.27 1.524) (xy -0.762 1.524)
					)
					(stroke
						(width 0)
						(type default)
					)
					(fill
						(type none)
					)
				)
				(polyline
					(pts
						(xy -1.016 1.27) (xy -1.016 1.778)
					)
					(stroke
						(width 0)
						(type default)
					)
					(fill
						(type none)
					)
				)
			)
			(symbol "C_Polarized_Small_1_1"
				(pin passive line
					(at 0 2.54 270)
					(length 1.8542)
					(name "~"
						(effects
							(font
								(size 1.27 1.27)
							)
						)
					)
					(number "1"
						(effects
							(font
								(size 1.27 1.27)
							)
						)
					)
				)
				(pin passive line
					(at 0 -2.54 90)
					(length 1.8542)
					(name "~"
						(effects
							(font
								(size 1.27 1.27)
							)
						)
					)
					(number "2"
						(effects
							(font
								(size 1.27 1.27)
							)
						)
					)
				)
			)
		)
		(symbol "Driver_Motor:Pololu_Breakout_DRV8825"
			(exclude_from_sim no)
			(in_bom yes)
			(on_board yes)
			(property "Reference" "A"
				(at -2.54 16.51 0)
				(effects
					(font
						(size 1.27 1.27)
					)
					(justify right)
				)
			)
			(property "Value" "Pololu_Breakout_DRV8825"
				(at -2.54 13.97 0)
				(effects
					(font
						(size 1.27 1.27)
					)
					(justify right)
				)
			)
			(property "Footprint" "Module:Pololu_Breakout-16_15.2x20.3mm"
				(at 5.08 -20.32 0)
				(effects
					(font
						(size 1.27 1.27)
					)
					(justify left)
					(hide yes)
				)
			)
			(property "Datasheet" "https://www.pololu.com/product/2982"
				(at 2.54 -7.62 0)
				(effects
					(font
						(size 1.27 1.27)
					)
					(hide yes)
				)
			)
			(property "Description" "Pololu Breakout Board, Stepper Driver DRV8825"
				(at 0 0 0)
				(effects
					(font
						(size 1.27 1.27)
					)
					(hide yes)
				)
			)
			(property "ki_keywords" "Pololu Breakout Board Stepper Driver DRV8825"
				(at 0 0 0)
				(effects
					(font
						(size 1.27 1.27)
					)
					(hide yes)
				)
			)
			(property "ki_fp_filters" "Pololu*Breakout*15.2x20.3mm*"
				(at 0 0 0)
				(effects
					(font
						(size 1.27 1.27)
					)
					(hide yes)
				)
			)
			(symbol "Pololu_Breakout_DRV8825_0_1"
				(rectangle
					(start 7.62 -17.78)
					(end -7.62 12.7)
					(stroke
						(width 0.254)
						(type default)
					)
					(fill
						(type background)
					)
				)
			)
			(symbol "Pololu_Breakout_DRV8825_1_1"
				(pin power_in line
					(at 0 -20.32 90)
					(length 2.54)
					(name "GND"
						(effects
							(font
								(size 1.27 1.27)
							)
						)
					)
					(number "1"
						(effects
							(font
								(size 1.27 1.27)
							)
						)
					)
				)
				(pin input line
					(at -10.16 -10.16 0)
					(length 2.54)
					(name "M0"
						(effects
							(font
								(size 1.27 1.27)
							)
						)
					)
					(number "10"
						(effects
							(font
								(size 1.27 1.27)
							)
						)
					)
				)
				(pin input line
					(at -10.16 -12.7 0)
					(length 2.54)
					(name "M1"
						(effects
							(font
								(size 1.27 1.27)
							)
						)
					)
					(number "11"
						(effects
							(font
								(size 1.27 1.27)
							)
						)
					)
				)
				(pin input line
					(at -10.16 -15.24 0)
					(length 2.54)
					(name "M2"
						(effects
							(font
								(size 1.27 1.27)
							)
						)
					)
					(number "12"
						(effects
							(font
								(size 1.27 1.27)
							)
						)
					)
				)
				(pin input line
					(at -10.16 7.62 0)
					(length 2.54)
					(name "~{RST}"
						(effects
							(font
								(size 1.27 1.27)
							)
						)
					)
					(number "13"
						(effects
							(font
								(size 1.27 1.27)
							)
						)
					)
				)
				(pin input line
					(at -10.16 5.08 0)
					(length 2.54)
					(name "~{SLP}"
						(effects
							(font
								(size 1.27 1.27)
							)
						)
					)
					(number "14"
						(effects
							(font
								(size 1.27 1.27)
							)
						)
					)
				)
				(pin input line
					(at -10.16 -2.54 0)
					(length 2.54)
					(name "STEP"
						(effects
							(font
								(size 1.27 1.27)
							)
						)
					)
					(number "15"
						(effects
							(font
								(size 1.27 1.27)
							)
						)
					)
				)
				(pin input line
					(at -10.16 -5.08 0)
					(length 2.54)
					(name "DIR"
						(effects
							(font
								(size 1.27 1.27)
							)
						)
					)
					(number "16"
						(effects
							(font
								(size 1.27 1.27)
							)
						)
					)
				)
				(pin output line
					(at -10.16 10.16 0)
					(length 2.54)
					(name "~{FLT}"
						(effects
							(font
								(size 1.27 1.27)
							)
						)
					)
					(number "2"
						(effects
							(font
								(size 1.27 1.27)
							)
						)
					)
				)
				(pin output line
					(at 10.16 0 180)
					(length 2.54)
					(name "A2"
						(effects
							(font
								(size 1.27 1.27)
							)
						)
					)
					(number "3"
						(effects
							(font
								(size 1.27 1.27)
							)
						)
					)
				)
				(pin output line
					(at 10.16 2.54 180)
					(length 2.54)
					(name "A1"
						(effects
							(font
								(size 1.27 1.27)
							)
						)
					)
					(number "4"
						(effects
							(font
								(size 1.27 1.27)
							)
						)
					)
				)
				(pin output line
					(at 10.16 -5.08 180)
					(length 2.54)
					(name "B1"
						(effects
							(font
								(size 1.27 1.27)
							)
						)
					)
					(number "5"
						(effects
							(font
								(size 1.27 1.27)
							)
						)
					)
				)
				(pin output line
					(at 10.16 -7.62 180)
					(length 2.54)
					(name "B2"
						(effects
							(font
								(size 1.27 1.27)
							)
						)
					)
					(number "6"
						(effects
							(font
								(size 1.27 1.27)
							)
						)
					)
				)
				(pin power_in line
					(at 2.54 -20.32 90)
					(length 2.54)
					(name "GND"
						(effects
							(font
								(size 1.27 1.27)
							)
						)
					)
					(number "7"
						(effects
							(font
								(size 1.27 1.27)
							)
						)
					)
				)
				(pin power_in line
					(at 0 15.24 270)
					(length 2.54)
					(name "VMOT"
						(effects
							(font
								(size 1.27 1.27)
							)
						)
					)
					(number "8"
						(effects
							(font
								(size 1.27 1.27)
							)
						)
					)
				)
				(pin input line
					(at -10.16 0 0)
					(length 2.54)
					(name "~{EN}"
						(effects
							(font
								(size 1.27 1.27)
							)
						)
					)
					(number "9"
						(effects
							(font
								(size 1.27 1.27)
							)
						)
					)
				)
			)
		)
		(symbol "MCU_Module:Arduino_Nano_v3.x"
			(exclude_from_sim no)
			(in_bom yes)
			(on_board yes)
			(property "Reference" "A"
				(at -10.16 23.495 0)
				(effects
					(font
						(size 1.27 1.27)
					)
					(justify left bottom)
				)
			)
			(property "Value" "Arduino_Nano_v3.x"
				(at 5.08 -24.13 0)
				(effects
					(font
						(size 1.27 1.27)
					)
					(justify left top)
				)
			)
			(property "Footprint" "Module:Arduino_Nano"
				(at 0 0 0)
				(effects
					(font
						(size 1.27 1.27)
						(italic yes)
					)
					(hide yes)
				)
			)
			(property "Datasheet" "http://www.mouser.com/pdfdocs/Gravitech_Arduino_Nano3_0.pdf"
				(at 0 0 0)
				(effects
					(font
						(size 1.27 1.27)
					)
					(hide yes)
				)
			)
			(property "Description" "Arduino Nano v3.x"
				(at 0 0 0)
				(effects
					(font
						(size 1.27 1.27)
					)
					(hide yes)
				)
			)
			(property "ki_keywords" "Arduino nano microcontroller module USB"
				(at 0 0 0)
				(effects
					(font
						(size 1.27 1.27)
					)
					(hide yes)
				)
			)
			(property "ki_fp_filters" "Arduino*Nano*"
				(at 0 0 0)
				(effects
					(font
						(size 1.27 1.27)
					)
					(hide yes)
				)
			)
			(symbol "Arduino_Nano_v3.x_0_1"
				(rectangle
					(start -10.16 22.86)
					(end 10.16 -22.86)
					(stroke
						(width 0.254)
						(type default)
					)
					(fill
						(type background)
					)
				)
			)
			(symbol "Arduino_Nano_v3.x_1_1"
				(pin bidirectional line
					(at -12.7 12.7 0)
					(length 2.54)
					(name "D1/TX"
						(effects
							(font
								(size 1.27 1.27)
							)
						)
					)
					(number "1"
						(effects
							(font
								(size 1.27 1.27)
							)
						)
					)
				)
				(pin bidirectional line
					(at -12.7 -2.54 0)
					(length 2.54)
					(name "D7"
						(effects
							(font
								(size 1.27 1.27)
							)
						)
					)
					(number "10"
						(effects
							(font
								(size 1.27 1.27)
							)
						)
					)
				)
				(pin bidirectional line
					(at -12.7 -5.08 0)
					(length 2.54)
					(name "D8"
						(effects
							(font
								(size 1.27 1.27)
							)
						)
					)
					(number "11"
						(effects
							(font
								(size 1.27 1.27)
							)
						)
					)
				)
				(pin bidirectional line
					(at -12.7 -7.62 0)
					(length 2.54)
					(name "D9"
						(effects
							(font
								(size 1.27 1.27)
							)
						)
					)
					(number "12"
						(effects
							(font
								(size 1.27 1.27)
							)
						)
					)
				)
				(pin bidirectional line
					(at -12.7 -10.16 0)
					(length 2.54)
					(name "D10"
						(effects
							(font
								(size 1.27 1.27)
							)
						)
					)
					(number "13"
						(effects
							(font
								(size 1.27 1.27)
							)
						)
					)
				)
				(pin bidirectional line
					(at -12.7 -12.7 0)
					(length 2.54)
					(name "D11"
						(effects
							(font
								(size 1.27 1.27)
							)
						)
					)
					(number "14"
						(effects
							(font
								(size 1.27 1.27)
							)
						)
					)
				)
				(pin bidirectional line
					(at -12.7 -15.24 0)
					(length 2.54)
					(name "D12"
						(effects
							(font
								(size 1.27 1.27)
							)
						)
					)
					(number "15"
						(effects
							(font
								(size 1.27 1.27)
							)
						)
					)
				)
				(pin bidirectional line
					(at -12.7 -17.78 0)
					(length 2.54)
					(name "D13"
						(effects
							(font
								(size 1.27 1.27)
							)
						)
					)
					(number "16"
						(effects
							(font
								(size 1.27 1.27)
							)
						)
					)
				)
				(pin power_out line
					(at 2.54 25.4 270)
					(length 2.54)
					(name "3V3"
						(effects
							(font
								(size 1.27 1.27)
							)
						)
					)
					(number "17"
						(effects
							(font
								(size 1.27 1.27)
							)
						)
					)
				)
				(pin input line
					(at 12.7 5.08 180)
					(length 2.54)
					(name "AREF"
						(effects
							(font
								(size 1.27 1.27)
							)
						)
					)
					(number "18"
						(effects
							(font
								(size 1.27 1.27)
							)
						)
					)
				)
				(pin bidirectional line
					(at 12.7 0 180)
					(length 2.54)
					(name "A0"
						(effects
							(font
								(size 1.27 1.27)
							)
						)
					)
					(number "19"
						(effects
							(font
								(size 1.27 1.27)
							)
						)
					)
				)
				(pin bidirectional line
					(at -12.7 15.24 0)
					(length 2.54)
					(name "D0/RX"
						(effects
							(font
								(size 1.27 1.27)
							)
						)
					)
					(number "2"
						(effects
							(font
								(size 1.27 1.27)
							)
						)
					)
				)
				(pin bidirectional line
					(at 12.7 -2.54 180)
					(length 2.54)
					(name "A1"
						(effects
							(font
								(size 1.27 1.27)
							)
						)
					)
					(number "20"
						(effects
							(font
								(size 1.27 1.27)
							)
						)
					)
				)
				(pin bidirectional line
					(at 12.7 -5.08 180)
					(length 2.54)
					(name "A2"
						(effects
							(font
								(size 1.27 1.27)
							)
						)
					)
					(number "21"
						(effects
							(font
								(size 1.27 1.27)
							)
						)
					)
				)
				(pin bidirectional line
					(at 12.7 -7.62 180)
					(length 2.54)
					(name "A3"
						(effects
							(font
								(size 1.27 1.27)
							)
						)
					)
					(number "22"
						(effects
							(font
								(size 1.27 1.27)
							)
						)
					)
				)
				(pin bidirectional line
					(at 12.7 -10.16 180)
					(length 2.54)
					(name "A4"
						(effects
							(font
								(size 1.27 1.27)
							)
						)
					)
					(number "23"
						(effects
							(font
								(size 1.27 1.27)
							)
						)
					)
				)
				(pin bidirectional line
					(at 12.7 -12.7 180)
					(length 2.54)
					(name "A5"
						(effects
							(font
								(size 1.27 1.27)
							)
						)
					)
					(number "24"
						(effects
							(font
								(size 1.27 1.27)
							)
						)
					)
				)
				(pin bidirectional line
					(at 12.7 -15.24 180)
					(length 2.54)
					(name "A6"
						(effects
							(font
								(size 1.27 1.27)
							)
						)
					)
					(number "25"
						(effects
							(font
								(size 1.27 1.27)
							)
						)
					)
				)
				(pin bidirectional line
					(at 12.7 -17.78 180)
					(length 2.54)
					(name "A7"
						(effects
							(font
								(size 1.27 1.27)
							)
						)
					)
					(number "26"
						(effects
							(font
								(size 1.27 1.27)
							)
						)
					)
				)
				(pin power_out line
					(at 5.08 25.4 270)
					(length 2.54)
					(name "+5V"
						(effects
							(font
								(size 1.27 1.27)
							)
						)
					)
					(number "27"
						(effects
							(font
								(size 1.27 1.27)
							)
						)
					)
				)
				(pin input line
					(at 12.7 15.24 180)
					(length 2.54)
					(name "~{RESET}"
						(effects
							(font
								(size 1.27 1.27)
							)
						)
					)
					(number "28"
						(effects
							(font
								(size 1.27 1.27)
							)
						)
					)
				)
				(pin power_in line
					(at 2.54 -25.4 90)
					(length 2.54)
					(name "GND"
						(effects
							(font
								(size 1.27 1.27)
							)
						)
					)
					(number "29"
						(effects
							(font
								(size 1.27 1.27)
							)
						)
					)
				)
				(pin input line
					(at 12.7 12.7 180)
					(length 2.54)
					(name "~{RESET}"
						(effects
							(font
								(size 1.27 1.27)
							)
						)
					)
					(number "3"
						(effects
							(font
								(size 1.27 1.27)
							)
						)
					)
				)
				(pin power_in line
					(at -2.54 25.4 270)
					(length 2.54)
					(name "VIN"
						(effects
							(font
								(size 1.27 1.27)
							)
						)
					)
					(number "30"
						(effects
							(font
								(size 1.27 1.27)
							)
						)
					)
				)
				(pin power_in line
					(at 0 -25.4 90)
					(length 2.54)
					(name "GND"
						(effects
							(font
								(size 1.27 1.27)
							)
						)
					)
					(number "4"
						(effects
							(font
								(size 1.27 1.27)
							)
						)
					)
				)
				(pin bidirectional line
					(at -12.7 10.16 0)
					(length 2.54)
					(name "D2"
						(effects
							(font
								(size 1.27 1.27)
							)
						)
					)
					(number "5"
						(effects
							(font
								(size 1.27 1.27)
							)
						)
					)
				)
				(pin bidirectional line
					(at -12.7 7.62 0)
					(length 2.54)
					(name "D3"
						(effects
							(font
								(size 1.27 1.27)
							)
						)
					)
					(number "6"
						(effects
							(font
								(size 1.27 1.27)
							)
						)
					)
				)
				(pin bidirectional line
					(at -12.7 5.08 0)
					(length 2.54)
					(name "D4"
						(effects
							(font
								(size 1.27 1.27)
							)
						)
					)
					(number "7"
						(effects
							(font
								(size 1.27 1.27)
							)
						)
					)
				)
				(pin bidirectional line
					(at -12.7 2.54 0)
					(length 2.54)
					(name "D5"
						(effects
							(font
								(size 1.27 1.27)
							)
						)
					)
					(number "8"
						(effects
							(font
								(size 1.27 1.27)
							)
						)
					)
				)
				(pin bidirectional line
					(at -12.7 0 0)
					(length 2.54)
					(name "D6"
						(effects
							(font
								(size 1.27 1.27)
							)
						)
					)
					(number "9"
						(effects
							(font
								(size 1.27 1.27)
							)
						)
					)
				)
			)
		)
	)
	(junction
		(at 236.22 81.28)
		(diameter 0)
		(color 0 0 0 0)
		(uuid "1394891d-136f-44e8-bca5-85d562ce4633")
	)
	(junction
		(at 140.97 46.99)
		(diameter 0)
		(color 0 0 0 0)
		(uuid "2298bc52-ea02-4ada-b4c1-0328f6b19691")
	)
	(junction
		(at 69.85 31.75)
		(diameter 0)
		(color 0 0 0 0)
		(uuid "2454267b-6ac4-4cfb-ba21-610b5a588298")
	)
	(junction
		(at 153.67 81.28)
		(diameter 0)
		(color 0 0 0 0)
		(uuid "29c869f2-908b-47e6-a52d-06a886fcff28")
	)
	(junction
		(at 236.22 31.75)
		(diameter 0)
		(color 0 0 0 0)
		(uuid "407f5178-55a9-4c0e-9bec-9558641a7cb9")
	)
	(junction
		(at 69.85 81.28)
		(diameter 0)
		(color 0 0 0 0)
		(uuid "95eb4eed-8011-4d5e-bd73-1ec13c85306d")
	)
	(junction
		(at 72.39 81.28)
		(diameter 0)
		(color 0 0 0 0)
		(uuid "96f7faaa-015e-499d-ad09-520d05b9d1e2")
	)
	(junction
		(at 73.66 181.61)
		(diameter 0)
		(color 0 0 0 0)
		(uuid "ac7d6781-f8ae-4cfc-981e-6f876b9edfb0")
	)
	(junction
		(at 57.15 46.99)
		(diameter 0)
		(color 0 0 0 0)
		(uuid "b5753843-be22-419e-b1a7-800ed66c60a2")
	)
	(junction
		(at 223.52 46.99)
		(diameter 0)
		(color 0 0 0 0)
		(uuid "bd01f8aa-f2da-4130-ab11-c5bd20c46ee6")
	)
	(junction
		(at 153.67 31.75)
		(diameter 0)
		(color 0 0 0 0)
		(uuid "d14764c9-3e10-443d-a49d-36bec96ca4a6")
	)
	(junction
		(at 238.76 81.28)
		(diameter 0)
		(color 0 0 0 0)
		(uuid "d929fa6c-212b-45aa-924b-0f5d6b68b2f6")
	)
	(junction
		(at 156.21 81.28)
		(diameter 0)
		(color 0 0 0 0)
		(uuid "e128ba8d-733b-49d9-ab09-c3d7b6cb023f")
	)
	(wire
		(pts
			(xy 54.61 46.99) (xy 57.15 46.99)
		)
		(stroke
			(width 0)
			(type default)
		)
		(uuid "0196333e-574c-4d59-a9cb-27987d7f6283")
	)
	(wire
		(pts
			(xy 147.32 138.43) (xy 152.4 138.43)
		)
		(stroke
			(width 0)
			(type default)
		)
		(uuid "022808e4-44ec-4d73-b0b9-82fd0adac6d3")
	)
	(wire
		(pts
			(xy 138.43 54.61) (xy 143.51 54.61)
		)
		(stroke
			(width 0)
			(type default)
		)
		(uuid "07a3aeb4-3203-4897-b990-573713591ae8")
	)
	(wire
		(pts
			(xy 83.82 151.13) (xy 87.63 151.13)
		)
		(stroke
			(width 0)
			(type default)
		)
		(uuid "095eabac-6129-4aaa-a7e8-bac1ebb88598")
	)
	(wire
		(pts
			(xy 59.69 49.53) (xy 57.15 49.53)
		)
		(stroke
			(width 0)
			(type default)
		)
		(uuid "0c8e090f-3547-4a1d-84f0-acd5969dda17")
	)
	(wire
		(pts
			(xy 226.06 49.53) (xy 223.52 49.53)
		)
		(stroke
			(width 0)
			(type default)
		)
		(uuid "0ceacabe-126f-403e-b703-d8de338f4787")
	)
	(wire
		(pts
			(xy 236.22 31.75) (xy 243.84 31.75)
		)
		(stroke
			(width 0)
			(type default)
		)
		(uuid "106ae38c-ce36-4a14-9687-b34c2bd9d506")
	)
	(wire
		(pts
			(xy 54.61 54.61) (xy 59.69 54.61)
		)
		(stroke
			(width 0)
			(type default)
		)
		(uuid "108be988-c55f-46ce-adf5-dfa122fa67a8")
	)
	(wire
		(pts
			(xy 207.01 60.96) (xy 207.01 81.28)
		)
		(stroke
			(width 0)
			(type default)
		)
		(uuid "131136e6-6c1d-427e-951e-5dc2c2f415d3")
	)
	(wire
		(pts
			(xy 83.82 158.75) (xy 87.63 158.75)
		)
		(stroke
			(width 0)
			(type default)
		)
		(uuid "15405d79-9a73-452d-8ce6-ef67e897c74b")
	)
	(wire
		(pts
			(xy 72.39 74.93) (xy 72.39 81.28)
		)
		(stroke
			(width 0)
			(type default)
		)
		(uuid "15ca5643-9036-4b76-b38b-e087cd3a3054")
	)
	(wire
		(pts
			(xy 163.83 52.07) (xy 167.64 52.07)
		)
		(stroke
			(width 0)
			(type default)
		)
		(uuid "16890d1c-dc10-4920-abc6-9ad2e3fc5b23")
	)
	(wire
		(pts
			(xy 71.12 173.99) (xy 71.12 181.61)
		)
		(stroke
			(width 0)
			(type default)
		)
		(uuid "19ea931f-05a0-4a71-b422-216704918950")
	)
	(wire
		(pts
			(xy 163.83 54.61) (xy 167.64 54.61)
		)
		(stroke
			(width 0)
			(type default)
		)
		(uuid "1b607791-495b-472a-ac4e-b0b88a2e8e45")
	)
	(wire
		(pts
			(xy 250.19 59.69) (xy 250.19 58.42)
		)
		(stroke
			(width 0)
			(type default)
		)
		(uuid "1c2a7dca-bffa-4b0e-ad42-e1f36c9e3baf")
	)
	(wire
		(pts
			(xy 250.19 60.96) (xy 252.73 60.96)
		)
		(stroke
			(width 0)
			(type default)
		)
		(uuid "21edbd18-efbd-4668-8673-39f8b551fd9b")
	)
	(wire
		(pts
			(xy 53.34 151.13) (xy 58.42 151.13)
		)
		(stroke
			(width 0)
			(type default)
		)
		(uuid "22986cab-aad6-4d37-8077-d5d8617b5d43")
	)
	(wire
		(pts
			(xy 54.61 57.15) (xy 59.69 57.15)
		)
		(stroke
			(width 0)
			(type default)
		)
		(uuid "269bf14d-7d80-4ca5-b198-c3f17b494c34")
	)
	(wire
		(pts
			(xy 83.82 59.69) (xy 83.82 58.42)
		)
		(stroke
			(width 0)
			(type default)
		)
		(uuid "270390a7-9ac0-40a0-97ec-ed08b5c82c9b")
	)
	(wire
		(pts
			(xy 148.59 114.3) (xy 152.4 114.3)
		)
		(stroke
			(width 0)
			(type default)
		)
		(uuid "2a771ed6-e028-4563-bd8e-c94033491876")
	)
	(wire
		(pts
			(xy 167.64 55.88) (xy 170.18 55.88)
		)
		(stroke
			(width 0)
			(type default)
		)
		(uuid "2dc548d5-e0c4-4af9-8d6b-e705d3b61d2e")
	)
	(wire
		(pts
			(xy 220.98 59.69) (xy 226.06 59.69)
		)
		(stroke
			(width 0)
			(type default)
		)
		(uuid "30bf61c4-24e2-42b8-a265-6189de115d81")
	)
	(wire
		(pts
			(xy 167.64 62.23) (xy 167.64 60.96)
		)
		(stroke
			(width 0)
			(type default)
		)
		(uuid "31638b59-8a2e-4daf-abe5-031b50f8b296")
	)
	(wire
		(pts
			(xy 68.58 118.11) (xy 68.58 123.19)
		)
		(stroke
			(width 0)
			(type default)
		)
		(uuid "35e94d8d-281a-4c68-87ff-4f20755d0616")
	)
	(wire
		(pts
			(xy 147.32 146.05) (xy 152.4 146.05)
		)
		(stroke
			(width 0)
			(type default)
		)
		(uuid "36777f22-ac39-4964-9ed7-dfad428a4851")
	)
	(wire
		(pts
			(xy 148.59 119.38) (xy 152.4 119.38)
		)
		(stroke
			(width 0)
			(type default)
		)
		(uuid "37a2bcab-a4cd-4853-a6ff-e2fe210503e0")
	)
	(wire
		(pts
			(xy 83.82 161.29) (xy 87.63 161.29)
		)
		(stroke
			(width 0)
			(type default)
		)
		(uuid "3ae6778b-f893-4ab2-8b6e-1dbf9541c7f5")
	)
	(wire
		(pts
			(xy 250.19 54.61) (xy 250.19 55.88)
		)
		(stroke
			(width 0)
			(type default)
		)
		(uuid "3bb600f4-fad3-4b77-a4a3-6289b0120249")
	)
	(wire
		(pts
			(xy 54.61 59.69) (xy 59.69 59.69)
		)
		(stroke
			(width 0)
			(type default)
		)
		(uuid "3bf7af78-68ad-4f24-856e-d538efadae21")
	)
	(wire
		(pts
			(xy 124.46 60.96) (xy 124.46 81.28)
		)
		(stroke
			(width 0)
			(type default)
		)
		(uuid "3e32ed30-9a37-4e57-aa57-a5d57fc8cc3d")
	)
	(wire
		(pts
			(xy 53.34 163.83) (xy 58.42 163.83)
		)
		(stroke
			(width 0)
			(type default)
		)
		(uuid "3e5408d2-b8ca-4a4a-91ce-43a090ee147d")
	)
	(wire
		(pts
			(xy 83.82 62.23) (xy 83.82 60.96)
		)
		(stroke
			(width 0)
			(type default)
		)
		(uuid "4432dfea-8c18-4340-9a7d-8db3748ade60")
	)
	(wire
		(pts
			(xy 250.19 62.23) (xy 250.19 60.96)
		)
		(stroke
			(width 0)
			(type default)
		)
		(uuid "4783e1fa-bf7a-45a6-b0d6-3b1e8dd7351a")
	)
	(wire
		(pts
			(xy 246.38 62.23) (xy 250.19 62.23)
		)
		(stroke
			(width 0)
			(type default)
		)
		(uuid "482085e5-b095-4739-9976-14de05e5ca7e")
	)
	(wire
		(pts
			(xy 83.82 53.34) (xy 86.36 53.34)
		)
		(stroke
			(width 0)
			(type default)
		)
		(uuid "49c6d203-3194-4167-8a65-c76a394bd4b4")
	)
	(wire
		(pts
			(xy 40.64 31.75) (xy 40.64 55.88)
		)
		(stroke
			(width 0)
			(type default)
		)
		(uuid "4d23d323-e990-45c2-a35b-43221d9ef49e")
	)
	(wire
		(pts
			(xy 53.34 140.97) (xy 58.42 140.97)
		)
		(stroke
			(width 0)
			(type default)
		)
		(uuid "505cf4a7-d86c-497b-8324-e1582ddf0e57")
	)
	(wire
		(pts
			(xy 77.47 31.75) (xy 69.85 31.75)
		)
		(stroke
			(width 0)
			(type default)
		)
		(uuid "514b3aff-710d-4ef1-81d0-2eff87c9ce5f")
	)
	(wire
		(pts
			(xy 22.86 107.95) (xy 25.4 107.95)
		)
		(stroke
			(width 0)
			(type default)
		)
		(uuid "52f439ad-d624-49a3-ada1-c1dbd97860c3")
	)
	(wire
		(pts
			(xy 148.59 106.68) (xy 152.4 106.68)
		)
		(stroke
			(width 0)
			(type default)
		)
		(uuid "53d3ccba-acb2-4271-b022-1bd24525504f")
	)
	(wire
		(pts
			(xy 69.85 74.93) (xy 69.85 81.28)
		)
		(stroke
			(width 0)
			(type default)
		)
		(uuid "56de4dd2-769a-4506-bfd0-ef7109b244d6")
	)
	(wire
		(pts
			(xy 148.59 116.84) (xy 152.4 116.84)
		)
		(stroke
			(width 0)
			(type default)
		)
		(uuid "574a25ea-f8c3-4a50-945e-67a640623f18")
	)
	(wire
		(pts
			(xy 53.34 161.29) (xy 58.42 161.29)
		)
		(stroke
			(width 0)
			(type default)
		)
		(uuid "58b8facd-f4df-4742-bc58-8e4e3bc365f1")
	)
	(wire
		(pts
			(xy 57.15 49.53) (xy 57.15 46.99)
		)
		(stroke
			(width 0)
			(type default)
		)
		(uuid "5fa1e98c-a9fe-4a68-9b32-cf86f61b8701")
	)
	(wire
		(pts
			(xy 53.34 138.43) (xy 58.42 138.43)
		)
		(stroke
			(width 0)
			(type default)
		)
		(uuid "6004c1bc-ed9e-4a55-aa9b-53047a22e815")
	)
	(wire
		(pts
			(xy 238.76 74.93) (xy 238.76 81.28)
		)
		(stroke
			(width 0)
			(type default)
		)
		(uuid "60a10345-a0b0-4b8b-a63a-6c52f6c0dc6c")
	)
	(wire
		(pts
			(xy 83.82 148.59) (xy 87.63 148.59)
		)
		(stroke
			(width 0)
			(type default)
		)
		(uuid "62d50ba8-106f-4865-8209-318791da761d")
	)
	(wire
		(pts
			(xy 250.19 58.42) (xy 252.73 58.42)
		)
		(stroke
			(width 0)
			(type default)
		)
		(uuid "68e9dd57-5538-4fa7-b13a-fbef3dfecbf0")
	)
	(wire
		(pts
			(xy 153.67 31.75) (xy 124.46 31.75)
		)
		(stroke
			(width 0)
			(type default)
		)
		(uuid "68f595af-1498-4920-822d-f910d953a863")
	)
	(wire
		(pts
			(xy 57.15 46.99) (xy 59.69 46.99)
		)
		(stroke
			(width 0)
			(type default)
		)
		(uuid "6a0ecdf6-27bb-456a-9a9b-3076a6124953")
	)
	(wire
		(pts
			(xy 76.2 116.84) (xy 76.2 123.19)
		)
		(stroke
			(width 0)
			(type default)
		)
		(uuid "6ad1ae03-3101-4df9-9155-6f91b1122703")
	)
	(wire
		(pts
			(xy 53.34 166.37) (xy 58.42 166.37)
		)
		(stroke
			(width 0)
			(type default)
		)
		(uuid "6b8f0223-72fb-4a0b-adf8-f876ac70966f")
	)
	(wire
		(pts
			(xy 80.01 116.84) (xy 76.2 116.84)
		)
		(stroke
			(width 0)
			(type default)
		)
		(uuid "6c89fa77-f89d-4234-a6dd-33b4d358f906")
	)
	(wire
		(pts
			(xy 83.82 52.07) (xy 83.82 53.34)
		)
		(stroke
			(width 0)
			(type default)
		)
		(uuid "6e461f0e-53a1-4f54-9d31-22102a469d1c")
	)
	(wire
		(pts
			(xy 83.82 54.61) (xy 83.82 55.88)
		)
		(stroke
			(width 0)
			(type default)
		)
		(uuid "6e63a648-61bb-4a48-8815-5419c52dfee5")
	)
	(wire
		(pts
			(xy 40.64 60.96) (xy 40.64 81.28)
		)
		(stroke
			(width 0)
			(type default)
		)
		(uuid "6eec4a9e-0eb6-4a0c-99d8-9da0db31b12c")
	)
	(wire
		(pts
			(xy 53.34 146.05) (xy 58.42 146.05)
		)
		(stroke
			(width 0)
			(type default)
		)
		(uuid "722c2f40-5c34-416d-bc4e-68fe14b1646a")
	)
	(wire
		(pts
			(xy 138.43 59.69) (xy 143.51 59.69)
		)
		(stroke
			(width 0)
			(type default)
		)
		(uuid "722fc6cb-4c4c-4638-8b25-95f9a126e884")
	)
	(wire
		(pts
			(xy 167.64 54.61) (xy 167.64 55.88)
		)
		(stroke
			(width 0)
			(type default)
		)
		(uuid "724c86e7-45d3-467f-8e42-875f5e536e53")
	)
	(wire
		(pts
			(xy 236.22 31.75) (xy 236.22 39.37)
		)
		(stroke
			(width 0)
			(type default)
		)
		(uuid "74be772d-573d-49e3-a85b-7c7385355df3")
	)
	(wire
		(pts
			(xy 246.38 54.61) (xy 250.19 54.61)
		)
		(stroke
			(width 0)
			(type default)
		)
		(uuid "75832d2e-0ec6-44af-8dc2-e0c09a8ec40b")
	)
	(wire
		(pts
			(xy 238.76 81.28) (xy 242.57 81.28)
		)
		(stroke
			(width 0)
			(type default)
		)
		(uuid "78c07436-0275-481f-9b52-8ad976862886")
	)
	(wire
		(pts
			(xy 40.64 81.28) (xy 69.85 81.28)
		)
		(stroke
			(width 0)
			(type default)
		)
		(uuid "7ae3deca-1f55-4457-9a6c-70d9e655a676")
	)
	(wire
		(pts
			(xy 167.64 60.96) (xy 170.18 60.96)
		)
		(stroke
			(width 0)
			(type default)
		)
		(uuid "7b0059bd-1e3e-4150-9717-afe8af090940")
	)
	(wire
		(pts
			(xy 163.83 62.23) (xy 167.64 62.23)
		)
		(stroke
			(width 0)
			(type default)
		)
		(uuid "7baf888f-8f6d-4646-9352-a80f45353eb3")
	)
	(wire
		(pts
			(xy 69.85 31.75) (xy 69.85 39.37)
		)
		(stroke
			(width 0)
			(type default)
		)
		(uuid "8560aa90-ab29-4faf-a391-26e07ee5345d")
	)
	(wire
		(pts
			(xy 73.66 181.61) (xy 74.93 181.61)
		)
		(stroke
			(width 0)
			(type default)
		)
		(uuid "8b6bebf1-5fa9-4d27-bf0e-d108880c6bcc")
	)
	(wire
		(pts
			(xy 140.97 46.99) (xy 143.51 46.99)
		)
		(stroke
			(width 0)
			(type default)
		)
		(uuid "8d02373b-5da9-4a1e-9c52-6b94e9434371")
	)
	(wire
		(pts
			(xy 236.22 81.28) (xy 238.76 81.28)
		)
		(stroke
			(width 0)
			(type default)
		)
		(uuid "8ebf079e-040b-4a1e-a77a-b4f2b849ef0f")
	)
	(wire
		(pts
			(xy 143.51 49.53) (xy 140.97 49.53)
		)
		(stroke
			(width 0)
			(type default)
		)
		(uuid "8f3ab725-9218-45b0-92ff-e421c48a0003")
	)
	(wire
		(pts
			(xy 246.38 59.69) (xy 250.19 59.69)
		)
		(stroke
			(width 0)
			(type default)
		)
		(uuid "90b4a93f-f573-4904-962e-565312a5cda5")
	)
	(wire
		(pts
			(xy 83.82 58.42) (xy 86.36 58.42)
		)
		(stroke
			(width 0)
			(type default)
		)
		(uuid "91b312fd-3498-49d4-a4ce-ab804e5ad448")
	)
	(wire
		(pts
			(xy 148.59 121.92) (xy 152.4 121.92)
		)
		(stroke
			(width 0)
			(type default)
		)
		(uuid "934af738-bdd9-4438-9885-3f83158838f3")
	)
	(wire
		(pts
			(xy 22.86 97.79) (xy 25.4 97.79)
		)
		(stroke
			(width 0)
			(type default)
		)
		(uuid "972d9677-1e15-415d-974b-71d5d8e4ccbc")
	)
	(wire
		(pts
			(xy 53.34 156.21) (xy 58.42 156.21)
		)
		(stroke
			(width 0)
			(type default)
		)
		(uuid "9aa7db11-9cca-4601-a8ae-71f89c384fa9")
	)
	(wire
		(pts
			(xy 153.67 31.75) (xy 161.29 31.75)
		)
		(stroke
			(width 0)
			(type default)
		)
		(uuid "9c886fc1-a85f-4758-a636-baac1c1c2de8")
	)
	(wire
		(pts
			(xy 207.01 81.28) (xy 236.22 81.28)
		)
		(stroke
			(width 0)
			(type default)
		)
		(uuid "9f81eeb6-3873-4308-9602-8a2df92f8cab")
	)
	(wire
		(pts
			(xy 148.59 111.76) (xy 152.4 111.76)
		)
		(stroke
			(width 0)
			(type default)
		)
		(uuid "a1da086f-47f8-4546-8fba-0501083457aa")
	)
	(wire
		(pts
			(xy 167.64 53.34) (xy 170.18 53.34)
		)
		(stroke
			(width 0)
			(type default)
		)
		(uuid "a3283898-78f7-49c5-b0e3-05533ef4f9d5")
	)
	(wire
		(pts
			(xy 140.97 49.53) (xy 140.97 46.99)
		)
		(stroke
			(width 0)
			(type default)
		)
		(uuid "a6810df3-aacf-4550-bdef-7a5da9357fb1")
	)
	(wire
		(pts
			(xy 124.46 81.28) (xy 153.67 81.28)
		)
		(stroke
			(width 0)
			(type default)
		)
		(uuid "a852bd50-246d-4137-9d7c-b8858e3f9b62")
	)
	(wire
		(pts
			(xy 207.01 31.75) (xy 207.01 55.88)
		)
		(stroke
			(width 0)
			(type default)
		)
		(uuid "a8f9e1d7-0f63-4b2e-9413-f8ad97998245")
	)
	(wire
		(pts
			(xy 220.98 46.99) (xy 223.52 46.99)
		)
		(stroke
			(width 0)
			(type default)
		)
		(uuid "aa72a80f-e603-445a-8cde-8c46006b98cd")
	)
	(wire
		(pts
			(xy 64.77 118.11) (xy 68.58 118.11)
		)
		(stroke
			(width 0)
			(type default)
		)
		(uuid "abf7993b-2cff-48ca-aa62-e0f2aecb6409")
	)
	(wire
		(pts
			(xy 69.85 31.75) (xy 40.64 31.75)
		)
		(stroke
			(width 0)
			(type default)
		)
		(uuid "ac43369d-1442-4c6b-acb1-8266a93623f5")
	)
	(wire
		(pts
			(xy 22.86 105.41) (xy 25.4 105.41)
		)
		(stroke
			(width 0)
			(type default)
		)
		(uuid "ac52ea23-23b4-4852-8810-ebe4dff2a7f0")
	)
	(wire
		(pts
			(xy 124.46 31.75) (xy 124.46 55.88)
		)
		(stroke
			(width 0)
			(type default)
		)
		(uuid "b04bb5cf-92be-4df6-a7d7-541783344666")
	)
	(wire
		(pts
			(xy 156.21 81.28) (xy 160.02 81.28)
		)
		(stroke
			(width 0)
			(type default)
		)
		(uuid "b2e9dce7-b3be-4a88-97e0-224a6cb810ec")
	)
	(wire
		(pts
			(xy 153.67 74.93) (xy 153.67 81.28)
		)
		(stroke
			(width 0)
			(type default)
		)
		(uuid "b4d3f67a-7273-45cd-b969-b77748d67d35")
	)
	(wire
		(pts
			(xy 147.32 148.59) (xy 152.4 148.59)
		)
		(stroke
			(width 0)
			(type default)
		)
		(uuid "b92e1108-d0da-4fdf-88b9-dac6de292eee")
	)
	(wire
		(pts
			(xy 223.52 46.99) (xy 226.06 46.99)
		)
		(stroke
			(width 0)
			(type default)
		)
		(uuid "b9d79506-7662-4e2b-a941-c6aa5cb67a0f")
	)
	(wire
		(pts
			(xy 72.39 81.28) (xy 76.2 81.28)
		)
		(stroke
			(width 0)
			(type default)
		)
		(uuid "bc8e4bd8-bfd5-4c33-bdeb-81c93ac61001")
	)
	(wire
		(pts
			(xy 250.19 55.88) (xy 252.73 55.88)
		)
		(stroke
			(width 0)
			(type default)
		)
		(uuid "be8114c6-263e-422d-ba63-8875648fdb98")
	)
	(wire
		(pts
			(xy 83.82 153.67) (xy 87.63 153.67)
		)
		(stroke
			(width 0)
			(type default)
		)
		(uuid "bfc34921-77f1-4378-917e-dd64638373c4")
	)
	(wire
		(pts
			(xy 236.22 74.93) (xy 236.22 81.28)
		)
		(stroke
			(width 0)
			(type default)
		)
		(uuid "bfc78412-851c-48c0-8a09-36d5099862f7")
	)
	(wire
		(pts
			(xy 156.21 74.93) (xy 156.21 81.28)
		)
		(stroke
			(width 0)
			(type default)
		)
		(uuid "c0faed6c-064b-4b90-b58a-76e6fd3d098e")
	)
	(wire
		(pts
			(xy 163.83 59.69) (xy 167.64 59.69)
		)
		(stroke
			(width 0)
			(type default)
		)
		(uuid "c5fba3fc-76e8-4302-be74-0b1d98280533")
	)
	(wire
		(pts
			(xy 80.01 59.69) (xy 83.82 59.69)
		)
		(stroke
			(width 0)
			(type default)
		)
		(uuid "c648ab16-2652-435b-b47a-54f6df9490a7")
	)
	(wire
		(pts
			(xy 71.12 181.61) (xy 73.66 181.61)
		)
		(stroke
			(width 0)
			(type default)
		)
		(uuid "c7e1e455-a3ed-4d99-9093-dd25705a4a2f")
	)
	(wire
		(pts
			(xy 167.64 59.69) (xy 167.64 58.42)
		)
		(stroke
			(width 0)
			(type default)
		)
		(uuid "cd941a12-4021-41ca-a865-90ecece4dc63")
	)
	(wire
		(pts
			(xy 246.38 52.07) (xy 250.19 52.07)
		)
		(stroke
			(width 0)
			(type default)
		)
		(uuid "ce052dd5-4fe1-4f79-bcce-57576ac4c9b4")
	)
	(wire
		(pts
			(xy 69.85 81.28) (xy 72.39 81.28)
		)
		(stroke
			(width 0)
			(type default)
		)
		(uuid "cf5dc808-474c-41be-a35c-8c083dad68c5")
	)
	(wire
		(pts
			(xy 53.34 158.75) (xy 58.42 158.75)
		)
		(stroke
			(width 0)
			(type default)
		)
		(uuid "d20dade5-cc83-4bf0-ac95-f32d71a5283a")
	)
	(wire
		(pts
			(xy 236.22 31.75) (xy 207.01 31.75)
		)
		(stroke
			(width 0)
			(type default)
		)
		(uuid "d250bfae-4176-4feb-bbb1-78383f4d92d9")
	)
	(wire
		(pts
			(xy 220.98 57.15) (xy 226.06 57.15)
		)
		(stroke
			(width 0)
			(type default)
		)
		(uuid "d2e1cc76-e6c9-403f-8adb-f0ed5963fea2")
	)
	(wire
		(pts
			(xy 83.82 156.21) (xy 87.63 156.21)
		)
		(stroke
			(width 0)
			(type default)
		)
		(uuid "d545f261-4315-4d7f-8785-c3725260d742")
	)
	(wire
		(pts
			(xy 167.64 52.07) (xy 167.64 53.34)
		)
		(stroke
			(width 0)
			(type default)
		)
		(uuid "d5ca46bf-9b44-488b-a812-39da3ebf2bd1")
	)
	(wire
		(pts
			(xy 22.86 95.25) (xy 25.4 95.25)
		)
		(stroke
			(width 0)
			(type default)
		)
		(uuid "d63d84b8-60a5-4025-a3c9-bc2574a7e512")
	)
	(wire
		(pts
			(xy 148.59 109.22) (xy 152.4 109.22)
		)
		(stroke
			(width 0)
			(type default)
		)
		(uuid "df98d7b9-e09f-4531-9f58-7a52a0fd2e06")
	)
	(wire
		(pts
			(xy 250.19 52.07) (xy 250.19 53.34)
		)
		(stroke
			(width 0)
			(type default)
		)
		(uuid "dfed7ad7-e5f1-42f6-83dc-39d9ce137688")
	)
	(wire
		(pts
			(xy 223.52 49.53) (xy 223.52 46.99)
		)
		(stroke
			(width 0)
			(type default)
		)
		(uuid "e1b3a49d-a72b-40a9-adf2-d70ebc7df740")
	)
	(wire
		(pts
			(xy 53.34 153.67) (xy 58.42 153.67)
		)
		(stroke
			(width 0)
			(type default)
		)
		(uuid "e31c83b4-2df4-4576-b77e-2ec8f5ea7192")
	)
	(wire
		(pts
			(xy 147.32 140.97) (xy 152.4 140.97)
		)
		(stroke
			(width 0)
			(type default)
		)
		(uuid "e54f726d-b103-4ef1-9e9f-f5befa58bffe")
	)
	(wire
		(pts
			(xy 250.19 53.34) (xy 252.73 53.34)
		)
		(stroke
			(width 0)
			(type default)
		)
		(uuid "e6683542-b164-4938-ae56-b64626f5e072")
	)
	(wire
		(pts
			(xy 80.01 54.61) (xy 83.82 54.61)
		)
		(stroke
			(width 0)
			(type default)
		)
		(uuid "e7f00663-0c8d-41ba-82b9-c9316c760b5a")
	)
	(wire
		(pts
			(xy 153.67 81.28) (xy 156.21 81.28)
		)
		(stroke
			(width 0)
			(type default)
		)
		(uuid "e8b2b296-3e5b-4f70-b49b-908ec6820e10")
	)
	(wire
		(pts
			(xy 83.82 60.96) (xy 86.36 60.96)
		)
		(stroke
			(width 0)
			(type default)
		)
		(uuid "e950d55e-e5c3-4386-ba18-d881eac83203")
	)
	(wire
		(pts
			(xy 53.34 143.51) (xy 58.42 143.51)
		)
		(stroke
			(width 0)
			(type default)
		)
		(uuid "eb162b66-e69c-47a1-9c94-6b7dbd3dbdd9")
	)
	(wire
		(pts
			(xy 220.98 54.61) (xy 226.06 54.61)
		)
		(stroke
			(width 0)
			(type default)
		)
		(uuid "eb50b6c0-9ba3-4587-8551-5471d52a697d")
	)
	(wire
		(pts
			(xy 73.66 173.99) (xy 73.66 181.61)
		)
		(stroke
			(width 0)
			(type default)
		)
		(uuid "ebb4dfa3-69cb-41f1-8053-f4966b52b059")
	)
	(wire
		(pts
			(xy 138.43 57.15) (xy 143.51 57.15)
		)
		(stroke
			(width 0)
			(type default)
		)
		(uuid "ec813857-8dc7-4243-8088-1a007e47d083")
	)
	(wire
		(pts
			(xy 147.32 143.51) (xy 152.4 143.51)
		)
		(stroke
			(width 0)
			(type default)
		)
		(uuid "ed8b7fe6-221b-4b82-a7e8-3a8a5dd10af5")
	)
	(wire
		(pts
			(xy 80.01 52.07) (xy 83.82 52.07)
		)
		(stroke
			(width 0)
			(type default)
		)
		(uuid "ef9d5a0e-f6bf-453c-ba15-f01444eb87aa")
	)
	(wire
		(pts
			(xy 83.82 55.88) (xy 86.36 55.88)
		)
		(stroke
			(width 0)
			(type default)
		)
		(uuid "f048fd9a-3843-4809-85a5-8caee763e193")
	)
	(wire
		(pts
			(xy 138.43 46.99) (xy 140.97 46.99)
		)
		(stroke
			(width 0)
			(type default)
		)
		(uuid "f21b0b6c-61fc-4d54-8f7d-48866373b0c9")
	)
	(wire
		(pts
			(xy 153.67 31.75) (xy 153.67 39.37)
		)
		(stroke
			(width 0)
			(type default)
		)
		(uuid "f2240f6f-b1f1-4de8-b773-3243b72fd370")
	)
	(wire
		(pts
			(xy 80.01 62.23) (xy 83.82 62.23)
		)
		(stroke
			(width 0)
			(type default)
		)
		(uuid "f5d0b45a-5e36-43ab-8645-c30908cd814d")
	)
	(wire
		(pts
			(xy 167.64 58.42) (xy 170.18 58.42)
		)
		(stroke
			(width 0)
			(type default)
		)
		(uuid "ff35ac22-c2c2-4b2a-ba80-bd69b2441e09")
	)
	(global_label "GND"
		(shape input)
		(at 220.98 54.61 180)
		(fields_autoplaced yes)
		(effects
			(font
				(size 1.27 1.27)
			)
			(justify right)
		)
		(uuid "01998138-fd3e-4838-bc87-9293c3b08afc")
		(property "Intersheetrefs" "${INTERSHEET_REFS}"
			(at 214.1243 54.61 0)
			(effects
				(font
					(size 1.27 1.27)
				)
				(justify right)
				(hide yes)
			)
		)
	)
	(global_label "GND"
		(shape input)
		(at 148.59 106.68 180)
		(fields_autoplaced yes)
		(effects
			(font
				(size 1.27 1.27)
			)
			(justify right)
		)
		(uuid "0299857a-8fdf-417e-8c47-4b253a0af01b")
		(property "Intersheetrefs" "${INTERSHEET_REFS}"
			(at 141.7343 106.68 0)
			(effects
				(font
					(size 1.27 1.27)
				)
				(justify right)
				(hide yes)
			)
		)
	)
	(global_label "in_4"
		(shape input)
		(at 53.34 153.67 180)
		(fields_autoplaced yes)
		(effects
			(font
				(size 1.27 1.27)
			)
			(justify right)
		)
		(uuid "07c0fa8f-5a8a-4de0-ac5f-4e261b0adff2")
		(property "Intersheetrefs" "${INTERSHEET_REFS}"
			(at 46.4239 153.67 0)
			(effects
				(font
					(size 1.27 1.27)
				)
				(justify right)
				(hide yes)
			)
		)
	)
	(global_label "+5v"
		(shape input)
		(at 80.01 116.84 0)
		(fields_autoplaced yes)
		(effects
			(font
				(size 1.27 1.27)
			)
			(justify left)
		)
		(uuid "1288a27b-4720-4885-b89f-5d478caef4a2")
		(property "Intersheetrefs" "${INTERSHEET_REFS}"
			(at 86.7447 116.84 0)
			(effects
				(font
					(size 1.27 1.27)
				)
				(justify left)
				(hide yes)
			)
		)
	)
	(global_label "CE"
		(shape input)
		(at 148.59 111.76 180)
		(fields_autoplaced yes)
		(effects
			(font
				(size 1.27 1.27)
			)
			(justify right)
		)
		(uuid "166ceea8-6ee6-4e3e-bd31-fd64fcafd334")
		(property "Intersheetrefs" "${INTERSHEET_REFS}"
			(at 143.1858 111.76 0)
			(effects
				(font
					(size 1.27 1.27)
				)
				(justify right)
				(hide yes)
			)
		)
	)
	(global_label "+5v"
		(shape input)
		(at 138.43 46.99 180)
		(fields_autoplaced yes)
		(effects
			(font
				(size 1.27 1.27)
			)
			(justify right)
		)
		(uuid "1ec959d2-00f1-48c8-9082-eee7121767d9")
		(property "Intersheetrefs" "${INTERSHEET_REFS}"
			(at 131.6953 46.99 0)
			(effects
				(font
					(size 1.27 1.27)
				)
				(justify right)
				(hide yes)
			)
		)
	)
	(global_label "+5v"
		(shape input)
		(at 148.59 109.22 180)
		(fields_autoplaced yes)
		(effects
			(font
				(size 1.27 1.27)
			)
			(justify right)
		)
		(uuid "22c1f262-05f9-42d0-9d8e-89cab85ca3f0")
		(property "Intersheetrefs" "${INTERSHEET_REFS}"
			(at 141.8553 109.22 0)
			(effects
				(font
					(size 1.27 1.27)
				)
				(justify right)
				(hide yes)
			)
		)
	)
	(global_label "GND"
		(shape input)
		(at 242.57 81.28 0)
		(fields_autoplaced yes)
		(effects
			(font
				(size 1.27 1.27)
			)
			(justify left)
		)
		(uuid "22d011b1-073d-4fac-908d-1ca6a6b35f9c")
		(property "Intersheetrefs" "${INTERSHEET_REFS}"
			(at 249.4257 81.28 0)
			(effects
				(font
					(size 1.27 1.27)
				)
				(justify left)
				(hide yes)
			)
		)
	)
	(global_label "SCL"
		(shape input)
		(at 147.32 143.51 180)
		(fields_autoplaced yes)
		(effects
			(font
				(size 1.27 1.27)
			)
			(justify right)
		)
		(uuid "263ff1ba-0dff-4040-b68f-7e12b97a58d6")
		(property "Intersheetrefs" "${INTERSHEET_REFS}"
			(at 140.8272 143.51 0)
			(effects
				(font
					(size 1.27 1.27)
				)
				(justify right)
				(hide yes)
			)
		)
	)
	(global_label "+12v"
		(shape input)
		(at 243.84 31.75 0)
		(fields_autoplaced yes)
		(effects
			(font
				(size 1.27 1.27)
			)
			(justify left)
		)
		(uuid "304b2c0c-023d-492b-a635-a98b7d655d26")
		(property "Intersheetrefs" "${INTERSHEET_REFS}"
			(at 251.7842 31.75 0)
			(effects
				(font
					(size 1.27 1.27)
				)
				(justify left)
				(hide yes)
			)
		)
	)
	(global_label "DIR"
		(shape input)
		(at 220.98 59.69 180)
		(fields_autoplaced yes)
		(effects
			(font
				(size 1.27 1.27)
			)
			(justify right)
		)
		(uuid "3a18e83b-722d-49db-acf5-4130813c1171")
		(property "Intersheetrefs" "${INTERSHEET_REFS}"
			(at 214.85 59.69 0)
			(effects
				(font
					(size 1.27 1.27)
				)
				(justify right)
				(hide yes)
			)
		)
	)
	(global_label "+12v"
		(shape input)
		(at 22.86 95.25 180)
		(fields_autoplaced yes)
		(effects
			(font
				(size 1.27 1.27)
			)
			(justify right)
		)
		(uuid "3deff280-7bc2-4c61-98c8-8fdfd2c01fa8")
		(property "Intersheetrefs" "${INTERSHEET_REFS}"
			(at 14.9158 95.25 0)
			(effects
				(font
					(size 1.27 1.27)
				)
				(justify right)
				(hide yes)
			)
		)
	)
	(global_label "STEP_3"
		(shape input)
		(at 87.63 156.21 0)
		(fields_autoplaced yes)
		(effects
			(font
				(size 1.27 1.27)
			)
			(justify left)
		)
		(uuid "46d85345-cf75-4309-b8ae-3eef317d8405")
		(property "Intersheetrefs" "${INTERSHEET_REFS}"
			(at 97.3884 156.21 0)
			(effects
				(font
					(size 1.27 1.27)
				)
				(justify left)
				(hide yes)
			)
		)
	)
	(global_label "+5v"
		(shape input)
		(at 147.32 138.43 180)
		(fields_autoplaced yes)
		(effects
			(font
				(size 1.27 1.27)
			)
			(justify right)
		)
		(uuid "49b36b9c-f586-4dd4-8ef6-9b86a50de629")
		(property "Intersheetrefs" "${INTERSHEET_REFS}"
			(at 140.5853 138.43 0)
			(effects
				(font
					(size 1.27 1.27)
				)
				(justify right)
				(hide yes)
			)
		)
	)
	(global_label "in_1"
		(shape input)
		(at 53.34 138.43 180)
		(fields_autoplaced yes)
		(effects
			(font
				(size 1.27 1.27)
			)
			(justify right)
		)
		(uuid "4cb0fae6-5f0a-4d96-8b0f-6fc771379983")
		(property "Intersheetrefs" "${INTERSHEET_REFS}"
			(at 46.4239 138.43 0)
			(effects
				(font
					(size 1.27 1.27)
				)
				(justify right)
				(hide yes)
			)
		)
	)
	(global_label "+5v"
		(shape input)
		(at 220.98 46.99 180)
		(fields_autoplaced yes)
		(effects
			(font
				(size 1.27 1.27)
			)
			(justify right)
		)
		(uuid "5192c277-318d-4217-ad3d-6f0d897ced10")
		(property "Intersheetrefs" "${INTERSHEET_REFS}"
			(at 214.2453 46.99 0)
			(effects
				(font
					(size 1.27 1.27)
				)
				(justify right)
				(hide yes)
			)
		)
	)
	(global_label "GND"
		(shape input)
		(at 138.43 54.61 180)
		(fields_autoplaced yes)
		(effects
			(font
				(size 1.27 1.27)
			)
			(justify right)
		)
		(uuid "53ff61a8-9a99-4b84-a700-84615df949c9")
		(property "Intersheetrefs" "${INTERSHEET_REFS}"
			(at 131.5743 54.61 0)
			(effects
				(font
					(size 1.27 1.27)
				)
				(justify right)
				(hide yes)
			)
		)
	)
	(global_label "MISO"
		(shape input)
		(at 53.34 163.83 180)
		(fields_autoplaced yes)
		(effects
			(font
				(size 1.27 1.27)
			)
			(justify right)
		)
		(uuid "555b3f0e-e19d-4f0e-993b-bfb87e6d2e78")
		(property "Intersheetrefs" "${INTERSHEET_REFS}"
			(at 45.7586 163.83 0)
			(effects
				(font
					(size 1.27 1.27)
				)
				(justify right)
				(hide yes)
			)
		)
	)
	(global_label "STEP_2"
		(shape input)
		(at 138.43 57.15 180)
		(fields_autoplaced yes)
		(effects
			(font
				(size 1.27 1.27)
			)
			(justify right)
		)
		(uuid "55e41fe7-c1cc-4fa5-8e36-97e2cca0539a")
		(property "Intersheetrefs" "${INTERSHEET_REFS}"
			(at 128.6716 57.15 0)
			(effects
				(font
					(size 1.27 1.27)
				)
				(justify right)
				(hide yes)
			)
		)
	)
	(global_label "STEP_1"
		(shape input)
		(at 54.61 57.15 180)
		(fields_autoplaced yes)
		(effects
			(font
				(size 1.27 1.27)
			)
			(justify right)
		)
		(uuid "6120ce0b-422f-4b1a-b81f-fda0d7db91e2")
		(property "Intersheetrefs" "${INTERSHEET_REFS}"
			(at 44.8516 57.15 0)
			(effects
				(font
					(size 1.27 1.27)
				)
				(justify right)
				(hide yes)
			)
		)
	)
	(global_label "+7v"
		(shape input)
		(at 22.86 105.41 180)
		(fields_autoplaced yes)
		(effects
			(font
				(size 1.27 1.27)
			)
			(justify right)
		)
		(uuid "61fb3ed9-a5b0-4590-a5a1-e4a9a9316025")
		(property "Intersheetrefs" "${INTERSHEET_REFS}"
			(at 16.1253 105.41 0)
			(effects
				(font
					(size 1.27 1.27)
				)
				(justify right)
				(hide yes)
			)
		)
	)
	(global_label "+12v"
		(shape input)
		(at 77.47 31.75 0)
		(fields_autoplaced yes)
		(effects
			(font
				(size 1.27 1.27)
			)
			(justify left)
		)
		(uuid "63871179-2814-4525-8d34-9a875b5fe44a")
		(property "Intersheetrefs" "${INTERSHEET_REFS}"
			(at 85.4142 31.75 0)
			(effects
				(font
					(size 1.27 1.27)
				)
				(justify left)
				(hide yes)
			)
		)
	)
	(global_label "SCK"
		(shape input)
		(at 53.34 166.37 180)
		(fields_autoplaced yes)
		(effects
			(font
				(size 1.27 1.27)
			)
			(justify right)
		)
		(uuid "6d21324a-e461-4b2e-bd5f-ec6a6ea6e16b")
		(property "Intersheetrefs" "${INTERSHEET_REFS}"
			(at 46.6053 166.37 0)
			(effects
				(font
					(size 1.27 1.27)
				)
				(justify right)
				(hide yes)
			)
		)
	)
	(global_label "DIR"
		(shape input)
		(at 54.61 59.69 180)
		(fields_autoplaced yes)
		(effects
			(font
				(size 1.27 1.27)
			)
			(justify right)
		)
		(uuid "72c5f09a-45d6-4cd4-bfe2-176329487d06")
		(property "Intersheetrefs" "${INTERSHEET_REFS}"
			(at 48.48 59.69 0)
			(effects
				(font
					(size 1.27 1.27)
				)
				(justify right)
				(hide yes)
			)
		)
	)
	(global_label "+7v"
		(shape input)
		(at 64.77 118.11 180)
		(fields_autoplaced yes)
		(effects
			(font
				(size 1.27 1.27)
			)
			(justify right)
		)
		(uuid "7b09258d-e993-4a15-873e-dd7dcfdab801")
		(property "Intersheetrefs" "${INTERSHEET_REFS}"
			(at 58.0353 118.11 0)
			(effects
				(font
					(size 1.27 1.27)
				)
				(justify right)
				(hide yes)
			)
		)
	)
	(global_label "STEP_3"
		(shape input)
		(at 220.98 57.15 180)
		(fields_autoplaced yes)
		(effects
			(font
				(size 1.27 1.27)
			)
			(justify right)
		)
		(uuid "7e9fce73-2ae2-4636-9667-22466333fb63")
		(property "Intersheetrefs" "${INTERSHEET_REFS}"
			(at 211.2216 57.15 0)
			(effects
				(font
					(size 1.27 1.27)
				)
				(justify right)
				(hide yes)
			)
		)
	)
	(global_label "GND"
		(shape input)
		(at 147.32 148.59 180)
		(fields_autoplaced yes)
		(effects
			(font
				(size 1.27 1.27)
			)
			(justify right)
		)
		(uuid "7eb86ec2-f0a8-4447-b8a7-668346597e46")
		(property "Intersheetrefs" "${INTERSHEET_REFS}"
			(at 140.4643 148.59 0)
			(effects
				(font
					(size 1.27 1.27)
				)
				(justify right)
				(hide yes)
			)
		)
	)
	(global_label "CE"
		(shape input)
		(at 53.34 156.21 180)
		(fields_autoplaced yes)
		(effects
			(font
				(size 1.27 1.27)
			)
			(justify right)
		)
		(uuid "80e1c83a-db2a-477f-a9e0-40b8426dbd53")
		(property "Intersheetrefs" "${INTERSHEET_REFS}"
			(at 47.9358 156.21 0)
			(effects
				(font
					(size 1.27 1.27)
				)
				(justify right)
				(hide yes)
			)
		)
	)
	(global_label "CSN"
		(shape input)
		(at 53.34 158.75 180)
		(fields_autoplaced yes)
		(effects
			(font
				(size 1.27 1.27)
			)
			(justify right)
		)
		(uuid "84f8483c-81dc-49cb-af79-4bc8a5998d4f")
		(property "Intersheetrefs" "${INTERSHEET_REFS}"
			(at 46.5448 158.75 0)
			(effects
				(font
					(size 1.27 1.27)
				)
				(justify right)
				(hide yes)
			)
		)
	)
	(global_label "GND"
		(shape input)
		(at 160.02 81.28 0)
		(fields_autoplaced yes)
		(effects
			(font
				(size 1.27 1.27)
			)
			(justify left)
		)
		(uuid "86c5e4f0-07f0-4102-94c8-8c32d676e482")
		(property "Intersheetrefs" "${INTERSHEET_REFS}"
			(at 166.8757 81.28 0)
			(effects
				(font
					(size 1.27 1.27)
				)
				(justify left)
				(hide yes)
			)
		)
	)
	(global_label "GND"
		(shape input)
		(at 76.2 81.28 0)
		(fields_autoplaced yes)
		(effects
			(font
				(size 1.27 1.27)
			)
			(justify left)
		)
		(uuid "8a3d9ef0-55f6-41e1-9084-9b2b84d62779")
		(property "Intersheetrefs" "${INTERSHEET_REFS}"
			(at 83.0557 81.28 0)
			(effects
				(font
					(size 1.27 1.27)
				)
				(justify left)
				(hide yes)
			)
		)
	)
	(global_label "MOSI"
		(shape input)
		(at 53.34 161.29 180)
		(fields_autoplaced yes)
		(effects
			(font
				(size 1.27 1.27)
			)
			(justify right)
		)
		(uuid "95e6cf3e-33ca-46c4-9b26-f4fc9cc4bf16")
		(property "Intersheetrefs" "${INTERSHEET_REFS}"
			(at 45.7586 161.29 0)
			(effects
				(font
					(size 1.27 1.27)
				)
				(justify right)
				(hide yes)
			)
		)
	)
	(global_label "+12v"
		(shape input)
		(at 161.29 31.75 0)
		(fields_autoplaced yes)
		(effects
			(font
				(size 1.27 1.27)
			)
			(justify left)
		)
		(uuid "982155d6-c55d-46b4-bb14-ca696c3fa989")
		(property "Intersheetrefs" "${INTERSHEET_REFS}"
			(at 169.2342 31.75 0)
			(effects
				(font
					(size 1.27 1.27)
				)
				(justify left)
				(hide yes)
			)
		)
	)
	(global_label "SDA"
		(shape input)
		(at 147.32 146.05 180)
		(fields_autoplaced yes)
		(effects
			(font
				(size 1.27 1.27)
			)
			(justify right)
		)
		(uuid "9880b2d3-da02-4ae9-932e-c1ef568ce046")
		(property "Intersheetrefs" "${INTERSHEET_REFS}"
			(at 140.7667 146.05 0)
			(effects
				(font
					(size 1.27 1.27)
				)
				(justify right)
				(hide yes)
			)
		)
	)
	(global_label "MISO"
		(shape input)
		(at 148.59 121.92 180)
		(fields_autoplaced yes)
		(effects
			(font
				(size 1.27 1.27)
			)
			(justify right)
		)
		(uuid "9a0299bf-5458-440f-bce5-4f7b3f49eded")
		(property "Intersheetrefs" "${INTERSHEET_REFS}"
			(at 141.0086 121.92 0)
			(effects
				(font
					(size 1.27 1.27)
				)
				(justify right)
				(hide yes)
			)
		)
	)
	(global_label "GND"
		(shape input)
		(at 22.86 97.79 180)
		(fields_autoplaced yes)
		(effects
			(font
				(size 1.27 1.27)
			)
			(justify right)
		)
		(uuid "9a41eb8a-d59c-4360-a278-651516460241")
		(property "Intersheetrefs" "${INTERSHEET_REFS}"
			(at 16.0043 97.79 0)
			(effects
				(font
					(size 1.27 1.27)
				)
				(justify right)
				(hide yes)
			)
		)
	)
	(global_label "GND"
		(shape input)
		(at 74.93 181.61 0)
		(fields_autoplaced yes)
		(effects
			(font
				(size 1.27 1.27)
			)
			(justify left)
		)
		(uuid "9f88ac17-d33f-48ca-8224-2b10fe13e60c")
		(property "Intersheetrefs" "${INTERSHEET_REFS}"
			(at 81.7857 181.61 0)
			(effects
				(font
					(size 1.27 1.27)
				)
				(justify left)
				(hide yes)
			)
		)
	)
	(global_label "+5v"
		(shape input)
		(at 54.61 46.99 180)
		(fields_autoplaced yes)
		(effects
			(font
				(size 1.27 1.27)
			)
			(justify right)
		)
		(uuid "a0406202-d6f0-4cdd-aa14-10fa8c4d98c4")
		(property "Intersheetrefs" "${INTERSHEET_REFS}"
			(at 47.8753 46.99 0)
			(effects
				(font
					(size 1.27 1.27)
				)
				(justify right)
				(hide yes)
			)
		)
	)
	(global_label "CSN"
		(shape input)
		(at 148.59 114.3 180)
		(fields_autoplaced yes)
		(effects
			(font
				(size 1.27 1.27)
			)
			(justify right)
		)
		(uuid "a77664bd-41c1-4b49-a3e8-cd5eaaff2e9d")
		(property "Intersheetrefs" "${INTERSHEET_REFS}"
			(at 141.7948 114.3 0)
			(effects
				(font
					(size 1.27 1.27)
				)
				(justify right)
				(hide yes)
			)
		)
	)
	(global_label "SCL"
		(shape input)
		(at 87.63 161.29 0)
		(fields_autoplaced yes)
		(effects
			(font
				(size 1.27 1.27)
			)
			(justify left)
		)
		(uuid "a7c388b2-ec6e-429c-badd-324a9645f86a")
		(property "Intersheetrefs" "${INTERSHEET_REFS}"
			(at 94.1228 161.29 0)
			(effects
				(font
					(size 1.27 1.27)
				)
				(justify left)
				(hide yes)
			)
		)
	)
	(global_label "GND"
		(shape input)
		(at 54.61 54.61 180)
		(fields_autoplaced yes)
		(effects
			(font
				(size 1.27 1.27)
			)
			(justify right)
		)
		(uuid "ad20c57a-1ec7-44c3-b4a9-b82605c7dbca")
		(property "Intersheetrefs" "${INTERSHEET_REFS}"
			(at 47.7543 54.61 0)
			(effects
				(font
					(size 1.27 1.27)
				)
				(justify right)
				(hide yes)
			)
		)
	)
	(global_label "STEP_1"
		(shape input)
		(at 87.63 151.13 0)
		(fields_autoplaced yes)
		(effects
			(font
				(size 1.27 1.27)
			)
			(justify left)
		)
		(uuid "b0ca8aa1-cfec-4ad8-a058-8960ae426eca")
		(property "Intersheetrefs" "${INTERSHEET_REFS}"
			(at 97.3884 151.13 0)
			(effects
				(font
					(size 1.27 1.27)
				)
				(justify left)
				(hide yes)
			)
		)
	)
	(global_label "STEP_2"
		(shape input)
		(at 87.63 153.67 0)
		(fields_autoplaced yes)
		(effects
			(font
				(size 1.27 1.27)
			)
			(justify left)
		)
		(uuid "d1c98c05-5fee-4ac5-bd9c-2d5c56f793b3")
		(property "Intersheetrefs" "${INTERSHEET_REFS}"
			(at 97.3884 153.67 0)
			(effects
				(font
					(size 1.27 1.27)
				)
				(justify left)
				(hide yes)
			)
		)
	)
	(global_label "DIR"
		(shape input)
		(at 87.63 148.59 0)
		(fields_autoplaced yes)
		(effects
			(font
				(size 1.27 1.27)
			)
			(justify left)
		)
		(uuid "d2f75b36-0354-42c2-b8e5-1c03c59188f5")
		(property "Intersheetrefs" "${INTERSHEET_REFS}"
			(at 93.76 148.59 0)
			(effects
				(font
					(size 1.27 1.27)
				)
				(justify left)
				(hide yes)
			)
		)
	)
	(global_label "+7v"
		(shape input)
		(at 147.32 140.97 180)
		(fields_autoplaced yes)
		(effects
			(font
				(size 1.27 1.27)
			)
			(justify right)
		)
		(uuid "d3c4334c-5df6-4721-a7ca-ac59bd3e882b")
		(property "Intersheetrefs" "${INTERSHEET_REFS}"
			(at 140.5853 140.97 0)
			(effects
				(font
					(size 1.27 1.27)
				)
				(justify right)
				(hide yes)
			)
		)
	)
	(global_label "MOSI"
		(shape input)
		(at 148.59 119.38 180)
		(fields_autoplaced yes)
		(effects
			(font
				(size 1.27 1.27)
			)
			(justify right)
		)
		(uuid "d4197af1-c048-4386-83d4-08010b2a081e")
		(property "Intersheetrefs" "${INTERSHEET_REFS}"
			(at 141.0086 119.38 0)
			(effects
				(font
					(size 1.27 1.27)
				)
				(justify right)
				(hide yes)
			)
		)
	)
	(global_label "DIR"
		(shape input)
		(at 138.43 59.69 180)
		(fields_autoplaced yes)
		(effects
			(font
				(size 1.27 1.27)
			)
			(justify right)
		)
		(uuid "daafe922-f597-487d-acfd-b49d89eda181")
		(property "Intersheetrefs" "${INTERSHEET_REFS}"
			(at 132.3 59.69 0)
			(effects
				(font
					(size 1.27 1.27)
				)
				(justify right)
				(hide yes)
			)
		)
	)
	(global_label "in_2"
		(shape input)
		(at 53.34 143.51 180)
		(fields_autoplaced yes)
		(effects
			(font
				(size 1.27 1.27)
			)
			(justify right)
		)
		(uuid "e46eebb0-a568-4da1-a1d7-0c599da7702f")
		(property "Intersheetrefs" "${INTERSHEET_REFS}"
			(at 46.4239 143.51 0)
			(effects
				(font
					(size 1.27 1.27)
				)
				(justify right)
				(hide yes)
			)
		)
	)
	(global_label "speed_2"
		(shape input)
		(at 53.34 146.05 180)
		(fields_autoplaced yes)
		(effects
			(font
				(size 1.27 1.27)
			)
			(justify right)
		)
		(uuid "e676778d-123d-4d5f-9f19-08df226a1ed5")
		(property "Intersheetrefs" "${INTERSHEET_REFS}"
			(at 42.6744 146.05 0)
			(effects
				(font
					(size 1.27 1.27)
				)
				(justify right)
				(hide yes)
			)
		)
	)
	(global_label "SCK"
		(shape input)
		(at 148.59 116.84 180)
		(fields_autoplaced yes)
		(effects
			(font
				(size 1.27 1.27)
			)
			(justify right)
		)
		(uuid "e9ee32ef-1dc4-4338-baaf-424df95e91b6")
		(property "Intersheetrefs" "${INTERSHEET_REFS}"
			(at 141.8553 116.84 0)
			(effects
				(font
					(size 1.27 1.27)
				)
				(justify right)
				(hide yes)
			)
		)
	)
	(global_label "speed_1"
		(shape input)
		(at 53.34 140.97 180)
		(fields_autoplaced yes)
		(effects
			(font
				(size 1.27 1.27)
			)
			(justify right)
		)
		(uuid "eb0f62cd-3f57-4d0c-b41f-751dec52862a")
		(property "Intersheetrefs" "${INTERSHEET_REFS}"
			(at 42.6744 140.97 0)
			(effects
				(font
					(size 1.27 1.27)
				)
				(justify right)
				(hide yes)
			)
		)
	)
	(global_label "in_3"
		(shape input)
		(at 53.34 151.13 180)
		(fields_autoplaced yes)
		(effects
			(font
				(size 1.27 1.27)
			)
			(justify right)
		)
		(uuid "f314cb9b-dd50-419b-a5c0-177b6f4a9fa1")
		(property "Intersheetrefs" "${INTERSHEET_REFS}"
			(at 46.4239 151.13 0)
			(effects
				(font
					(size 1.27 1.27)
				)
				(justify right)
				(hide yes)
			)
		)
	)
	(global_label "GND"
		(shape input)
		(at 22.86 107.95 180)
		(fields_autoplaced yes)
		(effects
			(font
				(size 1.27 1.27)
			)
			(justify right)
		)
		(uuid "fa96e759-bd8f-47aa-8a98-910c05b4404b")
		(property "Intersheetrefs" "${INTERSHEET_REFS}"
			(at 16.0043 107.95 0)
			(effects
				(font
					(size 1.27 1.27)
				)
				(justify right)
				(hide yes)
			)
		)
	)
	(global_label "SDA"
		(shape input)
		(at 87.63 158.75 0)
		(fields_autoplaced yes)
		(effects
			(font
				(size 1.27 1.27)
			)
			(justify left)
		)
		(uuid "fd1bf9ee-dceb-47ef-9221-cb08a7b2d576")
		(property "Intersheetrefs" "${INTERSHEET_REFS}"
			(at 94.1833 158.75 0)
			(effects
				(font
					(size 1.27 1.27)
				)
				(justify left)
				(hide yes)
			)
		)
	)
	(symbol
		(lib_id "Device:C_Polarized_Small")
		(at 40.64 58.42 0)
		(unit 1)
		(exclude_from_sim no)
		(in_bom yes)
		(on_board yes)
		(dnp no)
		(uuid "00d40635-dae8-495d-ad44-7d923f336b70")
		(property "Reference" "C1"
			(at 36.83 54.61 0)
			(effects
				(font
					(size 1.27 1.27)
				)
				(justify left)
			)
		)
		(property "Value" "330mkf"
			(at 31.75 60.96 0)
			(effects
				(font
					(size 1.27 1.27)
				)
				(justify left)
			)
		)
		(property "Footprint" "Capacitor_THT:CP_Radial_D10.0mm_P3.50mm"
			(at 40.64 58.42 0)
			(effects
				(font
					(size 1.27 1.27)
				)
				(hide yes)
			)
		)
		(property "Datasheet" "~"
			(at 40.64 58.42 0)
			(effects
				(font
					(size 1.27 1.27)
				)
				(hide yes)
			)
		)
		(property "Description" ""
			(at 40.64 58.42 0)
			(effects
				(font
					(size 1.27 1.27)
				)
				(hide yes)
			)
		)
		(pin "2"
			(uuid "f34a0a21-6f30-45f9-b25c-1c04844a39b2")
		)
		(pin "1"
			(uuid "31886cee-5812-4024-af1b-5284e68e039d")
		)
		(instances
			(project "manipulyator"
				(path "/59ab5fdf-8303-4773-966e-0f1c7a8a9c26"
					(reference "C1")
					(unit 1)
				)
			)
		)
	)
	(symbol
		(lib_id "Device:C_Polarized_Small")
		(at 124.46 58.42 0)
		(unit 1)
		(exclude_from_sim no)
		(in_bom yes)
		(on_board yes)
		(dnp no)
		(uuid "0775ea29-566e-4915-baca-bee1cbe59fe1")
		(property "Reference" "C2"
			(at 120.65 54.61 0)
			(effects
				(font
					(size 1.27 1.27)
				)
				(justify left)
			)
		)
		(property "Value" "330mkf"
			(at 115.57 60.96 0)
			(effects
				(font
					(size 1.27 1.27)
				)
				(justify left)
			)
		)
		(property "Footprint" "Capacitor_THT:CP_Radial_D10.0mm_P3.50mm"
			(at 124.46 58.42 0)
			(effects
				(font
					(size 1.27 1.27)
				)
				(hide yes)
			)
		)
		(property "Datasheet" "~"
			(at 124.46 58.42 0)
			(effects
				(font
					(size 1.27 1.27)
				)
				(hide yes)
			)
		)
		(property "Description" ""
			(at 124.46 58.42 0)
			(effects
				(font
					(size 1.27 1.27)
				)
				(hide yes)
			)
		)
		(pin "2"
			(uuid "9ad521e5-a89c-4f76-90f7-3c51c3ed56dd")
		)
		(pin "1"
			(uuid "f30aefb5-dc3d-4749-a63c-3b38e985a4b0")
		)
		(instances
			(project "manipulyator"
				(path "/59ab5fdf-8303-4773-966e-0f1c7a8a9c26"
					(reference "C2")
					(unit 1)
				)
			)
		)
	)
	(symbol
		(lib_id "Connector:Conn_01x04_Socket")
		(at 91.44 55.88 0)
		(unit 1)
		(exclude_from_sim no)
		(in_bom yes)
		(on_board yes)
		(dnp no)
		(fields_autoplaced yes)
		(uuid "124798b7-539b-44b6-8750-3f07312304fe")
		(property "Reference" "J1"
			(at 92.71 55.88 0)
			(effects
				(font
					(size 1.27 1.27)
				)
				(justify left)
			)
		)
		(property "Value" "Conn_01x04_Socket"
			(at 92.71 58.42 0)
			(effects
				(font
					(size 1.27 1.27)
				)
				(justify left)
			)
		)
		(property "Footprint" "Connector_PinHeader_2.54mm:PinHeader_1x04_P2.54mm_Vertical"
			(at 91.44 55.88 0)
			(effects
				(font
					(size 1.27 1.27)
				)
				(hide yes)
			)
		)
		(property "Datasheet" "~"
			(at 91.44 55.88 0)
			(effects
				(font
					(size 1.27 1.27)
				)
				(hide yes)
			)
		)
		(property "Description" ""
			(at 91.44 55.88 0)
			(effects
				(font
					(size 1.27 1.27)
				)
				(hide yes)
			)
		)
		(pin "4"
			(uuid "1aa574fc-3a86-4b8f-87b2-9ffc5131a175")
		)
		(pin "2"
			(uuid "9367eaef-8ebe-4d68-8428-cdc852293b08")
		)
		(pin "1"
			(uuid "09dbb4b0-df80-4b81-8194-b92ca4bd8164")
		)
		(pin "3"
			(uuid "61769df5-00f5-40d7-bc9d-2349f08b2a1e")
		)
		(instances
			(project "manipulyator"
				(path "/59ab5fdf-8303-4773-966e-0f1c7a8a9c26"
					(reference "J1")
					(unit 1)
				)
			)
		)
	)
	(symbol
		(lib_id "Connector:Conn_01x02_Socket")
		(at 30.48 95.25 0)
		(unit 1)
		(exclude_from_sim no)
		(in_bom yes)
		(on_board yes)
		(dnp no)
		(fields_autoplaced yes)
		(uuid "13632924-6506-4fd4-8b90-28f587f9086f")
		(property "Reference" "J9"
			(at 31.75 95.2499 0)
			(effects
				(font
					(size 1.27 1.27)
				)
				(justify left)
			)
		)
		(property "Value" "Stab_in"
			(at 31.75 97.7899 0)
			(effects
				(font
					(size 1.27 1.27)
				)
				(justify left)
			)
		)
		(property "Footprint" "Connector_Phoenix_MC:PhoenixContact_MCV_1,5_2-G-3.81_1x02_P3.81mm_Vertical"
			(at 30.48 95.25 0)
			(effects
				(font
					(size 1.27 1.27)
				)
				(hide yes)
			)
		)
		(property "Datasheet" "~"
			(at 30.48 95.25 0)
			(effects
				(font
					(size 1.27 1.27)
				)
				(hide yes)
			)
		)
		(property "Description" ""
			(at 30.48 95.25 0)
			(effects
				(font
					(size 1.27 1.27)
				)
				(hide yes)
			)
		)
		(pin "2"
			(uuid "2c559dc9-7c9c-45d6-9312-1921b06d48c4")
		)
		(pin "1"
			(uuid "c74d727a-d118-4330-a477-4e9d01eb4c6c")
		)
		(instances
			(project "manipulyator"
				(path "/59ab5fdf-8303-4773-966e-0f1c7a8a9c26"
					(reference "J9")
					(unit 1)
				)
			)
		)
	)
	(symbol
		(lib_id "Driver_Motor:Pololu_Breakout_DRV8825")
		(at 153.67 54.61 0)
		(unit 1)
		(exclude_from_sim no)
		(in_bom yes)
		(on_board yes)
		(dnp no)
		(fields_autoplaced yes)
		(uuid "1d7a19e0-38ea-4555-9020-0a2fb988e786")
		(property "Reference" "A2"
			(at 155.8641 36.83 0)
			(effects
				(font
					(size 1.27 1.27)
				)
				(justify left)
			)
		)
		(property "Value" "Pololu_Breakout_DRV8825"
			(at 155.8641 39.37 0)
			(effects
				(font
					(size 1.27 1.27)
				)
				(justify left)
			)
		)
		(property "Footprint" "Module:Pololu_Breakout-16_15.2x20.3mm"
			(at 158.75 74.93 0)
			(effects
				(font
					(size 1.27 1.27)
				)
				(justify left)
				(hide yes)
			)
		)
		(property "Datasheet" "https://www.pololu.com/product/2982"
			(at 156.21 62.23 0)
			(effects
				(font
					(size 1.27 1.27)
				)
				(hide yes)
			)
		)
		(property "Description" ""
			(at 153.67 54.61 0)
			(effects
				(font
					(size 1.27 1.27)
				)
				(hide yes)
			)
		)
		(pin "5"
			(uuid "982ec7f6-9065-418b-948b-e31f1bb7a921")
		)
		(pin "6"
			(uuid "b185c76a-c16d-4971-b285-7ceb206a5a5f")
		)
		(pin "14"
			(uuid "ab4ba48f-63f0-43cd-8eb4-ba0061aa962f")
		)
		(pin "15"
			(uuid "9743c835-e4cd-462a-89c0-8bab38906a17")
		)
		(pin "12"
			(uuid "835fc32e-f9a7-4f10-8600-2fca5ce3ac62")
		)
		(pin "10"
			(uuid "24422daf-58ff-49f6-b48b-f43b536abba3")
		)
		(pin "1"
			(uuid "6e51bc0d-44ca-4f54-8b25-881557f75091")
		)
		(pin "11"
			(uuid "562490fa-bfa8-4071-9011-1a5d5d17bce4")
		)
		(pin "13"
			(uuid "ccc0023b-485c-4a8c-ad39-f2cac3cb209c")
		)
		(pin "7"
			(uuid "be716843-4e16-4e23-a36e-2498973a08d2")
		)
		(pin "8"
			(uuid "42aeb047-e825-446b-8337-d09a6515bc56")
		)
		(pin "16"
			(uuid "de1d04a5-30ba-4ebe-a8da-7394e62bad74")
		)
		(pin "9"
			(uuid "6b75e3fc-d296-455e-bcda-ea1ab4c5c145")
		)
		(pin "4"
			(uuid "f1fd64be-ded6-4fa5-8bdd-5f630ddc9644")
		)
		(pin "2"
			(uuid "8a8d7e50-f9c3-4fc6-9da4-8f1de160d9b2")
		)
		(pin "3"
			(uuid "d98fd20f-2af9-491c-a9bd-8666849725fc")
		)
		(instances
			(project "manipulyator"
				(path "/59ab5fdf-8303-4773-966e-0f1c7a8a9c26"
					(reference "A2")
					(unit 1)
				)
			)
		)
	)
	(symbol
		(lib_id "Connector:Conn_01x02_Socket")
		(at 30.48 105.41 0)
		(unit 1)
		(exclude_from_sim no)
		(in_bom yes)
		(on_board yes)
		(dnp no)
		(fields_autoplaced yes)
		(uuid "2783ebb1-d96a-4561-9167-59b8fb1e4d1a")
		(property "Reference" "J4"
			(at 31.75 105.4099 0)
			(effects
				(font
					(size 1.27 1.27)
				)
				(justify left)
			)
		)
		(property "Value" "Stab_out"
			(at 31.75 107.9499 0)
			(effects
				(font
					(size 1.27 1.27)
				)
				(justify left)
			)
		)
		(property "Footprint" "Connector_Phoenix_MC:PhoenixContact_MCV_1,5_2-G-3.81_1x02_P3.81mm_Vertical"
			(at 30.48 105.41 0)
			(effects
				(font
					(size 1.27 1.27)
				)
				(hide yes)
			)
		)
		(property "Datasheet" "~"
			(at 30.48 105.41 0)
			(effects
				(font
					(size 1.27 1.27)
				)
				(hide yes)
			)
		)
		(property "Description" ""
			(at 30.48 105.41 0)
			(effects
				(font
					(size 1.27 1.27)
				)
				(hide yes)
			)
		)
		(pin "2"
			(uuid "ef41990d-9383-4720-9d0e-2d5b854f3cd8")
		)
		(pin "1"
			(uuid "31c3a650-ba87-466a-bb47-74420afc3768")
		)
		(instances
			(project "manipulyator"
				(path "/59ab5fdf-8303-4773-966e-0f1c7a8a9c26"
					(reference "J4")
					(unit 1)
				)
			)
		)
	)
	(symbol
		(lib_id "Connector:Conn_01x04_Socket")
		(at 257.81 55.88 0)
		(unit 1)
		(exclude_from_sim no)
		(in_bom yes)
		(on_board yes)
		(dnp no)
		(fields_autoplaced yes)
		(uuid "31ab8f35-9b92-4590-9188-0dee99e901e8")
		(property "Reference" "J3"
			(at 259.08 55.88 0)
			(effects
				(font
					(size 1.27 1.27)
				)
				(justify left)
			)
		)
		(property "Value" "Conn_01x04_Socket"
			(at 259.08 58.42 0)
			(effects
				(font
					(size 1.27 1.27)
				)
				(justify left)
			)
		)
		(property "Footprint" "Connector_PinHeader_2.54mm:PinHeader_1x04_P2.54mm_Vertical"
			(at 257.81 55.88 0)
			(effects
				(font
					(size 1.27 1.27)
				)
				(hide yes)
			)
		)
		(property "Datasheet" "~"
			(at 257.81 55.88 0)
			(effects
				(font
					(size 1.27 1.27)
				)
				(hide yes)
			)
		)
		(property "Description" ""
			(at 257.81 55.88 0)
			(effects
				(font
					(size 1.27 1.27)
				)
				(hide yes)
			)
		)
		(pin "4"
			(uuid "6aa09c73-2d9d-4f0a-b754-e646b0a25c5f")
		)
		(pin "2"
			(uuid "0def8568-3269-441f-ba65-3da0188b45a0")
		)
		(pin "1"
			(uuid "c830576b-5fd1-48df-ab12-f611d421b8d1")
		)
		(pin "3"
			(uuid "9e08a9e5-a3cc-4a7d-bfed-7b54ea5ab563")
		)
		(instances
			(project "manipulyator"
				(path "/59ab5fdf-8303-4773-966e-0f1c7a8a9c26"
					(reference "J3")
					(unit 1)
				)
			)
		)
	)
	(symbol
		(lib_id "Connector:Conn_01x04_Socket")
		(at 175.26 55.88 0)
		(unit 1)
		(exclude_from_sim no)
		(in_bom yes)
		(on_board yes)
		(dnp no)
		(fields_autoplaced yes)
		(uuid "368689a9-c26b-42fd-a94a-17adef58b4fd")
		(property "Reference" "J2"
			(at 176.53 55.88 0)
			(effects
				(font
					(size 1.27 1.27)
				)
				(justify left)
			)
		)
		(property "Value" "Conn_01x04_Socket"
			(at 176.53 58.42 0)
			(effects
				(font
					(size 1.27 1.27)
				)
				(justify left)
			)
		)
		(property "Footprint" "Connector_PinHeader_2.54mm:PinHeader_1x04_P2.54mm_Vertical"
			(at 175.26 55.88 0)
			(effects
				(font
					(size 1.27 1.27)
				)
				(hide yes)
			)
		)
		(property "Datasheet" "~"
			(at 175.26 55.88 0)
			(effects
				(font
					(size 1.27 1.27)
				)
				(hide yes)
			)
		)
		(property "Description" ""
			(at 175.26 55.88 0)
			(effects
				(font
					(size 1.27 1.27)
				)
				(hide yes)
			)
		)
		(pin "4"
			(uuid "842118e3-31ec-4ce7-adf6-37784f9ef062")
		)
		(pin "2"
			(uuid "cb3cb1e4-c5f7-4c4f-bb3b-48a445194ca5")
		)
		(pin "1"
			(uuid "b1c9cf16-1509-44e6-a99a-7152358ff086")
		)
		(pin "3"
			(uuid "6a463222-ed0d-4702-b8b5-f128a614609a")
		)
		(instances
			(project "manipulyator"
				(path "/59ab5fdf-8303-4773-966e-0f1c7a8a9c26"
					(reference "J2")
					(unit 1)
				)
			)
		)
	)
	(symbol
		(lib_id "Connector:Conn_01x05_Socket")
		(at 157.48 143.51 0)
		(unit 1)
		(exclude_from_sim no)
		(in_bom yes)
		(on_board yes)
		(dnp no)
		(fields_autoplaced yes)
		(uuid "6d4ad82a-ea9d-4c38-98e8-7dd11f40240a")
		(property "Reference" "J5"
			(at 158.75 142.2399 0)
			(effects
				(font
					(size 1.27 1.27)
				)
				(justify left)
			)
		)
		(property "Value" "Conn_01x05_Socket"
			(at 158.75 144.7799 0)
			(effects
				(font
					(size 1.27 1.27)
				)
				(justify left)
			)
		)
		(property "Footprint" ""
			(at 157.48 143.51 0)
			(effects
				(font
					(size 1.27 1.27)
				)
				(hide yes)
			)
		)
		(property "Datasheet" "~"
			(at 157.48 143.51 0)
			(effects
				(font
					(size 1.27 1.27)
				)
				(hide yes)
			)
		)
		(property "Description" "Generic connector, single row, 01x05, script generated"
			(at 157.48 143.51 0)
			(effects
				(font
					(size 1.27 1.27)
				)
				(hide yes)
			)
		)
		(pin "5"
			(uuid "1fe50b18-7345-434b-9f6f-9d1a1f106f83")
		)
		(pin "4"
			(uuid "b59a8cfc-5eea-44a0-93d3-502d36a9a088")
		)
		(pin "2"
			(uuid "a0c1a77f-db19-4850-8dfa-321d540ffb62")
		)
		(pin "3"
			(uuid "be08e397-190b-4399-8f95-c4ed81554389")
		)
		(pin "1"
			(uuid "d98920fd-0da1-4107-8d3e-947b02518aba")
		)
		(instances
			(project "manipulyator"
				(path "/59ab5fdf-8303-4773-966e-0f1c7a8a9c26"
					(reference "J5")
					(unit 1)
				)
			)
		)
	)
	(symbol
		(lib_id "MCU_Module:Arduino_Nano_v3.x")
		(at 71.12 148.59 0)
		(unit 1)
		(exclude_from_sim no)
		(in_bom yes)
		(on_board yes)
		(dnp no)
		(fields_autoplaced yes)
		(uuid "6e654210-5e1b-40a5-858c-ed5abc40b56f")
		(property "Reference" "A4"
			(at 75.8541 173.99 0)
			(effects
				(font
					(size 1.27 1.27)
				)
				(justify left)
			)
		)
		(property "Value" "Arduino_Nano_v3.x"
			(at 75.8541 176.53 0)
			(effects
				(font
					(size 1.27 1.27)
				)
				(justify left)
			)
		)
		(property "Footprint" "Module:Arduino_Nano"
			(at 71.12 148.59 0)
			(effects
				(font
					(size 1.27 1.27)
					(italic yes)
				)
				(hide yes)
			)
		)
		(property "Datasheet" "http://www.mouser.com/pdfdocs/Gravitech_Arduino_Nano3_0.pdf"
			(at 71.12 148.59 0)
			(effects
				(font
					(size 1.27 1.27)
				)
				(hide yes)
			)
		)
		(property "Description" ""
			(at 71.12 148.59 0)
			(effects
				(font
					(size 1.27 1.27)
				)
				(hide yes)
			)
		)
		(pin "9"
			(uuid "279182e3-3bf0-40c6-a61e-9ac5e2c040d0")
		)
		(pin "6"
			(uuid "c4b307fc-12e5-4d17-a3c6-dfff81adb068")
		)
		(pin "3"
			(uuid "64135fc9-8961-4a9f-9a72-af45854adcc0")
		)
		(pin "1"
			(uuid "9fd0f5dc-43b1-4279-be8f-dc473acb53be")
		)
		(pin "5"
			(uuid "f04edeae-c777-48cb-a0a8-2888861d6cbc")
		)
		(pin "26"
			(uuid "73bbc2c5-89a2-4ac4-b5d2-cb418ba6521f")
		)
		(pin "4"
			(uuid "73783991-04a9-4fa7-9dfb-fb24a481881f")
		)
		(pin "24"
			(uuid "921e2d25-ef60-4c62-846b-2ef56d367a53")
		)
		(pin "11"
			(uuid "572bf5af-9c37-483d-97c8-d8ab799e843a")
		)
		(pin "8"
			(uuid "76d3d77a-94c0-4aa1-915e-8101139ae3e1")
		)
		(pin "28"
			(uuid "d6662299-b01d-4c9d-8ac9-dea29fb292dd")
		)
		(pin "17"
			(uuid "b43d9c9b-adcd-4b5e-83bf-527f8a1e4f77")
		)
		(pin "23"
			(uuid "f0fcda3d-8775-4f7c-aa8c-b246966dd7c9")
		)
		(pin "13"
			(uuid "f5b6a468-b5c4-403e-91bf-eb58a4cc22f4")
		)
		(pin "25"
			(uuid "204a2ab4-4200-4280-82f8-1ad4f5419edc")
		)
		(pin "2"
			(uuid "58849fa3-fe27-495a-821e-d6f9f6fba4e3")
		)
		(pin "7"
			(uuid "55d10c5a-3a0c-4b4e-930b-857b175a08cd")
		)
		(pin "10"
			(uuid "22d42bd1-5288-409b-aafc-9c47a89a93e6")
		)
		(pin "15"
			(uuid "3a8a53eb-c247-4fd3-a989-52fb1a4134db")
		)
		(pin "18"
			(uuid "356a3d2c-5b83-4984-8349-4c447ec0d7cc")
		)
		(pin "12"
			(uuid "ef5f0d6e-06eb-421b-93dc-85ffe7973c20")
		)
		(pin "21"
			(uuid "ddf6364d-57c2-45f4-ab91-c25a288bf87e")
		)
		(pin "27"
			(uuid "c4d91ee1-7d85-4693-aed8-0b3b49137cc9")
		)
		(pin "22"
			(uuid "dd327ea3-ff25-412d-8f71-605618f7e997")
		)
		(pin "20"
			(uuid "9e6ed549-ba2b-4d28-a02b-151ebe3e0448")
		)
		(pin "16"
			(uuid "55bbcffa-29b5-4401-839e-be4971fdd9ad")
		)
		(pin "14"
			(uuid "fa073b50-9b72-44b9-9e53-5a784e2d43e5")
		)
		(pin "29"
			(uuid "036aeb4a-fa40-4969-962d-7f4f4f04a872")
		)
		(pin "30"
			(uuid "e76ea266-4eed-4183-8bf1-3f2bcf7a4be0")
		)
		(pin "19"
			(uuid "0f257dc5-b58d-4751-889e-a1777948b4db")
		)
		(instances
			(project "manipulyator"
				(path "/59ab5fdf-8303-4773-966e-0f1c7a8a9c26"
					(reference "A4")
					(unit 1)
				)
			)
		)
	)
	(symbol
		(lib_id "Driver_Motor:Pololu_Breakout_DRV8825")
		(at 69.85 54.61 0)
		(unit 1)
		(exclude_from_sim no)
		(in_bom yes)
		(on_board yes)
		(dnp no)
		(fields_autoplaced yes)
		(uuid "6ed97d19-c917-411e-a127-8accb0c96ccf")
		(property "Reference" "A1"
			(at 72.0441 36.83 0)
			(effects
				(font
					(size 1.27 1.27)
				)
				(justify left)
			)
		)
		(property "Value" "Pololu_Breakout_DRV8825"
			(at 72.0441 39.37 0)
			(effects
				(font
					(size 1.27 1.27)
				)
				(justify left)
			)
		)
		(property "Footprint" "Module:Pololu_Breakout-16_15.2x20.3mm"
			(at 74.93 74.93 0)
			(effects
				(font
					(size 1.27 1.27)
				)
				(justify left)
				(hide yes)
			)
		)
		(property "Datasheet" "https://www.pololu.com/product/2982"
			(at 72.39 62.23 0)
			(effects
				(font
					(size 1.27 1.27)
				)
				(hide yes)
			)
		)
		(property "Description" ""
			(at 69.85 54.61 0)
			(effects
				(font
					(size 1.27 1.27)
				)
				(hide yes)
			)
		)
		(pin "5"
			(uuid "2c62341b-695f-4336-a763-bf342c636f66")
		)
		(pin "6"
			(uuid "7c5cc869-451b-460a-8d9b-109438b2675f")
		)
		(pin "14"
			(uuid "6d8ced76-24aa-4dad-90f7-7305ec42c99d")
		)
		(pin "15"
			(uuid "e26e1739-6ac8-44d2-ad1b-41057cf756b1")
		)
		(pin "12"
			(uuid "1e52ced8-0172-4f58-92c4-bc30b36782b8")
		)
		(pin "10"
			(uuid "44f3693f-5881-484e-8c60-27ea4071f17a")
		)
		(pin "1"
			(uuid "577c82b3-c56a-4db4-8365-3faf3838469c")
		)
		(pin "11"
			(uuid "a0614013-8f8d-430f-8487-70ee851d4140")
		)
		(pin "13"
			(uuid "fa27db6b-887a-4520-89a3-fb68f1c79ed4")
		)
		(pin "7"
			(uuid "77dfdc72-4768-4b9b-8ae8-72575866b758")
		)
		(pin "8"
			(uuid "cfab6a79-f257-4b54-baf0-95d33f114799")
		)
		(pin "16"
			(uuid "25ab9e9b-6a78-4d95-a08e-fee26d165ccd")
		)
		(pin "9"
			(uuid "463b778a-a4be-44f0-978a-1ed9dd9c0768")
		)
		(pin "4"
			(uuid "0e35bd2d-acb8-43f9-8180-efbab5a8ab65")
		)
		(pin "2"
			(uuid "321ac3fc-7ab6-4685-a5c2-21de235000bd")
		)
		(pin "3"
			(uuid "df27c000-8f42-4571-a354-b09fcec743ef")
		)
		(instances
			(project "manipulyator"
				(path "/59ab5fdf-8303-4773-966e-0f1c7a8a9c26"
					(reference "A1")
					(unit 1)
				)
			)
		)
	)
	(symbol
		(lib_id "Driver_Motor:Pololu_Breakout_DRV8825")
		(at 236.22 54.61 0)
		(unit 1)
		(exclude_from_sim no)
		(in_bom yes)
		(on_board yes)
		(dnp no)
		(fields_autoplaced yes)
		(uuid "96b6ce84-8f74-4d1e-a87d-1abda3148f84")
		(property "Reference" "A3"
			(at 238.4141 36.83 0)
			(effects
				(font
					(size 1.27 1.27)
				)
				(justify left)
			)
		)
		(property "Value" "Pololu_Breakout_DRV8825"
			(at 238.4141 39.37 0)
			(effects
				(font
					(size 1.27 1.27)
				)
				(justify left)
			)
		)
		(property "Footprint" "Module:Pololu_Breakout-16_15.2x20.3mm"
			(at 241.3 74.93 0)
			(effects
				(font
					(size 1.27 1.27)
				)
				(justify left)
				(hide yes)
			)
		)
		(property "Datasheet" "https://www.pololu.com/product/2982"
			(at 238.76 62.23 0)
			(effects
				(font
					(size 1.27 1.27)
				)
				(hide yes)
			)
		)
		(property "Description" ""
			(at 236.22 54.61 0)
			(effects
				(font
					(size 1.27 1.27)
				)
				(hide yes)
			)
		)
		(pin "5"
			(uuid "ff49d9f8-5582-4f13-b40c-6c8ca39e42ad")
		)
		(pin "6"
			(uuid "393ab2f5-b8ae-4d70-b172-5fce62aaae64")
		)
		(pin "14"
			(uuid "12a105cd-cd8a-4ced-b4d0-7331647ba4da")
		)
		(pin "15"
			(uuid "156ae222-7ef9-4adb-9895-411c6d8c7bfc")
		)
		(pin "12"
			(uuid "2113bbb6-54f1-4ebb-b9f7-47e25294c101")
		)
		(pin "10"
			(uuid "31557124-2227-45e6-9004-428594f269aa")
		)
		(pin "1"
			(uuid "28a87425-f694-44ce-a435-40bfb83202c3")
		)
		(pin "11"
			(uuid "90345d8c-d671-4d74-9ee5-5f32d6b29b2d")
		)
		(pin "13"
			(uuid "fe4f4a35-12c8-4a46-9e03-4e8b72180238")
		)
		(pin "7"
			(uuid "a6ff3a6f-48de-445e-80bb-1e55223a1115")
		)
		(pin "8"
			(uuid "72dafaf7-c4ed-45f5-937c-ac5b367169fb")
		)
		(pin "16"
			(uuid "041ea146-fb9e-40e1-ba9b-0691e3e84411")
		)
		(pin "9"
			(uuid "1710f54d-50ed-4cbb-b593-6283ac941bc4")
		)
		(pin "4"
			(uuid "4822b071-f354-4222-b0d9-31ced674256a")
		)
		(pin "2"
			(uuid "09583f2b-c6ef-4bd7-80cc-e914fdfe7a8a")
		)
		(pin "3"
			(uuid "07a5e377-80a4-4748-8a9b-5728b97fdc35")
		)
		(instances
			(project "manipulyator"
				(path "/59ab5fdf-8303-4773-966e-0f1c7a8a9c26"
					(reference "A3")
					(unit 1)
				)
			)
		)
	)
	(symbol
		(lib_id "Device:C_Polarized_Small")
		(at 207.01 58.42 0)
		(unit 1)
		(exclude_from_sim no)
		(in_bom yes)
		(on_board yes)
		(dnp no)
		(uuid "a608bb1e-f610-4fad-a900-f047203439da")
		(property "Reference" "C3"
			(at 203.2 54.61 0)
			(effects
				(font
					(size 1.27 1.27)
				)
				(justify left)
			)
		)
		(property "Value" "330mkf"
			(at 198.12 60.96 0)
			(effects
				(font
					(size 1.27 1.27)
				)
				(justify left)
			)
		)
		(property "Footprint" "Capacitor_THT:CP_Radial_D10.0mm_P3.50mm"
			(at 207.01 58.42 0)
			(effects
				(font
					(size 1.27 1.27)
				)
				(hide yes)
			)
		)
		(property "Datasheet" "~"
			(at 207.01 58.42 0)
			(effects
				(font
					(size 1.27 1.27)
				)
				(hide yes)
			)
		)
		(property "Description" ""
			(at 207.01 58.42 0)
			(effects
				(font
					(size 1.27 1.27)
				)
				(hide yes)
			)
		)
		(pin "2"
			(uuid "f01aa180-c9ff-4fd7-b709-5fb6f81e573d")
		)
		(pin "1"
			(uuid "d1d7d34a-32f8-4416-8097-bde9e091a9de")
		)
		(instances
			(project "manipulyator"
				(path "/59ab5fdf-8303-4773-966e-0f1c7a8a9c26"
					(reference "C3")
					(unit 1)
				)
			)
		)
	)
	(symbol
		(lib_id "Connector:Conn_01x08_Socket")
		(at 157.48 114.3 0)
		(unit 1)
		(exclude_from_sim no)
		(in_bom yes)
		(on_board yes)
		(dnp no)
		(fields_autoplaced yes)
		(uuid "ac7e3491-6dc2-4556-a72a-fe6a585aaf72")
		(property "Reference" "J6"
			(at 158.75 114.2999 0)
			(effects
				(font
					(size 1.27 1.27)
				)
				(justify left)
			)
		)
		(property "Value" "Conn_01x08_Socket"
			(at 158.75 116.8399 0)
			(effects
				(font
					(size 1.27 1.27)
				)
				(justify left)
			)
		)
		(property "Footprint" ""
			(at 157.48 114.3 0)
			(effects
				(font
					(size 1.27 1.27)
				)
				(hide yes)
			)
		)
		(property "Datasheet" "~"
			(at 157.48 114.3 0)
			(effects
				(font
					(size 1.27 1.27)
				)
				(hide yes)
			)
		)
		(property "Description" "Generic connector, single row, 01x08, script generated"
			(at 157.48 114.3 0)
			(effects
				(font
					(size 1.27 1.27)
				)
				(hide yes)
			)
		)
		(pin "5"
			(uuid "9ae12e64-e0e0-40f7-a347-92f9bddc2f0a")
		)
		(pin "7"
			(uuid "e5729ae1-a10b-4383-aa9c-88c2bc923af6")
		)
		(pin "3"
			(uuid "cdda6153-e3f7-4531-8d33-af18f8b3eaef")
		)
		(pin "1"
			(uuid "8334ba43-2cb7-452c-b62b-0735511c0b6a")
		)
		(pin "2"
			(uuid "2849240c-48d1-4c11-ac09-38e7f4b1220c")
		)
		(pin "6"
			(uuid "5b829b35-4d9b-492c-a269-6aeb923acd16")
		)
		(pin "4"
			(uuid "373c83ef-33fb-47da-aa8e-860ab25d80b7")
		)
		(pin "8"
			(uuid "ea9822da-52dc-4d6a-abb3-29f9cf93f0e2")
		)
		(instances
			(project "manipulyator"
				(path "/59ab5fdf-8303-4773-966e-0f1c7a8a9c26"
					(reference "J6")
					(unit 1)
				)
			)
		)
	)
	(sheet_instances
		(path "/"
			(page "1")
		)
	)
)
