# Alias OBJ Model File
# Exported from SketchUp, (c) 2000-2012 Trimble Navigation Limited
# File units = millimeters

mtllib servo_djostic_1.mtl

g Mesh1 Group1 Model

usemtl FrontColor
v 127.197 7.76795 -106.573
vt -0.0354331 0.5265
vn 0 0.866025 0.5
v 127.197 7.56815 -106.09
vt -0.0354331 0.505945
vn 0 0.965926 0.258819
v 128.497 7.56815 -106.09
vt 0.015748 0.505945
v 128.497 7.76795 -106.573
vt 0.015748 0.5265
f 1/1/1 2/2/2 3/3/2 4/4/1 

v 127.197 3 -107.573
vt -0.531496 5.41234e-016
vn -1 1.94339e-032 -1.22275e-016
vt -0.473135 0.179848
vt -0.492126 0.187715
f 5/5/3 2/6/3 1/7/3

v 127.197 7.5 -105.573
vt -0.452756 0.177165
f 5/5/3 6/8/3 2/6/3

v 127.197 7.56815 -105.055
vt -0.432376 0.179848
f 5/5/3 7/9/3 6/8/3

v 127.197 7.76795 -104.573
vt -0.413386 0.187715
f 5/5/3 8/10/3 7/9/3

v 127.197 8.08579 -104.159
vt -0.397078 0.200228
f 5/5/3 9/11/3 8/10/3

v 127.197 8.5 -103.841
vt -0.384565 0.216535
f 5/5/3 10/12/3 9/11/3

v 127.197 3 -94.0728
vt 4.33258e-018 7.77156e-016
f 11/13/3 10/12/3 5/5/3

v 127.197 8.98236 -103.641
vt -0.376699 0.235526
f 10/12/3 11/13/3 12/14/3

v 127.197 9.5 -103.573
vt -0.374016 0.255906
f 12/14/3 11/13/3 13/15/3

v 127.197 10.0176 -103.641
vt -0.376699 0.276285
f 11/13/3 14/16/3 13/15/3

v 127.197 10.5 -103.841
vt -0.384565 0.295276
f 11/13/3 15/17/3 14/16/3

v 127.197 10.9142 -104.159
vt -0.397078 0.311583
f 11/13/3 16/18/3 15/17/3

v 127.197 16 -94.0728
vt 4.33258e-018 0.511811
f 17/19/3 16/18/3 11/13/3

v 127.197 11.2321 -104.573
vt -0.413386 0.324096
f 16/18/3 17/19/3 18/20/3

v 127.197 11.4319 -105.055
vt -0.432376 0.331963
f 18/20/3 17/19/3 19/21/3

v 127.197 16 -127.073
vt -1.29921 0.511811
f 19/21/3 17/19/3 20/22/3

vt -0.0354331 8.32271e-017
vn -9.30139e-017 1 1.62613e-016
v 133.897 16 -94.0728
vt 0.228346 8.32271e-017
v 133.897 16 -98.8728
vt 0.228346 0.188976
v 130.897 16 -98.8728
vt 0.110236 0.188976
v 130.897 16 -122.273
vt 0.110236 1.11024
v 147.097 16 -122.273
vt 0.748031 1.11024
v 147.097 16 -127.073
vt 0.748031 1.29921
vt -0.0354331 1.29921
f 17/23/4 21/24/4 22/25/4 23/26/4 24/27/4 25/28/4 26/29/4 20/30/4 

vt -0.0354331 7.77156e-016
vn 8.47702e-017 4.49412e-017 1
v 134.647 3 -94.0728
vt 0.257874 5.55112e-016
v 137.647 3 -94.0728
vt 0.375984 4.44089e-016
v 140.647 3 -94.0728
vt 0.494094 3.33067e-016
v 147.097 3 -94.0728
vt 0.748031 1.11022e-016
v 147.097 16 -94.0728
vt 0.748031 0.511811
v 136.897 16 -94.0728
vt 0.346457 0.511811
v 136.897 8 -94.0728
vt 0.346457 0.19685
v 133.897 8 -94.0728
vt 0.228346 0.19685
vt 0.228346 0.511811
vt -0.0354331 0.511811
f 11/31/5 27/32/5 28/33/5 29/34/5 30/35/5 31/36/5 32/37/5 33/38/5 34/39/5 21/40/5 17/41/5 

vt 0.0354331 -3.29083e-031
vn -9.94075e-016 -1 4.43549e-016
vt 0.0354331 0.531496
v 130.897 3 -107.573
vt -0.110236 0.531496
v 130.897 3 -98.8728
vt -0.110236 0.188976
v 134.647 3 -98.8728
vt -0.257874 0.188976
vt -0.257874 -3.59921e-031
f 11/42/6 5/43/6 35/44/6 36/45/6 37/46/6 27/47/6 

v 71.1471 2.81997e-015 -107.573
vt -2.24213 -0.11811
vn 0 0 1
v 134.647 4.22995e-015 -107.573
vt 0.257874 -0.11811
v 134.647 3 -107.573
vt 0.110236 3.33067e-016
vt -0.0354331 5.41234e-016
v 71.1471 3 -107.573
vt -2.24213 4.44089e-016
f 38/48/7 39/49/7 40/32/7 35/50/7 5/51/7 41/52/7 

v 204.147 0 -107.573
vt -2.99409 0.531496
vn -2.59669e-017 -1 -2.36589e-017
v 140.647 1.40998e-015 -107.573
vt -0.494094 0.531496
v 140.647 2.81997e-015 -44.0728
vt -0.494094 -1.9685
v 134.647 2.81997e-015 -44.0728
vt -0.257874 -1.9685
vt -0.257874 0.531496
vt 2.24213 0.531496
v 71.1471 2.81997e-015 -113.573
vt 2.24213 0.767717
v 134.647 5.63993e-015 -113.573
vt -0.257874 0.767717
v 134.647 2.81997e-015 -177.073
vt -0.257874 3.26772
v 140.647 2.81997e-015 -177.073
vt -0.494094 3.26772
v 140.647 2.81997e-015 -113.573
vt -0.494094 0.767717
v 204.147 0 -113.573
vt -2.99409 0.767717
f 42/53/8 43/54/8 44/55/8 45/56/8 39/57/8 38/58/8 46/59/8 47/60/8 48/61/8 49/62/8 50/63/8 51/64/8 

v 204.147 3 -107.573
vt 2.99409 4.44089e-016
v 140.647 3 -107.573
vt 0.494094 4.85723e-016
vt 0.494094 -0.11811
vt 2.99409 -0.11811
f 52/65/7 53/66/7 43/67/7 42/68/7 

v 140.647 3 -98.8728
vt 0.494094 0.188976
vn 2.00237e-017 1 3.61295e-016
vt 0.494094 0.531496
vt 2.99409 0.531496
v 204.147 3 -113.573
vt 2.99409 0.767717
v 140.647 3 -113.573
vt 0.494094 0.767717
v 140.647 3 -122.273
vt 0.494094 1.11024
v 134.647 3 -122.273
vt 0.257874 1.11024
v 134.647 3 -113.573
vt 0.257874 0.767717
v 130.897 3 -113.573
vt 0.110236 0.767717
vt 0.110236 0.531496
vt 0.257874 0.531496
vt 0.257874 0.188976
f 54/69/9 53/70/9 52/71/9 55/72/9 56/73/9 57/74/9 58/75/9 59/76/9 60/77/9 35/78/9 40/79/9 37/80/9 

vt 0.531496 4.85723e-016
vn 1 0 -0
vt 0.188976 3.33067e-016
vt 0 3.33067e-016
v 140.647 3 -44.0728
vt -1.9685 5.55112e-016
vt -1.9685 -0.11811
vt 0.531496 -0.11811
f 53/81/10 54/82/10 29/83/10 61/84/10 44/85/10 43/86/10 

vt -0.748031 1.50369e-031
vn -6.62637e-016 -1 -2.47849e-016
vt -0.494094 1.63697e-031
vt -0.494094 0.188976
v 147.097 3 -98.8728
vt -0.748031 0.188976
f 30/87/11 29/88/11 54/89/11 62/90/11 

vt -0.748031 2.00149e-016
vn -1.39274e-016 1.15865e-016 -1
vt -0.494094 3.11171e-016
vt -0.257874 3.11171e-016
vt -0.110236 -2.18957e-017
vt -0.110236 0.511811
vt -0.228346 0.511811
v 133.897 8 -98.8728
vt -0.228346 0.19685
v 136.897 8 -98.8728
vt -0.346457 0.19685
v 136.897 16 -98.8728
vt -0.346457 0.511811
v 147.097 16 -98.8728
vt -0.748031 0.511811
f 62/91/12 54/92/12 37/93/12 36/94/12 23/95/12 22/96/12 63/97/12 64/98/12 65/99/12 66/100/12 

vt 0.188976 0
v 130.897 7.8 -102.628
vt 0.336831 0.188976
vt 0.188976 0.511811
f 36/101/10 67/102/10 23/103/10

vt 0.531496 3.33067e-016
f 67/102/10 36/101/10 35/104/10

v 130.897 6.1 -105.573
vt 0.452756 0.122047
f 67/102/10 35/104/10 68/105/10

v 130.897 7.8 -108.517
vt 0.568681 0.188976
f 68/105/10 35/104/10 69/106/10

vt 0.767717 4.02456e-016
f 69/106/10 35/104/10 60/107/10

v 130.897 11.2 -108.517
vt 0.568681 0.322835
f 69/106/10 60/107/10 70/108/10

vt 1.11024 0.511811
f 24/109/10 70/108/10 60/107/10

v 130.897 12.9 -105.573
vt 0.452756 0.389764
f 24/109/10 71/110/10 70/108/10

f 23/103/10 71/110/10 24/109/10

v 130.897 11.2 -102.628
vt 0.336831 0.322835
f 71/110/10 23/103/10 72/111/10

f 72/111/10 23/103/10 67/102/10

vt -0.110236 0.322835
vn 0 0 -1
v 128.497 7.8 -102.628
vt -0.015748 0.188976
v 128.497 11.2 -102.628
vt -0.015748 0.322835
f 72/112/13 67/45/13 73/113/13 74/114/13 

vt -0.110236 -0.197216
vn 0 0.866025 -0.5
vt -0.110236 -0.331074
v 128.497 6.1 -105.573
vt -0.015748 -0.331074
vt -0.015748 -0.197216
f 67/115/14 68/116/14 75/117/14 73/118/14 

vt 0.110236 0.453122
vt 0.110236 0.58698
v 128.497 7.8 -108.517
vt 0.015748 0.58698
vt 0.015748 0.453122
f 68/119/1 69/120/1 76/121/1 75/122/1 

vt 0.110236 0.322835
v 128.497 11.2 -108.517
vt 0.015748 0.322835
vt 0.015748 0.188976
f 69/26/7 70/123/7 77/124/7 76/125/7 

vt 0.110236 -0.331074
vn 0 -0.866025 0.5
vt 0.110236 -0.197216
v 128.497 12.9 -105.573
vt 0.015748 -0.197216
vt 0.015748 -0.331074
f 70/126/15 71/127/15 78/128/15 77/129/15 

vt -0.110236 0.58698
vn 0 -0.866025 -0.5
vt -0.110236 0.453122
vt -0.015748 0.453122
vt -0.015748 0.58698
f 71/130/16 72/131/16 74/132/16 78/133/16 

v 128.497 10.5 -103.841
vt 0.384565 0.295276
f 74/111/10 79/134/10 78/110/10

v 128.497 10.0176 -103.641
vt 0.376699 0.276285
f 79/134/10 74/111/10 80/135/10

v 128.497 9.5 -103.573
vt 0.374016 0.255906
f 80/135/10 74/111/10 81/136/10

v 128.497 8.98236 -103.641
vt 0.376699 0.235526
f 74/111/10 82/137/10 81/136/10

v 128.497 8.5 -103.841
vt 0.384565 0.216535
f 74/111/10 83/138/10 82/137/10

f 73/102/10 83/138/10 74/111/10

f 83/138/10 73/102/10 75/105/10

v 128.497 8.08579 -104.159
vt 0.397078 0.200228
f 83/138/10 75/105/10 84/139/10

v 128.497 7.76795 -104.573
vt 0.413386 0.187715
f 84/139/10 75/105/10 85/140/10

v 128.497 7.56815 -105.055
vt 0.432376 0.179848
f 85/140/10 75/105/10 86/141/10

v 128.497 7.5 -105.573
vt 0.452756 0.177165
f 86/141/10 75/105/10 87/142/10

f 87/142/10 75/105/10 76/106/10

vt 0.473135 0.179848
f 87/142/10 76/106/10 3/143/10

vt 0.492126 0.187715
f 3/143/10 76/106/10 4/144/10

v 128.497 8.08579 -106.987
vt 0.508434 0.200228
f 4/144/10 76/106/10 88/145/10

v 128.497 8.5 -107.305
vt 0.520947 0.216535
f 88/145/10 76/106/10 89/146/10

v 128.497 8.98236 -107.505
vt 0.528813 0.235526
f 89/146/10 76/106/10 90/147/10

v 128.497 9.5 -107.573
vt 0.531496 0.255906
f 90/147/10 76/106/10 91/148/10

f 77/108/10 91/148/10 76/106/10

v 128.497 10.0176 -107.505
vt 0.528813 0.276285
f 77/108/10 92/149/10 91/148/10

v 128.497 10.5 -107.305
vt 0.520947 0.295276
f 77/108/10 93/150/10 92/149/10

v 128.497 10.9142 -106.987
vt 0.508434 0.311583
f 77/108/10 94/151/10 93/150/10

v 128.497 11.2321 -106.573
vt 0.492126 0.324096
f 77/108/10 95/152/10 94/151/10

v 128.497 11.4319 -106.09
vt 0.473135 0.331963
f 77/108/10 96/153/10 95/152/10

f 78/110/10 96/153/10 77/108/10

v 128.497 11.5 -105.573
vt 0.452756 0.334646
f 78/110/10 97/154/10 96/153/10

v 128.497 11.4319 -105.055
vt 0.432376 0.331963
f 78/110/10 98/155/10 97/154/10

v 128.497 11.2321 -104.573
vt 0.413386 0.324096
f 78/110/10 99/156/10 98/155/10

v 128.497 10.9142 -104.159
vt 0.397078 0.311583
f 78/110/10 100/157/10 99/156/10

f 78/110/10 79/134/10 100/157/10

vt 0.0354331 0.468366
vn 0 -0.5 -0.866025
vt 0.0354331 0.488921
vn 0 -0.707107 -0.707107
vt -0.015748 0.488921
vt -0.015748 0.468366
f 15/158/17 16/159/18 100/160/18 79/161/17 

vt 0.0354331 0.504703
vt 0.0354331 0.525258
vt -0.015748 0.525258
vt -0.015748 0.504703
f 16/162/18 18/163/16 99/164/16 100/165/18 

vt 0.0354331 0.505945
vt 0.0354331 0.5265
vn 0 -0.965926 -0.258819
vt -0.015748 0.5265
vt -0.015748 0.505945
f 18/166/16 19/167/19 98/168/19 99/169/16 

vt 0.0354331 0.472007
v 127.197 11.5 -105.573
vt 0.0354331 0.492563
vn 0 -1 -3.88992e-014
vt -0.015748 0.492563
vt -0.015748 0.472007
f 19/170/19 101/171/20 97/172/20 98/173/19 

vt -0.452756 0.334646
f 19/21/3 20/22/3 101/174/3

v 127.197 11.4319 -106.09
vt -0.473135 0.331963
f 101/174/3 20/22/3 102/175/3

v 127.197 11.2321 -106.573
vt -0.492126 0.324096
f 102/175/3 20/22/3 103/176/3

v 127.197 10.9142 -106.987
vt -0.508434 0.311583
f 103/176/3 20/22/3 104/177/3

v 127.197 10.5 -107.305
vt -0.520947 0.295276
f 104/177/3 20/22/3 105/178/3

v 127.197 10.0176 -107.505
vt -0.528813 0.276285
f 105/178/3 20/22/3 106/179/3

v 127.197 9.5 -107.573
vt -0.531496 0.255906
f 106/179/3 20/22/3 107/180/3

v 127.197 3 -113.573
vt -0.767717 5.41234e-016
f 107/180/3 20/22/3 108/181/3

v 127.197 9.875 -124.023
vt -1.17915 0.270669
f 108/181/3 20/22/3 109/182/3

v 127.197 10.0303 -124.143
vt -1.18385 0.276785
f 109/182/3 20/22/3 110/183/3

v 127.197 10.1495 -124.298
vt -1.18996 0.281477
f 110/183/3 20/22/3 111/184/3

v 127.197 10.2244 -124.479
vt -1.19708 0.284427
f 111/184/3 20/22/3 112/185/3

v 127.197 10.25 -124.673
vt -1.20472 0.285433
f 112/185/3 20/22/3 113/186/3

v 127.197 10.2244 -124.867
vt -1.21237 0.284427
f 113/186/3 20/22/3 114/187/3

v 127.197 10.1495 -125.048
vt -1.21949 0.281477
f 114/187/3 20/22/3 115/188/3

v 127.197 10.0303 -125.203
vt -1.2256 0.276785
f 115/188/3 20/22/3 116/189/3

v 127.197 9.875 -125.322
vt -1.2303 0.270669
f 116/189/3 20/22/3 117/190/3

v 127.197 9.69411 -125.397
vt -1.23325 0.263548
f 117/190/3 20/22/3 118/191/3

v 127.197 9.5 -125.423
vt -1.23425 0.255906
f 118/191/3 20/22/3 119/192/3

v 127.197 3 -127.073
vt -1.29921 7.77156e-016
f 120/193/3 119/192/3 20/22/3

v 127.197 9.30589 -125.397
vt -1.23325 0.248263
f 120/193/3 121/194/3 119/192/3

v 127.197 9.125 -125.322
vt -1.2303 0.241142
f 120/193/3 122/195/3 121/194/3

v 127.197 8.96967 -125.203
vt -1.2256 0.235026
f 120/193/3 123/196/3 122/195/3

v 127.197 8.85048 -125.048
vt -1.21949 0.230334
f 120/193/3 124/197/3 123/196/3

v 127.197 8.77556 -124.867
vt -1.21237 0.227384
f 120/193/3 125/198/3 124/197/3

v 127.197 8.75 -124.673
vt -1.20472 0.226378
f 120/193/3 126/199/3 125/198/3

v 127.197 8.77556 -124.479
vt -1.19708 0.227384
f 120/193/3 127/200/3 126/199/3

v 127.197 8.85048 -124.298
vt -1.18996 0.230334
f 120/193/3 128/201/3 127/200/3

v 127.197 8.96967 -124.143
vt -1.18385 0.235026
f 120/193/3 129/202/3 128/201/3

v 127.197 9.125 -124.023
vt -1.17915 0.241142
f 120/193/3 130/203/3 129/202/3

f 108/181/3 130/203/3 120/193/3

v 127.197 9.30589 -123.948
vt -1.1762 0.248263
f 130/203/3 108/181/3 131/204/3

v 127.197 9.5 -123.923
vt -1.1752 0.255906
f 131/204/3 108/181/3 132/205/3

v 127.197 9.69411 -123.948
vt -1.1762 0.263548
f 108/181/3 133/206/3 132/205/3

f 108/181/3 109/182/3 133/206/3

v 147.097 9.875 -124.023
vt -0.748031 0.701308
v 147.097 9.69411 -123.948
vt -0.748031 0.6936
vn 0 -0.258819 -0.965926
vt 0.0354331 0.6936
vt 0.0354331 0.701308
f 134/207/17 135/208/21 133/209/21 109/210/17 

vt 1.17915 0.270669
vn 1 1.54401e-031 -7.44674e-032
vt 1.1762 0.263548
f 134/211/22 25/109/22 135/212/22

vt 1.29921 0.511811
f 25/109/22 134/211/22 26/213/22

v 147.097 10.0303 -124.143
vt 1.18385 0.276785
f 26/213/22 134/211/22 136/214/22

vt -0.748031 0.940267
vt -0.748031 0.932559
vt 0.0354331 0.932559
vt 0.0354331 0.940267
f 136/215/18 134/216/17 109/217/17 110/218/18 

v 147.097 10.1495 -124.298
vt -0.748031 1.11541
vt -0.748031 1.1077
vt 0.0354331 1.1077
vt 0.0354331 1.11541
f 137/219/16 136/220/18 110/221/18 111/222/16 

vt 1.18996 0.281477
f 26/213/22 136/214/22 137/223/22

v 147.097 10.2244 -124.479
vt 1.19708 0.284427
f 26/213/22 137/223/22 138/224/22

vt -0.748031 1.21481
vt -0.748031 1.2071
vt 0.0354331 1.2071
vt 0.0354331 1.21481
f 138/225/19 137/226/16 111/227/16 112/228/19 

v 147.097 10.25 -124.673
vt -0.748031 1.23167
vn 0 -1 -0
vt -0.748031 1.22397
vt 0.0354331 1.22397
vt 0.0354331 1.23167
f 139/229/23 138/230/19 112/231/19 113/232/23 

vt 1.20472 0.285433
f 26/213/22 138/224/22 139/233/22

v 147.097 10.2244 -124.867
vt 1.21237 0.284427
f 26/213/22 139/233/22 140/234/22

vt 0.748031 -1.16487
vn 0 -0.965926 0.258819
vt 0.748031 -1.15716
vt -0.0354331 -1.15716
vt -0.0354331 -1.16487
f 140/235/24 139/236/23 113/237/23 114/238/24 

v 147.097 10.1495 -125.048
vt 0.748031 -1.01894
vt 0.748031 -1.01124
vt -0.0354331 -1.01124
vt -0.0354331 -1.01894
f 141/239/15 140/240/24 114/241/24 115/242/15 

vt 1.21949 0.281477
f 26/213/22 140/234/22 141/243/22

v 147.097 10.0303 -125.203
vt 1.2256 0.276785
f 26/213/22 141/243/22 142/244/22

vt 0.748031 -0.803841
vn 0 -0.707107 0.707107
vt 0.748031 -0.796133
vt -0.0354331 -0.796133
vt -0.0354331 -0.803841
f 142/245/25 141/246/15 115/247/15 116/248/25 

v 147.097 9.875 -125.322
vt 0.748031 -0.53422
vn 0 -0.5 0.866025
vt 0.748031 -0.526512
vt -0.0354331 -0.526512
vt -0.0354331 -0.53422
f 143/249/26 142/250/25 116/251/25 117/252/26 

vt 1.2303 0.270669
f 26/213/22 142/244/22 143/253/22

v 147.097 9.69411 -125.397
vt 1.23325 0.263548
f 26/213/22 143/253/22 144/254/22

vt 0.748031 -0.228456
vn 0 -0.258819 0.965926
vt 0.748031 -0.220748
vt -0.0354331 -0.220748
vt -0.0354331 -0.228456
f 144/255/27 143/256/26 117/257/26 118/258/27 

v 147.097 9.5 -125.423
vt 0.748031 0.092614
vt 0.748031 0.100322
vt -0.0354331 0.100322
vt -0.0354331 0.092614
f 145/259/7 144/260/27 118/261/27 119/262/7 

vt 1.23425 0.255906
f 26/213/22 144/254/22 145/263/22

v 147.097 3 -127.073
vt 1.29921 7.77156e-016
f 26/213/22 145/263/22 146/264/22

v 147.097 9.30589 -125.397
vt 1.23325 0.248263
f 147/265/22 146/264/22 145/263/22

v 147.097 9.125 -125.322
vt 1.2303 0.241142
f 148/266/22 146/264/22 147/265/22

v 147.097 8.96967 -125.203
vt 1.2256 0.235026
f 149/267/22 146/264/22 148/266/22

v 147.097 8.85048 -125.048
vt 1.21949 0.230334
f 150/268/22 146/264/22 149/267/22

v 147.097 8.77556 -124.867
vt 1.21237 0.227384
f 151/269/22 146/264/22 150/268/22

v 147.097 8.75 -124.673
vt 1.20472 0.226378
f 152/270/22 146/264/22 151/269/22

v 147.097 8.77556 -124.479
vt 1.19708 0.227384
f 153/271/22 146/264/22 152/270/22

v 147.097 8.85048 -124.298
vt 1.18996 0.230334
f 154/272/22 146/264/22 153/271/22

v 147.097 8.96967 -124.143
vt 1.18385 0.235026
f 155/273/22 146/264/22 154/272/22

v 147.097 9.125 -124.023
vt 1.17915 0.241142
f 156/274/22 146/264/22 155/273/22

v 147.097 3 -122.273
vt 1.11024 6.66134e-016
f 156/274/22 157/275/22 146/264/22

v 147.097 9.30589 -123.948
vt 1.1762 0.248263
f 158/276/22 157/275/22 156/274/22

f 157/275/22 158/276/22 25/109/22

v 147.097 9.5 -123.923
vt 1.1752 0.255906
f 25/109/22 158/276/22 159/277/22

vt -0.748031 0.100322
vt -0.748031 0.092614
vn 0 0.258819 -0.965926
vt 0.0354331 0.092614
vt 0.0354331 0.100322
f 159/278/13 158/279/28 131/280/28 132/281/13 

vt -0.748031 -0.220748
vt -0.748031 -0.228456
vn 0 0.5 -0.866025
vt 0.0354331 -0.228456
vt 0.0354331 -0.220748
f 158/282/28 156/283/29 130/284/29 131/285/28 

vt -0.748031 -0.526512
vt -0.748031 -0.53422
vn 0 0.707107 -0.707107
vt 0.0354331 -0.53422
vt 0.0354331 -0.526512
f 156/286/29 155/287/30 129/288/30 130/289/29 

vt -0.748031 -0.796133
vt -0.748031 -0.803841
vt 0.0354331 -0.803841
vt 0.0354331 -0.796133
f 155/290/30 154/291/14 128/292/14 129/293/30 

vt -0.748031 -1.01124
vt -0.748031 -1.01894
vn 0 0.965926 -0.258819
vt 0.0354331 -1.01894
vt 0.0354331 -1.01124
f 154/294/14 153/295/31 127/296/31 128/297/14 

vt -0.748031 -1.15716
vt -0.748031 -1.16487
vn 0 1 -0
vt 0.0354331 -1.16487
vt 0.0354331 -1.15716
f 153/298/31 152/299/32 126/300/32 127/301/31 

vt 0.748031 1.22397
vt 0.748031 1.23167
vt -0.0354331 1.23167
vt -0.0354331 1.22397
f 152/302/32 151/303/2 125/304/2 126/305/32 

vt 0.748031 1.2071
vt 0.748031 1.21481
vt -0.0354331 1.21481
vt -0.0354331 1.2071
f 151/306/2 150/307/1 124/308/1 125/309/2 

vt 0.748031 1.1077
vt 0.748031 1.11541
vn 0 0.707107 0.707107
vt -0.0354331 1.11541
vt -0.0354331 1.1077
f 150/310/1 149/311/33 123/312/33 124/313/1 

vt 0.748031 0.932559
vt 0.748031 0.940267
vn 0 0.5 0.866025
vt -0.0354331 0.940267
vt -0.0354331 0.932559
f 149/314/33 148/315/34 122/316/34 123/317/33 

vt 0.748031 0.6936
vt 0.748031 0.701308
vn 0 0.258819 0.965926
vt -0.0354331 0.701308
vt -0.0354331 0.6936
f 148/318/34 147/319/35 121/320/35 122/321/34 

vt 0.748031 0.40711
vt 0.748031 0.414818
vt -0.0354331 0.414818
vt -0.0354331 0.40711
f 147/322/35 145/323/7 119/324/7 121/325/35 

vt -0.748031 0.414818
vt -0.748031 0.40711
vt 0.0354331 0.40711
vt 0.0354331 0.414818
f 135/326/21 159/327/13 132/328/13 133/329/21 

f 135/212/22 25/109/22 159/277/22

vt 0.257874 7.93632e-016
vn -7.67277e-016 3.98394e-017 1
vt 0.494094 6.54854e-016
vt 0.748031 7.10365e-016
vt 0.110236 0.511811
v 130.897 3 -122.273
vt 0.110236 4.8832e-016
f 58/330/36 57/331/36 157/332/36 25/36/36 24/333/36 160/334/36 

vt -0.748031 1.11024
vn 5.32843e-016 -1 -1.28514e-016
vt -0.494094 1.11024
v 140.647 3 -127.073
vt -0.494094 1.29921
vt -0.748031 1.29921
f 157/335/37 57/336/37 161/337/37 146/338/37 

v 140.647 3 -177.073
vt 3.26772 5.55112e-016
vt 1.29921 5.55112e-016
vt 1.11024 6.10623e-016
vt 0.767717 5.41234e-016
vt 0.767717 -0.11811
vt 3.26772 -0.11811
f 162/339/10 161/340/10 57/341/10 56/342/10 50/343/10 49/344/10 

v 134.647 3 -177.073
vt 0.257874 3.26772
vn 1.10889e-015 1 -1.3483e-016
v 134.647 3 -127.073
vt 0.257874 1.29921
vt 0.494094 1.29921
vt 0.494094 3.26772
f 163/345/38 164/346/38 161/347/38 162/348/38 

vt -0.767717 6.38378e-016
vn -1 0 -0
vt -1.11024 7.49401e-016
vt -1.29921 1.08247e-015
vt -3.26772 5.55112e-016
vt -3.26772 -0.11811
vt -0.767717 -0.11811
f 59/349/39 58/350/39 164/351/39 163/352/39 48/353/39 47/354/39 

vt -0.110236 1.11024
vn 6.47341e-016 -1 -7.01797e-016
vt -0.110236 0.767717
vt 0.0354331 0.767717
vt 0.0354331 1.29921
vt -0.257874 1.29921
vt -0.257874 1.11024
f 160/355/40 60/356/40 108/357/40 120/358/40 164/359/40 58/360/40 

vt 1.11024 4.44089e-016
f 24/109/10 60/107/10 160/361/10

vt -0.257874 6.38378e-016
vt -0.257874 -0.11811
vt 2.24213 -0.11811
v 71.1471 3 -113.573
vt 2.24213 4.44089e-016
vt 0.0354331 5.41234e-016
vt -0.110236 4.02456e-016
f 59/362/13 47/363/13 46/364/13 165/365/13 108/366/13 60/367/13 

vt -0.531496 5.67616e-016
vn -1 -5.50936e-017 -0
vt -0.767717 5.67616e-016
vt -0.531496 -0.11811
f 41/368/41 165/369/41 46/354/41 38/370/41 

vt -0.0354331 0.767717
vn -5.50936e-017 1 -1.09617e-031
vt -2.24213 0.767717
vt -2.24213 0.531496
vt -0.0354331 0.531496
f 108/371/42 165/372/42 41/373/42 5/374/42 

f 5/5/3 107/180/3 108/181/3

v 127.197 8.98236 -107.505
vt -0.528813 0.235526
f 5/5/3 166/375/3 107/180/3

v 127.197 8.5 -107.305
vt -0.520947 0.216535
f 5/5/3 167/376/3 166/375/3

v 127.197 8.08579 -106.987
vt -0.508434 0.200228
f 5/5/3 168/377/3 167/376/3

f 5/5/3 1/7/3 168/377/3

vt -0.0354331 0.525258
vt -0.0354331 0.504703
vt 0.015748 0.504703
vt 0.015748 0.525258
f 168/378/33 1/379/1 4/380/1 88/381/33 

vt -0.0354331 0.488921
vt -0.0354331 0.468366
vt 0.015748 0.468366
vt 0.015748 0.488921
f 167/382/34 168/383/33 88/384/33 89/385/34 

vt -0.0354331 0.419966
vt -0.0354331 0.39941
vt 0.015748 0.39941
vt 0.015748 0.419966
f 166/386/35 167/387/34 89/388/34 90/389/35 

vt -0.0354331 0.32309
vn 0 -4.35323e-014 1
vt -0.0354331 0.302535
vt 0.015748 0.302535
vt 0.015748 0.32309
f 107/390/43 166/391/35 90/392/35 91/393/43 

vt -0.0354331 0.204897
vt -0.0354331 0.184342
vt 0.015748 0.184342
vt 0.015748 0.204897
f 106/394/27 107/395/43 91/396/43 92/397/27 

vt -0.0354331 0.0734413
vt -0.0354331 0.052886
vt 0.015748 0.052886
vt 0.015748 0.0734413
f 105/398/26 106/399/27 92/400/27 93/401/26 

vt -0.0354331 -0.0623192
vt -0.0354331 -0.0828745
vt 0.015748 -0.0828745
vt 0.015748 -0.0623192
f 104/402/25 105/403/26 93/404/26 94/405/25 

vt -0.0354331 -0.193132
vt -0.0354331 -0.213688
vt 0.015748 -0.213688
vt 0.015748 -0.193132
f 103/406/15 104/407/25 94/408/25 95/409/15 

vt -0.0354331 -0.310083
vt -0.0354331 -0.330639
vt 0.015748 -0.330639
vt 0.015748 -0.310083
f 102/410/24 103/411/15 95/412/15 96/413/24 

vt -0.0354331 -0.405202
vt -0.0354331 -0.425758
vt 0.015748 -0.425758
vt 0.015748 -0.405202
f 101/414/20 102/415/24 96/416/24 97/417/20 

vt -0.748031 7.77156e-016
vt -0.494094 5.55112e-016
vt -0.257874 1.08247e-015
vt 0.0354331 7.77156e-016
vt 0.0354331 0.511811
f 146/418/13 161/419/13 164/420/13 120/421/13 20/422/13 26/100/13 

vt -0.494094 9.89937e-016
vn 0 -1.33067e-016 -1
vt -0.494094 -0.11811
vt -0.257874 9.89937e-016
f 162/423/44 49/424/44 48/363/44 163/425/44 

vt -0.494094 5.41234e-016
vt -2.99409 4.44089e-016
vt -2.99409 -0.11811
f 56/426/13 55/427/13 51/428/13 50/424/13 

vt 0.767717 5.35502e-016
vn 1 -3.05311e-017 -0
vt 0.531496 5.35502e-016
f 55/429/45 52/430/45 42/86/45 51/343/45 

vt 0.0354331 0.39941
vt 0.0354331 0.419966
vt -0.015748 0.419966
vt -0.015748 0.39941
f 14/431/21 15/432/17 79/433/17 80/434/21 

vt 0.0354331 0.302535
vn 0 4.36303e-014 -1
vt 0.0354331 0.32309
vt -0.015748 0.32309
vt -0.015748 0.302535
f 13/435/46 14/436/21 80/437/21 81/438/46 

vt 0.0354331 0.184342
vt 0.0354331 0.204897
vt -0.015748 0.204897
vt -0.015748 0.184342
f 12/439/28 13/440/46 81/441/46 82/442/28 

vt 0.0354331 0.052886
vt 0.0354331 0.0734413
vt -0.015748 0.0734413
vt -0.015748 0.052886
f 10/443/29 12/444/28 82/445/28 83/446/29 

vt 0.0354331 -0.0828745
vt 0.0354331 -0.0623192
vt -0.015748 -0.0623192
vt -0.015748 -0.0828745
f 9/447/30 10/448/29 83/449/29 84/450/30 

vt 0.0354331 -0.213688
vt 0.0354331 -0.193132
vt -0.015748 -0.193132
vt -0.015748 -0.213688
f 8/451/14 9/452/30 84/453/30 85/454/14 

vt 0.0354331 -0.330639
vt 0.0354331 -0.310083
vt -0.015748 -0.310083
vt -0.015748 -0.330639
f 7/455/31 8/456/14 85/457/14 86/458/31 

vt 0.0354331 -0.425758
vn 0 1 3.88992e-014
vt 0.0354331 -0.405202
vt -0.015748 -0.405202
vt -0.015748 -0.425758
f 6/459/47 7/460/31 86/461/31 87/462/47 

vt -0.0354331 0.492563
vt -0.0354331 0.472007
vt 0.015748 0.472007
vt 0.015748 0.492563
f 2/463/2 6/464/47 87/465/47 3/466/2 

vn 1 -2.11497e-015 3.10633e-030
vt 7.0932e-031 0.511811
vt -4.44089e-016 0.19685
vt 0.188976 0.19685
f 22/103/48 21/467/48 34/468/48 63/469/48 

vt 0.346457 0.188976
vn 2.11497e-015 1 -1.76248e-015
vt 0.228346 -7.91034e-016
vt 0.346457 -7.91034e-016
f 64/470/49 63/25/49 34/471/49 33/472/49 

vt 4.44089e-016 0.19685
vn -1 2.81997e-015 -6.66136e-030
v 136.897 8.77556 -96.2787
vt -0.0868459 0.227384
vt -0.188976 0.19685
f 33/473/50 169/474/50 64/475/50

v 136.897 8.85048 -96.0978
vt -0.0797244 0.230334
f 169/474/50 33/473/50 170/476/50

v 136.897 8.96967 -95.9425
vt -0.0736091 0.235026
f 170/476/50 33/473/50 171/477/50

v 136.897 9.125 -95.8233
vt -0.0689166 0.241142
f 171/477/50 33/473/50 172/478/50

v 136.897 9.30589 -95.7484
vt -0.0659668 0.248263
f 172/478/50 33/473/50 173/479/50

vt -2.30787e-030 0.511811
f 173/479/50 33/473/50 32/480/50

v 136.897 9.5 -95.7228
vt -0.0649606 0.255906
f 173/479/50 32/480/50 174/481/50

v 136.897 9.69411 -95.7484
vt -0.0659668 0.263548
f 32/480/50 175/482/50 174/481/50

v 136.897 9.875 -95.8233
vt -0.0689166 0.270669
f 175/482/50 32/480/50 176/483/50

vt -0.188976 0.511811
f 176/483/50 32/480/50 65/484/50

vt 0.748031 0.188976
vn 3.14728e-016 1 -7.34366e-016
vt 0.346457 -3.75857e-016
vt 0.748031 -3.75857e-016
f 66/485/51 65/470/51 32/486/51 31/487/51 

vt 3.89928e-031 0.511811
vn 1 1.08081e-030 5.21272e-031
v 147.097 9.875 -95.8233
vt 0.0689166 0.270669
f 31/488/52 177/489/52 66/103/52

v 147.097 9.69411 -95.7484
vt 0.0659668 0.263548
f 177/489/52 31/488/52 178/490/52

v 147.097 9.5 -95.7228
vt 0.0649606 0.255906
f 178/490/52 31/488/52 179/491/52

v 147.097 9.30589 -95.7484
vt 0.0659668 0.248263
f 31/488/52 180/492/52 179/491/52

vt 3.89928e-031 1.11022e-016
f 30/493/52 180/492/52 31/488/52

v 147.097 9.125 -95.8233
vt 0.0689166 0.241142
f 180/492/52 30/493/52 181/494/52

vt 0.188976 2.22045e-016
f 181/494/52 30/493/52 62/495/52

v 147.097 8.96967 -95.9425
vt 0.0736091 0.235026
f 181/494/52 62/495/52 182/496/52

v 147.097 8.85048 -96.0978
vt 0.0797244 0.230334
f 182/496/52 62/495/52 183/497/52

v 147.097 8.77556 -96.2787
vt 0.0868459 0.227384
f 183/497/52 62/495/52 184/498/52

v 147.097 8.75 -96.4728
vt 0.0944882 0.226378
f 184/498/52 62/495/52 185/499/52

v 147.097 8.77556 -96.667
vt 0.10213 0.227384
f 185/499/52 62/495/52 186/500/52

v 147.097 8.85048 -96.8478
vt 0.109252 0.230334
f 186/500/52 62/495/52 187/501/52

v 147.097 8.96967 -97.0032
vt 0.115367 0.235026
f 187/501/52 62/495/52 188/502/52

v 147.097 9.125 -97.1224
vt 0.12006 0.241142
f 188/502/52 62/495/52 189/503/52

v 147.097 9.30589 -97.1973
vt 0.12301 0.248263
f 189/503/52 62/495/52 190/504/52

v 147.097 9.5 -97.2228
vt 0.124016 0.255906
f 190/504/52 62/495/52 191/505/52

f 66/103/52 191/505/52 62/495/52

v 147.097 9.69411 -97.1973
vt 0.12301 0.263548
f 66/103/52 192/506/52 191/505/52

v 147.097 9.875 -97.1224
vt 0.12006 0.270669
f 66/103/52 193/507/52 192/506/52

v 147.097 10.0303 -97.0032
vt 0.115367 0.276785
f 66/103/52 194/508/52 193/507/52

v 147.097 10.1495 -96.8478
vt 0.109252 0.281477
f 66/103/52 195/509/52 194/508/52

v 147.097 10.2244 -96.667
vt 0.10213 0.284427
f 66/103/52 196/510/52 195/509/52

v 147.097 10.25 -96.4728
vt 0.0944882 0.285433
f 66/103/52 197/511/52 196/510/52

v 147.097 10.2244 -96.2787
vt 0.0868459 0.284427
f 66/103/52 198/512/52 197/511/52

v 147.097 10.1495 -96.0978
vt 0.0797244 0.281477
f 66/103/52 199/513/52 198/512/52

v 147.097 10.0303 -95.9425
vt 0.0736091 0.276785
f 66/103/52 200/514/52 199/513/52

f 66/103/52 177/489/52 200/514/52

vt -0.748031 0.264398
vt -0.748031 0.25669
vt -0.346457 0.25669
v 136.897 10.0303 -95.9425
vt -0.346457 0.264398
f 200/515/18 177/516/17 176/517/17 201/518/18 

vt -0.748031 0.276439
vt -0.748031 0.268731
vt -0.346457 0.268731
vt -0.346457 0.276439
f 177/519/17 178/520/21 175/521/21 176/522/17 

vt -0.748031 0.269904
vt -0.748031 0.262195
vt -0.346457 0.262195
vt -0.346457 0.269904
f 178/523/21 179/524/13 174/525/13 175/526/21 

vt -0.748031 0.245237
vt -0.748031 0.237529
vt -0.346457 0.237529
vt -0.346457 0.245237
f 179/527/13 180/528/28 173/529/28 174/530/13 

vt -0.748031 0.204121
vt -0.748031 0.196413
vt -0.346457 0.196413
vt -0.346457 0.204121
f 180/531/28 181/532/29 172/533/29 173/534/28 

vt -0.748031 0.149357
vt -0.748031 0.141649
vt -0.346457 0.141649
vt -0.346457 0.149357
f 181/535/29 182/536/30 171/537/30 172/538/29 

vt -0.748031 0.084677
vt -0.748031 0.0769688
vt -0.346457 0.0769688
vt -0.346457 0.084677
f 182/539/30 183/540/14 170/541/14 171/542/30 

vt -0.748031 0.0144892
vt -0.748031 0.00678098
vt -0.346457 0.00678098
vt -0.346457 0.0144892
f 183/543/14 184/544/31 169/545/31 170/546/14 

vt -0.748031 -0.0564233
vt -0.748031 -0.0641316
v 136.897 8.75 -96.4728
vt -0.346457 -0.0641316
vt -0.346457 -0.0564233
f 184/547/31 185/548/32 202/549/32 169/550/31 

vt 0.748031 0.123228
vt 0.748031 0.130936
v 136.897 8.77556 -96.667
vt 0.346457 0.130936
vt 0.346457 0.123228
f 185/551/32 186/552/2 203/553/2 202/554/32 

vt 0.748031 0.181372
vt 0.748031 0.189081
v 136.897 8.85048 -96.8478
vt 0.346457 0.189081
vt 0.346457 0.181372
f 186/555/2 187/556/1 204/557/1 203/558/2 

vt 0.748031 0.226894
vt 0.748031 0.234602
v 136.897 8.96967 -97.0032
vt 0.346457 0.234602
vt 0.346457 0.226894
f 187/559/1 188/560/33 205/561/33 204/562/1 

vt 0.748031 0.25669
vt 0.748031 0.264398
v 136.897 9.125 -97.1224
vt 0.346457 0.264398
vt 0.346457 0.25669
f 188/563/33 189/564/34 206/565/34 205/566/33 

vt 0.748031 0.268731
vt 0.748031 0.276439
v 136.897 9.30589 -97.1973
vt 0.346457 0.276439
vt 0.346457 0.268731
f 189/567/34 190/568/35 207/569/35 206/570/34 

vt 0.748031 0.262195
vt 0.748031 0.269904
v 136.897 9.5 -97.2228
vt 0.346457 0.269904
vt 0.346457 0.262195
f 190/571/35 191/572/7 208/573/7 207/574/35 

vt 0.748031 0.237529
vt 0.748031 0.245237
v 136.897 9.69411 -97.1973
vt 0.346457 0.245237
vt 0.346457 0.237529
f 191/575/7 192/576/27 209/577/27 208/578/7 

vt 0.748031 0.196413
vt 0.748031 0.204121
v 136.897 9.875 -97.1224
vt 0.346457 0.204121
vt 0.346457 0.196413
f 192/579/27 193/580/26 210/581/26 209/582/27 

vt 0.748031 0.141649
vt 0.748031 0.149357
v 136.897 10.0303 -97.0032
vt 0.346457 0.149357
vt 0.346457 0.141649
f 193/583/26 194/584/25 211/585/25 210/586/26 

vt 0.748031 0.0769688
vt 0.748031 0.084677
v 136.897 10.1495 -96.8478
vt 0.346457 0.084677
vt 0.346457 0.0769688
f 194/587/25 195/588/15 212/589/15 211/590/25 

vt 0.748031 0.00678098
vt 0.748031 0.0144892
v 136.897 10.2244 -96.667
vt 0.346457 0.0144892
vt 0.346457 0.00678098
f 195/591/15 196/592/24 213/593/24 212/594/15 

vt 0.748031 -0.0641316
vt 0.748031 -0.0564233
v 136.897 10.25 -96.4728
vt 0.346457 -0.0564233
vt 0.346457 -0.0641316
f 196/595/24 197/596/23 214/597/23 213/598/24 

vt -0.748031 0.130936
vt -0.748031 0.123228
v 136.897 10.2244 -96.2787
vt -0.346457 0.123228
vt -0.346457 0.130936
f 197/599/23 198/600/19 215/601/19 214/602/23 

vt -0.748031 0.189081
vt -0.748031 0.181372
v 136.897 10.1495 -96.0978
vt -0.346457 0.181372
vt -0.346457 0.189081
f 198/603/19 199/604/16 216/605/16 215/606/19 

vt -0.748031 0.234602
vt -0.748031 0.226894
vt -0.346457 0.226894
vt -0.346457 0.234602
f 199/607/16 200/608/18 201/609/18 216/610/16 

vt -0.0736091 0.276785
vt -0.0797244 0.281477
f 201/611/50 65/484/50 216/612/50

f 176/483/50 65/484/50 201/611/50

vt -0.0868459 0.284427
f 216/612/50 65/484/50 215/613/50

vt -0.0944882 0.285433
f 215/613/50 65/484/50 214/614/50

vt -0.10213 0.284427
f 214/614/50 65/484/50 213/615/50

vt -0.109252 0.281477
f 213/615/50 65/484/50 212/616/50

vt -0.115367 0.276785
f 212/616/50 65/484/50 211/617/50

vt -0.12006 0.270669
f 211/617/50 65/484/50 210/618/50

vt -0.12301 0.263548
f 210/618/50 65/484/50 209/619/50

vt -0.124016 0.255906
f 209/619/50 65/484/50 208/620/50

f 208/620/50 65/484/50 64/475/50

vt -0.12301 0.248263
f 64/475/50 207/621/50 208/620/50

vt -0.12006 0.241142
f 64/475/50 206/622/50 207/621/50

vt -0.115367 0.235026
f 64/475/50 205/623/50 206/622/50

vt -0.109252 0.230334
f 64/475/50 204/624/50 205/623/50

vt -0.10213 0.227384
f 64/475/50 203/625/50 204/624/50

vt -0.0944882 0.226378
f 64/475/50 202/626/50 203/625/50

f 64/475/50 169/474/50 202/626/50

vt 0.494094 -1.9685
vn 4.47963e-016 1 -5.58118e-017
vt 0.494094 -3.09423e-032
vt 0.375984 -3.41857e-032
vt 0.257874 -3.74291e-032
v 134.647 3 -44.0728
vt 0.257874 -1.9685
f 61/627/53 29/628/53 28/629/53 27/630/53 217/631/53 

vt 1.9685 1.93627e-016
vn -1 -1.40179e-015 -1.34179e-016
vt -3.46013e-017 1.93627e-016
vt -0.188976 -2.8418e-017
vt -0.531496 1.93627e-016
vt 1.9685 -0.11811
f 217/632/54 27/633/54 37/634/54 40/635/54 39/370/54 45/636/54 

vt 0.257874 4.48715e-016
vn 0 5.40494e-017 1
vt 0.494094 4.48715e-016
f 217/637/55 45/49/55 44/67/55 61/638/55 

