# Alias OBJ Model File
# Exported from SketchUp, (c) 2000-2012 Trimble Navigation Limited
# File units = millimeters

mtllib shneck_house_dodel.mtl

g Mesh1 Model

usemtl FrontColor
v 83.452 0 -148.505
vt -3.28551 5.84664
vn -6.47453e-005 -1 -2.68112e-018
v 82.1155 0.0123204 -148.541
vt -3.23289 5.84806
v 82.1155 0.0123204 -151.541
vt -3.23289 5.96617
v 83.5992 0 -151.501
vt -3.29131 5.96461
v 85.2146 0 -151.382
vt -3.3549 5.95992
v 86.8221 0 -151.184
vt -3.41819 5.95211
v 88.418 0 -150.907
vt -3.48102 5.94121
v 89.9983 0 -150.552
vt -3.54324 5.92724
v 91.5594 0 -150.12
vt -3.6047 5.91023
v 93.0974 0 -149.612
vt -3.66525 5.89023
v 94.6085 0 -149.029
vt -3.72475 5.86728
v 96.0893 0 -148.372
vt -3.78304 5.84144
v 97.5361 0 -147.644
vt -3.84 5.81276
v 98.9454 0 -146.846
vt -3.89549 5.78133
v 100.314 0 -145.979
vt -3.94936 5.74722
v 101.638 0 -145.047
vt -4.0015 5.7105
v 102.915 0 -144.05
vt -4.05177 5.67127
v 104.141 0 -142.992
vt -4.10006 5.62961
v 105.315 0 -141.875
vt -4.14624 5.58564
v 106.431 0 -140.702
vt -4.19021 5.53946
v 107.489 0 -139.476
vt -4.23186 5.49117
v 108.486 0 -138.199
vt -4.2711 5.4409
v 109.418 0 -136.875
vt -4.30781 5.38876
v 110.285 0 -135.506
vt -4.34193 5.33489
v 111.083 0 -134.097
vt -4.37336 5.27941
v 111.812 0 -132.65
vt -4.40203 5.22245
v 112.468 0 -131.169
vt -4.42787 5.16415
v 113.051 0 -129.658
vt -4.45082 5.10465
v 113.559 0 -128.12
vt -4.47083 5.0441
v 113.991 0 -126.559
vt -4.48784 4.98264
v 114.346 0 -124.979
vt -4.50181 4.92042
v 114.623 0 -123.383
vt -4.51271 4.85759
v 114.821 0 -121.775
vt -4.52052 4.79431
v 114.94 0 -120.16
vt -4.52521 4.73071
v 114.98 0 -118.541
vt -4.52677 4.66696
v 114.94 0 -116.922
vt -4.52521 4.60321
v 114.821 0 -115.306
vt -4.52052 4.53962
v 114.623 0 -113.699
vt -4.51271 4.47633
v 114.346 0 -112.103
vt -4.50181 4.4135
v 113.991 0 -110.522
vt -4.48784 4.35128
v 113.559 0 -108.961
vt -4.47083 4.28982
v 113.051 0 -107.423
vt -4.45082 4.22927
v 112.468 0 -105.912
vt -4.42787 4.16977
v 111.812 0 -104.431
vt -4.40203 4.11148
v 111.083 0 -102.985
vt -4.37336 4.05452
v 110.285 0 -101.575
vt -4.34193 3.99903
v 109.418 0 -100.207
vt -4.30781 3.94516
v 108.486 0 -98.8827
vt -4.2711 3.89302
v 107.489 0 -97.6058
vt -4.23186 3.84275
v 106.431 0 -96.3794
vt -4.19021 3.79446
v 105.315 0 -95.2063
vt -4.14624 3.74828
v 104.141 0 -94.0894
vt -4.10006 3.70431
v 102.915 0 -93.0315
vt -4.05177 3.66266
v 101.638 0 -92.035
vt -4.0015 3.62342
v 100.314 0 -91.1023
vt -3.94936 3.5867
v 98.9454 0 -90.2358
vt -3.89549 3.55259
v 97.5361 0 -89.4374
vt -3.84 3.52116
v 96.0893 0 -88.7092
vt -3.78304 3.49249
v 94.6085 0 -88.0528
vt -3.72475 3.46664
v 93.0974 0 -87.4698
vt -3.66525 3.44369
v 91.5594 0 -86.9618
vt -3.6047 3.42369
v 89.9983 0 -86.5298
vt -3.54324 3.40668
v 88.418 0 -86.1749
vt -3.48102 3.39271
v 86.8221 0 -85.898
vt -3.41819 3.38181
v 85.2146 0 -85.6997
vt -3.3549 3.374
v 83.5992 0 -85.5806
vt -3.29131 3.36931
v 82.1155 0.0123204 -85.5408
vt -3.23289 3.36775
v 82.1155 0.0123204 -88.5408
vt -3.23289 3.48586
v 83.452 0 -88.5769
vt -3.28551 3.48728
v 84.9205 0 -88.6853
vt -3.34333 3.49155
v 86.3819 0 -88.8655
vt -3.40086 3.49864
v 87.8327 0 -89.1172
vt -3.45798 3.50855
v 89.2694 0 -89.4399
vt -3.51454 3.52125
v 90.6885 0 -89.8326
vt -3.57041 3.53672
v 92.0867 0 -90.2945
vt -3.62546 3.5549
v 93.4605 0 -90.8244
vt -3.67955 3.57576
v 94.8066 0 -91.4211
vt -3.73255 3.59926
v 96.1219 0 -92.0832
vt -3.78433 3.62532
v 97.4031 0 -92.8089
vt -3.83477 3.6539
v 98.6471 0 -93.5967
vt -3.88374 3.68491
v 99.851 0 -94.4446
vt -3.93114 3.71829
v 101.012 0 -95.3505
vt -3.97684 3.75396
v 102.127 0 -96.3123
vt -4.02074 3.79182
v 103.193 0 -97.3276
vt -4.06272 3.8318
v 104.209 0 -98.394
vt -4.1027 3.87378
v 105.17 0 -99.509
vt -4.14056 3.91768
v 106.076 0 -100.67
vt -4.17623 3.96338
v 106.924 0 -101.874
vt -4.20961 4.01078
v 107.712 0 -103.118
vt -4.24062 4.05975
v 108.438 0 -104.399
vt -4.2692 4.11019
v 109.1 0 -105.714
vt -4.29526 4.16197
v 109.696 0 -107.06
vt -4.31876 4.21497
v 110.226 0 -108.434
vt -4.33962 4.26906
v 110.688 0 -109.832
vt -4.3578 4.3241
v 111.081 0 -111.251
vt -4.37327 4.37998
v 111.404 0 -112.688
vt -4.38597 4.43654
v 111.655 0 -114.139
vt -4.39588 4.49366
v 111.836 0 -115.6
vt -4.40297 4.55119
v 111.944 0 -117.069
vt -4.40724 4.60901
v 111.98 0 -118.541
vt -4.40866 4.66696
v 111.944 0 -120.013
vt -4.40724 4.72491
v 111.836 0 -121.481
vt -4.40297 4.78273
v 111.655 0 -122.943
vt -4.39588 4.84026
v 111.404 0 -124.394
vt -4.38597 4.89738
v 111.081 0 -125.83
vt -4.37327 4.95395
v 110.688 0 -127.249
vt -4.3578 5.00982
v 110.226 0 -128.647
vt -4.33962 5.06486
v 109.696 0 -130.021
vt -4.31876 5.11895
v 109.1 0 -131.367
vt -4.29526 5.17195
v 108.438 0 -132.683
vt -4.2692 5.22373
v 107.712 0 -133.964
vt -4.24062 5.27417
v 106.924 0 -135.208
vt -4.20961 5.32315
v 106.076 0 -136.412
vt -4.17623 5.37054
v 105.17 0 -137.573
vt -4.14056 5.41624
v 104.209 0 -138.688
vt -4.1027 5.46014
v 103.193 0 -139.754
vt -4.06272 5.50213
v 102.127 0 -140.769
vt -4.02074 5.5421
v 101.012 0 -141.731
vt -3.97684 5.57997
v 99.851 0 -142.637
vt -3.93114 5.61563
v 98.6471 0 -143.485
vt -3.88374 5.64901
v 97.4031 0 -144.273
vt -3.83477 5.68003
v 96.1219 0 -144.998
vt -3.78433 5.7086
v 94.8066 0 -145.66
vt -3.73255 5.73466
v 93.4605 0 -146.257
vt -3.67955 5.75816
v 92.0867 0 -146.787
vt -3.62546 5.77902
v 90.6885 0 -147.249
vt -3.57041 5.79721
v 89.2694 0 -147.642
vt -3.51454 5.81267
v 87.8327 0 -147.964
vt -3.45798 5.82537
v 86.3819 0 -148.216
vt -3.40086 5.83528
v 84.9205 0 -148.396
vt -3.34333 5.84238
f 1/1/1 2/2/1 3/3/1 4/4/1 5/5/1 6/6/1 7/7/1 8/8/1 9/9/1 10/10/1 11/11/1 12/12/1 13/13/1 14/14/1 15/15/1 16/16/1 17/17/1 18/18/1 19/19/1 20/20/1 21/21/1 22/22/1 23/23/1 24/24/1 25/25/1 26/26/1 27/27/1 28/28/1 29/29/1 30/30/1 31/31/1 32/32/1 33/33/1 34/34/1 35/35/1 36/36/1 37/37/1 38/38/1 39/39/1 40/40/1 41/41/1 42/42/1 43/43/1 44/44/1 45/45/1 46/46/1 47/47/1 48/48/1 49/49/1 50/50/1 51/51/1 52/52/1 53/53/1 54/54/1 55/55/1 56/56/1 57/57/1 58/58/1 59/59/1 60/60/1 61/61/1 62/62/1 63/63/1 64/64/1 65/65/1 66/66/1 67/67/1 68/68/1 69/69/1 70/70/1 71/71/1 72/72/1 73/73/1 74/74/1 75/75/1 76/76/1 77/77/1 78/78/1 79/79/1 80/80/1 81/81/1 82/82/1 83/83/1 84/84/1 85/85/1 86/86/1 87/87/1 88/88/1 89/89/1 90/90/1 91/91/1 92/92/1 93/93/1 94/94/1 95/95/1 96/96/1 97/97/1 98/98/1 99/99/1 100/100/1 101/101/1 102/102/1 103/103/1 104/104/1 105/105/1 106/106/1 107/107/1 108/108/1 109/109/1 110/110/1 111/111/1 112/112/1 113/113/1 114/114/1 115/115/1 116/116/1 117/117/1 118/118/1 119/119/1 120/120/1 121/121/1 122/122/1 123/123/1 124/124/1 125/125/1 126/126/1 127/127/1 128/128/1 129/129/1 130/130/1 

vt 3.12759 0.141402
vn -0.0601783 0.0425788 0.997279
v 83.5815 0.145592 -148.505
vt 3.13269 0.147136
vn -0.0865598 0.478259 0.873942
vt 3.07496 0.141887
vn -0.0819049 0.711805 0.697585
f 1/131/2 131/132/3 2/133/4

vt 2.81036 0.43979
vt 2.80528 0.434044
v 85.044 0.278542 -148.396
vt 2.86809 0.445038
vn -0.0938477 0.0535124 0.994147
f 131/134/3 1/135/2 132/136/5

vt 2.90448 0.197879
vn -0.107919 0.041411 0.993297
vt 2.90932 0.208851
vt 2.84651 0.197879
f 130/137/6 132/138/5 1/139/2

vt 2.57292 0.363355
vt 2.5681 0.352371
v 86.4994 0.410851 -148.216
vt 2.63065 0.368573
vn -0.142041 0.0473075 0.98873
f 132/140/5 130/141/6 133/142/7

vt 2.66099 0.21709
vn -0.156402 0.0401381 0.986878
vt 2.66558 0.233275
vt 2.60301 0.21709
f 129/143/8 133/144/7 130/145/6

vt 2.32477 0.335071
vt 2.32021 0.318875
v 87.9442 0.5422 -147.964
vt 2.38251 0.340249
vn -0.190202 0.0438149 0.980767
f 133/146/7 129/147/8 134/148/9

vt 2.41115 0.222412
vn -0.204575 0.0385196 0.978093
vt 2.41548 0.243772
vt 2.35318 0.222412
f 128/149/10 134/150/9 129/151/8

vt 2.06988 0.318145
vt 2.06561 0.296776
v 89.375 0.672272 -147.642
vt 2.12763 0.323271
vn -0.237993 0.0410018 0.970401
f 134/152/9 128/153/10 135/154/11

vt 2.15558 0.221535
vn -0.252283 0.0367372 0.966956
vt 2.15964 0.248018
vt 2.09761 0.221535
f 127/155/12 135/156/11 128/157/10

vt 1.80956 0.305292
vt 1.80556 0.278801
v 90.7883 0.800755 -147.249
vt 1.86731 0.310355
vn -0.285249 0.0384728 0.957681
f 135/158/11 127/159/12 136/160/13

vt 1.89489 0.217172
vn -0.2994 0.034875 0.95349
vt 1.89868 0.248716
vt 1.83692 0.217172
f 126/161/14 136/162/13 127/163/12

vt 1.54465 0.294154
vt 1.54093 0.262603
v 92.1807 0.927338 -146.787
vt 1.60241 0.299141
vn -0.331839 0.0361019 0.942645
f 136/164/13 126/165/14 137/166/15

vt 1.6297 0.210573
vn -0.345806 0.0329779 0.937726
vt 1.63322 0.2471
vt 1.57173 0.210573
f 125/167/16 137/168/15 126/169/14

vt 1.2759 0.283781
vt 1.27245 0.247247
v 93.5489 1.05172 -146.257
vt 1.33366 0.288681
vn -0.377641 0.0338388 0.925334
f 137/170/15 125/171/16 138/172/17

vt 1.36066 0.202426
vn -0.391386 0.0310734 0.919702
vt 1.36391 0.243851
vt 1.30269 0.202426
f 124/173/18 138/174/17 125/175/16

vt 1.00399 0.273753
vt 1.00082 0.232322
v 94.8895 1.17359 -145.66
vt 1.06176 0.278554
vn -0.422542 0.0316611 0.90579
f 138/176/17 124/177/18 139/178/19

vt 1.08841 0.193171
vn -0.436027 0.0291799 0.89946
vt 1.09139 0.239395
vt 1.03043 0.193171
f 123/179/20 139/180/19 124/181/18

vt 0.729617 0.263885
vt 0.72671 0.217657
v 96.1993 1.29267 -144.998
vt 0.787398 0.268575
vn -0.466429 0.0295587 0.884064
f 139/182/19 123/183/20 140/184/21

vt 0.813601 0.18312
vn -0.479623 0.027311 0.87705
vt 0.816325 0.234031
vt 0.75563 0.18312
f 122/185/22 140/186/21 123/187/20

vt 0.453448 0.254107
vt 0.450801 0.203192
v 97.4753 1.40866 -144.273
vt 0.511239 0.258676
vn -0.509198 0.0275274 0.860209
f 140/188/21 122/189/22 141/190/23

vt 0.536906 0.172513
vn -0.522066 0.025477 0.852525
vt 0.539379 0.22799
vt 0.478935 0.172513
f 121/191/24 141/192/23 122/193/22

vt 0.176158 0.244412
vt 0.173763 0.188931
v 98.7142 1.52129 -143.485
vt 0.23396 0.248847
vn -0.550743 0.0255664 0.834283
f 141/194/23 121/195/24 142/196/25

vt 0.258987 0.161547
vn -0.563253 0.0236867 0.825945
vt 0.261218 0.221457
vt 0.201016 0.161547
f 120/197/26 142/198/25 121/199/24

vt -0.10158 0.234825
vt -0.103733 0.174912
v 99.9131 1.63028 -142.637
vt -0.0437677 0.239117
vn -0.590964 0.0236763 0.806351
f 142/200/25 120/201/26 143/202/27

vt -0.0194854 0.150391
vn -0.603086 0.0219475 0.797374
vt -0.0174855 0.214591
vt -0.0774568 0.150391
f 119/203/28 143/204/27 120/205/26

vt -0.379098 0.225392
vt -0.38102 0.16119
v 101.069 1.73538 -141.731
vt -0.321274 0.229531
vn -0.629764 0.021859 0.776479
f 143/206/27 119/207/28 144/208/29

vt -0.297841 0.139191
vn -0.641468 0.0202657 0.766882
vt -0.296061 0.207527
vt -0.355813 0.139191
f 118/209/30 144/210/29 119/211/28

vt -0.655728 0.216167
vt -0.657433 0.147829
v 102.18 1.83632 -140.769
vt -0.597893 0.220142
vn -0.667051 0.020117 0.744741
f 144/212/29 118/213/30 145/214/31

vt -0.57541 0.128079
vn -0.678305 0.0186471 0.734543
vt -0.573837 0.200388
vt -0.633382 0.128079
f 117/215/32 145/216/31 118/217/30

vt -0.930807 0.207208
vt -0.932307 0.134898
v 103.242 1.93287 -139.754
vt -0.872961 0.21101
vn -0.708127 0.0177939 0.705861
f 145/218/31 117/219/32 146/220/33

vt -0.851523 0.117172
vn -0.706996 0.0177057 0.706996
vt -0.850143 0.193281
vt -0.909494 0.117172
f 116/221/34 146/222/33 117/223/32

vt -1.18349 0.122162
vt -1.12551 0.122162
vn -0.736015 0.0168516 0.676756
vt -1.18217 0.198272
f 116/224/34 115/225/35 146/226/33

v 104.253 2.0248 -138.688
vt -1.14484 0.186555
vn -0.747646 0.0156327 0.663913
vt -1.2027 0.182935
vt -1.14604 0.106828
f 147/227/36 146/228/33 115/229/35

v 111.956 2.72512 -120.013
vt -4.72491 4.39934
vn -0.0905357 0.995893 -6.84486e-018
v 111.992 2.72839 -118.541
vt -4.66696 4.40076
v 111.956 2.72512 -117.069
vt -4.60901 4.39934
v 111.848 2.71531 -115.6
vt -4.55119 4.39508
v 111.669 2.699 -114.139
vt -4.49366 4.38798
v 111.418 2.6762 -112.688
vt -4.43654 4.37807
v 111.097 2.647 -111.251
vt -4.37998 4.36537
v 110.706 2.61144 -109.832
vt -4.3241 4.34991
v 110.246 2.56962 -108.434
vt -4.26906 4.33172
v 109.718 2.52164 -107.06
vt -4.21497 4.31086
v 109.124 2.46762 -105.714
vt -4.16197 4.28737
v 108.465 2.40768 -104.399
vt -4.11019 4.2613
v 107.742 2.34197 -103.118
vt -4.05975 4.23273
v 106.957 2.27065 -101.874
vt -4.01078 4.20171
v 106.113 2.19389 -100.67
vt -3.96338 4.16833
v 105.211 2.11187 -99.509
vt -3.91768 4.13267
v 104.253 2.0248 -98.394
vt -3.87378 4.0948
v 103.242 1.93287 -97.3276
vt -3.8318 4.05483
v 102.18 1.83632 -96.3123
vt -3.79182 4.01284
v 101.069 1.73538 -95.3505
vt -3.75396 3.96894
v 99.9131 1.63028 -94.4446
vt -3.71829 3.92324
v 98.7142 1.52129 -93.5967
vt -3.68491 3.87585
v 97.4753 1.40866 -92.8089
vt -3.6539 3.82687
v 96.1993 1.29267 -92.0832
vt -3.62532 3.77643
v 94.8895 1.17359 -91.4211
vt -3.59926 3.72465
v 93.5489 1.05172 -90.8244
vt -3.57576 3.67165
v 92.1807 0.927338 -90.2945
vt -3.5549 3.61756
v 90.7883 0.800755 -89.8326
vt -3.53672 3.56252
v 89.375 0.672272 -89.4399
vt -3.52125 3.50665
v 87.9442 0.5422 -89.1172
vt -3.50855 3.45008
v 86.4994 0.410851 -88.8655
vt -3.49864 3.39297
v 85.044 0.278542 -88.6853
vt -3.49155 3.33543
v 83.5815 0.145592 -88.5769
vt -3.48728 3.27762
vt -3.48586 3.21966
vt -3.36775 3.21966
vn -0.045762 0.697331 0.715287
v 83.7281 0.158919 -85.5806
vt -3.36931 3.28341
vn 0.0071186 0.415072 0.909761
v 85.3368 0.305164 -85.6997
vt -3.374 3.34701
v 86.9377 0.450704 -85.898
vt -3.38181 3.4103
v 88.5271 0.595188 -86.1749
vt -3.39271 3.47313
v 90.1009 0.738267 -86.5298
vt -3.40668 3.53534
v 91.6556 0.879598 -86.9618
vt -3.42369 3.5968
v 93.1872 1.01884 -87.4698
vt -3.44369 3.65735
v 94.6922 1.15566 -88.0528
vt -3.46664 3.71685
v 96.1669 1.28972 -88.7092
vt -3.49249 3.77515
v 97.6077 1.4207 -89.4374
vt -3.52116 3.83211
v 99.0112 1.54829 -90.2358
vt -3.55259 3.88759
v 100.374 1.67219 -91.1023
vt -3.5867 3.94147
v 101.693 1.79208 -92.035
vt -3.62342 3.9936
v 102.965 1.90768 -93.0315
vt -3.66266 4.04387
v 104.186 2.01872 -94.0894
vt -3.70431 4.09216
v 105.354 2.12493 -95.2063
vt -3.74828 4.13834
v 106.466 2.22604 -96.3794
vt -3.79446 4.18231
v 107.52 2.32183 -97.6058
vt -3.84275 4.22397
v 108.513 2.41205 -98.8827
vt -3.89302 4.2632
v 109.441 2.49649 -100.207
vt -3.94516 4.29992
v 110.304 2.57494 -101.575
vt -3.99903 4.33403
v 111.099 2.64722 -102.985
vt -4.05452 4.36546
v 111.825 2.71315 -104.431
vt -4.11148 4.39414
v 112.478 2.77258 -105.912
vt -4.16977 4.41998
v 113.059 2.82535 -107.423
vt -4.22927 4.44293
v 113.565 2.87135 -108.961
vt -4.28982 4.46293
v 113.995 2.91046 -110.522
vt -4.35128 4.47994
v 114.349 2.94259 -112.103
vt -4.4135 4.49391
v 114.624 2.96766 -113.699
vt -4.47633 4.50481
v 114.822 2.98561 -115.306
vt -4.53962 4.51262
v 114.94 2.9964 -116.922
vt -4.60321 4.51731
v 114.98 3 -118.541
vt -4.66696 4.51887
v 114.94 2.9964 -120.16
vt -4.73071 4.51731
v 114.822 2.98561 -121.775
vt -4.79431 4.51262
v 114.624 2.96766 -123.383
vt -4.85759 4.50481
v 114.349 2.94259 -124.979
vt -4.92042 4.49391
v 113.995 2.91046 -126.559
vt -4.98264 4.47994
v 113.565 2.87135 -128.12
vt -5.0441 4.46293
v 113.059 2.82535 -129.658
vt -5.10465 4.44293
v 112.478 2.77258 -131.169
vt -5.16415 4.41998
v 111.825 2.71315 -132.65
vt -5.22245 4.39414
v 111.099 2.64722 -134.097
vt -5.27941 4.36546
v 110.304 2.57494 -135.506
vt -5.33489 4.33403
v 109.441 2.49649 -136.875
vt -5.38876 4.29992
v 108.513 2.41205 -138.199
vt -5.4409 4.2632
v 107.52 2.32183 -139.476
vt -5.49117 4.22397
v 106.466 2.22604 -140.702
vt -5.53946 4.18231
v 105.354 2.12493 -141.875
vt -5.58564 4.13834
v 104.186 2.01872 -142.992
vt -5.62961 4.09216
v 102.965 1.90768 -144.05
vt -5.67127 4.04387
v 101.693 1.79208 -145.047
vt -5.7105 3.9936
v 100.374 1.67219 -145.979
vt -5.74722 3.94147
v 99.0112 1.54829 -146.846
vt -5.78133 3.88759
v 97.6077 1.4207 -147.644
vt -5.81276 3.83211
v 96.1669 1.28972 -148.372
vt -5.84144 3.77515
v 94.6922 1.15566 -149.029
vt -5.86728 3.71685
v 93.1872 1.01884 -149.612
vt -5.89023 3.65735
v 91.6556 0.879598 -150.12
vt -5.91023 3.5968
v 90.1009 0.738267 -150.552
vt -5.92724 3.53534
v 88.5271 0.595188 -150.907
vt -5.94121 3.47313
v 86.9377 0.450704 -151.184
vt -5.95211 3.4103
v 85.3368 0.305164 -151.382
vt -5.95992 3.34701
v 83.7281 0.158919 -151.501
vt -5.96461 3.28341
vt -5.96617 3.21966
vt -5.84806 3.21966
vt -5.84664 3.27762
vt -5.84238 3.33543
vt -5.83528 3.39297
vt -5.82537 3.45008
vt -5.81267 3.50665
vt -5.79721 3.56252
vt -5.77902 3.61756
vt -5.75816 3.67165
vt -5.73466 3.72465
vt -5.7086 3.77643
vt -5.68003 3.82687
vt -5.64901 3.87585
vt -5.61563 3.92324
vt -5.57997 3.96894
vt -5.5421 4.01284
vt -5.50213 4.05483
vt -5.46014 4.0948
v 105.211 2.11187 -137.573
vt -5.41624 4.13267
v 106.113 2.19389 -136.412
vt -5.37054 4.16833
v 106.957 2.27065 -135.208
vt -5.32315 4.20171
v 107.742 2.34197 -133.964
vt -5.27417 4.23273
v 108.465 2.40768 -132.683
vt -5.22373 4.2613
v 109.124 2.46762 -131.367
vt -5.17195 4.28737
v 109.718 2.52164 -130.021
vt -5.11895 4.31086
v 110.246 2.56962 -128.647
vt -5.06486 4.33172
v 110.706 2.61144 -127.249
vt -5.00982 4.34991
v 111.097 2.647 -125.83
vt -4.95395 4.36537
v 111.418 2.6762 -124.394
vt -4.89738 4.37807
v 111.669 2.699 -122.943
vt -4.84026 4.38798
v 111.848 2.71531 -121.481
vt -4.78273 4.39508
f 148/230/37 149/231/37 150/232/37 151/233/37 152/234/37 153/235/37 154/236/37 155/237/37 156/238/37 157/239/37 158/240/37 159/241/37 160/242/37 161/243/37 162/244/37 163/245/37 164/246/37 165/247/37 166/248/37 167/249/37 168/250/37 169/251/37 170/252/37 171/253/37 172/254/37 173/255/37 174/256/37 175/257/37 176/258/37 177/259/37 178/260/37 179/261/37 180/262/37 68/263/37 67/264/38 181/265/39 182/266/37 183/267/37 184/268/37 185/269/37 186/270/37 187/271/37 188/272/37 189/273/37 190/274/37 191/275/37 192/276/37 193/277/37 194/278/37 195/279/37 196/280/37 197/281/37 198/282/37 199/283/37 200/284/37 201/285/37 202/286/37 203/287/37 204/288/37 205/289/37 206/290/37 207/291/37 208/292/37 209/293/37 210/294/37 211/295/37 212/296/37 213/297/37 214/298/37 215/299/37 216/300/37 217/301/37 218/302/37 219/303/37 220/304/37 221/305/37 222/306/37 223/307/37 224/308/37 225/309/37 226/310/37 227/311/37 228/312/37 229/313/37 230/314/37 231/315/37 232/316/37 233/317/37 234/318/37 235/319/37 236/320/37 237/321/37 238/322/37 239/323/37 240/324/37 241/325/37 242/326/37 243/327/37 3/328/37 2/329/4 131/330/3 132/331/37 133/332/37 134/333/37 135/334/37 136/335/37 137/336/37 138/337/37 139/338/37 140/339/37 141/340/37 142/341/37 143/342/37 144/343/37 145/344/37 146/345/37 147/346/37 244/347/37 245/348/37 246/349/37 247/350/37 248/351/37 249/352/37 250/353/37 251/354/37 252/355/37 253/356/37 254/357/37 255/358/37 256/359/37 

vt -4.5576 0.127965
vn -0.99999 0.00454548 -0
vt -4.61557 0.127836
vn -0.99879 0.00459979 0.0489565
vt -4.61558 0.0205467
vt -4.55761 0.0205467
f 149/360/40 148/361/41 101/362/41 100/363/40 

vt -4.38865 0.129353
vt -4.44662 0.128967
vn -0.995195 0.00476262 0.0977958
vt -4.44666 0.0220639
vt -4.38868 0.0220639
f 148/364/41 256/365/42 102/366/42 101/367/41 

vt -4.2091 0.131028
vt -4.26707 0.130386
vn -0.989213 0.00503355 0.146401
vt -4.26713 0.024125
vt -4.20916 0.0241251
f 256/368/42 255/369/43 103/370/43 102/371/42 

vt -4.01938 0.133049
vt -4.07734 0.132152
vn -0.980857 0.00541192 0.194655
vt -4.07744 0.026788
vt -4.01947 0.0267881
f 255/372/43 254/373/44 104/374/44 103/375/43 

vt -3.81994 0.135467
vt -3.8779 0.134317
vn -0.97022 0.0057308 0.242156
vt -3.87804 0.0301029
vn -0.968135 0.00598925 0.250359
vt -3.82006 0.030103
f 254/376/44 253/377/45 105/378/46 104/379/44 

vt -3.61454 0.136476
vt -3.6725 0.135076
vn -0.959509 0.00625105 0.281607
vt -3.61471 0.0322618
f 253/380/45 252/381/47 105/382/46

vt -3.66606 0.0360109
vn -0.954651 0.00671174 0.297651
vt -3.60809 0.0360109
vt -3.66587 0.138826
f 106/383/48 105/384/46 252/385/47

vt -3.39781 0.13939
vt -3.45575 0.137743
vn -0.944577 0.00690771 0.328217
vt -3.39802 0.036575
f 252/386/47 251/387/49 106/388/48

vt -3.44797 0.0411857
vn -0.938915 0.00744672 0.344069
vt -3.39 0.0411857
vt -3.44773 0.142355
f 107/389/50 106/390/48 251/391/49

vt -3.17285 0.142777
vt -3.23079 0.140888
vn -0.92738 0.00766646 0.374042
vt -3.17313 0.0416085
f 251/392/49 250/393/51 107/394/50

vt -3.22164 0.0471384
vn -0.920921 0.00828463 0.389661
vt -3.16367 0.0471384
vt -3.22134 0.146419
f 108/395/52 107/396/50 250/397/51

vt -2.94022 0.146654
vt -2.99815 0.144527
vn -0.907959 0.00852529 0.418973
vt -2.94056 0.0473735
f 250/398/51 249/399/53 108/400/52

vt -2.98763 0.0538818
vn -0.900713 0.00922364 0.434317
vt -2.92966 0.0538818
vt -2.98724 0.151036
f 109/401/54 108/402/52 249/403/53

vt -2.70045 0.151024
vt -2.75837 0.148664
vn -0.886359 0.00948191 0.462902
vt -2.70087 0.05387
f 249/404/53 248/405/55 109/406/54

vt -2.74648 0.0614184
vn -0.878339 0.0102617 0.477929
vt -2.68851 0.0614184
vt -2.74601 0.156214
f 110/407/56 109/408/54 248/409/55

vt -2.45411 0.155883
vt -2.51203 0.153296
vn -0.862632 0.0105338 0.505723
vt -2.45463 0.0610876
f 248/410/55 247/411/57 110/412/56

vt -2.49879 0.0697405
vn -0.853851 0.0113965 0.520392
vt -2.44082 0.0697405
vt -2.49821 0.16195
f 111/413/58 110/414/56 247/415/57

vt -2.2018 0.161213
vt -2.2597 0.158405
vn -0.836833 0.011678 0.547333
vt -2.20242 0.0690042
f 247/416/57 246/417/59 111/418/58

vt -2.24515 0.0788301
vn -0.827309 0.0126257 0.561605
vt -2.18718 0.0788301
vt -2.24445 0.168233
f 112/419/60 111/420/58 246/421/59

vt -1.94409 0.166989
vt -2.00199 0.163967
vn -0.809025 0.0129116 0.587633
vt -1.94484 0.0775868
f 246/422/59 245/423/61 112/424/60

vt -1.98617 0.0886592
vn -0.798776 0.0139465 0.601466
vt -1.9282 0.0886592
vt -1.98534 0.175041
f 113/425/62 112/426/60 245/427/61

vt -1.68162 0.173172
vt -1.7395 0.169942
vn -0.779272 0.014231 0.626524
vt -1.6825 0.0867907
f 245/428/61 244/429/63 113/430/62

vt -1.72247 0.09919
vn -0.768321 0.0153561 0.639881
vt -1.6645 0.09919
vt -1.7215 0.182344
f 114/431/64 113/432/62 244/433/63

vt -1.41499 0.179714
vt -1.47286 0.176285
vt -1.41602 0.0965602
f 244/434/63 147/435/36 114/436/64

vt -1.4547 0.110376
vt -1.39672 0.110376
vt -1.45356 0.190103
f 115/437/35 114/438/64 147/439/36

vt -4.71555 0.126798
vn -0.99879 0.00459979 -0.0489565
vt -4.77352 0.126926
vt -4.77351 0.0195082
vt -4.71554 0.0195082
f 150/440/65 149/441/40 100/442/40 99/443/65 

vt -4.86213 0.12578
vn -0.995195 0.00476262 -0.0977958
vt -4.9201 0.126166
vt -4.92006 0.0188763
vt -4.86209 0.0188763
f 151/444/66 150/445/65 99/446/65 98/447/66 

vt -4.99698 0.124835
vn -0.989213 0.00503355 -0.146401
vt -5.05494 0.125477
vt -5.05488 0.0185736
vt -4.99691 0.0185735
f 152/448/67 151/449/66 98/450/66 97/451/67 

vt -5.11978 0.123881
vn -0.980857 0.00541192 -0.194655
vt -5.17774 0.124779
vt -5.17765 0.0185176
vt -5.11968 0.0185175
f 153/452/68 152/453/67 97/454/67 96/455/68 

vt -5.23024 0.122837
vn -0.968136 0.00598933 -0.250354
vt -5.2882 0.123986
vt -5.28807 0.0186224
vt -5.2301 0.0186223
vn -0.970075 0.00572992 -0.242736
f 154/456/69 153/457/68 96/458/68 95/459/70 

vt -5.38772 0.0177624
vt -5.32975 0.0177624
vn -0.959379 0.00625024 -0.282051
vt -5.38789 0.121977
f 95/460/70 94/461/71 154/462/69

vt -5.32623 0.122681
vn -0.954774 0.0067127 -0.297258
vt -5.38419 0.124081
vt -5.32605 0.0198663
f 155/463/72 154/464/69 94/465/71

vt -5.47282 0.0178252
vt -5.41485 0.0178252
vn -0.944403 0.0069065 -0.328717
vt -5.47304 0.12064
f 94/466/71 93/467/73 155/468/72

vt -5.41111 0.121299
vn -0.939082 0.00744819 -0.343612
vt -5.46906 0.122945
vt -5.41087 0.02013
f 156/469/74 155/470/72 93/471/73

vt -5.54481 0.0178083
vt -5.48684 0.0178083
vn -0.927158 0.00766474 -0.374592
vt -5.54509 0.118977
f 93/472/73 92/473/75 156/474/74

vt -5.48301 0.119536
vn -0.921139 0.00828681 -0.389145
vt -5.54095 0.121425
vt -5.48271 0.0202551
f 157/475/76 156/476/74 92/477/75

vt -5.60351 0.0176223
vt -5.54554 0.0176223
vn -0.907684 0.00852288 -0.419568
vt -5.60385 0.116903
f 92/478/75 91/479/77 157/480/76

vt -5.54176 0.117304
vn -0.900988 0.00922676 -0.433746
vt -5.5997 0.119431
vt -5.54138 0.02015
f 158/481/78 157/482/76 91/483/77

vt -5.64878 0.0171796
vt -5.5908 0.0171796
vn -0.886027 0.00947861 -0.463536
vt -5.6492 0.114334
f 91/484/77 90/485/79 158/486/78

vt -5.58722 0.11452
vn -0.878676 0.0102661 -0.477308
vt -5.64515 0.11688
vt -5.58675 0.0197243
f 159/487/80 158/488/78 90/489/79

vt -5.68051 0.0163955
vt -5.62253 0.0163955
vn -0.86224 0.0105293 -0.50639
vt -5.68103 0.111191
f 90/490/79 89/491/81 159/492/80

vt -5.61928 0.111099
vn -0.854256 0.0114025 -0.519728
vt -5.6772 0.113686
vt -5.61871 0.01889
f 160/493/82 159/494/80 89/495/81

vt -5.69862 0.0151897
vt -5.64065 0.0151897
vn -0.83638 0.0116722 -0.548026
vt -5.69925 0.107399
f 89/496/81 88/497/83 160/498/82

vt -5.63786 0.106965
vn -0.827785 0.0126337 -0.560903
vt -5.69576 0.109773
vt -5.63717 0.0175623
f 161/499/84 160/500/82 88/501/83

vt -5.70308 0.0134872
vt -5.64511 0.0134872
vn -0.808508 0.0129039 -0.588344
vt -5.70383 0.102889
f 88/502/83 87/503/85 161/504/84

vt -5.64291 0.102042
vn -0.799328 0.0139571 -0.600733
vt -5.7008 0.105065
vt -5.64209 0.0156607
f 162/505/86 161/506/84 87/507/85

vt -5.69386 0.0112191
vt -5.63589 0.0112191
vn -0.77869 0.0142212 -0.627247
vt -5.69475 0.0976002
f 87/508/85 86/509/87 162/510/86

vt -5.63442 0.0962635
vn -0.768951 0.01537 -0.639123
vt -5.6923 0.0994929
vt -5.63345 0.0131095
f 163/511/88 162/512/86 86/513/87

vt -5.671 0.0083243
vt -5.61303 0.0083243
vn -0.746999 0.0156203 -0.664641
vt -5.67204 0.0914776
f 86/514/87 85/515/89 163/516/88

vt -5.6124 0.0895662
vn -0.736727 0.0168695 -0.675979
vt -5.67027 0.0929948
vt -5.61127 0.00983879
f 164/517/90 163/518/88 85/519/89

vt -5.63455 0.00475001
vt -5.57658 0.00475001
vn -0.708123 0.0177933 -0.705865
vt -5.63575 0.0844764
f 85/520/89 84/521/91 164/522/90

vt -5.5769 0.0818951
vn -0.709249 0.0177621 -0.704734
vt -5.63476 0.0855147
vt -5.57559 0.00578509
f 165/523/92 164/524/90 84/525/91

vt -5.58586 0.0768725
vt -5.58448 0.000763684
vt -5.52801 0.0730707
vn -0.679079 0.0186665 -0.733828
f 165/526/92 84/527/91 166/528/93

vt -5.52662 0.000520132
vn -0.666168 0.0200877 -0.745531
vt -5.52813 0.0728305
vt -5.58459 0.000520132
f 83/529/94 166/530/93 84/531/91

vt -5.52361 0.0680394
vt -5.52204 -0.00426964
vt -5.46577 0.0640645
vn -0.642301 0.0202896 -0.766184
f 166/532/93 83/533/94 167/534/95

vt -5.46328 -0.00528783
vn -0.628794 0.021822 -0.777266
vt -5.46499 0.0630501
vt -5.52125 -0.00528783
f 82/535/96 167/536/95 83/537/94

vt -5.4482 0.0582493
vt -5.44642 -0.0100869
vt -5.39037 0.0541108
vn -0.603976 0.0219768 -0.7967
f 167/538/95 82/539/96 168/540/97

vt -5.38671 -0.0120189
vn -0.589905 0.0236297 -0.807127
vt -5.38864 0.0521831
vt -5.44468 -0.0120189
f 81/541/98 168/542/97 82/543/96

vt -5.3598 0.0475015
vt -5.35781 -0.0166985
vt -5.30199 0.0432094
vn -0.564195 0.0237225 -0.825301
f 168/544/97 81/545/98 169/546/99

vt -5.29709 -0.0197059
vn -0.549595 0.0255077 -0.835042
vt -5.29925 0.0402066
vt -5.35506 -0.0197059
f 80/547/100 169/548/99 81/549/98

vt -5.25862 0.0358099
vt -5.25639 -0.0241003
vt -5.20081 0.0313744
vn -0.523054 0.0255203 -0.851918
f 169/550/99 80/551/100 170/552/101

vt -5.19464 -0.0283754
vn -0.50796 0.0274536 -0.860943
vt -5.19704 0.0271045
vt -5.25261 -0.0283754
f 79/553/102 170/554/101 80/555/100

vt -5.14488 0.0232053
vt -5.14241 -0.0322717
vt -5.08709 0.0186372
vn -0.48065 0.0273631 -0.876486
f 170/556/101 79/557/102 171/558/103

vt -5.07961 -0.0380499
vn -0.465101 0.0294656 -0.884767
vt -5.08226 0.0128647
vt -5.13758 -0.0380499
f 78/559/104 171/560/103 79/561/102

vt -5.01885 0.00973872
vt -5.01613 -0.0411725
vt -4.96106 0.00504892
vn -0.437084 0.0292424 -0.898945
f 171/562/103 78/563/104 172/564/105

vt -4.95227 -0.0487512
vn -0.421121 0.0315428 -0.906456
vt -4.95518 -0.0025236
vt -5.01024 -0.0487512
f 77/565/106 172/566/105 78/567/104

vt -4.88081 -0.00451397
vt -4.87784 -0.0507376
vt -4.82304 -0.00931419
vn -0.392462 0.0311479 -0.919241
f 172/568/105 77/569/106 173/570/107

vt -4.81293 -0.0605068
vn -0.376125 0.033687 -0.925956
vt -4.81611 -0.0190767
vt -4.8709 -0.0605068
f 76/571/108 173/572/107 77/573/106

vt -4.73109 -0.0194434
vt -4.72785 -0.0608689
vt -4.67333 -0.0243425
vn -0.346888 0.0330663 -0.937323
f 173/574/107 76/575/108 174/576/109

vt -4.66192 -0.0733617
vn -0.330222 0.0359038 -0.94322
vt -4.66537 -0.036828
vt -4.71989 -0.0733617
f 75/577/110 174/578/109 76/579/108

vt -4.57002 -0.0348908
vt -4.56651 -0.0714191
vt -4.51227 -0.039877
vn -0.30047 0.0349791 -0.95315
f 174/580/109 75/581/110 175/582/111

vt -4.49961 -0.087402
vn -0.28352 0.0382074 -0.958205
vt -4.50334 -0.0558521
vt -4.55758 -0.087402
f 74/583/112 175/584/111 75/585/110

vt -4.39797 -0.0506169
vt -4.39419 -0.0821606
vt -4.34022 -0.0556781
vn -0.253316 0.0368578 -0.966681
f 175/586/111 74/587/112 176/588/113

vt -4.3264 -0.102806
vn -0.236131 0.040631 -0.970871
vt -4.3304 -0.0763156
vt -4.38437 -0.102806
f 73/589/114 176/590/113 74/591/112

vt -4.21531 -0.0662318
vt -4.21125 -0.0927154
vt -4.15756 -0.0713559
vn -0.205532 0.0386537 -0.977887
f 176/592/113 73/593/114 177/594/115

vt -4.14269 -0.119972
vn -0.188163 0.0432589 -0.981185
vt -4.14697 -0.0986035
vt -4.20066 -0.119972
f 72/595/116 177/596/115 73/597/114

vt -4.02241 -0.0810208
vt -4.01809 -0.102381
vt -3.96467 -0.0861953
vn -0.157214 0.0402675 -0.986743
f 177/598/115 72/599/116 178/600/117

vt -3.94893 -0.139885
vn -0.13972 0.0463525 -0.989106
vt -3.95348 -0.12369
vt -4.0069 -0.139885
f 71/601/118 178/602/117 72/603/116

vt -3.81959 -0.0934196
vt -3.815 -0.109605
vt -3.76185 -0.098632
vn -0.108428 0.041442 -0.99324
f 178/604/117 71/605/118 179/606/119

vt -3.74559 -0.165551
vn -0.090878 0.0511968 -0.994545
vt -3.75041 -0.154569
vt -3.80356 -0.165551
f 70/607/120 179/608/119 71/609/118

vt -3.60693 -0.0989106
vt -3.60209 -0.109883
vt -3.5492 -0.104148
vn -0.0590624 0.0410844 -0.997408
f 179/610/119 70/611/120 180/612/121

vt -3.53315 -0.211266
vn -0.0501287 0.0445809 -0.997747
vt -3.53823 -0.205522
vt -3.59112 -0.211266
f 69/613/122 180/614/121 70/615/120

vt -3.38292 -0.0752555
vt -3.37782 -0.0809891
vt -3.32518 -0.0805039
vn -0.0268008 0.0238347 -0.999357
f 180/616/121 69/617/122 68/618/123

vn -0.0905357 0.995893 5.95627e-016
v 81.98 0 -88.5408
vt -3.48586 3.2143
v 81.98 0 -85.5408
vt -3.36775 3.2143
f 67/264/124 68/263/124 257/619/124 258/620/124 

vt 3.37977 -0.0707551
vn 0.059918 -0.038527 0.99746
vt 3.38485 -0.064497
vt 3.32134 -0.0702699
f 66/621/125 181/622/39 67/623/38

vt 3.55446 -0.193454
vt 3.5494 -0.199724
vt 3.61797 -0.187684
vn 0.0935 -0.0483387 0.994445
f 181/624/39 66/625/125 182/626/126

vt 3.59402 -0.091843
vn 0.107769 -0.0372946 0.993476
vt 3.59882 -0.0798235
vt 3.53025 -0.091843
f 65/627/127 182/628/126 66/629/125

vt 3.76242 -0.136823
vt 3.75765 -0.148853
vt 3.82593 -0.131086
vn 0.141748 -0.0424818 0.988991
f 182/630/126 65/631/127 183/632/128

vt 3.80646 -0.0922278
vn 0.156273 -0.0359193 0.987061
vt 3.81097 -0.0744748
vt 3.74269 -0.0922278
f 64/633/129 183/634/128 65/635/127

vt 3.96346 -0.105078
vt 3.95898 -0.12284
vt 4.02698 -0.099384
vn 0.189938 -0.0390991 0.981017
f 183/636/128 64/637/129 184/638/130

vt 4.0098 -0.0860511
vn 0.20446 -0.0342374 0.978276
vt 4.01403 -0.062607
vt 3.94603 -0.0860511
f 63/639/131 184/640/130 64/641/129

vt 4.15543 -0.0800515
vt 4.15125 -0.103504
vt 4.21895 -0.0744137
vn 0.23775 -0.0363387 0.970646
f 184/642/130 63/643/131 185/644/132

vt 4.20356 -0.0775322
vn 0.252181 -0.032412 0.967137
vt 4.2075 -0.048453
vt 4.13979 -0.0775322
f 62/645/133 185/646/132 63/647/131

vt 4.33753 -0.058171
vt 4.33364 -0.0872572
vt 4.40106 -0.0526029
vn 0.285024 -0.0338406 0.957923
f 185/648/132 62/649/133 186/650/134

vt 4.38727 -0.0681659
vn 0.299309 -0.0305187 0.953668
vt 4.39092 -0.0335214
vt 4.3235 -0.0681659
f 61/651/135 186/652/134 62/653/133

vt 4.50922 -0.0382976
vt 4.50563 -0.0729484
vt 4.57276 -0.0328124
vn 0.33163 -0.03149 0.942884
f 186/654/134 61/655/135 187/656/136

vt 4.56048 -0.0586393
vn 0.345725 -0.028598 0.9379
vt 4.56384 -0.0185122
vt 4.49671 -0.0586393
f 60/657/137 187/658/136 61/659/135

vt 4.67005 -0.0199813
vt 4.66675 -0.0601137
vt 4.73359 -0.0145921
vn 0.377447 -0.0292412 0.925569
f 187/660/136 60/661/137 188/662/138

vt 4.72279 -0.049325
vn 0.391314 -0.0266749 0.919871
vt 4.72586 -0.00381132
vt 4.65902 -0.049325
f 59/663/139 188/664/138 60/665/137

vt 4.81961 -0.00302363
vt 4.8166 -0.0485418
vt 4.88316 0.00225672
vn 0.422362 -0.0270743 0.906023
f 188/666/138 59/667/139 189/668/140

vt 4.8738 -0.0404484
vn 0.435964 -0.0247664 0.899623
vt 4.87659 0.010343
vt 4.81003 -0.0404484
f 58/669/141 189/670/140 59/671/139

vt 4.95754 0.0126681
vt 4.95482 -0.0381271
vt 5.0211 0.0178269
vn 0.466264 -0.0249802 0.884293
f 189/672/140 58/673/141 190/674/142

vt 5.01314 -0.0321552
vn 0.479567 -0.022885 0.877207
vt 5.01566 0.0237923
vt 4.94937 -0.0321552
f 57/675/143 190/676/142 58/677/141

vt 5.08351 0.0271394
vt 5.08106 -0.0288113
vt 5.14708 0.0321642
vn 0.509046 -0.0229558 0.860433
f 190/678/142 57/679/143 191/680/144

vt 5.14048 -0.0245426
vn 0.522017 -0.0210406 0.852675
vt 5.14273 0.0364273
vt 5.07671 -0.0245426
f 56/681/145 191/682/144 57/683/143

vt 5.19721 0.0404154
vt 5.19503 -0.0205571
vt 5.26079 0.0452943
vn 0.550604 -0.0210003 0.834502
f 191/684/144 56/685/145 192/686/146

vt 5.25551 -0.0176741
vn 0.563211 -0.0192414 0.826089
vt 5.25752 0.0481722
vt 5.19174 -0.0176741
f 55/687/147 192/688/146 56/689/145

vt 5.29839 0.052514
vt 5.29646 -0.0133344
vt 5.36198 0.0572352
vn 0.590838 -0.019115 0.806563
f 192/690/146 55/691/147 193/692/148

vt 5.35796 -0.0115888
vn 0.60305 -0.0174943 0.797511
vt 5.35973 0.0589764
vt 5.29419 -0.0115888
f 54/693/149 193/694/148 55/695/147

vt 5.3868 0.0634531
vt 5.3851 -0.00711379
vt 5.45041 0.0680053
vn 0.629651 -0.0173019 0.776685
f 193/696/148 54/697/149 194/698/150

vt 5.44758 -0.00630573
vn 0.641437 -0.0158057 0.767013
vt 5.44912 0.0688095
vt 5.38381 -0.00630573
f 53/699/151 194/700/150 54/701/149

vt 5.46224 0.0732543
vt 5.46076 -0.00186228
vt 5.52585 0.0776265
vn 0.66695 -0.0155634 0.74494
f 194/702/150 53/703/151 195/704/152

vt 5.52415 -0.00182728
vn 0.67828 -0.0141811 0.734666
vt 5.52548 0.0776583
vt 5.46038 -0.00182728
f 52/705/153 195/706/152 53/707/151

vt 5.52452 0.0819452
vt 5.52326 0.00245861
vt 5.58815 0.086127
vn 0.708074 -0.0132815 0.706013
f 195/708/152 52/709/153 196/710/154

vt 5.58749 0.00185881
vn 0.707045 -0.0132077 0.707045
vt 5.58862 0.0855244
vt 5.52372 0.00185881
f 51/711/155 196/712/154 52/713/153

vt 5.57368 0.00565887
vt 5.63745 0.00565887
vn 0.736001 -0.01231 0.676868
vt 5.57476 0.0893251
f 51/714/155 50/715/156 196/716/154

vt 5.63722 0.0926145
vn 0.747572 -0.011152 0.664087
vt 5.57357 0.0886333
vt 5.63627 0.00496923
f 197/717/157 196/718/154 50/719/156

vt 5.61013 0.0082923
vt 5.6739 0.0082923
vn 0.76831 -0.0108162 0.639986
vt 5.61104 0.0959381
f 50/720/156 49/721/158 197/722/157

vt 5.67284 0.0985474
vn 0.779208 -0.00974663 0.62669
vt 5.60919 0.0947763
vt 5.67206 0.00713228
f 198/723/159 197/724/157 49/725/158

vt 5.63299 0.010152
vt 5.69676 0.010152
vn 0.798769 -0.00940823 0.601564
vt 5.63374 0.101567
f 49/726/158 48/727/160 198/728/159

vt 5.69498 0.103578
vn 0.80897 -0.00842381 0.58779
vt 5.63131 0.100026
vt 5.69433 0.0086122
f 199/729/161 198/730/159 48/731/160

vt 5.64221 0.0113028
vt 5.70598 0.0113028
vn 0.827305 -0.00808903 0.561695
vt 5.64281 0.106269
f 48/732/160 47/733/162 199/734/161

vt 5.70357 0.107757
vn 0.836787 -0.00718717 0.547481
vt 5.63988 0.104432
vt 5.70305 0.00946706
f 200/735/163 199/736/161 47/737/162

vt 5.63775 0.0118166
vt 5.70152 0.0118166
vn 0.853849 -0.00686147 0.520475
vt 5.63823 0.110106
f 47/738/162 46/739/164 200/740/163

vt 5.6986 0.111141
vn 0.862594 -0.00604004 0.505861
vt 5.63491 0.108052
vt 5.69819 0.00976302
f 201/741/165 200/742/163 46/743/164

vt 5.61964 0.0117711
vt 5.6834 0.0117711
vn 0.878339 -0.0057282 0.478004
vt 5.62001 0.113149
f 46/744/164 45/745/166 201/746/165

vt 5.68009 0.113796
vn 0.886329 -0.00498551 0.46303
vt 5.61639 0.11095
vt 5.67978 0.00957332
f 202/747/167 201/748/165 45/749/166

vt 5.58791 0.0112495
vt 5.65167 0.0112495
vn 0.900715 -0.0046917 0.434385
vt 5.58819 0.115472
f 45/750/166 44/751/168 202/752/167

vt 5.64809 0.115795
vn 0.907936 -0.00402637 0.41909
vt 5.58438 0.113199
vt 5.64786 0.00897722
f 203/753/169 202/754/167 44/755/168

vt 5.54264 0.0103393
vt 5.60641 0.0103393
vn 0.920925 -0.00375425 0.389722
vt 5.54284 0.117157
f 44/756/168 43/757/170 203/758/169

vt 5.60268 0.117216
vn 0.927364 -0.00316516 0.374147
vt 5.53895 0.114877
vt 5.60251 0.00805898
f 204/759/171 203/760/169 43/761/170

vt 5.48394 0.00913162
vt 5.54771 0.00913162
vn 0.93892 -0.0029179 0.344123
vt 5.48409 0.118289
f 43/762/170 42/763/172 204/764/171

vt 5.54396 0.118141
vn 0.944567 -0.00240415 0.32831
vt 5.48022 0.116064
vt 5.54385 0.00690671
f 205/765/173 204/766/171 42/767/172

vt 5.41195 0.00771984
vt 5.47572 0.00771984
vn 0.954658 -0.00218449 0.297698
vt 5.41205 0.118955
f 42/768/172 41/769/174 205/770/173

vt 5.47208 0.118657
vn 0.959505 -0.00174534 0.281687
vt 5.40834 0.116846
vt 5.47201 0.00561135
f 206/771/175 205/772/173 41/773/174

vt 5.32685 0.00619887
vt 5.39062 0.00619887
vn 0.968138 -0.00147171 0.250413
vt 5.32691 0.119244
f 41/774/174 40/775/176 206/776/175

vt 5.38722 0.118851
vn 0.970217 -0.00122797 0.242234
vt 5.32347 0.117311
vt 5.38717 0.0042655
f 207/777/177 206/778/175 40/779/176

vt 5.2273 0.00380445
vt 5.29107 0.00380448
vn 0.980863 -0.000894148 0.194697
vt 5.29109 0.119655
vt 5.22733 0.11839
f 40/780/176 39/781/178 208/782/178 207/783/177 

vt 5.11686 0.00249645
vt 5.18063 0.00249647
vn 0.989221 -0.000515556 0.146432
vt 5.18064 0.119334
vt 5.11688 0.118347
f 39/784/178 38/785/179 209/786/179 208/787/178 

vt 4.99408 0.00138776
vt 5.05785 0.00138776
vn 0.995204 -0.000244472 0.0978168
vt 5.05785 0.118932
vt 4.99409 0.118225
f 38/788/179 37/789/180 210/790/180 209/791/179 

vt 4.85923 0.000567243
vt 4.923 0.000567244
vn 0.9988 -8.15566e-005 0.048967
vt 4.923 0.118536
vt 4.85924 0.118111
f 37/792/180 36/793/181 211/794/181 210/795/180 

vt 4.71266 0.000119979
vt 4.77643 0.000119979
vn 0.9997 -2.71993e-005 0.0244908
vt 4.77643 0.11823
vt 4.71266 0.118089
f 36/796/181 35/797/182 212/798/182 211/799/181 

vt 4.5547 0.000126197
vn 0.9997 -2.71993e-005 -0.0244908
vt 4.61847 0.000126197
vn 0.9988 -8.15566e-005 -0.048967
vt 4.61846 0.118095
vt 4.5547 0.118236
f 35/800/183 34/801/184 213/802/184 212/803/183 

vt 4.38573 0.000660344
vt 4.4495 0.000660343
vn 0.995204 -0.000244472 -0.0978168
vt 4.4495 0.118204
vt 4.38573 0.118629
f 34/804/184 33/805/185 214/806/185 213/807/184 

vt 4.20617 0.00179019
vt 4.26994 0.00179018
vn 0.989221 -0.000515556 -0.146432
vt 4.26993 0.118627
vt 4.20616 0.119334
f 33/808/185 32/809/186 215/810/186 214/811/185 

vt 4.01643 0.00357599
vt 4.0802 0.00357597
vn 0.980863 -0.000894148 -0.194697
vt 4.08018 0.119426
vt 4.01642 0.120413
f 32/812/186 31/813/187 216/814/187 215/815/186 

vt 3.81698 0.00606973
vt 3.88075 0.0060697
vn 0.970085 -0.00122779 -0.242762
vt 3.88071 0.120655
vn 0.968139 -0.00147178 -0.250408
vt 3.81696 0.12192
f 31/816/187 30/817/188 217/818/189 216/819/187 

vt 3.60519 0.0076045
vt 3.66896 0.0076045
vn 0.959386 -0.00174516 -0.282091
vt 3.60515 0.12219
f 30/820/188 29/821/190 217/822/189

vt 3.67513 0.124116
vn 0.954769 -0.00218483 -0.29734
vt 3.61138 0.125656
vt 3.67519 0.0110705
f 218/823/191 217/824/189 29/825/190

vt 3.3871 0.0112456
vt 3.45087 0.0112456
vn 0.944409 -0.0024038 -0.328764
vt 3.38703 0.124291
f 29/826/190 28/827/192 218/828/191

vt 3.45834 0.126745
vn 0.939072 -0.0029185 -0.343708
vt 3.3946 0.128556
vt 3.45844 0.0155098
f 219/829/193 218/830/191 28/831/192

vt 3.16077 0.0156696
vt 3.22454 0.0156696
vn 0.927162 -0.00316456 -0.374648
vt 3.16066 0.126904
f 28/832/192 27/833/194 219/834/193

vt 3.23334 0.129945
vn 0.921123 -0.00375524 -0.389253
vt 3.1696 0.132023
vt 3.23348 0.0207882
f 220/835/195 219/836/193 27/837/194

vt 2.92676 0.0208881
vt 2.99053 0.0208881
vn 0.907686 -0.0040254 -0.419631
vt 2.92659 0.130045
f 27/838/194 26/839/196 220/840/195

vt 3.00065 0.133739
vn 0.900965 -0.00469325 -0.433866
vt 2.93693 0.136079
vt 3.00086 0.026921
f 221/841/197 220/842/195 26/843/196

vt 2.68561 0.026902
vt 2.74938 0.026902
vn 0.886027 -0.00498402 -0.463606
vt 2.68538 0.13372
f 26/844/196 25/845/198 221/846/197

vt 2.76084 0.138136
vn 0.878645 -0.00573055 -0.47744
vt 2.69713 0.140732
vt 2.76112 0.0339132
f 222/847/199 221/848/197 25/849/198

vt 2.43792 0.0337006
vt 2.50169 0.0337006
vn 0.862238 -0.00603784 -0.506467
vt 2.43761 0.137923
f 25/850/198 24/851/200 222/852/199

vt 2.51447 0.143138
vn 0.854217 -0.00686489 -0.519871
vt 2.45077 0.145983
vt 2.51485 0.0417598
f 223/853/201 222/854/199 24/855/200

vt 2.18428 0.0412621
vt 2.24805 0.0412621
vn 0.836375 -0.00718402 -0.548111
vt 2.18387 0.14264
f 24/856/200 23/857/202 223/858/201

vt 2.26213 0.148735
vn 0.827738 -0.00809389 -0.561057
vt 2.19844 0.151824
vt 2.26261 0.0504455
f 224/859/203 223/860/201 23/861/202

vt 1.9253 0.0495525
vt 1.98907 0.0495525
vn 0.808499 -0.00841945 -0.588437
vt 1.92478 0.147842
f 23/862/202 22/863/204 224/864/203

vt 2.00441 0.154911
vn 0.799271 -0.00941495 -0.600897
vt 1.94073 0.158236
vt 2.00502 0.059945
f 225/865/205 224/866/203 22/867/204

vt 1.6616 0.0585268
vt 1.72537 0.0585268
vn 0.778678 -0.00974071 -0.627348
vt 1.66096 0.153493
f 22/868/204 21/869/206 225/870/205

vt 1.74194 0.161639
vn 0.768884 -0.0108253 -0.639297
vt 1.67827 0.165191
vt 1.74268 0.0702236
f 226/871/207 225/872/205 21/873/206

vt 1.39383 0.068128
vt 1.45759 0.068128
vn 0.746983 -0.0111441 -0.664749
vt 1.39303 0.159543
f 21/874/206 20/875/208 226/876/207

vt 1.47532 0.168883
vn 0.73665 -0.0123222 -0.676162
vt 1.41167 0.172655
vt 1.47622 0.0812374
f 227/877/209 226/878/207 20/879/208

vt 1.12262 0.0782878
vt 1.18638 0.0782878
vn 0.70807 -0.013281 -0.706017
vt 1.12166 0.165933
f 20/880/208 19/881/210 227/882/209

vt 1.20521 0.176601
vn 0.709095 -0.013246 -0.704989
vt 1.14156 0.180582
vt 1.20628 0.0929345
f 228/883/211 227/884/209 19/885/210

vt 0.867545 0.172831
vt 0.868673 0.089165
vt 0.931176 0.168649
vn 0.678984 -0.0141943 -0.734016
f 228/886/211 19/887/210 229/888/212

vt 0.912393 0.104962
vn 0.666147 -0.0155425 -0.745659
vt 0.911124 0.184448
vt 0.848624 0.104962
f 18/889/213 229/890/212 19/891/210

vt 0.59221 0.179763
vt 0.593533 0.100277
vt 0.655828 0.175391
vn 0.642196 -0.0158224 -0.766377
f 229/892/212 18/893/213 230/894/214

vt 0.63628 0.117734
vn 0.628769 -0.0172749 -0.777401
vt 0.634803 0.192851
vt 0.572512 0.117734
f 17/895/215 230/896/214 18/897/213

vt 0.315308 0.18681
vt 0.316842 0.111694
vt 0.378914 0.182258
vn 0.60386 -0.0175153 -0.796898
f 230/898/214 17/899/215 231/900/216

vt 0.358711 0.130968
vn 0.589875 -0.0190804 -0.807269
vt 0.357011 0.201535
vt 0.294943 0.130968
f 16/901/217 231/902/216 17/903/215

vt 0.0374991 0.19387
vt 0.0392588 0.123305
vt 0.101093 0.189149
vn 0.564068 -0.0192674 -0.825504
f 231/904/216 16/905/217 232/906/218

vt 0.0803554 0.144589
vn 0.54956 -0.020956 -0.835191
vt 0.0784167 0.210437
vt 0.0165869 0.144589
f 15/907/219 232/908/218 16/909/217

vt -0.240555 0.20083
vt -0.238555 0.134984
vt -0.176973 0.195952
vn 0.522916 -0.0210727 -0.852124
f 232/910/218 15/911/219 233/912/220

vt -0.198117 0.15852
vn 0.50792 -0.0228993 -0.8611
vt -0.200308 0.219492
vt -0.261886 0.15852
f 14/913/221 233/914/220 15/915/219

vt -0.51819 0.207562
vt -0.515939 0.146592
vt -0.45462 0.202537
vn 0.480501 -0.0229243 -0.876695
f 233/916/220 14/917/221 234/918/222

vt -0.476036 0.172692
vn 0.465056 -0.0249081 -0.884931
vt -0.47849 0.228643
vt -0.539805 0.172692
f 13/919/223 234/920/222 14/921/221

vt -0.794746 0.213918
vt -0.792232 0.157971
vt -0.731187 0.20876
vn 0.436925 -0.0248142 -0.899156
f 234/922/222 13/923/223 235/924/224

vt -0.752731 0.187048
vn 0.42107 -0.0269816 -0.906627
vt -0.75546 0.237843
vt -0.8165 0.187048
f 12/925/225 235/926/224 13/927/223

vt -1.06956 0.21973
vt -1.06678 0.168938
vt -1.00602 0.21445
vn 0.392293 -0.0267326 -0.919452
f 235/928/224 12/929/225 236/930/226

vt -1.02754 0.201554
vn 0.376068 -0.0291212 -0.926134
vt -1.03055 0.247072
vt -1.0913 0.201554
f 11/931/227 236/932/226 12/933/225

vt -1.34199 0.22479
vt -1.33893 0.179276
vt -1.27845 0.219402
vn 0.346709 -0.0286672 -0.937535
f 236/934/226 11/935/227 237/936/228

vt -1.29979 0.216221
vn 0.330158 -0.0313319 -0.943405
vt -1.30309 0.256353
vt -1.36356 0.216221
f 10/937/229 237/938/228 11/939/227

vt -1.61139 0.228833
vt -1.60804 0.188706
vt -1.54786 0.223349
vn 0.300282 -0.0306009 -0.953359
f 237/940/228 10/941/229 238/942/230

vt -1.56883 0.231144
vn 0.283451 -0.0336271 -0.958397
vt -1.57243 0.265794
vt -1.6326 0.231144
f 9/943/231 238/944/230 10/945/229

vt -1.87714 0.231488
vt -1.87349 0.196843
vt -1.81361 0.225921
vn 0.253121 -0.032508 -0.966888
f 238/946/230 9/947/231 239/948/232

vt -1.83402 0.246587
vn 0.236055 -0.0360383 -0.971071
vt -1.83791 0.275673
vt -1.89779 0.246587
f 8/949/233 239/950/232 9/951/231

vt -2.13863 0.23217
vt -2.13469 0.20309
vt -2.07511 0.226534
vn 0.205331 -0.0343448 -0.97809
f 239/952/232 8/953/233 240/954/234

vt -2.09471 0.263196
vn 0.188083 -0.0386454 -0.981393
vt -2.09891 0.286647
vt -2.15848 0.263196
f 7/955/235 240/956/234 8/957/233

vt -2.39532 0.229821
vt -2.39109 0.206376
vt -2.33181 0.224129
vn 0.157011 -0.0360233 -0.98694
f 240/958/234 7/959/235 241/960/236

vt -2.35028 0.282603
vn 0.139636 -0.0416971 -0.989325
vt -2.35477 0.300364
vt -2.41405 0.282603
f 6/961/237 241/962/236 7/963/235

vt -2.6468 0.222111
vt -2.64228 0.204358
vt -2.58329 0.216378
vn 0.108232 -0.0373178 -0.993425
f 241/964/236 6/965/237 242/966/238

vt -2.60012 0.309808
vn 0.0907971 -0.0464192 -0.994787
vt -2.60489 0.321837
vt -2.66388 0.309808
f 5/967/239 242/968/238 6/969/237

vt -2.89306 0.202259
vt -2.88826 0.190239
vt -2.82955 0.196499
vn 0.0589018 -0.037283 -0.997567
f 242/970/238 5/971/239 243/972/240

vt -2.84361 0.368654
vn 0.0500379 -0.040578 -0.997923
vt -2.84867 0.374922
vt -2.90737 0.368654
f 4/973/241 243/974/240 5/975/239

vt -3.13654 0.136745
vt -3.13147 0.130487
vt -3.07304 0.130973
vn 0.0265961 -0.021568 -0.999414
f 243/976/240 4/977/241 3/978/242

vn -0.0905357 0.995893 2.55986e-030
v 81.98 0 -151.541
vt -5.96617 3.2143
v 81.98 0 -148.541
vt -5.84806 3.2143
f 2/329/243 3/328/243 259/979/243 260/980/243 

