%TF.GenerationSoftware,KiCad,Pcbnew,8.0.2*%
%TF.CreationDate,2024-05-31T18:52:23+03:00*%
%TF.ProjectId,driver_1,64726976-6572-45f3-912e-6b696361645f,rev?*%
%TF.SameCoordinates,Original*%
%TF.FileFunction,Copper,L2,Bot*%
%TF.FilePolarity,Positive*%
%FSLAX46Y46*%
G04 Gerber Fmt 4.6, Leading zero omitted, Abs format (unit mm)*
G04 Created by KiCad (PCBNEW 8.0.2) date 2024-05-31 18:52:23*
%MOMM*%
%LPD*%
G01*
G04 APERTURE LIST*
G04 Aperture macros list*
%AMRoundRect*
0 Rectangle with rounded corners*
0 $1 Rounding radius*
0 $2 $3 $4 $5 $6 $7 $8 $9 X,Y pos of 4 corners*
0 Add a 4 corners polygon primitive as box body*
4,1,4,$2,$3,$4,$5,$6,$7,$8,$9,$2,$3,0*
0 Add four circle primitives for the rounded corners*
1,1,$1+$1,$2,$3*
1,1,$1+$1,$4,$5*
1,1,$1+$1,$6,$7*
1,1,$1+$1,$8,$9*
0 Add four rect primitives between the rounded corners*
20,1,$1+$1,$2,$3,$4,$5,0*
20,1,$1+$1,$4,$5,$6,$7,0*
20,1,$1+$1,$6,$7,$8,$9,0*
20,1,$1+$1,$8,$9,$2,$3,0*%
G04 Aperture macros list end*
%TA.AperFunction,ComponentPad*%
%ADD10O,1.050000X1.500000*%
%TD*%
%TA.AperFunction,ComponentPad*%
%ADD11R,1.050000X1.500000*%
%TD*%
%TA.AperFunction,ComponentPad*%
%ADD12C,1.400000*%
%TD*%
%TA.AperFunction,ComponentPad*%
%ADD13O,1.400000X1.400000*%
%TD*%
%TA.AperFunction,ComponentPad*%
%ADD14R,2.000000X1.905000*%
%TD*%
%TA.AperFunction,ComponentPad*%
%ADD15O,2.000000X1.905000*%
%TD*%
%TA.AperFunction,ComponentPad*%
%ADD16RoundRect,0.249999X0.790001X1.550001X-0.790001X1.550001X-0.790001X-1.550001X0.790001X-1.550001X0*%
%TD*%
%TA.AperFunction,ComponentPad*%
%ADD17O,2.080000X3.600000*%
%TD*%
%TA.AperFunction,ComponentPad*%
%ADD18R,1.700000X1.700000*%
%TD*%
%TA.AperFunction,ComponentPad*%
%ADD19O,1.700000X1.700000*%
%TD*%
%TA.AperFunction,ComponentPad*%
%ADD20RoundRect,0.249999X-0.790001X-1.550001X0.790001X-1.550001X0.790001X1.550001X-0.790001X1.550001X0*%
%TD*%
%TA.AperFunction,ViaPad*%
%ADD21C,2.000000*%
%TD*%
%TA.AperFunction,Conductor*%
%ADD22C,2.000000*%
%TD*%
G04 APERTURE END LIST*
D10*
%TO.P,Q7,3,C*%
%TO.N,Net-(Q7-C)*%
X9770000Y-21500000D03*
%TO.P,Q7,2,B*%
%TO.N,Net-(Q7-B)*%
X13500000Y-21500000D03*
D11*
%TO.P,Q7,1,E*%
%TO.N,Net-(Q3-G)*%
X16770000Y-21500000D03*
%TD*%
%TO.P,Q6,1,E*%
%TO.N,Net-(Q4-G)*%
X11500000Y-36500000D03*
D10*
%TO.P,Q6,2,B*%
%TO.N,Net-(Q6-B)*%
X8230000Y-36500000D03*
%TO.P,Q6,3,C*%
%TO.N,Net-(Q6-C)*%
X4500000Y-36500000D03*
%TD*%
D12*
%TO.P,R8,1*%
%TO.N,Net-(Q6-B)*%
X18120000Y-28350000D03*
D13*
%TO.P,R8,2*%
%TO.N,IN_2*%
X10500000Y-28350000D03*
%TD*%
D12*
%TO.P,R7,1*%
%TO.N,Net-(Q7-B)*%
X18120000Y-25800000D03*
D13*
%TO.P,R7,2*%
%TO.N,IN_1*%
X10500000Y-25800000D03*
%TD*%
D12*
%TO.P,R6,1*%
%TO.N,Net-(Q5-G)*%
X18120000Y-30900000D03*
D13*
%TO.P,R6,2*%
%TO.N,PWM_1*%
X10500000Y-30900000D03*
%TD*%
D12*
%TO.P,R5,1*%
%TO.N,GND*%
X24500000Y-55120000D03*
D13*
%TO.P,R5,2*%
%TO.N,Net-(Q5-G)*%
X24500000Y-47500000D03*
%TD*%
D12*
%TO.P,R4,1*%
%TO.N,GND*%
X24500000Y-33120000D03*
D13*
%TO.P,R4,2*%
%TO.N,Net-(Q3-G)*%
X24500000Y-25500000D03*
%TD*%
D12*
%TO.P,R3,1*%
%TO.N,GND*%
X24500000Y-44120000D03*
D13*
%TO.P,R3,2*%
%TO.N,Net-(Q4-G)*%
X24500000Y-36500000D03*
%TD*%
D12*
%TO.P,R2,1*%
%TO.N,Net-(Q6-C)*%
X24500000Y-11120000D03*
D13*
%TO.P,R2,2*%
%TO.N,Net-(Q1-G)*%
X24500000Y-3500000D03*
%TD*%
D12*
%TO.P,R1,1*%
%TO.N,Net-(Q2-G)*%
X24500000Y-14500000D03*
D13*
%TO.P,R1,2*%
%TO.N,Net-(Q7-C)*%
X24500000Y-22120000D03*
%TD*%
D14*
%TO.P,Q5,1,G*%
%TO.N,Net-(Q5-G)*%
X27500000Y-47500000D03*
D15*
%TO.P,Q5,2,D*%
%TO.N,Net-(Q3-S)*%
X27500000Y-50040000D03*
%TO.P,Q5,3,S*%
%TO.N,GND*%
X27500000Y-52580000D03*
%TD*%
D14*
%TO.P,Q4,1,G*%
%TO.N,Net-(Q4-G)*%
X27500000Y-36420000D03*
D15*
%TO.P,Q4,2,D*%
%TO.N,Net-(J1-Pin_2)*%
X27500000Y-38960000D03*
%TO.P,Q4,3,S*%
%TO.N,Net-(Q3-S)*%
X27500000Y-41500000D03*
%TD*%
D14*
%TO.P,Q3,1,G*%
%TO.N,Net-(Q3-G)*%
X27500000Y-25420000D03*
D15*
%TO.P,Q3,2,D*%
%TO.N,Net-(J1-Pin_1)*%
X27500000Y-27960000D03*
%TO.P,Q3,3,S*%
%TO.N,Net-(Q3-S)*%
X27500000Y-30500000D03*
%TD*%
D14*
%TO.P,Q2,1,G*%
%TO.N,Net-(Q2-G)*%
X27500000Y-14500000D03*
D15*
%TO.P,Q2,2,D*%
%TO.N,+12v*%
X27500000Y-17040000D03*
%TO.P,Q2,3,S*%
%TO.N,Net-(J1-Pin_2)*%
X27500000Y-19580000D03*
%TD*%
D14*
%TO.P,Q1,1,G*%
%TO.N,Net-(Q1-G)*%
X27500000Y-3420000D03*
D15*
%TO.P,Q1,2,D*%
%TO.N,+12v*%
X27500000Y-5960000D03*
%TO.P,Q1,3,S*%
%TO.N,Net-(J1-Pin_1)*%
X27500000Y-8500000D03*
%TD*%
D16*
%TO.P,J4,1,Pin_1*%
%TO.N,+12v*%
X15580000Y-11000000D03*
D17*
%TO.P,J4,2,Pin_2*%
%TO.N,GND*%
X10500000Y-11000000D03*
%TD*%
D18*
%TO.P,J2,1,Pin_1*%
%TO.N,IN_1*%
X6500000Y-25845000D03*
D19*
%TO.P,J2,2,Pin_2*%
%TO.N,IN_2*%
X6500000Y-28385000D03*
%TO.P,J2,3,Pin_3*%
%TO.N,PWM_1*%
X6500000Y-30925000D03*
%TD*%
D20*
%TO.P,J1,1,Pin_1*%
%TO.N,Net-(J1-Pin_1)*%
X9960000Y-45722500D03*
D17*
%TO.P,J1,2,Pin_2*%
%TO.N,Net-(J1-Pin_2)*%
X15040000Y-45722500D03*
%TD*%
D21*
%TO.N,GND*%
X11500000Y-52500000D03*
X22000000Y-52500000D03*
%TO.N,Net-(Q5-G)*%
X22000000Y-47500000D03*
X15000000Y-34000000D03*
%TO.N,Net-(J1-Pin_1)*%
X32000000Y-25500000D03*
X32000000Y-11500000D03*
%TD*%
D22*
%TO.N,Net-(Q3-S)*%
X27500000Y-30500000D02*
X30068034Y-30500000D01*
X30068034Y-30500000D02*
X32500000Y-32931966D01*
X19500000Y-53655534D02*
X19500000Y-48500000D01*
X32500000Y-32931966D02*
X32500000Y-53500000D01*
X32500000Y-53500000D02*
X28380000Y-57620000D01*
X28380000Y-57620000D02*
X23464466Y-57620000D01*
X23464466Y-57620000D02*
X19500000Y-53655534D01*
%TO.N,GND*%
X8000000Y-52500000D02*
X11500000Y-52500000D01*
X1500000Y-46000000D02*
X8000000Y-52500000D01*
X1500000Y-20000000D02*
X1500000Y-46000000D01*
X10500000Y-11000000D02*
X1500000Y-20000000D01*
%TO.N,+12v*%
X15580000Y-11000000D02*
X15580000Y-8420000D01*
X15580000Y-8420000D02*
X18000000Y-6000000D01*
X18000000Y-6000000D02*
X27500000Y-6000000D01*
%TO.N,Net-(J1-Pin_1)*%
X9960000Y-45722500D02*
X9960000Y-42595534D01*
X9960000Y-42595534D02*
X24555534Y-28000000D01*
X24555534Y-28000000D02*
X27500000Y-28000000D01*
%TO.N,GND*%
X22000000Y-52500000D02*
X22000000Y-52620000D01*
X24500000Y-55120000D02*
X22000000Y-52620000D01*
X22000000Y-52540000D02*
X22000000Y-52500000D01*
%TO.N,Net-(Q5-G)*%
X15020000Y-34000000D02*
X15000000Y-34000000D01*
X18120000Y-30900000D02*
X15020000Y-34000000D01*
X24500000Y-47500000D02*
X22500000Y-47500000D01*
%TO.N,Net-(Q6-C)*%
X4500000Y-36500000D02*
X4000000Y-36000000D01*
X4000000Y-36000000D02*
X4000000Y-22000000D01*
X4000000Y-22000000D02*
X10500000Y-15500000D01*
X10500000Y-15500000D02*
X18500000Y-15500000D01*
X18500000Y-15500000D02*
X22880000Y-11120000D01*
X22880000Y-11120000D02*
X24500000Y-11120000D01*
%TO.N,Net-(J1-Pin_1)*%
X27500000Y-27960000D02*
X29580000Y-27960000D01*
X29580000Y-27960000D02*
X32040000Y-25500000D01*
%TO.N,Net-(J1-Pin_2)*%
X27500000Y-19580000D02*
X31580000Y-19580000D01*
X15040000Y-53575534D02*
X15040000Y-45722500D01*
X31580000Y-19580000D02*
X35000000Y-23000000D01*
X35000000Y-23000000D02*
X35000000Y-54535534D01*
X35000000Y-54535534D02*
X29415534Y-60120000D01*
X29415534Y-60120000D02*
X21584466Y-60120000D01*
X21584466Y-60120000D02*
X15040000Y-53575534D01*
%TO.N,Net-(J1-Pin_1)*%
X32000000Y-11000000D02*
X32000000Y-11500000D01*
X29500000Y-8500000D02*
X32000000Y-11000000D01*
X27500000Y-8500000D02*
X29500000Y-8500000D01*
%TO.N,Net-(Q7-C)*%
X9770000Y-21500000D02*
X12270000Y-19000000D01*
X12270000Y-19000000D02*
X21380000Y-19000000D01*
X21380000Y-19000000D02*
X24500000Y-22120000D01*
%TO.N,+12v*%
X27500000Y-5960000D02*
X30960000Y-5960000D01*
X34500000Y-9500000D02*
X34500000Y-14500000D01*
X30960000Y-5960000D02*
X34500000Y-9500000D01*
X34500000Y-14500000D02*
X32000000Y-17000000D01*
X32000000Y-17000000D02*
X27500000Y-17000000D01*
%TO.N,Net-(Q1-G)*%
X27500000Y-3420000D02*
X24580000Y-3420000D01*
X24580000Y-3420000D02*
X24500000Y-3500000D01*
%TO.N,Net-(J1-Pin_2)*%
X27500000Y-19500000D02*
X27500000Y-19580000D01*
%TO.N,Net-(Q2-G)*%
X27500000Y-14500000D02*
X24500000Y-14500000D01*
%TO.N,Net-(Q3-G)*%
X16770000Y-21500000D02*
X18500000Y-21500000D01*
X18500000Y-21500000D02*
X22500000Y-25500000D01*
X22500000Y-25500000D02*
X24500000Y-25500000D01*
%TO.N,Net-(Q3-S)*%
X27500000Y-50040000D02*
X19960000Y-50040000D01*
X19960000Y-50040000D02*
X19500000Y-50500000D01*
X19500000Y-50500000D02*
X19500000Y-48500000D01*
%TO.N,Net-(Q3-G)*%
X27500000Y-25420000D02*
X24580000Y-25420000D01*
X24580000Y-25420000D02*
X24500000Y-25500000D01*
%TO.N,Net-(Q6-B)*%
X8230000Y-36500000D02*
X8230000Y-35770000D01*
X8230000Y-35770000D02*
X10500000Y-33500000D01*
X10500000Y-33500000D02*
X11500000Y-33500000D01*
X11500000Y-33500000D02*
X16650000Y-28350000D01*
X16650000Y-28350000D02*
X18120000Y-28350000D01*
%TO.N,Net-(Q4-G)*%
X24500000Y-36500000D02*
X19910398Y-36500000D01*
X19910398Y-36500000D02*
X12500000Y-43910398D01*
X12500000Y-43910398D02*
X12500000Y-48500000D01*
X12500000Y-48500000D02*
X11500000Y-49500000D01*
%TO.N,Net-(J1-Pin_2)*%
X15040000Y-45722500D02*
X15741966Y-45722500D01*
X22464466Y-39000000D02*
X27500000Y-39000000D01*
X15741966Y-45722500D02*
X22464466Y-39000000D01*
%TO.N,Net-(Q3-S)*%
X19500000Y-48500000D02*
X19500000Y-45500000D01*
X19500000Y-45500000D02*
X23500000Y-41500000D01*
X23500000Y-41500000D02*
X27500000Y-41500000D01*
%TO.N,Net-(Q4-G)*%
X8915698Y-49500000D02*
X11500000Y-49500000D01*
X7420000Y-48004302D02*
X8915698Y-49500000D01*
X7420000Y-40845534D02*
X7420000Y-48004302D01*
X11500000Y-36765534D02*
X7420000Y-40845534D01*
X11500000Y-36500000D02*
X11500000Y-36765534D01*
%TO.N,GND*%
X24500000Y-33120000D02*
X29152500Y-33120000D01*
X29152500Y-33120000D02*
X30000000Y-33967500D01*
X30000000Y-33967500D02*
X30000000Y-45047500D01*
X27500000Y-52580000D02*
X29420000Y-52580000D01*
X30000000Y-52000000D02*
X30000000Y-45047500D01*
X29420000Y-52580000D02*
X30000000Y-52000000D01*
X30000000Y-45047500D02*
X29072500Y-44120000D01*
X29072500Y-44120000D02*
X24500000Y-44120000D01*
X24500000Y-55120000D02*
X24960000Y-55120000D01*
X24960000Y-55120000D02*
X27500000Y-52580000D01*
%TO.N,Net-(Q7-B)*%
X18120000Y-25800000D02*
X15800000Y-25800000D01*
X15800000Y-25800000D02*
X13500000Y-23500000D01*
X13500000Y-23500000D02*
X13500000Y-21500000D01*
%TO.N,Net-(Q4-G)*%
X24500000Y-36500000D02*
X27420000Y-36500000D01*
X27420000Y-36500000D02*
X27500000Y-36420000D01*
%TO.N,Net-(Q5-G)*%
X24500000Y-47500000D02*
X27500000Y-47500000D01*
%TO.N,PWM_1*%
X6500000Y-30925000D02*
X10475000Y-30925000D01*
X10475000Y-30925000D02*
X10500000Y-30900000D01*
%TO.N,IN_1*%
X6500000Y-25845000D02*
X10455000Y-25845000D01*
X10455000Y-25845000D02*
X10500000Y-25800000D01*
%TO.N,IN_2*%
X6500000Y-28385000D02*
X10465000Y-28385000D01*
X10465000Y-28385000D02*
X10500000Y-28350000D01*
%TD*%
M02*
