# Alias OBJ Model File
# Exported from SketchUp, (c) 2000-2012 Trimble Navigation Limited
# File units = millimeters

mtllib crep_daydwood.mtl

g Mesh1 Model

usemtl FrontColor
v 65.9161 0 -126.796
vt -2.59512 4.99195
vn 0 -1 -0
v 65.9161 0 -124.725
vt -2.59512 4.91043
v 65.7798 0 -125.76
vt -2.58976 4.95119
f 1/1/1 2/2/1 3/3/1

v 66.3157 0 -127.76
vt -2.61085 5.02993
f 2/2/1 1/1/1 4/4/1

vt -5.64618 0
vn -0.866025 0 -0.5
vt -5.60507 0
vn -0.965926 0 -0.258819
v 65.9161 5 -126.796
vt -5.60507 0.19685
v 66.3157 5 -127.76
vt -5.64618 0.19685
f 4/5/2 1/6/3 5/7/3 6/8/2 

vt -5.28798 0
vt -5.24687 0
vn -1 0 -0
v 65.7798 5 -125.76
vt -5.24687 0.19685
vt -5.28798 0.19685
f 1/9/3 3/10/4 7/11/4 5/12/3 

vt -4.5708 0
vt -4.52969 0
vn -0.965926 0 0.258819
v 65.9161 5 -124.725
vt -4.52969 0.19685
vt -4.5708 0.19685
f 3/13/4 2/14/5 8/15/5 7/16/4 

vt -3.54354 0
v 66.3157 0 -123.76
vt -3.50243 0
vn -0.866025 0 0.5
v 66.3157 5 -123.76
vt -3.50243 0.19685
vt -3.54354 0.19685
f 2/17/5 9/18/6 10/19/6 8/20/5 

vt -2.61085 4.87245
f 2/2/1 4/4/1 9/21/1

v 66.9514 0 -128.589
vt -2.63588 5.06255
f 9/21/1 4/4/1 11/22/1

vt -5.62101 0
vn -0.707107 0 -0.707107
vt -5.5799 0
vt -5.5799 0.19685
v 66.9514 5 -128.589
vt -5.62101 0.19685
f 11/23/7 4/24/2 6/25/2 12/26/7 

vt 2.61085 5.02993
vn -2.70536e-016 1 1.14748e-031
v 66.9514 5 -122.932
vt 2.63588 4.83984
vt 2.63588 5.06255
f 6/27/8 13/28/8 12/29/8

vt 2.61085 4.87245
f 6/27/8 10/30/8 13/28/8

vt 2.59512 4.99195
f 5/31/8 10/30/8 6/27/8

vt 2.59512 4.91043
f 5/31/8 8/32/8 10/30/8

vt 2.58976 4.95119
f 8/32/8 5/31/8 7/33/8

vt -2.27619 0
v 66.9514 0 -122.932
vt -2.23508 0
vn -0.707107 0 0.707107
vt -2.23508 0.19685
vt -2.27619 0.19685
f 9/34/6 14/35/9 13/36/9 10/37/6 

vt -2.63588 4.83984
f 9/21/1 11/22/1 14/38/1

v 67.7798 0 -129.224
vt -2.6685 5.08758
f 14/38/1 11/22/1 15/39/1

vt -5.21418 0
vn -0.5 0 -0.866025
vt -5.17307 0
vt -5.17307 0.19685
v 67.7798 5 -129.224
vt -5.21418 0.19685
f 15/40/10 11/41/7 12/42/7 16/43/10 

v 67.7798 5 -122.296
vt 2.6685 4.81481
vt 2.6685 5.08758
f 12/29/8 17/44/8 16/45/8

f 12/29/8 13/28/8 17/44/8

vt -0.855122 0
v 67.7798 0 -122.296
vt -0.814011 0
vn -0.5 0 0.866025
vt -0.814011 0.19685
vt -0.855122 0.19685
f 14/46/9 18/47/11 17/48/11 13/49/9 

vt -2.6685 4.81481
f 14/38/1 15/39/1 18/50/1

v 68.7445 0 -129.624
vt -2.70648 5.10331
f 18/50/1 15/39/1 19/51/1

vt -4.45341 0
vn -0.258819 0 -0.965926
vt -4.4123 0
vt -4.4123 0.19685
v 68.7445 5 -129.624
vt -4.45341 0.19685
f 19/52/12 15/53/10 16/54/10 20/55/12 

v 68.7445 5 -121.897
vt 2.70648 4.79908
vt 2.70648 5.10331
f 16/45/8 21/56/8 20/57/8

f 16/45/8 17/44/8 21/56/8

vt 0.62282 0
v 68.7445 0 -121.897
vt 0.663931 0
vn -0.258819 0 0.965926
vt 0.663931 0.19685
vt 0.62282 0.19685
f 18/58/11 22/59/13 21/60/13 17/61/11 

vt -2.70648 4.79908
f 18/50/1 19/51/1 22/62/1

v 68.7798 0 -125.76
vt -2.70787 4.95119
f 22/62/1 19/51/1 23/63/1

v 68.8139 0 -126.019
vt -2.70921 4.96138
f 23/63/1 19/51/1 24/64/1

v 69.7798 0 -129.76
vt -2.74724 5.10867
f 24/64/1 19/51/1 25/65/1

vt -3.39055 0
vn -0.130526 0 -0.991445
vt -3.34944 0
vt -3.34944 0.19685
v 69.7798 5 -129.76
vt -3.39055 0.19685
f 25/66/14 19/67/12 20/68/12 26/69/14 

v 68.8139 5 -126.019
vt 2.70921 4.96138
vt 2.74724 5.10867
f 20/57/8 27/70/8 26/71/8

v 68.7798 5 -125.76
vt 2.70787 4.95119
f 27/70/8 20/57/8 28/72/8

f 20/57/8 21/56/8 28/72/8

v 68.8139 5 -125.501
vt 2.70921 4.941
f 28/72/8 21/56/8 29/73/8

v 69.7798 5 -121.76
vt 2.74724 4.79371
f 29/73/8 21/56/8 30/74/8

vt 2.05692 0
v 69.7798 0 -121.76
vt 2.09803 0
vn -0.130526 0 0.991445
vt 2.09803 0.19685
vt 2.05692 0.19685
f 22/75/13 31/76/15 30/77/15 21/78/13 

v 68.8139 0 -125.501
vt -2.70921 4.941
vt -2.74724 4.79371
f 22/62/1 32/79/1 31/80/1

f 32/79/1 22/62/1 23/63/1

vt 4.54511 0
vn 0.965926 0 -0.258819
vt 4.55539 0
vn 1 0 2.14162e-014
vt 4.55539 0.19685
vt 4.54511 0.19685
f 32/81/16 23/82/17 28/83/17 29/84/16 

vt 5.26228 0
vt 5.27256 0
vn 0.965926 0 0.258819
vt 5.27256 0.19685
vt 5.26228 0.19685
f 23/85/17 24/86/18 27/87/18 28/88/17 

vt 5.62049 0
v 68.9138 0 -126.26
vt 5.63077 0
vn 0.866025 0 0.5
v 68.9138 5 -126.26
vt 5.63077 0.19685
vt 5.62049 0.19685
f 24/89/18 33/90/19 34/91/19 27/92/18 

vt -2.71314 4.97088
f 24/64/1 25/65/1 33/93/1

v 69.0727 0 -126.467
vt -2.7194 4.97903
f 33/93/1 25/65/1 35/94/1

v 69.2798 0 -126.626
vt -2.72755 4.98529
f 35/94/1 25/65/1 36/95/1

v 69.521 0 -126.726
vt -2.73705 4.98922
f 36/95/1 25/65/1 37/96/1

v 69.7798 0 -126.76
vt -2.74724 4.99056
f 37/96/1 25/65/1 38/97/1

v 80.7798 0 -129.76
vt -3.18031 5.10867
f 38/97/1 25/65/1 39/98/1

v 74.5033 2.10222 -129.76
vt -2.9332 0.0827647
vn 1.58085e-015 -9.28824e-016 -1
v 75.2798 2 -129.76
vt -2.96377 0.0787402
v 76.0563 2.10222 -129.76
vt -2.99434 0.0827647
v 76.7798 2.40192 -129.76
vt -3.02283 0.0945639
v 77.4011 2.87868 -129.76
vt -3.04729 0.113334
v 77.8779 3.5 -129.76
vt -3.06606 0.137795
v 78.1776 4.22354 -129.76
vt -3.07786 0.166281
v 78.2798 5 -129.76
vt -3.08188 0.19685
v 80.7798 5 -129.76
vt -3.18031 0.19685
vt -3.18031 4.74506e-015
vt -2.74724 4.74506e-015
vt -2.74724 0.19685
v 72.2798 5 -129.76
vt -2.84566 0.19685
v 72.382 4.22354 -129.76
vt -2.84969 0.166281
v 72.6817 3.5 -129.76
vt -2.86149 0.137795
v 73.1585 2.87868 -129.76
vt -2.88026 0.113334
v 73.7798 2.40192 -129.76
vt -2.90472 0.0945639
f 40/99/20 41/100/20 42/101/20 43/102/20 44/103/20 45/104/20 46/105/20 47/106/20 48/107/20 39/108/20 25/109/20 26/110/20 49/111/20 50/112/20 51/113/20 52/114/20 53/115/20 

v 74.5033 2.10222 -121.76
vt 4.79371 -2.89731
vn 0.258819 0.965926 -1.92096e-019
v 75.2798 2 -121.76
vt 4.79371 -2.92814
vn 0.130526 0.991445 -3.80904e-019
vt 5.10867 -2.92814
vt 5.10867 -2.89731
f 54/116/21 55/117/22 41/118/22 40/119/21 

v 80.7798 5 -121.76
vt 3.18031 0.19685
vn 0 0 1
v 78.2798 5 -121.76
vt 3.08188 0.19685
v 78.1776 4.22354 -121.76
vt 3.07786 0.166281
v 77.8779 3.5 -121.76
vt 3.06606 0.137795
v 77.4011 2.87868 -121.76
vt 3.04729 0.113334
v 76.7798 2.40192 -121.76
vt 3.02283 0.0945639
v 76.0563 2.10222 -121.76
vt 2.99434 0.0827647
vt 2.96377 0.0787402
vt 2.9332 0.0827647
v 73.7798 2.40192 -121.76
vt 2.90472 0.0945639
v 73.1585 2.87868 -121.76
vt 2.88026 0.113334
v 72.6817 3.5 -121.76
vt 2.86149 0.137795
v 72.382 4.22354 -121.76
vt 2.84969 0.166281
v 72.2798 5 -121.76
vt 2.84566 0.19685
vt 2.74724 0.19685
vt 2.74724 0
v 80.7798 0 -121.76
vt 3.18031 0
f 56/120/23 57/121/23 58/122/23 59/123/23 60/124/23 61/125/23 62/126/23 55/127/23 54/128/23 63/129/23 64/130/23 65/131/23 66/132/23 67/133/23 30/134/23 31/135/23 68/136/23 

vt 3.18031 4.79371
vn -3.60715e-016 1 6.722e-032
vt 3.08188 5.10867
vt 3.08188 4.79371
f 56/137/24 47/138/24 57/139/24

v 79.8139 5 -125.501
vt 3.14228 4.941
f 47/138/24 56/137/24 69/140/24

v 79.9138 5 -125.26
vt 3.14621 4.93151
f 69/140/24 56/137/24 70/141/24

v 80.0727 5 -125.053
vt 3.15247 4.92335
f 70/141/24 56/137/24 71/142/24

v 80.2798 5 -124.894
vt 3.16062 4.9171
f 71/142/24 56/137/24 72/143/24

v 80.521 5 -124.794
vt 3.17012 4.91317
f 72/143/24 56/137/24 73/144/24

v 80.7798 5 -124.76
vt 3.18031 4.91182
f 73/144/24 56/137/24 74/145/24

v 81.8151 5 -121.897
vt 3.22107 4.79908
f 74/145/24 56/137/24 75/146/24

vt 3.7788 0
vn 0.130526 0 0.991445
v 81.8151 0 -121.897
vt 3.81991 0
vn 0.258819 0 0.965926
vt 3.81991 0.19685
vt 3.7788 0.19685
f 68/147/25 76/148/26 75/149/26 56/150/25 

vt -3.18031 4.79371
v 81.0386 0 -124.794
vt -3.1905 4.91317
vt -3.22107 4.79908
f 68/151/1 77/152/1 76/153/1

v 80.7798 0 -124.76
vt -3.18031 4.91182
f 68/151/1 78/154/1 77/152/1

v 80.521 0 -124.794
vt -3.17012 4.91317
f 68/151/1 79/155/1 78/154/1

v 80.2798 0 -124.894
vt -3.16062 4.9171
f 68/151/1 80/156/1 79/155/1

v 80.0727 0 -125.053
vt -3.15247 4.92335
f 68/151/1 81/157/1 80/156/1

v 79.9138 0 -125.26
vt -3.14621 4.93151
f 68/151/1 82/158/1 81/157/1

v 79.8139 0 -125.501
vt -3.14228 4.941
f 68/151/1 83/159/1 82/158/1

v 70.7798 0 -125.76
vt -2.78661 4.95119
f 68/151/1 84/160/1 83/159/1

v 70.7457 0 -125.501
vt -2.78526 4.941
f 68/151/1 85/161/1 84/160/1

v 70.6458 0 -125.26
vt -2.78133 4.93151
f 68/151/1 86/162/1 85/161/1

v 70.4869 0 -125.053
vt -2.77508 4.92335
f 68/151/1 87/163/1 86/162/1

v 70.2798 0 -124.894
vt -2.76692 4.9171
f 68/151/1 88/164/1 87/163/1

v 70.0386 0 -124.794
vt -2.75743 4.91317
f 68/151/1 89/165/1 88/164/1

f 31/80/1 89/165/1 68/151/1

v 69.7798 0 -124.76
vt -2.74724 4.91182
f 31/80/1 90/166/1 89/165/1

v 69.521 0 -124.794
vt -2.73705 4.91317
f 31/80/1 91/167/1 90/166/1

v 69.2798 0 -124.894
vt -2.72755 4.9171
f 31/80/1 92/168/1 91/167/1

v 69.0727 0 -125.053
vt -2.7194 4.92335
f 31/80/1 93/169/1 92/168/1

v 68.9138 0 -125.26
vt -2.71314 4.93151
f 31/80/1 94/170/1 93/169/1

f 31/80/1 32/79/1 94/170/1

vt 3.51785 0
vn 0.866025 0 -0.5
vt 3.52812 0
vt 3.52812 0.19685
v 68.9138 5 -125.26
vt 3.51785 0.19685
f 94/171/27 32/172/16 29/173/16 95/174/27 

vt 2.71314 4.93151
f 29/73/8 30/74/8 95/175/8

v 69.0727 5 -125.053
vt 2.7194 4.92335
f 95/175/8 30/74/8 96/176/8

v 69.2798 5 -124.894
vt 2.72755 4.9171
f 96/176/8 30/74/8 97/177/8

v 69.521 5 -124.794
vt 2.73705 4.91317
f 97/177/8 30/74/8 98/178/8

v 69.7798 5 -124.76
vt 2.74724 4.91182
f 98/178/8 30/74/8 99/179/8

vt 2.84566 4.79371
f 99/179/8 30/74/8 67/180/8

v 70.0386 5 -124.794
vt 2.75743 4.91317
f 99/179/8 67/180/8 100/181/8

v 70.2798 5 -124.894
vt 2.76692 4.9171
f 100/181/8 67/180/8 101/182/8

v 70.4869 5 -125.053
vt 2.77508 4.92335
f 101/182/8 67/180/8 102/183/8

v 70.6458 5 -125.26
vt 2.78133 4.93151
f 102/183/8 67/180/8 103/184/8

v 70.7457 5 -125.501
vt 2.78526 4.941
f 103/184/8 67/180/8 104/185/8

v 70.7798 5 -125.76
vt 2.78661 4.95119
f 104/185/8 67/180/8 105/186/8

vt 2.84566 5.10867
f 49/187/8 105/186/8 67/180/8

v 70.7457 5 -126.019
vt 2.78526 4.96138
f 49/187/8 106/188/8 105/186/8

v 70.6458 5 -126.26
vt 2.78133 4.97088
f 49/187/8 107/189/8 106/188/8

v 70.4869 5 -126.467
vt 2.77508 4.97903
f 49/187/8 108/190/8 107/189/8

v 70.2798 5 -126.626
vt 2.76692 4.98529
f 49/187/8 109/191/8 108/190/8

v 70.0386 5 -126.726
vt 2.75743 4.98922
f 49/187/8 110/192/8 109/191/8

f 26/71/8 110/192/8 49/187/8

v 69.7798 5 -126.76
vt 2.74724 4.99056
f 26/71/8 111/193/8 110/192/8

v 69.521 5 -126.726
vt 2.73705 4.98922
f 26/71/8 112/194/8 111/193/8

v 69.2798 5 -126.626
vt 2.72755 4.98529
f 26/71/8 113/195/8 112/194/8

v 69.0727 5 -126.467
vt 2.7194 4.97903
f 26/71/8 114/196/8 113/195/8

vt 2.71314 4.97088
f 26/71/8 34/197/8 114/196/8

f 26/71/8 27/70/8 34/197/8

vt 5.59532 0
vt 5.6056 0
vn 0.707107 0 0.707107
vt 5.6056 0.19685
vt 5.59532 0.19685
f 33/198/19 35/199/28 114/200/28 34/201/19 

vt 5.18849 0
vt 5.19876 0
vn 0.5 0 0.866025
vt 5.19876 0.19685
vt 5.18849 0.19685
f 35/202/28 36/203/29 113/204/29 114/205/28 

vt 4.42772 0
vt 4.43799 0
vt 4.43799 0.19685
vt 4.42772 0.19685
f 36/206/29 37/207/26 112/208/26 113/209/29 

vt 3.36485 0
vt 3.37513 0
vt 3.37513 0.19685
vt 3.36485 0.19685
f 37/210/26 38/211/23 111/212/23 112/213/26 

vt 2.07233 0
v 70.0386 0 -126.726
vt 2.08261 0
vt 2.08261 0.19685
vt 2.07233 0.19685
f 38/214/23 115/215/13 110/216/13 111/217/23 

vt -2.75743 4.98922
f 38/97/1 39/98/1 115/218/1

v 70.2798 0 -126.626
vt -2.76692 4.98529
f 115/218/1 39/98/1 116/219/1

v 70.4869 0 -126.467
vt -2.77508 4.97903
f 116/219/1 39/98/1 117/220/1

v 70.6458 0 -126.26
vt -2.78133 4.97088
f 117/220/1 39/98/1 118/221/1

v 70.7457 0 -126.019
vt -2.78526 4.96138
f 118/221/1 39/98/1 119/222/1

f 119/222/1 39/98/1 84/160/1

v 79.8139 0 -126.019
vt -3.14228 4.96138
f 84/160/1 39/98/1 120/223/1

v 79.9138 0 -126.26
vt -3.14621 4.97088
f 120/223/1 39/98/1 121/224/1

v 80.0727 0 -126.467
vt -3.15247 4.97903
f 121/224/1 39/98/1 122/225/1

v 80.2798 0 -126.626
vt -3.16062 4.98529
f 122/225/1 39/98/1 123/226/1

v 80.521 0 -126.726
vt -3.17012 4.98922
f 123/226/1 39/98/1 124/227/1

v 80.7798 0 -126.76
vt -3.18031 4.99056
f 124/227/1 39/98/1 125/228/1

v 81.8151 0 -129.624
vt -3.22107 5.10331
f 125/228/1 39/98/1 126/229/1

vt -2.52739 0
vn 0.258819 0 -0.965926
vt -2.48628 0
vn 0.130526 0 -0.991445
vt -2.48628 0.19685
v 81.8151 5 -129.624
vt -2.52739 0.19685
f 126/230/30 39/231/31 48/232/31 127/233/30 

vt 3.18031 5.10867
v 81.0386 5 -126.726
vt 3.1905 4.98922
vt 3.22107 5.10331
f 48/234/24 128/235/24 127/236/24

v 80.7798 5 -126.76
vt 3.18031 4.99056
f 48/234/24 129/237/24 128/235/24

v 80.521 5 -126.726
vt 3.17012 4.98922
f 48/234/24 130/238/24 129/237/24

v 80.2798 5 -126.626
vt 3.16062 4.98529
f 48/234/24 131/239/24 130/238/24

v 80.0727 5 -126.467
vt 3.15247 4.97903
f 48/234/24 132/240/24 131/239/24

v 79.9138 5 -126.26
vt 3.14621 4.97088
f 48/234/24 133/241/24 132/240/24

v 79.8139 5 -126.019
vt 3.14228 4.96138
f 48/234/24 134/242/24 133/241/24

f 47/138/24 134/242/24 48/234/24

v 79.7798 5 -125.76
vt 3.14094 4.95119
f 134/242/24 47/138/24 135/243/24

f 47/138/24 69/140/24 135/243/24

vt 4.48858 0
v 79.7798 0 -125.76
vt 4.49886 0
vt 4.49886 0.19685
vt 4.48858 0.19685
f 83/244/16 136/245/17 135/246/17 69/247/16 

vt -3.14094 4.95119
f 83/159/1 84/160/1 136/248/1

f 84/160/1 120/223/1 136/248/1

vt 5.31881 0
vt 5.32909 0
vt 5.32909 0.19685
vt 5.31881 0.19685
f 136/249/17 120/250/18 134/251/18 135/252/17 

vt 5.78622 0
vt 5.7965 0
vt 5.7965 0.19685
vt 5.78622 0.19685
f 120/253/18 121/254/19 133/255/19 134/256/18 

vt 5.85896 0
vt 5.86923 0
vt 5.86923 0.19685
vt 5.85896 0.19685
f 121/257/19 122/258/28 132/259/28 133/260/19 

vt 5.53206 0
vt 5.54234 0
vt 5.54234 0.19685
vt 5.53206 0.19685
f 122/261/28 123/262/29 131/263/29 132/264/28 

vt 4.82782 0
vt 4.8381 0
vt 4.8381 0.19685
vt 4.82782 0.19685
f 123/265/29 124/266/26 130/267/26 131/268/29 

vt 3.79422 0
vt 3.8045 0
vt 3.8045 0.19685
vt 3.79422 0.19685
f 124/269/26 125/270/23 129/271/23 130/272/26 

vt 2.5017 0
v 81.0386 0 -126.726
vt 2.51198 0
vt 2.51198 0.19685
vt 2.5017 0.19685
f 125/273/23 137/274/13 128/275/13 129/276/23 

vt -3.1905 4.98922
f 125/228/1 126/229/1 137/277/1

v 81.2798 0 -126.626
vt -3.19999 4.98529
f 137/277/1 126/229/1 138/278/1

v 81.4869 0 -126.467
vt -3.20815 4.97903
f 138/278/1 126/229/1 139/279/1

v 81.6458 0 -126.26
vt -3.2144 4.97088
f 139/279/1 126/229/1 140/280/1

v 81.7457 0 -126.019
vt -3.21834 4.96138
f 140/280/1 126/229/1 141/281/1

v 81.7798 0 -125.76
vt -3.21968 4.95119
f 141/281/1 126/229/1 142/282/1

f 76/153/1 142/282/1 126/229/1

v 81.7457 0 -125.501
vt -3.21834 4.941
f 76/153/1 143/283/1 142/282/1

v 81.6458 0 -125.26
vt -3.2144 4.93151
f 76/153/1 144/284/1 143/283/1

v 81.4869 0 -125.053
vt -3.20815 4.92335
f 76/153/1 145/285/1 144/284/1

v 81.2798 0 -124.894
vt -3.19999 4.9171
f 76/153/1 146/286/1 145/285/1

f 76/153/1 77/152/1 146/286/1

vt -4.8381 0
vt -4.82782 0
v 81.0386 5 -124.794
vt -4.82782 0.19685
v 81.2798 5 -124.894
vt -4.8381 0.19685
f 146/287/10 77/288/12 147/289/12 148/290/10 

vt -3.8045 0
vt -3.79422 0
vn 0 0 -1
vt -3.79422 0.19685
vt -3.8045 0.19685
f 77/291/12 78/292/32 74/293/32 147/294/12 

vt -2.51198 0
vt -2.5017 0
vt -2.5017 0.19685
vt -2.51198 0.19685
f 78/295/32 79/296/30 73/297/30 74/298/32 

vt -1.04862 0
vt -1.03834 0
vn 0.5 0 -0.866025
vt -1.03834 0.19685
vt -1.04862 0.19685
f 79/299/30 80/300/33 72/301/33 73/302/30 

vt 0.48585 0
vt 0.496127 0
vn 0.707107 0 -0.707107
vt 0.496127 0.19685
vt 0.48585 0.19685
f 80/303/33 81/304/34 71/305/34 72/306/33 

vt 1.98686 0
vt 1.99714 0
vt 1.99714 0.19685
vt 1.98686 0.19685
f 81/307/34 82/308/27 70/309/27 71/310/34 

vt 3.35212 0
vt 3.36239 0
vt 3.36239 0.19685
vt 3.35212 0.19685
f 82/311/27 83/312/16 69/313/16 70/314/27 

vt 3.1905 4.91317
f 74/145/24 75/146/24 147/315/24

vt 3.19999 4.9171
f 147/315/24 75/146/24 148/316/24

v 81.4869 5 -125.053
vt 3.20815 4.92335
f 148/316/24 75/146/24 149/317/24

v 81.6458 5 -125.26
vt 3.2144 4.93151
f 149/317/24 75/146/24 150/318/24

v 81.7457 5 -125.501
vt 3.21834 4.941
f 150/318/24 75/146/24 151/319/24

v 81.7798 5 -125.76
vt 3.21968 4.95119
f 151/319/24 75/146/24 152/320/24

f 127/236/24 152/320/24 75/146/24

v 81.7457 5 -126.019
vt 3.21834 4.96138
f 127/236/24 153/321/24 152/320/24

v 81.6458 5 -126.26
vt 3.2144 4.97088
f 127/236/24 154/322/24 153/321/24

v 81.4869 5 -126.467
vt 3.20815 4.97903
f 127/236/24 155/323/24 154/322/24

v 81.2798 5 -126.626
vt 3.19999 4.98529
f 127/236/24 156/324/24 155/323/24

f 127/236/24 128/235/24 156/324/24

vt 1.03834 0
vt 1.04862 0
vt 1.04862 0.19685
vt 1.03834 0.19685
f 137/325/13 138/326/11 156/327/11 128/328/13 

vt -0.496127 0
vt -0.48585 0
vt -0.48585 0.19685
vt -0.496127 0.19685
f 138/329/11 139/330/9 155/331/9 156/332/11 

vt -1.99714 0
vt -1.98686 0
vt -1.98686 0.19685
vt -1.99714 0.19685
f 139/333/9 140/334/6 154/335/6 155/336/9 

vt -3.36239 0
vt -3.35212 0
vt -3.35212 0.19685
vt -3.36239 0.19685
f 140/337/6 141/338/5 153/339/5 154/340/6 

vt -4.49886 0
vt -4.48858 0
vn -1 0 -2.14162e-014
vt -4.48858 0.19685
vt -4.49886 0.19685
f 141/341/5 142/342/35 152/343/35 153/344/5 

vt -5.32909 0
vt -5.31881 0
vt -5.31881 0.19685
vt -5.32909 0.19685
f 142/345/35 143/346/3 151/347/3 152/348/35 

vt -5.7965 0
vt -5.78622 0
vt -5.78622 0.19685
vt -5.7965 0.19685
f 143/349/3 144/350/2 150/351/2 151/352/3 

vt -5.86923 0
vt -5.85896 0
vt -5.85896 0.19685
vt -5.86923 0.19685
f 144/353/2 145/354/7 149/355/7 150/356/2 

vt -5.54234 0
vt -5.53206 0
vt -5.53206 0.19685
vt -5.54234 0.19685
f 145/357/7 146/358/10 148/359/10 149/360/7 

v 82.7798 5 -122.296
vt 3.25905 4.81481
f 127/236/24 75/146/24 157/361/24

vt 4.81241 0
v 82.7798 0 -122.296
vt 4.85352 0
vt 4.85352 0.19685
vt 4.81241 0.19685
f 76/362/26 158/363/29 157/364/29 75/365/26 

v 82.7798 0 -129.224
vt -3.25905 5.08758
vt -3.25905 4.81481
f 76/153/1 159/366/1 158/367/1

f 76/153/1 126/229/1 159/366/1

vt -1.06404 0
vt -1.02293 0
vt -1.02293 0.19685
v 82.7798 5 -129.224
vt -1.06404 0.19685
f 159/368/33 126/369/30 127/370/30 160/371/33 

vt 3.25905 5.08758
f 127/236/24 157/361/24 160/372/24

v 83.6082 5 -122.932
vt 3.29166 4.83984
f 160/372/24 157/361/24 161/373/24

vt 5.51665 0
v 83.6082 0 -122.932
vt 5.55776 0
vt 5.55776 0.19685
vt 5.51665 0.19685
f 158/374/29 162/375/28 161/376/28 157/377/29 

v 83.6082 0 -128.589
vt -3.29166 5.06255
vt -3.29166 4.83984
f 158/367/1 163/378/1 162/379/1

f 158/367/1 159/366/1 163/378/1

vt 0.470433 0
vt 0.511544 0
vt 0.511544 0.19685
v 83.6082 5 -128.589
vt 0.470433 0.19685
f 163/380/34 159/381/33 160/382/33 164/383/34 

vt 3.29166 5.06255
f 160/372/24 161/373/24 164/384/24

v 84.2439 5 -123.76
vt 3.31669 4.87245
f 164/384/24 161/373/24 165/385/24

vt 5.84354 0
v 84.2439 0 -123.76
vt 5.88465 0
vt 5.88465 0.19685
vt 5.84354 0.19685
f 162/386/28 166/387/19 165/388/19 161/389/28 

v 84.2439 0 -127.76
vt -3.31669 5.02993
vt -3.31669 4.87245
f 162/379/1 167/390/1 166/391/1

f 162/379/1 163/378/1 167/390/1

vt 1.97144 0
vt 2.01255 0
vt 2.01255 0.19685
v 84.2439 5 -127.76
vt 1.97144 0.19685
f 167/392/27 163/393/34 164/394/34 168/395/27 

vt 3.31669 5.02993
f 164/384/24 165/385/24 168/396/24

v 84.6435 5 -124.725
vt 3.33242 4.91043
f 168/396/24 165/385/24 169/397/24

vt 5.7708 0
v 84.6435 0 -124.725
vt 5.81191 0
vt 5.81191 0.19685
vt 5.7708 0.19685
f 166/398/19 170/399/18 169/400/18 165/401/19 

v 84.6435 0 -126.796
vt -3.33242 4.99195
vt -3.33242 4.91043
f 166/391/1 171/402/1 170/403/1

f 166/391/1 167/390/1 171/402/1

vt 3.3367 0
vt 3.37781 0
vt 3.37781 0.19685
v 84.6435 5 -126.796
vt 3.3367 0.19685
f 171/404/16 167/405/27 168/406/27 172/407/16 

vt 3.33242 4.99195
f 168/396/24 169/397/24 172/408/24

v 84.7798 5 -125.76
vt 3.33779 4.95119
f 172/408/24 169/397/24 173/409/24

vt 5.30339 0
v 84.7798 0 -125.76
vt 5.3445 0
vn 1 0 -1.39975e-015
vt 5.3445 0.19685
vt 5.30339 0.19685
f 170/410/18 174/411/36 173/412/36 169/413/18 

vt -3.33779 4.95119
f 170/403/1 171/402/1 174/414/1

vt 4.47317 0
vt 4.51428 0
vt 4.51428 0.19685
vt 4.47317 0.19685
f 174/415/36 171/416/16 172/417/16 173/418/36 

vt -4.55539 0
vt -4.54511 0
vt -4.54511 0.19685
vt -4.55539 0.19685
f 119/419/5 84/420/35 105/421/35 106/422/5 

vt -5.27256 0
vt -5.26228 0
vt -5.26228 0.19685
vt -5.27256 0.19685
f 84/423/35 85/424/3 104/425/3 105/426/35 

vt -5.63077 0
vt -5.62049 0
vt -5.62049 0.19685
vt -5.63077 0.19685
f 85/427/3 86/428/2 103/429/2 104/430/3 

vt -5.6056 0
vt -5.59532 0
vt -5.59532 0.19685
vt -5.6056 0.19685
f 86/431/2 87/432/7 102/433/7 103/434/2 

vt -5.19876 0
vt -5.18849 0
vt -5.18849 0.19685
vt -5.19876 0.19685
f 87/435/7 88/436/10 101/437/10 102/438/7 

vt -4.43799 0
vt -4.42772 0
vt -4.42772 0.19685
vt -4.43799 0.19685
f 88/439/10 89/440/12 100/441/12 101/442/10 

vt -3.37513 0
vt -3.36485 0
vt -3.36485 0.19685
vt -3.37513 0.19685
f 89/443/12 90/444/32 99/445/32 100/446/12 

vt -2.08261 0
vt -2.07233 0
vt -2.07233 0.19685
vt -2.08261 0.19685
f 90/447/32 91/448/30 98/449/30 99/450/32 

vt -0.648514 0
vt -0.638237 0
vt -0.638237 0.19685
vt -0.648514 0.19685
f 91/451/30 92/452/33 97/453/33 98/454/30 

vt 0.829428 0
vt 0.839705 0
vt 0.839705 0.19685
vt 0.829428 0.19685
f 92/455/33 93/456/34 96/457/34 97/458/33 

vt 2.2505 0
vt 2.26077 0
vt 2.26077 0.19685
vt 2.2505 0.19685
f 93/459/34 94/460/27 95/461/27 96/462/34 

vt -3.52812 0
vt -3.51785 0
vt -3.51785 0.19685
vt -3.52812 0.19685
f 118/463/6 119/464/5 106/465/5 107/466/6 

vt -2.26077 0
vt -2.2505 0
vt -2.2505 0.19685
vt -2.26077 0.19685
f 117/467/9 118/468/6 107/469/6 108/470/9 

vt -0.839705 0
vt -0.829428 0
vt -0.829428 0.19685
vt -0.839705 0.19685
f 116/471/11 117/472/9 108/473/9 109/474/11 

vt 0.638237 0
vt 0.648514 0
vt 0.648514 0.19685
vt 0.638237 0.19685
f 115/475/13 116/476/11 109/477/11 110/478/13 

vt 4.79371 -0.176267
vn 0.991445 0.130526 3.94209e-030
vt 4.79371 -0.2071
vn 0.965926 0.258819 1.98805e-030
vt 5.10867 -0.2071
vt 5.10867 -0.176267
f 67/479/37 66/480/38 50/481/38 49/482/37 

vt 4.79371 -0.936904
vt 4.79371 -0.967737
vn 0.866025 0.5 -0
vt 5.10867 -0.967737
vt 5.10867 -0.936904
f 66/483/38 65/484/39 51/485/39 50/486/38 

vt 4.79371 -1.63264
vt 4.79371 -1.66347
vn 0.707107 0.707107 -0
vt 5.10867 -1.66347
vt 5.10867 -1.63264
f 65/487/39 64/488/40 52/489/40 51/490/39 

vt 4.79371 -2.21607
vt 4.79371 -2.2469
vn 0.5 0.866025 -0
vt 5.10867 -2.2469
vt 5.10867 -2.21607
f 64/491/40 63/492/41 53/493/41 52/494/40 

vt 4.79371 -2.64742
vt 4.79371 -2.67825
vt 5.10867 -2.67825
vt 5.10867 -2.64742
f 63/495/41 54/496/21 40/497/21 53/498/41 

vt -4.79371 0.5666
vn -0.965926 0.258819 -0
vt -4.79371 0.597433
vn -0.991445 0.130526 -0
vt -5.10867 0.597433
vt -5.10867 0.5666
f 58/499/42 57/500/43 47/501/43 46/502/42 

vt -4.79371 1.30064
vn -0.866025 0.5 -0
vt -4.79371 1.33147
vt -5.10867 1.33147
vt -5.10867 1.30064
f 59/503/44 58/504/42 46/505/42 45/506/44 

vt -4.79371 1.94499
vn -0.707107 0.707107 -0
vt -4.79371 1.97582
vt -5.10867 1.97582
vt -5.10867 1.94499
f 60/507/45 59/508/44 45/509/44 44/510/45 

vt -4.79371 2.45574
vn -0.5 0.866025 -0
vt -4.79371 2.48657
vt -5.10867 2.48657
vt -5.10867 2.45574
f 61/511/46 60/512/45 44/513/45 43/514/46 

vt -4.79371 2.79808
vn -0.258819 0.965926 -0
vt -4.79371 2.82892
vt -5.10867 2.82892
vt -5.10867 2.79808
f 62/515/47 61/516/46 43/517/46 42/518/47 

vt -4.79371 2.94869
vn -0.130526 0.991445 -0
vt -4.79371 2.97953
vt -5.10867 2.97953
vt -5.10867 2.94869
f 55/519/48 62/520/47 42/521/47 41/522/48 

