# Alias OBJ Model File
# Exported from SketchUp, (c) 2000-2012 Trimble Navigation Limited
# File units = millimeters

mtllib bettery_holder.mtl

g Mesh1 Model

usemtl FrontColor
v 131.118 0 -85.2225
vt -5.16212 3.35522
vn 0 -1 -0
v 132.65 0 -86.7049
vt -5.22245 3.41358
v 138.582 0 -69.2225
vt -5.45598 2.72529
f 1/1/1 2/2/1 3/3/1

v 132.582 0 -87.2225
vt -5.21976 3.43396
f 2/2/1 1/1/1 4/4/1

v 132.65 0 -87.7401
vt -5.22245 3.45434
f 1/1/1 5/5/1 4/4/1

v 138.582 0 -105.222
vt -5.45598 4.14262
f 1/1/1 6/6/1 5/5/1

v 131.118 0 -89.2225
vt -5.16212 3.5127
f 1/1/1 7/7/1 6/6/1

v 130.718 0 -86.1872
vt -5.14639 3.3932
f 8/8/1 7/7/1 1/1/1

v 130.718 0 -88.2578
vt -5.14639 3.47472
f 8/8/1 9/9/1 7/7/1

v 130.582 0 -87.2225
vt -5.14102 3.43396
f 9/9/1 8/8/1 10/10/1

vt -2.73354 0
vn -1 0 -0
vt -2.69243 0
vn -0.965926 0 0.258819
v 130.718 12 -86.1872
vt -2.69243 0.472441
v 130.582 12 -87.2225
vt -2.73354 0.472441
f 10/11/2 8/12/3 11/13/3 12/14/2 

vt -1.16547 0
vt -1.12436 0
vn -0.92388 0 0.382683
v 131.118 12 -85.2225
vt -1.12436 0.472441
vt -1.16547 0.472441
f 8/15/3 1/16/4 13/17/4 11/18/3 

vt -0.858257 0
vn -0.906239 0 0.422766
vt -0.163163 0
v 138.582 12 -69.2225
vt -0.163163 0.472441
vt -0.858257 0.472441
f 1/19/5 3/20/5 14/21/5 13/22/5 

vt 5.45598 0
vn 0 0 1
v 188.582 0 -69.2225
vt 7.42449 0
v 188.582 12 -69.2225
vt 7.42449 0.472441
vt 5.45598 0.472441
f 3/23/6 15/24/6 16/25/6 14/26/6 

v 139.537 0 -70.7225
vt -5.4936 2.78435
vt -7.42449 2.72529
f 3/3/1 17/27/1 15/28/1

v 138.719 0 -72.477
vt -5.46138 2.85342
f 17/27/1 3/3/1 18/29/1

v 138.719 0 -101.968
vt -5.46138 4.01449
f 18/29/1 3/3/1 19/30/1

f 3/3/1 6/6/1 19/30/1

v 136.582 0 -87.2225
vt -5.37724 3.43396
f 3/3/1 20/31/1 6/6/1

v 136.514 0 -86.7049
vt -5.37456 3.41358
f 3/3/1 21/32/1 20/31/1

v 136.314 0 -86.2225
vt -5.36669 3.39459
f 3/3/1 22/33/1 21/32/1

v 135.996 0 -85.8083
vt -5.35418 3.37828
f 3/3/1 23/34/1 22/33/1

v 135.582 0 -85.4904
vt -5.33787 3.36577
f 3/3/1 24/35/1 23/34/1

v 135.1 0 -85.2906
vt -5.31888 3.3579
f 3/3/1 25/36/1 24/35/1

v 134.582 0 -85.2225
vt -5.2985 3.35522
f 3/3/1 26/37/1 25/36/1

v 134.064 0 -85.2906
vt -5.27812 3.3579
f 3/3/1 27/38/1 26/37/1

v 133.582 0 -85.4904
vt -5.25913 3.36577
f 3/3/1 28/39/1 27/38/1

v 133.168 0 -85.8083
vt -5.24283 3.37828
f 3/3/1 29/40/1 28/39/1

v 132.85 0 -86.2225
vt -5.23031 3.39459
f 3/3/1 30/41/1 29/40/1

f 3/3/1 2/2/1 30/41/1

vt 1.13463 0
vn 0.866025 0 -0.5
vt 1.15519 0
vn 0.965926 0 -0.258819
v 132.65 12 -86.7049
vt 1.15519 0.472441
v 132.85 12 -86.2225
vt 1.13463 0.472441
f 30/42/7 2/43/8 31/44/8 32/45/7 

vt 2.70271 0
vt 2.72326 0
vn 1 0 -1.41375e-015
v 132.582 12 -87.2225
vt 2.72326 0.472441
vt 2.70271 0.472441
f 2/46/8 4/47/9 33/48/9 31/49/8 

vt 4.08589 0
vt 4.10645 0
vn 0.965926 0 0.258819
v 132.65 12 -87.7401
vt 4.10645 0.472441
vt 4.08589 0.472441
f 4/50/9 5/51/10 34/52/10 33/53/9 

vt 5.18993 0
v 132.85 0 -88.2225
vt 5.21049 0
vn 0.866025 0 0.5
v 132.85 12 -88.2225
vt 5.21049 0.472441
vt 5.18993 0.472441
f 5/54/10 35/55/11 36/56/11 34/57/10 

vt -5.23031 3.47333
f 5/5/1 6/6/1 35/58/1

v 133.168 0 -88.6367
vt -5.24283 3.48963
f 35/58/1 6/6/1 37/59/1

v 133.582 0 -88.9545
vt -5.25913 3.50215
f 37/59/1 6/6/1 38/60/1

v 134.064 0 -89.1543
vt -5.27812 3.51001
f 38/60/1 6/6/1 39/61/1

v 134.582 0 -89.2225
vt -5.2985 3.5127
f 39/61/1 6/6/1 40/62/1

v 135.1 0 -89.1543
vt -5.31888 3.51001
f 40/62/1 6/6/1 41/63/1

v 135.582 0 -88.9545
vt -5.33787 3.50215
f 41/63/1 6/6/1 42/64/1

v 135.996 0 -88.6367
vt -5.35418 3.48963
f 42/64/1 6/6/1 43/65/1

v 136.314 0 -88.2225
vt -5.36669 3.47333
f 43/65/1 6/6/1 44/66/1

v 136.514 0 -87.7401
vt -5.37456 3.45434
f 44/66/1 6/6/1 45/67/1

f 45/67/1 6/6/1 20/31/1

vt -2.72326 0
vt -2.70271 0
v 136.582 12 -87.2225
vt -2.70271 0.472441
v 136.514 12 -87.7401
vt -2.72326 0.472441
f 45/68/3 20/69/2 46/70/2 47/71/3 

vt -4.10645 0
vt -4.08589 0
vn -0.965926 0 -0.258819
v 136.514 12 -86.7049
vt -4.08589 0.472441
vt -4.10645 0.472441
f 20/72/2 21/73/12 48/74/12 46/75/2 

vt -5.21049 0
vt -5.18993 0
vn -0.866025 0 -0.5
v 136.314 12 -86.2225
vt -5.18993 0.472441
vt -5.21049 0.472441
f 21/76/12 22/77/13 49/78/13 48/79/12 

vt -5.96014 0
vt -5.93959 0
vn -0.707107 0 -0.707107
v 135.996 12 -85.8083
vt -5.93959 0.472441
vt -5.96014 0.472441
f 22/80/13 23/81/14 50/82/14 49/83/13 

vt -6.30432 0
vt -6.28377 0
vn -0.5 0 -0.866025
v 135.582 12 -85.4904
vt -6.28377 0.472441
vt -6.30432 0.472441
f 23/84/14 24/85/15 51/86/15 50/87/14 

vt -6.21957 0
vt -6.19902 0
vn -0.258819 0 -0.965926
v 135.1 12 -85.2906
vt -6.19902 0.472441
vt -6.21957 0.472441
f 24/88/15 25/89/16 52/90/16 51/91/15 

vt -5.71167 0
vt -5.69112 0
vn 5.64101e-015 0 -1
v 134.582 12 -85.2225
vt -5.69112 0.472441
vt -5.71167 0.472441
f 25/92/16 26/93/17 53/94/17 52/95/16 

vt -4.81523 0
vt -4.79467 0
vn 0.258819 0 -0.965926
v 134.064 12 -85.2906
vt -4.79467 0.472441
vt -4.81523 0.472441
f 26/96/17 27/97/18 54/98/18 53/99/17 

vt -3.59134 0
vt -3.57078 0
vn 0.5 0 -0.866025
v 133.582 12 -85.4904
vt -3.57078 0.472441
vt -3.59134 0.472441
f 27/100/18 28/101/19 55/102/19 54/103/18 

vt -2.1234 0
vt -2.10285 0
vn 0.707107 0 -0.707107
v 133.168 12 -85.8083
vt -2.10285 0.472441
vt -2.1234 0.472441
f 28/104/19 29/105/20 56/106/20 55/107/19 

vt -0.511461 0
vt -0.490906 0
vt -0.490906 0.472441
vt -0.511461 0.472441
f 29/108/20 30/109/7 32/110/7 56/111/20 

vt 5.23031 3.39459
vn 0 1 -0
v 132.684 12 -84.2311
vt 5.22377 3.31619
vt 5.24283 3.37828
f 32/112/21 57/113/21 56/114/21

vt 5.22245 3.41358
f 57/113/21 32/112/21 31/115/21

vt 5.21976 3.43396
f 33/116/21 57/113/21 31/115/21

v 131.118 12 -89.2225
vt 5.16212 3.5127
f 58/117/21 57/113/21 33/116/21

vt 5.16212 3.35522
f 58/117/21 13/118/21 57/113/21

v 130.718 12 -88.2578
vt 5.14639 3.47472
f 59/119/21 13/118/21 58/117/21

vt 5.14639 3.3932
f 59/119/21 11/120/21 13/118/21

vt 5.14102 3.43396
f 11/120/21 59/119/21 12/121/21

vt -4.11673 0
vt -4.07562 0
vt -4.07562 0.472441
vt -4.11673 0.472441
f 9/122/12 10/123/2 12/124/2 59/125/12 

vt -5.22077 0
vn -0.92388 0 -0.382683
vt -5.17966 0
vt -5.17966 0.472441
vt -5.22077 0.472441
f 7/126/22 9/127/12 59/128/12 58/129/22 

vt -6.06081 0
vn -0.906239 0 -0.422766
vt -5.36571 0
vt -5.36571 0.472441
v 138.582 12 -105.222
vt -6.06081 0.472441
f 6/130/23 7/131/23 58/132/23 60/133/23 

v 132.684 12 -90.2139
vt 5.22377 3.55173
vt 5.45598 4.14262
f 58/117/21 61/134/21 60/135/21

f 61/134/21 58/117/21 33/116/21

vt 5.22245 3.45434
f 61/134/21 33/116/21 34/136/21

vt 5.23031 3.47333
f 36/137/21 61/134/21 34/136/21

v 133.168 12 -88.6367
vt 5.24283 3.48963
f 61/134/21 36/137/21 62/138/21

vt 5.93959 0
vt 5.96014 0
vn 0.707107 0 0.707107
vt 5.96014 0.472441
vt 5.93959 0.472441
f 35/139/11 37/140/24 62/141/24 36/142/11 

vt 6.28377 0
vt 6.30432 0
vn 0.5 0 0.866025
v 133.582 12 -88.9545
vt 6.30432 0.472441
vt 6.28377 0.472441
f 37/143/24 38/144/25 63/145/25 62/146/24 

vt 6.19902 0
vt 6.21957 0
vn 0.258819 0 0.965926
v 134.064 12 -89.1543
vt 6.21957 0.472441
vt 6.19902 0.472441
f 38/147/25 39/148/26 64/149/26 63/150/25 

vt 5.69112 0
vt 5.71167 0
vn 5.64101e-015 0 1
v 134.582 12 -89.2225
vt 5.71167 0.472441
vt 5.69112 0.472441
f 39/151/26 40/152/27 65/153/27 64/154/26 

vt 4.79467 0
vt 4.81523 0
vn -0.258819 0 0.965926
v 135.1 12 -89.1543
vt 4.81523 0.472441
vt 4.79467 0.472441
f 40/155/27 41/156/28 66/157/28 65/158/27 

vt 3.57078 0
vt 3.59134 0
vn -0.5 0 0.866025
v 135.582 12 -88.9545
vt 3.59134 0.472441
vt 3.57078 0.472441
f 41/159/28 42/160/29 67/161/29 66/162/28 

vt 2.10285 0
vt 2.1234 0
vn -0.707107 0 0.707107
v 135.996 12 -88.6367
vt 2.1234 0.472441
vt 2.10285 0.472441
f 42/163/29 43/164/30 68/165/30 67/166/29 

vt 0.490906 0
vt 0.511461 0
vn -0.866025 0 0.5
v 136.314 12 -88.2225
vt 0.511461 0.472441
vt 0.490906 0.472441
f 43/167/30 44/168/31 69/169/31 68/170/30 

vt -1.15519 0
vt -1.13463 0
vt -1.13463 0.472441
vt -1.15519 0.472441
f 44/171/31 45/172/3 47/173/3 69/174/31 

v 136.697 12 -89.3377
vt 5.38178 3.51723
vt 5.36669 3.47333
vt 5.37456 3.45434
f 70/175/21 69/176/21 47/177/21

v 136.078 12 -89.8131
vt 5.35739 3.53595
f 71/178/21 69/176/21 70/175/21

vt 5.35418 3.48963
f 71/178/21 68/179/21 69/176/21

vt 5.33787 3.50215
f 71/178/21 67/180/21 68/179/21

v 135.356 12 -90.1119
vt 5.32898 3.54771
f 72/181/21 67/180/21 71/178/21

vt 5.31888 3.51001
f 72/181/21 66/182/21 67/180/21

vt 5.2985 3.5127
f 72/181/21 65/183/21 66/182/21

v 134.582 12 -90.2139
vt 5.2985 3.55173
f 73/184/21 65/183/21 72/181/21

vt 5.27812 3.51001
f 73/184/21 64/185/21 65/183/21

vt 5.25913 3.50215
f 73/184/21 63/186/21 64/185/21

f 73/184/21 62/138/21 63/186/21

f 61/134/21 62/138/21 73/184/21

v 134.582 1 -90.2139
vt -5.2985 0.0393701
vn 0 0 -1
v 132.684 1 -90.2139
vt -5.22377 0.0393701
vt -5.22377 0.472441
vt -5.2985 0.472441
f 74/187/32 75/188/32 61/189/32 73/190/32 

v 139.219 1 -104.222
vt 5.48106 4.10325
f 74/184/21 76/191/21 75/134/21

v 135.356 1 -90.1119
f 76/191/21 74/184/21 77/181/21

vt -4.82032 0.0393701
vn 0.130526 0 -0.991445
vt -4.78958 0.0393701
vt -4.78958 0.472441
vt -4.82032 0.472441
f 77/192/33 74/193/33 73/194/33 72/195/33 

v 136.078 1 -89.8131
vt -3.59643 0.0393701
vn 0.382683 0 -0.92388
vt -3.56569 0.0393701
vt -3.56569 0.472441
vt -3.59643 0.472441
f 78/196/34 77/197/34 72/198/34 71/199/34 

v 138.719 1 -101.968
vt 5.46138 4.01449
f 79/200/21 77/181/21 78/178/21

f 76/191/21 77/181/21 79/200/21

v 139.537 1 -103.722
vt 5.4936 4.08356
f 76/191/21 79/200/21 80/201/21

vt 6.02319 0.0393701
vn 0.906239 0 0.422766
vt 5.94697 0.0393701
vt 5.94697 0
v 139.537 0 -103.722
vt 6.02319 0
f 80/202/35 79/203/35 19/204/35 81/205/35 

vt 4.01449 0.0393701
vn 1 0 -0
v 138.719 1 -72.477
vt 2.85342 0.0393701
vt 2.85342 0
vt 4.01449 0
f 79/206/36 82/207/36 18/208/36 19/209/36 

v 137.573 1 -87.2225
vt 5.41627 3.43396
vt 5.46138 2.85342
f 79/200/21 83/210/21 82/211/21

v 137.471 1 -87.9967
vt 5.41226 3.46444
f 79/200/21 84/212/21 83/210/21

v 137.173 1 -88.7182
vt 5.4005 3.49284
f 79/200/21 85/213/21 84/212/21

v 136.697 1 -89.3377
f 79/200/21 86/175/21 85/213/21

f 79/200/21 78/178/21 86/175/21

vt -2.1285 0.0393701
vn 0.608761 0 -0.793353
vt -2.09775 0.0393701
vt -2.09775 0.472441
vt -2.1285 0.472441
f 86/214/37 78/215/37 71/216/37 70/217/37 

vt -0.516556 0.0393701
vn 0.793353 0 -0.608761
vt -0.485812 0.0393701
vt -0.485812 0.472441
v 137.173 12 -88.7182
vt -0.516556 0.472441
f 85/218/38 86/219/38 70/220/38 87/221/38 

v 136.697 12 -85.1073
vt 5.38178 3.35068
f 70/175/21 88/222/21 87/213/21

vt 5.37724 3.43396
f 46/223/21 88/222/21 70/175/21

vt 5.37456 3.41358
f 48/224/21 88/222/21 46/223/21

vt 5.36669 3.39459
f 49/225/21 88/222/21 48/224/21

v 136.078 12 -84.6319
vt 5.35739 3.33196
f 49/225/21 89/226/21 88/222/21

vt 5.35418 3.37828
f 50/227/21 89/226/21 49/225/21

vt 5.33787 3.36577
f 51/228/21 89/226/21 50/227/21

v 135.356 12 -84.333
vt 5.32898 3.3202
f 51/228/21 90/229/21 89/226/21

vt 5.31888 3.3579
f 52/230/21 90/229/21 51/228/21

v 134.582 12 -84.2311
vt 5.2985 3.31619
f 52/230/21 91/231/21 90/229/21

vt 5.2985 3.35522
f 53/232/21 91/231/21 52/230/21

vt 5.27812 3.3579
f 54/233/21 91/231/21 53/232/21

vt 5.25913 3.36577
f 55/234/21 91/231/21 54/233/21

f 56/114/21 91/231/21 55/234/21

f 56/114/21 57/113/21 91/231/21

v 132.684 1 -84.2311
vt 5.22377 0.0393701
v 134.582 1 -84.2311
vt 5.2985 0.0393701
vt 5.2985 0.472441
vt 5.22377 0.472441
f 92/235/6 93/236/6 91/237/6 57/238/6 

v 139.219 1 -70.2225
vt 5.48106 2.76466
f 94/239/21 93/231/21 92/113/21

v 135.356 1 -84.333
f 93/231/21 94/239/21 95/229/21

f 95/229/21 94/239/21 82/211/21

v 139.537 1 -70.7225
vt 5.4936 2.78435
f 82/211/21 94/239/21 96/240/21

v 187.943 1 -70.2225
vt 7.39934 2.76466
f 96/240/21 94/239/21 97/241/21

vt -7.39934 0.0393701
vt -5.48106 0.0393701
v 139.219 12 -70.2225
vt -5.48106 0.472441
v 187.943 12 -70.2225
vt -7.39934 0.472441
f 97/242/32 94/243/32 98/244/32 99/245/32 

vt 0.796822 0.0393701
vn 0.906239 -2.24599e-018 -0.422766
vt 0.796822 0.472441
vt 0.18824 0.472441
vt 0.18824 0.0393701
f 92/246/39 57/247/39 98/248/39 94/249/39 

vt 5.45598 2.72529
f 57/113/21 14/250/21 98/239/21

f 57/113/21 13/118/21 14/250/21

vt 7.42449 2.72529
f 98/239/21 14/250/21 16/251/21

f 98/239/21 16/251/21 99/241/21

v 194.43 12 -84.2168
vt 7.65473 3.31562
f 99/241/21 16/251/21 100/252/21

v 195.926 12 -85.0659
vt 7.71362 3.34905
f 100/252/21 16/251/21 101/253/21

vt 5.59494 0
vn 0.90727 0 0.420549
v 195.926 0 -85.0659
vt 6.28245 0
vt 6.28245 0.472441
vt 5.59494 0.472441
f 15/254/40 102/255/40 101/256/40 16/257/40 

v 192.582 0 -85.2225
vt -7.58197 3.35522
vt -7.71362 3.34905
f 15/28/1 103/258/1 102/259/1

v 192.064 0 -85.2906
vt -7.56159 3.3579
f 103/258/1 15/28/1 104/260/1

v 191.582 0 -85.4904
vt -7.5426 3.36577
f 104/260/1 15/28/1 105/261/1

v 191.168 0 -85.8083
vt -7.52629 3.37828
f 105/261/1 15/28/1 106/262/1

v 190.85 0 -86.2225
vt -7.51378 3.39459
f 106/262/1 15/28/1 107/263/1

v 190.65 0 -86.7049
vt -7.50591 3.41358
f 107/263/1 15/28/1 108/264/1

v 190.582 0 -87.2225
vt -7.50323 3.43396
f 108/264/1 15/28/1 109/265/1

v 188.582 0 -105.222
vt -7.42449 4.14262
f 15/28/1 110/266/1 109/265/1

v 188.444 0 -72.4919
vt -7.41906 2.85401
f 15/28/1 111/267/1 110/266/1

v 187.624 0 -70.7225
vt -7.38677 2.78435
f 15/28/1 112/268/1 111/267/1

v 187.444 0 -70.7225
vt -7.37969 2.78435
f 15/28/1 113/269/1 112/268/1

v 139.719 0 -70.7225
vt -5.50075 2.78435
f 15/28/1 114/270/1 113/269/1

f 15/28/1 17/27/1 114/270/1

vt -5.4936 0.0393701
v 139.719 1 -70.7225
vt -5.50075 0.0393701
vt -5.50075 0
vt -5.4936 0
f 96/271/32 115/272/32 114/273/32 17/274/32 

vt 5.50075 2.78435
f 96/240/21 97/241/21 115/275/21

v 139.719 1 -103.722
vt 5.50075 4.08356
f 115/275/21 97/241/21 116/276/21

v 187.444 1 -70.7225
vt 7.37969 2.78435
f 116/276/21 97/241/21 117/277/21

v 187.624 1 -70.7225
vt 7.38677 2.78435
f 117/277/21 97/241/21 118/278/21

v 188.444 1 -72.4919
vt 7.41906 2.85401
f 118/278/21 97/241/21 119/279/21

v 194.43 1 -84.2168
f 119/279/21 97/241/21 120/252/21

vt -5.62008 0.472441
vn -0.90727 0 -0.420549
vt -6.22735 0.472441
vt -6.22735 0.0393701
vt -5.62008 0.0393701
f 99/280/41 100/281/41 120/282/41 97/283/41 

v 192.691 1 -84.2168
vt 7.58625 0.0393701
vt 7.65473 0.0393701
vt 7.65473 0.472441
v 192.691 12 -84.2168
vt 7.58625 0.472441
f 121/284/6 120/285/6 100/286/6 122/287/6 

vt 7.58625 3.31562
f 119/279/21 120/252/21 121/288/21

v 191.909 1 -84.291
vt 7.55548 3.31855
f 119/279/21 121/288/21 123/289/21

vt 7.20777 0.0393701
vn -0.223704 0 0.974657
vt 7.23869 0.0393701
vn -0.0945721 0 0.995518
vt 7.23869 0.472441
v 191.909 12 -84.291
vt 7.20777 0.472441
f 123/290/42 121/291/43 122/292/43 124/293/42 

v 192.064 12 -85.2906
vt 7.56159 3.3579
f 125/294/21 124/289/21 122/288/21

v 191.582 12 -85.4904
vt 7.5426 3.36577
f 126/295/21 124/289/21 125/294/21

v 191.173 12 -84.5651
vt 7.52651 3.32933
f 126/295/21 127/296/21 124/289/21

v 191.168 12 -85.8083
vt 7.52629 3.37828
f 128/297/21 127/296/21 126/295/21

v 190.85 12 -86.2225
vt 7.51378 3.39459
f 129/298/21 127/296/21 128/297/21

v 190.65 12 -86.7049
vt 7.50591 3.41358
f 130/299/21 127/296/21 129/298/21

v 190.534 12 -85.0202
vt 7.50132 3.34725
f 130/299/21 131/300/21 127/296/21

v 190.582 12 -87.2225
vt 7.50323 3.43396
f 131/300/21 130/299/21 132/301/21

vt 2.40466 0
vt 2.42521 0
vt 2.42521 0.472441
vt 2.40466 0.472441
f 108/302/8 109/303/36 132/304/36 130/305/8 

vt 4.38395 0
v 190.65 0 -87.7401
vt 4.4045 0
v 190.65 12 -87.7401
vt 4.4045 0.472441
vt 4.38395 0.472441
f 109/306/36 133/307/10 134/308/10 132/309/36 

vt -7.50591 3.45434
f 109/265/1 110/266/1 133/310/1

v 190.85 0 -88.2225
vt -7.51378 3.47333
f 133/310/1 110/266/1 135/311/1

v 191.168 0 -88.6367
vt -7.52629 3.48963
f 135/311/1 110/266/1 136/312/1

v 191.582 0 -88.9545
vt -7.5426 3.50215
f 136/312/1 110/266/1 137/313/1

v 192.064 0 -89.1543
vt -7.56159 3.51001
f 137/313/1 110/266/1 138/314/1

v 192.582 0 -89.2225
vt -7.58197 3.5127
f 138/314/1 110/266/1 139/315/1

v 196.046 0 -89.2225
vt -7.71835 3.5127
f 139/315/1 110/266/1 140/316/1

vt -0.0797152 0
vn 0.906239 0 -0.422766
vt 0.615379 0
v 188.582 12 -105.222
vt 0.615379 0.472441
v 196.046 12 -89.2225
vt -0.0797152 0.472441
f 140/317/44 110/318/44 141/319/44 142/320/44 

vt -7.42449 0
vt -5.45598 0
vt -5.45598 0.472441
vt -7.42449 0.472441
f 110/321/32 6/322/32 60/323/32 141/324/32 

vt -5.4936 4.08356
f 81/325/1 6/6/1 110/266/1

f 19/30/1 6/6/1 81/325/1

v 139.719 0 -103.722
vt -5.50075 4.08356
f 81/325/1 110/266/1 143/326/1

f 143/326/1 110/266/1 114/270/1

v 187.444 0 -103.722
vt -7.37969 4.08356
f 114/270/1 110/266/1 144/327/1

v 187.627 0 -103.722
vt -7.38687 4.08356
f 144/327/1 110/266/1 145/328/1

v 188.444 0 -101.97
vt -7.41906 4.01456
f 145/328/1 110/266/1 146/329/1

f 146/329/1 110/266/1 111/267/1

vt -2.85401 0.0393701
v 188.444 1 -101.97
vt -4.01456 0.0393701
vt -4.01456 0
vt -2.85401 0
f 119/330/2 147/331/2 146/332/2 111/333/2 

v 189.576 1 -87.1137
vt 7.46363 3.42967
vt 7.41906 4.01456
f 119/279/21 148/334/21 147/335/21

v 189.707 1 -86.3395
vt 7.46877 3.39919
f 119/279/21 149/336/21 148/334/21

v 190.033 1 -85.6254
vt 7.48163 3.37108
f 119/279/21 150/337/21 149/336/21

v 190.534 1 -85.0202
f 119/279/21 151/300/21 150/337/21

v 191.173 1 -84.5651
f 119/279/21 152/296/21 151/300/21

f 119/279/21 123/289/21 152/296/21

vt 5.89127 0.0393701
vn -0.468341 0 0.883548
vt 5.92219 0.0393701
vt 5.92219 0.472441
vt 5.89127 0.472441
f 152/338/45 123/339/42 124/340/42 127/341/45 

vt 4.17224 0.0393701
vn -0.681062 0 0.732226
vt 4.20315 0.0393701
vt 4.20315 0.472441
vt 4.17224 0.472441
f 151/342/46 152/343/45 127/344/45 131/345/46 

vt 2.16782 0.0393701
vn -0.847369 0 0.531004
vt 2.19873 0.0393701
vt 2.19873 0.472441
v 190.033 12 -85.6254
vt 2.16782 0.472441
f 150/346/47 151/347/46 131/348/46 153/349/47 

v 190.38 12 -89.2709
vt 7.49526 3.5146
f 154/350/21 153/337/21 131/300/21

v 189.925 12 -88.6311
vt 7.47735 3.48941
f 155/351/21 153/337/21 154/350/21

v 189.707 12 -86.3395
f 155/351/21 156/336/21 153/337/21

v 189.651 12 -87.8953
vt 7.46656 3.46045
f 157/352/21 156/336/21 155/351/21

v 189.576 12 -87.1137
f 156/336/21 157/352/21 158/334/21

v 189.651 1 -87.8953
vt -4.15106 0.0393701
vn -0.974657 0 -0.223704
vt -4.12015 0.0393701
vn -0.999345 0 0.0361782
vt -4.12015 0.472441
vt -4.15106 0.472441
f 159/353/48 148/354/49 158/355/49 157/356/48 

f 159/352/21 147/335/21 148/334/21

v 189.925 1 -88.6311
f 160/351/21 147/335/21 159/352/21

v 190.38 1 -89.2709
f 161/350/21 147/335/21 160/351/21

v 190.985 1 -89.7711
vt 7.51909 3.5343
f 162/357/21 147/335/21 161/350/21

v 191.699 1 -90.0976
vt 7.5472 3.54715
f 163/358/21 147/335/21 162/357/21

v 192.473 1 -90.2282
vt 7.57768 3.55229
f 164/359/21 147/335/21 163/358/21

v 194.473 1 -90.2282
vt 7.65644 3.55229
f 165/360/21 147/335/21 164/359/21

v 187.945 1 -104.222
vt 7.39941 4.10325
f 166/361/21 147/335/21 165/360/21

v 187.627 1 -103.722
vt 7.38687 4.08356
f 166/361/21 167/362/21 147/335/21

v 187.444 1 -103.722
vt 7.37969 4.08356
f 166/361/21 168/363/21 167/362/21

f 166/361/21 116/276/21 168/363/21

f 166/361/21 80/201/21 116/276/21

f 76/191/21 80/201/21 166/361/21

vt 5.48106 0.0393701
vt 7.39941 0.0393701
v 187.945 12 -104.222
vt 7.39941 0.472441
v 139.219 12 -104.222
vt 5.48106 0.472441
f 76/364/6 166/365/6 169/366/6 170/367/6 

vt 0.017658 0.0393701
v 194.473 12 -90.2282
vt 0.017658 0.472441
vt -0.590302 0.472441
vt -0.590302 0.0393701
f 165/368/5 171/369/5 169/370/5 166/371/5 

vt -7.65644 0.0393701
vt -7.57768 0.0393701
v 192.473 12 -90.2282
vt -7.57768 0.472441
vt -7.65644 0.472441
f 165/372/32 164/373/32 172/374/32 171/375/32 

vt -8.06293 0.0393701
vn -0.166309 0 -0.986074
vt -8.03202 0.0393701
vn -0.293595 0 -0.95593
v 191.699 12 -90.0976
vt -8.03202 0.472441
vt -8.06293 0.472441
f 164/376/50 163/377/51 173/378/51 172/379/50 

vt -8.33876 0.0393701
vt -8.30785 0.0393701
vn -0.531004 0 -0.847369
v 190.985 12 -89.7711
vt -8.30785 0.472441
vt -8.33876 0.472441
f 163/380/51 162/381/52 174/382/52 173/383/51 

vt -8.04737 0.0393701
vt -8.01645 0.0393701
vn -0.732226 0 -0.681062
vt -8.01645 0.472441
vt -8.04737 0.472441
f 162/384/52 161/385/53 154/386/53 174/387/52 

vt -7.20861 0.0393701
vt -7.1777 0.0393701
vn -0.883548 0 -0.468341
vt -7.1777 0.472441
vt -7.20861 0.472441
f 161/388/53 160/389/54 155/390/54 154/391/53 

vt -5.87966 0.0393701
vt -5.84874 0.0393701
vt -5.84874 0.472441
vt -5.87966 0.472441
f 160/392/54 159/393/48 157/394/48 155/395/54 

vt 7.50591 3.45434
f 154/350/21 134/396/21 174/357/21

f 154/350/21 132/301/21 134/396/21

f 154/350/21 131/300/21 132/301/21

v 190.85 12 -88.2225
vt 7.51378 3.47333
f 174/357/21 134/396/21 175/397/21

vt 6.06378 0
vt 6.08433 0
vt 6.08433 0.472441
vt 6.06378 0.472441
f 133/398/10 135/399/11 175/400/11 134/401/10 

vt 7.32967 0
vt 7.35023 0
v 191.168 12 -88.6367
vt 7.35023 0.472441
vt 7.32967 0.472441
f 135/402/11 136/403/24 176/404/24 175/405/11 

vt 8.09536 0
vt 8.11592 0
v 191.582 12 -88.9545
vt 8.11592 0.472441
vt 8.09536 0.472441
f 136/406/24 137/407/25 177/408/25 176/409/24 

vt 8.30867 0
vt 8.32922 0
v 192.064 12 -89.1543
vt 8.32922 0.472441
vt 8.30867 0.472441
f 137/410/25 138/411/26 178/412/26 177/413/25 

vt 7.95505 0
vt 7.9756 0
v 192.582 12 -89.2225
vt 7.9756 0.472441
vt 7.95505 0.472441
f 138/414/26 139/415/27 179/416/27 178/417/26 

vt 7.0586 0
v 193.1 0 -89.1543
vt 7.07916 0
v 193.1 12 -89.1543
vt 7.07916 0.472441
vt 7.0586 0.472441
f 139/418/27 180/419/28 181/420/28 179/421/27 

vt -7.60235 3.51001
f 139/315/1 140/316/1 180/422/1

v 193.582 0 -88.9545
vt -7.62134 3.50215
f 180/422/1 140/316/1 182/423/1

v 193.996 0 -88.6367
vt -7.63765 3.48963
f 182/423/1 140/316/1 183/424/1

v 194.314 0 -88.2225
vt -7.65016 3.47333
f 183/424/1 140/316/1 184/425/1

v 194.514 0 -87.7401
vt -7.65802 3.45434
f 184/425/1 140/316/1 185/426/1

v 194.582 0 -87.2225
vt -7.66071 3.43396
f 185/426/1 140/316/1 186/427/1

f 186/427/1 140/316/1 102/259/1

v 196.446 0 -86.1872
vt -7.73408 3.3932
f 102/259/1 140/316/1 187/428/1

v 196.446 0 -88.2578
vt -7.73408 3.47472
f 187/428/1 140/316/1 188/429/1

vt 0.250513 0
vt 0.291624 0
vn 0.92388 0 -0.382683
vt 0.291624 0.472441
v 196.446 12 -88.2578
vt 0.250513 0.472441
f 188/430/8 140/431/55 142/432/55 189/433/8 

vt 7.71835 3.5127
v 196.446 12 -86.1872
vt 7.73408 3.3932
vt 7.73408 3.47472
f 142/434/21 190/435/21 189/436/21

f 142/434/21 101/253/21 190/435/21

v 194.582 12 -87.2225
vt 7.66071 3.43396
f 142/434/21 191/437/21 101/253/21

v 194.514 12 -87.7401
vt 7.65802 3.45434
f 142/434/21 192/438/21 191/437/21

f 142/434/21 171/360/21 192/438/21

vt 7.42449 4.14262
f 141/439/21 171/360/21 142/434/21

f 141/439/21 169/361/21 171/360/21

f 141/439/21 170/191/21 169/361/21

f 60/135/21 170/191/21 141/439/21

f 60/135/21 61/134/21 170/191/21

vt 6.03573 0.472441
vn 0.906239 -2.24599e-018 0.422766
vt 5.42715 0.472441
vt 5.42715 0.0393701
vt 6.03573 0.0393701
f 170/440/56 61/441/56 75/442/56 76/443/56 

v 194.314 12 -88.2225
vt 7.65016 3.47333
f 171/360/21 193/444/21 192/438/21

v 193.996 12 -88.6367
vt 7.63765 3.48963
f 171/360/21 194/445/21 193/444/21

v 193.582 12 -88.9545
vt 7.62134 3.50215
f 171/360/21 195/446/21 194/445/21

vt 7.60235 3.51001
f 171/360/21 181/447/21 195/446/21

vt 7.58197 3.5127
f 171/360/21 179/448/21 181/447/21

f 172/359/21 179/448/21 171/360/21

vt 7.56159 3.51001
f 172/359/21 178/449/21 179/448/21

f 173/358/21 178/449/21 172/359/21

vt 7.5426 3.50215
f 173/358/21 177/450/21 178/449/21

vt 7.52629 3.48963
f 173/358/21 176/451/21 177/450/21

f 174/357/21 176/451/21 173/358/21

f 174/357/21 175/397/21 176/451/21

vt 5.68043 0
vt 5.70098 0
vt 5.70098 0.472441
vt 5.68043 0.472441
f 180/452/28 182/453/29 195/454/29 181/455/28 

vt 3.91444 0
vt 3.935 0
vt 3.935 0.472441
vt 3.91444 0.472441
f 182/456/29 183/457/30 194/458/30 195/459/29 

vt 1.88099 0
vt 1.90155 0
vt 1.90155 0.472441
vt 1.88099 0.472441
f 183/460/30 184/461/31 193/462/31 194/463/30 

vt -0.281346 0
vt -0.260791 0
vt -0.260791 0.472441
vt -0.281346 0.472441
f 184/464/31 185/465/3 192/466/3 193/467/31 

vt -2.42521 0
vt -2.40466 0
vn -1 0 -4.14187e-014
vt -2.40466 0.472441
vt -2.42521 0.472441
f 185/468/3 186/469/57 191/470/57 192/471/3 

vt -4.4045 0
v 194.514 0 -86.7049
vt -4.38395 0
v 194.514 12 -86.7049
vt -4.38395 0.472441
vt -4.4045 0.472441
f 186/472/57 196/473/12 197/474/12 191/475/57 

vt -7.65802 3.41358
f 102/259/1 196/476/1 186/427/1

v 194.314 0 -86.2225
vt -7.65016 3.39459
f 102/259/1 198/477/1 196/476/1

v 193.996 0 -85.8083
vt -7.63765 3.37828
f 102/259/1 199/478/1 198/477/1

v 193.582 0 -85.4904
vt -7.62134 3.36577
f 102/259/1 200/479/1 199/478/1

v 193.1 0 -85.2906
vt -7.60235 3.3579
f 102/259/1 201/480/1 200/479/1

f 102/259/1 103/258/1 201/480/1

vt -7.9756 0
vt -7.95505 0
v 192.582 12 -85.2225
vt -7.95505 0.472441
v 193.1 12 -85.2906
vt -7.9756 0.472441
f 201/481/16 103/482/17 202/483/17 203/484/16 

vt -7.07916 0
vt -7.0586 0
vt -7.0586 0.472441
vt -7.07916 0.472441
f 103/485/17 104/486/18 125/487/18 202/488/17 

vt -5.70098 0
vt -5.68043 0
vt -5.68043 0.472441
vt -5.70098 0.472441
f 104/489/18 105/490/19 126/491/19 125/492/18 

vt -3.935 0
vt -3.91444 0
vt -3.91444 0.472441
vt -3.935 0.472441
f 105/493/19 106/494/20 128/495/20 126/496/19 

vt -1.90155 0
vt -1.88099 0
vt -1.88099 0.472441
vt -1.90155 0.472441
f 106/497/20 107/498/7 129/499/7 128/500/20 

vt 0.260791 0
vt 0.281346 0
vt 0.281346 0.472441
vt 0.260791 0.472441
f 107/501/7 108/502/8 130/503/8 129/504/7 

vt 7.58197 3.35522
f 125/294/21 122/288/21 202/505/21

vt 7.60235 3.3579
f 202/505/21 122/288/21 203/506/21

f 203/506/21 122/288/21 100/252/21

v 193.582 12 -85.4904
vt 7.62134 3.36577
f 203/506/21 100/252/21 204/507/21

v 193.996 12 -85.8083
vt 7.63765 3.37828
f 204/507/21 100/252/21 205/508/21

v 194.314 12 -86.2225
vt 7.65016 3.39459
f 205/508/21 100/252/21 206/509/21

vt 7.65802 3.41358
f 206/509/21 100/252/21 197/510/21

f 100/252/21 101/253/21 197/510/21

f 197/510/21 101/253/21 191/437/21

vt -6.08433 0
vt -6.06378 0
vt -6.06378 0.472441
vt -6.08433 0.472441
f 196/511/12 198/512/13 206/513/13 197/514/12 

vt -7.35023 0
vt -7.32967 0
vt -7.32967 0.472441
vt -7.35023 0.472441
f 198/515/13 199/516/14 205/517/14 206/518/13 

vt -8.11592 0
vt -8.09536 0
vt -8.09536 0.472441
vt -8.11592 0.472441
f 199/519/14 200/520/15 204/521/15 205/522/14 

vt -8.32922 0
vt -8.30867 0
vt -8.30867 0.472441
vt -8.32922 0.472441
f 200/523/15 201/524/16 203/525/16 204/526/15 

vt 6.33111 0
vt 6.33111 0.472441
f 102/255/40 187/527/40 190/528/40 101/256/40 

vt 4.37367 0
vn 0.991445 0 0.130526
v 196.582 0 -87.2225
vt 4.41478 0
vn 1 0 -6.99877e-016
v 196.582 12 -87.2225
vt 4.41478 0.472441
vt 4.37367 0.472441
f 187/529/58 207/530/59 208/531/59 190/532/58 

vt -7.73945 3.43396
f 187/428/1 188/429/1 207/533/1

vt 2.39438 0
vt 2.43549 0
vt 2.43549 0.472441
vt 2.39438 0.472441
f 207/534/59 188/535/8 189/536/8 208/537/59 

vt 7.73945 3.43396
f 189/436/21 190/435/21 208/538/21

vt 5.50075 0.0393701
vt 5.4936 0.0393701
vt 5.4936 0
vt 5.50075 0
f 116/539/6 80/540/6 81/541/6 143/542/6 

vt -2.78435 0.0393701
vt -4.08356 0.0393701
vt -4.08356 0
vt -2.78435 0
f 115/543/2 116/544/2 143/545/2 114/546/2 

f 168/363/21 116/276/21 117/277/21

vt 4.08356 0.0393701
vt 2.78435 0.0393701
vt 2.78435 0
vt 4.08356 0
f 168/547/36 117/548/36 113/549/36 144/550/36 

vt -7.37969 0.0393701
vt -7.38677 0.0393701
vt -7.38677 0
vt -7.37969 0
f 117/551/32 118/552/32 112/553/32 113/554/32 

vt -5.63266 0.0393701
vt -5.70944 0.0393701
vt -5.70944 0
vt -5.63266 0
f 118/555/41 119/556/41 111/557/41 112/558/41 

f 113/269/1 114/270/1 144/327/1

vt 7.38687 0.0393701
vt 7.37969 0.0393701
vt 7.37969 0
vt 7.38687 0
f 167/559/6 168/560/6 144/561/6 145/562/6 

vt -0.501623 0.0393701
vt -0.577763 0.0393701
vt -0.577763 0
vt -0.501623 0
f 147/563/5 167/564/5 145/565/5 146/566/5 

vt -2.14064 0.0393701
vt -2.10973 0.0393701
vn -0.95593 0 0.293595
vt -2.10973 0.472441
vt -2.14064 0.472441
f 148/567/49 149/568/60 156/569/60 158/570/49 

vt 0.0146173 0.0393701
vt 0.0455291 0.0393701
vt 0.0455291 0.472441
vt 0.0146173 0.472441
f 149/571/60 150/572/47 153/573/47 156/574/60 

vt 0.276999 0.0393701
vt 0.200778 0.0393701
vt 0.200778 0
vt 0.276999 0
f 82/575/44 96/576/44 17/577/44 18/578/44 

v 136.078 1 -84.6319
f 95/229/21 82/211/21 209/226/21

v 136.697 1 -85.1073
f 209/226/21 82/211/21 210/222/21

v 137.173 1 -85.7268
vt 5.4005 3.37507
f 210/222/21 82/211/21 211/579/21

v 137.471 1 -86.4483
vt 5.41226 3.40348
f 211/579/21 82/211/21 212/580/21

f 212/580/21 82/211/21 83/210/21

vt 4.0808 0.0393701
vt 4.11154 0.0393701
v 137.573 12 -87.2225
vt 4.11154 0.472441
v 137.471 12 -86.4483
vt 4.0808 0.472441
f 212/581/58 83/582/58 213/583/58 214/584/58 

vt 2.69761 0.0393701
vn 0.991445 0 -0.130526
vt 2.72836 0.0393701
v 137.471 12 -87.9967
vt 2.72836 0.472441
vt 2.69761 0.472441
f 83/585/61 84/586/61 215/587/61 213/588/61 

vt 1.12954 0.0393701
vt 1.16028 0.0393701
vt 1.16028 0.472441
vt 1.12954 0.472441
f 84/589/55 85/590/55 87/591/55 215/592/55 

v 137.173 12 -85.7268
f 87/213/21 216/579/21 215/212/21

f 87/213/21 88/222/21 216/579/21

vt 5.93449 0.0393701
vn 0.793353 0 0.608761
vt 5.96524 0.0393701
vt 5.96524 0.472441
vt 5.93449 0.472441
f 210/593/62 211/594/62 216/595/62 88/596/62 

vt 5.18484 0.0393701
vn 0.92388 0 0.382683
vt 5.21558 0.0393701
vt 5.21558 0.472441
vt 5.18484 0.472441
f 211/597/63 212/598/63 214/599/63 216/600/63 

f 215/212/21 216/579/21 214/580/21

f 215/212/21 214/580/21 213/210/21

vt 6.27867 0.0393701
vn 0.608761 0 0.793353
vt 6.30942 0.0393701
vt 6.30942 0.472441
vt 6.27867 0.472441
f 209/601/64 210/602/64 88/603/64 89/604/64 

vt 6.19392 0.0393701
vn 0.382683 0 0.92388
vt 6.22467 0.0393701
vt 6.22467 0.472441
vt 6.19392 0.472441
f 95/605/65 209/606/65 89/607/65 90/608/65 

vt 5.68602 0.0393701
vn 0.130526 0 0.991445
vt 5.71677 0.0393701
vt 5.71677 0.472441
vt 5.68602 0.472441
f 93/609/66 95/610/66 90/611/66 91/612/66 

f 70/175/21 47/177/21 46/223/21

