# Alias OBJ Model File
# Exported from SketchUp, (c) 2000-2012 Trimble Navigation Limited
# File units = millimeters

mtllib rama_L.mtl

g Mesh1 Model

usemtl FrontColor
v -104.477 0 -49.0829
vt 4.11325 1.9324
vn 6.65478e-005 -1 -0.000330543
v -104.408 0 -46.1364
vt 4.11057 1.8164
v -104.477 0 -45.6188
vt 4.11325 1.79602
f 1/1/1 2/2/1 3/3/1

v -103.512 0 -49.4825
vt 4.07527 1.94813
f 2/2/1 1/1/1 4/4/1

vt 3.01954 0
vn -0.258819 0 -0.965926
vt 3.06065 0
vn -0.5 0 -0.866025
v -104.477 2 -49.0829
vt 3.06065 0.0787402
v -103.512 2 -49.4825
vt 3.01954 0.0787402
f 4/5/2 1/6/3 5/7/3 6/8/2 

vt 2.08689 0
v -105.305 0 -48.4472
vt 2.128 0
vn -0.707107 0 -0.707107
v -105.305 2 -48.4472
vt 2.128 0.0787402
vt 2.08689 0.0787402
f 1/9/3 7/10/4 8/11/4 5/12/3 

v -105.305 0 -32.7904
vt 4.14586 1.29096
vt 4.14586 1.90737
f 9/13/1 7/14/1 1/1/1

v -105.941 0 -33.6188
vt 4.17089 1.32358
f 10/15/1 7/14/1 9/13/1

v -105.941 0 -47.6188
vt 4.17089 1.87476
f 10/15/1 11/16/1 7/14/1

v -106.34 0 -34.5835
vt 4.18662 1.36156
f 12/17/1 11/16/1 10/15/1

v -106.34 0 -46.6541
vt 4.18662 1.83677
f 12/17/1 13/18/1 11/16/1

v -106.477 0 -35.6188
vt 4.19199 1.40232
f 14/19/1 13/18/1 12/17/1

v -106.477 0 -45.6188
vt 4.19199 1.79602
f 13/18/1 14/19/1 15/20/1

vt -1.79602 0
vn -1 0 -0
vt -1.40232 0
v -106.477 2 -35.6188
vt -1.40232 0.0787402
v -106.477 2 -38.6188
vt -1.52043 0.0787402
v -106.477 2 -42.6188
vt -1.67791 0.0787402
v -106.477 2 -45.6188
vt -1.79602 0.0787402
f 15/21/5 14/22/5 16/23/5 17/24/5 18/25/5 19/26/5 

vt -1.93748 0
vn -0.991445 0 0.130526
vt -1.89637 0
vn -0.965926 0 0.258819
v -106.34 2 -34.5835
vt -1.89637 0.0787402
vt -1.93748 0.0787402
f 14/27/6 12/28/7 20/29/7 16/30/6 

vt -2.86007 0
vt -2.81895 0
vn -0.866025 0 0.5
v -105.941 2 -33.6188
vt -2.81895 0.0787402
vt -2.86007 0.0787402
f 12/31/7 10/32/8 21/33/8 20/34/7 

vt -3.58914 0
vt -3.54803 0
vn -0.707107 0 0.707107
v -105.305 2 -32.7904
vt -3.54803 0.0787402
vt -3.58914 0.0787402
f 10/35/8 9/36/9 22/37/9 21/38/8 

vt -4.07502 0
v -104.477 0 -32.1547
vt -4.03391 0
vn -0.5 0 0.866025
v -104.477 2 -32.1547
vt -4.03391 0.0787402
vt -4.07502 0.0787402
f 9/39/9 23/40/10 24/41/10 22/42/9 

vt 4.11325 1.26593
f 9/13/1 1/1/1 23/43/1

f 23/43/1 1/1/1 3/3/1

v -104.477 0 -35.6188
vt 4.11325 1.40232
f 23/43/1 3/3/1 25/44/1

v -104.408 0 -45.1012
vt 4.11057 1.77564
f 26/45/1 25/44/1 3/3/1

v -104.408 0 -36.1364
vt 4.11057 1.42269
f 25/44/1 26/45/1 27/46/1

v -104.209 0 -44.6188
vt 4.1027 1.75665
f 27/46/1 26/45/1 28/47/1

vt 3.19296 0
vn 0.866025 0 -0.5
vt 3.21352 0
vn 0.965926 0 -0.258819
v -104.408 2 -45.1012
vt 3.21352 0.0787402
v -104.209 2 -44.6188
vt 3.19296 0.0787402
f 28/48/11 26/49/12 29/50/12 30/51/11 

vt 2.29698 0
vt 2.31754 0
vn 1 0 -0
v -104.477 2 -45.6188
vt 2.31754 0.0787402
vt 2.29698 0.0787402
f 26/52/12 3/53/13 31/54/13 29/55/12 

vt 1.24376 0
vt 1.26432 0
vn 0.965926 0 0.258819
v -104.408 2 -46.1364
vt 1.26432 0.0787402
vt 1.24376 0.0787402
f 3/56/13 2/57/14 32/58/14 31/59/13 

vt 0.105085 0
v -104.209 0 -46.6188
vt 0.12564 0
vn 0.866025 0 0.5
v -104.209 2 -46.6188
vt 0.12564 0.0787402
vt 0.105085 0.0787402
f 2/60/14 33/61/15 34/62/15 32/63/14 

vt 4.1027 1.83539
f 2/2/1 4/4/1 33/64/1

v -103.891 0 -47.033
vt 4.09019 1.85169
f 33/64/1 4/4/1 35/65/1

v -103.477 0 -47.3509
vt 4.07388 1.86421
f 35/65/1 4/4/1 36/66/1

v -102.477 0 -49.6188
vt 4.03451 1.9535
f 36/66/1 4/4/1 37/67/1

vt 3.74501 0
vn 0 0 -1
vt 3.78612 0
vt 3.78612 0.0787402
v -102.477 2 -49.6188
vt 3.74501 0.0787402
f 37/68/16 4/69/2 6/70/2 38/71/16 

vt -4.07527 1.94813
vn 0 1 -0
v -103.477 2 -47.3509
vt -4.07388 1.86421
vt -4.03451 1.9535
f 6/72/17 39/73/17 38/74/17

v -103.891 2 -47.033
vt -4.09019 1.85169
f 6/72/17 40/75/17 39/73/17

vt -4.1027 1.83539
f 6/72/17 34/76/17 40/75/17

vt -4.11057 1.8164
f 6/72/17 32/77/17 34/76/17

vt -4.11325 1.9324
f 5/78/17 32/77/17 6/72/17

vt -4.11325 1.79602
f 32/77/17 5/78/17 31/79/17

vt -4.14586 1.90737
f 8/80/17 31/79/17 5/78/17

vt -4.11057 1.77564
f 8/80/17 29/81/17 31/79/17

v -105.941 2 -47.6188
vt -4.17089 1.87476
f 41/82/17 29/81/17 8/80/17

vt -4.1027 1.75665
f 41/82/17 30/83/17 29/81/17

v -106.34 2 -46.6541
vt -4.18662 1.83677
f 42/84/17 30/83/17 41/82/17

v -103.891 2 -44.2046
vt -4.09019 1.74034
f 42/84/17 43/85/17 30/83/17

vt -4.19199 1.79602
f 19/86/17 43/85/17 42/84/17

v -103.477 2 -43.8868
vt -4.07388 1.72783
f 19/86/17 44/87/17 43/85/17

vt -4.19199 1.67791
f 18/88/17 44/87/17 19/86/17

v -102.994 2 -43.687
vt -4.05489 1.71996
f 44/87/17 18/88/17 45/89/17

v -102.477 2 -43.6188
vt -4.03451 1.71728
f 45/89/17 18/88/17 46/90/17

v -53.4765 2 -42.6188
vt -2.10538 1.67791
f 46/90/17 18/88/17 47/91/17

v 66.9862 0.018483 -42.6188
vt -2.63725 0.000727677
vn -1.73964e-017 1.0745e-016 -1
v -53.4765 0 -42.6188
vt 2.10538 -1.80291e-016
vt 2.10538 0.0787402
vt 4.19199 0.0787402
v -53.4765 4 -42.6188
vt 2.10538 0.15748
v 66.5235 4 -42.6188
vt -2.61903 0.15748
v 66.9862 4 -42.6188
vt -2.63725 0.15748
f 48/92/18 49/93/18 47/94/18 18/95/18 50/96/18 51/97/18 52/98/18 

vt -2.63725 1.67791
v -53.4765 0 -38.6188
vt 2.10538 1.52043
vt 2.10538 1.67791
f 48/99/1 53/100/1 49/101/1

v 66.9862 0 -38.6188
vt -2.63725 1.52043
f 53/100/1 48/99/1 54/102/1

v 67.1933 2.11497e-015 -38.1188
vt -2.64541 1.50074
f 54/102/1 48/99/1 55/103/1

v 67.1933 0.018483 -43.1188
vt -2.64541 1.69759
f 55/103/1 48/99/1 56/104/1

vt -2.55942 0.15748
vn -0.92388 0 -0.382683
v 67.1933 4 -43.1188
vt -2.58072 0.15748
vn -0.866025 0 -0.5
vt -2.58072 0.000727677
vt -2.55942 0.000727677
f 52/105/19 57/106/20 56/107/20 48/108/19 

vt 2.63725 1.67791
v 67.1933 4 -38.1188
vt 2.64541 1.50074
vt 2.64541 1.69759
f 52/109/17 58/110/17 57/111/17

v 66.9862 4 -38.6188
vt 2.63725 1.52043
f 52/109/17 59/112/17 58/110/17

vt 2.61903 1.67791
f 51/113/17 59/112/17 52/109/17

v 66.5235 4 -38.6188
vt 2.61903 1.52043
f 59/112/17 51/113/17 60/114/17

vt 1.67791 -2.37323
vn 0.371391 0.928477 -1.94836e-017
v 61.5235 6 -40.6188
vt 1.59917 -2.16121
vt 1.52043 -2.37323
f 51/115/21 61/116/21 60/117/21

vt 2.10538 -1.0751
vn 7.21951e-020 0.707107 -0.707107
v -53.4765 6 -40.6188
vt 2.10538 -0.963748
vt -2.42218 -0.963748
vt -2.61903 -1.0751
f 50/118/22 62/119/22 61/120/22 51/121/22 

vt 2.04061 -1.12992
vn -0.0266738 0.706855 -0.706855
vt 4.12574 -1.24123
vt 2.04357 -1.0186
f 50/122/23 18/123/23 62/124/23

vt -1.52043 -4.17418
vn -0.0752577 0.997164 -6.18538e-017
vt -1.59917 -2.08163
vt -1.67791 -4.17418
f 17/125/24 62/126/24 18/127/24

vt -4.24634 1.01792
vn -0.0266738 0.706855 0.706855
v -53.4765 4 -38.6188
vt -2.16121 1.12923
vt -2.16418 1.24055
f 17/128/25 63/129/25 62/130/25

vt 2.63725 0.15748
vn 0 0 1
vt 2.61903 0.15748
vt -2.10538 0.15748
vt -4.19199 0.0787402
v -53.4765 2 -38.6188
vt -2.10538 0.0787402
vt -2.10538 0
vt 2.63725 0
f 59/131/26 60/132/26 63/133/26 17/134/26 64/135/26 53/136/26 54/137/26 

vt -2.10538 1.29781
vn -1.4439e-019 0.707107 0.707107
vt -2.10538 1.18646
vt 2.61903 1.18646
vt 2.42218 1.29781
f 62/138/27 63/139/27 60/140/27 61/141/27 

vt -4.19199 1.52043
v -102.477 2 -37.6188
vt -4.03451 1.48106
vt -2.10538 1.52043
f 17/142/17 65/143/17 64/144/17

v -102.994 2 -37.5507
vt -4.05489 1.47837
f 17/142/17 66/145/17 65/143/17

v -103.477 2 -37.3509
vt -4.07388 1.47051
f 17/142/17 67/146/17 66/145/17

v -103.891 2 -37.033
vt -4.09019 1.45799
f 17/142/17 68/147/17 67/146/17

vt -4.18662 1.36156
f 17/142/17 20/148/17 68/147/17

vt -4.19199 1.40232
f 20/148/17 17/142/17 16/149/17

v -104.209 2 -36.6188
vt -4.1027 1.44169
f 68/147/17 20/148/17 69/150/17

vt -4.17089 1.32358
f 69/150/17 20/148/17 21/151/17

v -104.408 2 -36.1364
vt -4.11057 1.42269
f 69/150/17 21/151/17 70/152/17

vt -4.14586 1.29096
f 70/152/17 21/151/17 22/153/17

v -104.477 2 -35.6188
vt -4.11325 1.40232
f 70/152/17 22/153/17 71/154/17

vt -4.11325 1.26593
f 71/154/17 22/153/17 24/155/17

v -104.408 2 -35.1012
vt -4.11057 1.38194
f 24/155/17 72/156/17 71/154/17

v -103.512 2 -31.7551
vt -4.07527 1.2502
f 72/156/17 24/155/17 73/157/17

vt -4.2846 0
v -103.512 0 -31.7551
vt -4.24349 0
vn -0.258819 0 0.965926
vt -4.24349 0.0787402
vt -4.2846 0.0787402
f 23/158/10 74/159/28 73/160/28 24/161/10 

v -104.408 0 -35.1012
vt 4.11057 1.38194
vt 4.07527 1.2502
f 23/43/1 75/162/1 74/163/1

f 23/43/1 25/44/1 75/162/1

vt 1.90665 0
vt 1.92721 0
vt 1.92721 0.0787402
vt 1.90665 0.0787402
f 75/164/12 25/165/13 71/166/13 72/167/12 

vt 0.853432 0
vt 0.873987 0
vt 0.873987 0.0787402
vt 0.853432 0.0787402
f 25/168/13 27/169/14 70/170/14 71/171/13 

vt -0.258647 0
v -104.209 0 -36.6188
vt -0.238092 0
vt -0.238092 0.0787402
vt -0.258647 0.0787402
f 27/172/14 76/173/15 69/174/15 70/175/14 

vt 4.1027 1.44169
f 27/46/1 28/47/1 76/176/1

v -103.891 0 -44.2046
vt 4.09019 1.74034
f 76/176/1 28/47/1 77/177/1

vt 3.87065 0
vn 0.707107 0 -0.707107
vt 3.89121 0
vt 3.89121 0.0787402
vt 3.87065 0.0787402
f 77/178/29 28/179/11 30/180/11 43/181/29 

v -103.477 0 -43.8868
vt 4.28386 0
vn 0.5 0 -0.866025
vt 4.30441 0
vt 4.30441 0.0787402
vt 4.28386 0.0787402
f 78/182/30 77/183/29 43/184/29 44/185/30 

v -103.891 0 -37.033
vt 4.09019 1.45799
vt 4.07388 1.72783
f 79/186/1 77/177/1 78/187/1

f 76/176/1 77/177/1 79/186/1

vt -1.3538 0
vt -1.33324 0
vn 0.707107 0 0.707107
vt -1.33324 0.0787402
vt -1.3538 0.0787402
f 76/188/15 79/189/31 68/190/31 69/191/15 

vt -2.35739 0
v -103.477 0 -37.3509
vt -2.33684 0
vn 0.5 0 0.866025
vt -2.33684 0.0787402
vt -2.35739 0.0787402
f 79/192/31 80/193/32 67/194/32 68/195/31 

vt 4.07388 1.47051
f 79/186/1 78/187/1 80/196/1

v -102.994 0 -43.687
vt 4.05489 1.71996
f 80/196/1 78/187/1 81/197/1

vt 4.40443 0
vn 0.258819 0 -0.965926
vt 4.42498 0
vt 4.42498 0.0787402
vt 4.40443 0.0787402
f 81/198/33 78/199/30 44/200/30 45/201/33 

v -102.477 0 -43.6188
vt 4.22414 0
vn 1.39975e-015 0 -1
vt 4.2447 0
vt 4.2447 0.0787402
vt 4.22414 0.0787402
f 82/202/34 81/203/33 45/204/33 46/205/34 

v -102.994 0 -37.5507
vt 4.05489 1.47837
vt 4.03451 1.71728
f 83/206/1 81/197/1 82/207/1

f 80/196/1 81/197/1 83/206/1

vt -3.20104 0
vt -3.18048 0
vn 0.258819 0 0.965926
vt -3.18048 0.0787402
vt -3.20104 0.0787402
f 80/208/32 83/209/35 66/210/35 67/211/32 

vt -3.82723 0
v -102.477 0 -37.6188
vt -3.80668 0
vt -3.80668 0.0787402
vt -3.82723 0.0787402
f 83/212/35 84/213/26 65/214/26 66/215/35 

vt 4.03451 1.48106
f 83/206/1 82/207/1 84/216/1

v -101.959 0 -43.687
vt 4.01413 1.71996
f 84/216/1 82/207/1 85/217/1

vt 3.75529 0
vt 3.77584 0
vt 3.77584 0.0787402
v -101.959 2 -43.687
vt 3.75529 0.0787402
f 85/218/2 82/219/34 46/220/34 86/221/2 

vt -4.01413 1.71996
f 46/90/17 47/91/17 86/222/17

v -101.477 2 -43.8868
vt -3.99514 1.72783
f 86/222/17 47/91/17 87/223/17

v -101.062 2 -44.2046
vt -3.97883 1.74034
f 87/223/17 47/91/17 88/224/17

v -100.744 2 -44.6188
vt -3.96632 1.75665
f 88/224/17 47/91/17 89/225/17

v -100.545 2 -45.1012
vt -3.95845 1.77564
f 89/225/17 47/91/17 90/226/17

v -100.477 2 -45.6188
vt -3.95577 1.79602
f 90/226/17 47/91/17 91/227/17

v -98.4765 2 -45.6188
vt -3.87703 1.79602
f 91/227/17 47/91/17 92/228/17

v -57.9942 2 -43.687
vt -2.28323 1.71996
f 92/228/17 47/91/17 93/229/17

v -57.4765 2 -43.6188
vt -2.26286 1.71728
f 93/229/17 47/91/17 94/230/17

v -56.9589 2 -43.687
vt -2.24248 1.71996
f 94/230/17 47/91/17 95/231/17

v -56.4765 2 -43.8868
vt -2.22349 1.72783
f 95/231/17 47/91/17 96/232/17

v -56.0623 2 -44.2046
vt -2.20718 1.74034
f 96/232/17 47/91/17 97/233/17

v -55.7445 2 -44.6188
vt -2.19466 1.75665
f 97/233/17 47/91/17 98/234/17

v -55.5447 2 -45.1012
vt -2.1868 1.77564
f 98/234/17 47/91/17 99/235/17

v -55.4765 2 -45.6188
vt -2.18412 1.79602
f 99/235/17 47/91/17 100/236/17

v -55.4765 2 -49.0829
vt -2.18412 1.9324
f 100/236/17 47/91/17 101/237/17

v -54.6481 2 -48.4472
vt -2.1515 1.90737
f 101/237/17 47/91/17 102/238/17

v -54.0124 2 -47.6188
vt -2.12647 1.87476
f 102/238/17 47/91/17 103/239/17

v -53.6128 2 -46.6541
vt -2.11074 1.83677
f 103/239/17 47/91/17 104/240/17

v -53.4765 2 -45.6188
vt -2.10538 1.79602
f 104/240/17 47/91/17 105/241/17

vt 1.67791 0
v -53.4765 0 -45.6188
vt 1.79602 0
vt 1.79602 0.0787402
vt 1.67791 0.0787402
f 49/242/13 106/243/13 105/244/13 47/245/13 

v -53.4765 0 -35.6188
vt 2.10538 1.40232
vt 2.10538 1.79602
f 107/246/1 106/247/1 49/101/1

v -53.6128 0 -34.5835
vt 2.11074 1.36156
f 108/248/1 106/247/1 107/246/1

v -53.6128 0 -46.6541
vt 2.11074 1.83677
f 108/248/1 109/249/1 106/247/1

v -54.0124 0 -33.6188
vt 2.12647 1.32358
f 110/250/1 109/249/1 108/248/1

v -54.0124 0 -47.6188
vt 2.12647 1.87476
f 110/250/1 111/251/1 109/249/1

v -54.6481 0 -32.7904
vt 2.1515 1.29096
f 112/252/1 111/251/1 110/250/1

v -54.6481 0 -48.4472
vt 2.1515 1.90737
f 112/252/1 113/253/1 111/251/1

v -55.4765 0 -32.1547
vt 2.18412 1.26593
f 114/254/1 113/253/1 112/252/1

v -55.4765 0 -35.6188
vt 2.18412 1.40232
f 115/255/1 113/253/1 114/254/1

v -55.4765 0 -45.6188
vt 2.18412 1.79602
f 116/256/1 113/253/1 115/255/1

v -55.4765 0 -49.0829
vt 2.18412 1.9324
f 116/256/1 117/257/1 113/253/1

v -55.5447 0 -46.1364
vt 2.1868 1.8164
f 118/258/1 117/257/1 116/256/1

v -55.7445 0 -46.6188
vt 2.19466 1.83539
f 119/259/1 117/257/1 118/258/1

v -56.0623 0 -47.033
vt 2.20718 1.85169
f 120/260/1 117/257/1 119/259/1

v -56.4412 0 -49.4825
vt 2.2221 1.94813
f 120/260/1 121/261/1 117/257/1

v -56.4765 0 -47.3509
vt 2.22349 1.86421
f 122/262/1 121/261/1 120/260/1

v -56.9589 0 -47.5507
vt 2.24248 1.87207
f 123/263/1 121/261/1 122/262/1

v -57.4765 0 -47.6188
vt 2.26286 1.87476
f 124/264/1 121/261/1 123/263/1

v -57.4765 0 -49.6188
vt 2.26286 1.9535
f 124/264/1 125/265/1 121/261/1

v -57.9942 0 -47.5507
vt 2.28323 1.87207
f 126/266/1 125/265/1 124/264/1

v -58.4765 0 -47.3509
vt 2.30223 1.86421
f 127/267/1 125/265/1 126/266/1

v -58.5118 0 -49.4825
vt 2.30361 1.94813
f 127/267/1 128/268/1 125/265/1

v -58.8907 0 -47.033
vt 2.31853 1.85169
f 129/269/1 128/268/1 127/267/1

v -59.2086 0 -46.6188
vt 2.33105 1.83539
f 130/270/1 128/268/1 129/269/1

v -59.4084 0 -46.1364
vt 2.33891 1.8164
f 131/271/1 128/268/1 130/270/1

v -59.4765 0 -49.0829
vt 2.3416 1.9324
f 131/271/1 132/272/1 128/268/1

v -59.4765 0 -45.6188
vt 2.3416 1.79602
f 132/272/1 131/271/1 133/273/1

vt 1.47501 0
vt 1.49557 0
v -59.4084 2 -46.1364
vt 1.49557 0.0787402
v -59.4765 2 -45.6188
vt 1.47501 0.0787402
f 133/274/13 131/275/14 134/276/14 135/277/13 

vt 0.783068 0
vt 0.803623 0
v -59.2086 2 -46.6188
vt 0.803623 0.0787402
vt 0.783068 0.0787402
f 131/278/14 130/279/15 136/280/15 134/281/14 

vt 0.0370586 0
vt 0.0576139 0
v -58.8907 2 -47.033
vt 0.0576139 0.0787402
vt 0.0370586 0.0787402
f 130/282/15 129/283/31 137/284/31 136/285/15 

vt -0.712176 0
vt -0.691621 0
v -58.4765 2 -47.3509
vt -0.691621 0.0787402
vt -0.712176 0.0787402
f 129/286/31 127/287/32 138/288/32 137/289/31 

vt -1.41358 0
vt -1.39302 0
v -57.9942 2 -47.5507
vt -1.39302 0.0787402
vt -1.41358 0.0787402
f 127/290/32 126/291/35 139/292/35 138/293/32 

vt -2.01935 0
vt -1.99879 0
vn -6.99877e-016 0 1
v -57.4765 2 -47.6188
vt -1.99879 0.0787402
vt -2.01935 0.0787402
f 126/294/35 124/295/36 140/296/36 139/297/35 

vt -2.4882 0
vt -2.46765 0
v -56.9589 2 -47.5507
vt -2.46765 0.0787402
vt -2.4882 0.0787402
f 124/298/36 123/299/28 141/300/28 140/301/36 

vt -2.78819 0
vt -2.76763 0
v -56.4765 2 -47.3509
vt -2.76763 0.0787402
vt -2.78819 0.0787402
f 123/302/28 122/303/10 142/304/10 141/305/28 

vt -2.89887 0
vt -2.87831 0
v -56.0623 2 -47.033
vt -2.87831 0.0787402
vt -2.89887 0.0787402
f 122/306/10 120/307/9 143/308/9 142/309/10 

vt -2.81269 0
vt -2.79214 0
v -55.7445 2 -46.6188
vt -2.79214 0.0787402
vt -2.81269 0.0787402
f 120/310/9 119/311/8 144/312/8 143/313/9 

vt -2.53554 0
vt -2.51498 0
v -55.5447 2 -46.1364
vt -2.51498 0.0787402
vt -2.53554 0.0787402
f 119/314/8 118/315/7 145/316/7 144/317/8 

vt -2.08629 0
vt -2.06574 0
vn -1 0 -6.99877e-016
vt -2.06574 0.0787402
vt -2.08629 0.0787402
f 118/318/7 116/319/37 100/320/37 145/321/7 

vt -1.49557 0
v -55.5447 0 -45.1012
vt -1.47501 0
vn -0.965926 0 -0.258819
vt -1.47501 0.0787402
vt -1.49557 0.0787402
f 116/322/37 146/323/38 99/324/38 100/325/37 

v -55.5447 0 -36.1364
vt 2.1868 1.42269
vt 2.1868 1.77564
f 147/326/1 146/327/1 116/256/1

v -55.7445 0 -36.6188
vt 2.19466 1.44169
f 148/328/1 146/327/1 147/326/1

v -55.7445 0 -44.6188
vt 2.19466 1.75665
f 148/328/1 149/329/1 146/327/1

v -56.0623 0 -37.033
vt 2.20718 1.45799
f 150/330/1 149/329/1 148/328/1

v -56.0623 0 -44.2046
vt 2.20718 1.74034
f 150/330/1 151/331/1 149/329/1

v -56.4765 0 -37.3509
vt 2.22349 1.47051
f 152/332/1 151/331/1 150/330/1

v -56.4765 0 -43.8868
vt 2.22349 1.72783
f 152/332/1 153/333/1 151/331/1

v -56.9589 0 -37.5507
vt 2.24248 1.47837
f 154/334/1 153/333/1 152/332/1

v -56.9589 0 -43.687
vt 2.24248 1.71996
f 154/334/1 155/335/1 153/333/1

v -57.4765 0 -37.6188
vt 2.26286 1.48106
f 156/336/1 155/335/1 154/334/1

v -57.4765 0 -43.6188
vt 2.26286 1.71728
f 156/336/1 157/337/1 155/335/1

v -57.9942 0 -37.5507
vt 2.28323 1.47837
f 158/338/1 157/337/1 156/336/1

v -57.9942 0 -43.687
vt 2.28323 1.71996
f 158/338/1 159/339/1 157/337/1

v -58.4765 0 -37.3509
vt 2.30223 1.47051
f 160/340/1 159/339/1 158/338/1

v -58.4765 0 -43.8868
vt 2.30223 1.72783
f 160/340/1 161/341/1 159/339/1

v -58.8907 0 -37.033
vt 2.31853 1.45799
f 162/342/1 161/341/1 160/340/1

v -58.8907 0 -44.2046
vt 2.31853 1.74034
f 162/342/1 163/343/1 161/341/1

v -59.2086 0 -36.6188
vt 2.33105 1.44169
f 164/344/1 163/343/1 162/342/1

v -59.2086 0 -44.6188
vt 2.33105 1.75665
f 164/344/1 165/345/1 163/343/1

v -59.4084 0 -36.1364
vt 2.33891 1.42269
f 166/346/1 165/345/1 164/344/1

v -59.4084 0 -45.1012
vt 2.33891 1.77564
f 166/346/1 167/347/1 165/345/1

v -59.4765 0 -35.6188
vt 2.3416 1.40232
f 168/348/1 167/347/1 166/346/1

f 167/347/1 168/348/1 133/273/1

f 168/348/1 132/272/1 133/273/1

v -60.305 0 -48.4472
vt 2.37421 1.90737
f 168/348/1 169/349/1 132/272/1

v -60.9406 0 -47.6188
vt 2.39924 1.87476
f 168/348/1 170/350/1 169/349/1

v -61.3402 0 -46.6541
vt 2.41497 1.83677
f 168/348/1 171/351/1 170/350/1

v -59.4084 0 -35.1012
vt 2.33891 1.38194
f 172/352/1 171/351/1 168/348/1

v -61.4765 0 -45.6188
vt 2.42034 1.79602
f 172/352/1 173/353/1 171/351/1

v -98.4765 0 -45.6188
vt 3.87703 1.79602
f 172/352/1 174/354/1 173/353/1

v -59.2086 0 -34.6188
vt 2.33105 1.36295
f 175/355/1 174/354/1 172/352/1

v -57.4765 0 -31.6188
vt 2.26286 1.24483
f 176/356/1 174/354/1 175/355/1

v -100.477 0 -35.6188
vt 3.95577 1.40232
f 176/356/1 177/357/1 174/354/1

v -100.545 0 -35.1012
vt 3.95845 1.38194
f 176/356/1 178/358/1 177/357/1

v -100.744 0 -34.6188
vt 3.96632 1.36295
f 176/356/1 179/359/1 178/358/1

v -101.062 0 -34.2046
vt 3.97883 1.34664
f 176/356/1 180/360/1 179/359/1

v -101.477 0 -33.8868
vt 3.99514 1.33412
f 176/356/1 181/361/1 180/360/1

v -101.959 0 -33.687
vt 4.01413 1.32626
f 176/356/1 182/362/1 181/361/1

v -102.477 0 -31.6188
vt 4.03451 1.24483
f 183/363/1 182/362/1 176/356/1

v -102.477 0 -33.6188
vt 4.03451 1.32358
f 183/363/1 184/364/1 182/362/1

v -102.994 0 -33.687
vt 4.05489 1.32626
f 183/363/1 185/365/1 184/364/1

v -103.477 0 -33.8868
vt 4.07388 1.33412
f 183/363/1 186/366/1 185/365/1

f 74/163/1 186/366/1 183/363/1

v -103.891 0 -34.2046
vt 4.09019 1.34664
f 74/163/1 187/367/1 186/366/1

v -104.209 0 -34.6188
vt 4.1027 1.36295
f 74/163/1 188/368/1 187/367/1

f 74/163/1 75/162/1 188/368/1

vt 2.82923 0
vt 2.84979 0
vt 2.84979 0.0787402
v -104.209 2 -34.6188
vt 2.82923 0.0787402
f 188/369/11 75/370/12 72/371/12 189/372/11 

vt -4.1027 1.36295
f 72/156/17 73/157/17 189/373/17

v -103.891 2 -34.2046
vt -4.09019 1.34664
f 189/373/17 73/157/17 190/374/17

v -103.477 2 -33.8868
vt -4.07388 1.33412
f 190/374/17 73/157/17 191/375/17

v -102.477 2 -31.6188
vt -4.03451 1.24483
f 191/375/17 73/157/17 192/376/17

vt -4.20359 0
vt -4.16248 0
vn -0.130526 0 0.991445
vt -4.16248 0.0787402
vt -4.20359 0.0787402
f 74/377/28 183/378/39 192/379/39 73/380/28 

vt -4.03451 0
vn 1.25332e-016 0 1
vt -2.26286 0
v -57.4765 2 -31.6188
vt -2.26286 0.0787402
vt -4.03451 0.0787402
f 183/381/40 176/382/40 193/383/40 192/384/40 

vt -2.08101 0
vn 0.130526 0 0.991445
v -56.4412 0 -31.7551
vt -2.0399 0
v -56.4412 2 -31.7551
vt -2.0399 0.0787402
vt -2.08101 0.0787402
f 176/385/41 194/386/35 195/387/35 193/388/41 

v -56.9589 0 -33.687
vt 2.24248 1.32626
vt 2.2221 1.2502
f 176/356/1 196/389/1 194/390/1

v -57.4765 0 -33.6188
vt 2.26286 1.32358
f 176/356/1 197/391/1 196/389/1

v -57.9942 0 -33.687
vt 2.28323 1.32626
f 176/356/1 198/392/1 197/391/1

v -58.4765 0 -33.8868
vt 2.30223 1.33412
f 176/356/1 199/393/1 198/392/1

v -58.8907 0 -34.2046
vt 2.31853 1.34664
f 176/356/1 200/394/1 199/393/1

f 176/356/1 175/355/1 200/394/1

vt 2.47979 0
vt 2.50035 0
v -59.2086 2 -34.6188
vt 2.50035 0.0787402
v -58.8907 2 -34.2046
vt 2.47979 0.0787402
f 200/395/29 175/396/11 201/397/11 202/398/29 

vt 2.15125 0
vt 2.17181 0
v -59.4084 2 -35.1012
vt 2.17181 0.0787402
vt 2.15125 0.0787402
f 175/399/11 172/400/12 203/401/12 201/402/11 

vt 1.6754 0
vt 1.69596 0
v -59.4765 2 -35.6188
vt 1.69596 0.0787402
vt 1.6754 0.0787402
f 172/403/12 168/404/13 204/405/13 203/406/12 

vt 1.08468 0
vt 1.10523 0
v -59.4084 2 -36.1364
vt 1.10523 0.0787402
vt 1.08468 0.0787402
f 168/407/13 166/408/14 205/409/14 204/410/13 

vt 0.419335 0
vt 0.439891 0
v -59.2086 2 -36.6188
vt 0.439891 0.0787402
vt 0.419335 0.0787402
f 166/411/14 164/412/15 206/413/15 205/414/14 

vt -0.275285 0
vt -0.25473 0
v -58.8907 2 -37.033
vt -0.25473 0.0787402
vt -0.275285 0.0787402
f 164/415/15 162/416/31 207/417/31 206/418/15 

vt -0.951846 0
vt -0.931291 0
v -58.4765 2 -37.3509
vt -0.931291 0.0787402
vt -0.951846 0.0787402
f 162/419/31 160/420/32 208/421/32 207/422/31 

vt -1.56424 0
vt -1.54369 0
v -57.9942 2 -37.5507
vt -1.54369 0.0787402
vt -1.56424 0.0787402
f 160/423/32 158/424/35 209/425/35 208/426/32 

vt -2.07074 0
vt -2.05018 0
v -57.4765 2 -37.6188
vt -2.05018 0.0787402
vt -2.07074 0.0787402
f 158/427/35 156/428/36 210/429/36 209/430/35 

vt -2.43681 0
vt -2.41626 0
v -56.9589 2 -37.5507
vt -2.41626 0.0787402
vt -2.43681 0.0787402
f 156/431/36 154/432/28 211/433/28 210/434/36 

vt -2.63753 0
vt -2.61697 0
v -56.4765 2 -37.3509
vt -2.61697 0.0787402
vt -2.63753 0.0787402
f 154/435/28 152/436/10 212/437/10 211/438/28 

vt -2.6592 0
vt -2.63864 0
v -56.0623 2 -37.033
vt -2.63864 0.0787402
vt -2.6592 0.0787402
f 152/439/10 150/440/9 213/441/9 212/442/10 

vt -2.50035 0
vt -2.47979 0
v -55.7445 2 -36.6188
vt -2.47979 0.0787402
vt -2.50035 0.0787402
f 150/443/9 148/444/8 214/445/8 213/446/9 

vt -2.17181 0
vt -2.15125 0
v -55.5447 2 -36.1364
vt -2.15125 0.0787402
vt -2.17181 0.0787402
f 148/447/8 147/448/7 215/449/7 214/450/8 

vt -1.69596 0
vt -1.6754 0
v -55.4765 2 -35.6188
vt -1.6754 0.0787402
vt -1.69596 0.0787402
f 147/451/7 115/452/37 216/453/37 215/454/7 

f 147/326/1 116/256/1 115/255/1

vt -1.10523 0
v -55.5447 0 -35.1012
vt -1.08468 0
v -55.5447 2 -35.1012
vt -1.08468 0.0787402
vt -1.10523 0.0787402
f 115/455/37 217/456/38 218/457/38 216/458/37 

vt 2.1868 1.38194
f 114/254/1 217/459/1 115/255/1

v -55.7445 0 -34.6188
vt 2.19466 1.36295
f 114/254/1 219/460/1 217/459/1

v -56.0623 0 -34.2046
vt 2.20718 1.34664
f 114/254/1 220/461/1 219/460/1

f 194/390/1 220/461/1 114/254/1

v -56.4765 0 -33.8868
vt 2.22349 1.33412
f 194/390/1 221/462/1 220/461/1

f 194/390/1 196/389/1 221/462/1

vt 1.54369 0
vt 1.56424 0
v -56.9589 2 -33.687
vt 1.56424 0.0787402
v -56.4765 2 -33.8868
vt 1.54369 0.0787402
f 221/463/3 196/464/2 222/465/2 223/466/3 

vt 2.05018 0
vt 2.07074 0
v -57.4765 2 -33.6188
vt 2.07074 0.0787402
vt 2.05018 0.0787402
f 196/467/2 197/468/16 224/469/16 222/470/2 

vt 2.41626 0
vt 2.43681 0
v -57.9942 2 -33.687
vt 2.43681 0.0787402
vt 2.41626 0.0787402
f 197/471/16 198/472/33 225/473/33 224/474/16 

vt 2.61697 0
vt 2.63753 0
v -58.4765 2 -33.8868
vt 2.63753 0.0787402
vt 2.61697 0.0787402
f 198/475/33 199/476/30 226/477/30 225/478/33 

vt 2.63864 0
vt 2.6592 0
vt 2.6592 0.0787402
vt 2.63864 0.0787402
f 199/479/30 200/480/29 202/481/29 226/482/30 

vt -2.31853 1.34664
vt -2.26286 1.24483
vt -2.30223 1.33412
f 202/483/17 193/484/17 226/485/17

vt -2.33105 1.36295
f 201/486/17 193/484/17 202/483/17

v -100.477 2 -35.6188
vt -3.95577 1.40232
f 227/487/17 193/484/17 201/486/17

v -100.545 2 -35.1012
vt -3.95845 1.38194
f 228/488/17 193/484/17 227/487/17

v -100.744 2 -34.6188
vt -3.96632 1.36295
f 229/489/17 193/484/17 228/488/17

v -101.062 2 -34.2046
vt -3.97883 1.34664
f 230/490/17 193/484/17 229/489/17

v -101.477 2 -33.8868
vt -3.99514 1.33412
f 231/491/17 193/484/17 230/490/17

v -101.959 2 -33.687
vt -4.01413 1.32626
f 232/492/17 193/484/17 231/491/17

v -102.477 2 -33.6188
vt -4.03451 1.32358
f 233/493/17 193/484/17 232/492/17

f 233/493/17 192/376/17 193/484/17

v -102.994 2 -33.687
vt -4.05489 1.32626
f 234/494/17 192/376/17 233/493/17

f 191/375/17 192/376/17 234/494/17

vt 4.25377 0
vt 4.27432 0
vt 4.27432 0.0787402
vt 4.25377 0.0787402
f 185/495/33 186/496/30 191/497/30 234/498/33 

vt 4.04419 0
vt 4.06474 0
vt 4.06474 0.0787402
vt 4.04419 0.0787402
f 186/499/30 187/500/29 190/501/29 191/502/30 

vt 3.55831 0
vt 3.57886 0
vt 3.57886 0.0787402
vt 3.55831 0.0787402
f 187/503/29 188/504/11 189/505/11 190/506/29 

vt 4.17275 0
vt 4.19331 0
vt 4.19331 0.0787402
vt 4.17275 0.0787402
f 184/507/34 185/508/33 234/509/33 233/510/34 

vt 3.80668 0
vt 3.82723 0
vt 3.82723 0.0787402
vt 3.80668 0.0787402
f 182/511/2 184/512/34 233/513/34 232/514/2 

vt 3.18048 0
vt 3.20104 0
vt 3.20104 0.0787402
vt 3.18048 0.0787402
f 181/515/3 182/516/2 232/517/2 231/518/3 

vt 2.33684 0
vt 2.35739 0
vt 2.35739 0.0787402
vt 2.33684 0.0787402
f 180/519/4 181/520/3 231/521/3 230/522/4 

vt 1.33324 0
vt 1.3538 0
vt 1.3538 0.0787402
vt 1.33324 0.0787402
f 179/523/20 180/524/4 230/525/4 229/526/20 

vt 0.238092 0
vt 0.258647 0
vt 0.258647 0.0787402
vt 0.238092 0.0787402
f 178/527/38 179/528/20 229/529/20 228/530/38 

vt -0.873987 0
vt -0.853432 0
vt -0.853432 0.0787402
vt -0.873987 0.0787402
f 177/531/5 178/532/38 228/533/38 227/534/5 

v -100.545 0 -36.1364
vt -1.92721 0
vt -1.90665 0
vt -1.90665 0.0787402
v -100.545 2 -36.1364
vt -1.92721 0.0787402
f 235/535/7 177/536/5 227/537/5 236/538/7 

vt 3.95845 1.42269
v -100.477 0 -45.6188
vt 3.95577 1.79602
f 235/539/1 237/540/1 177/357/1

v -100.545 0 -45.1012
vt 3.95845 1.77564
f 235/539/1 238/541/1 237/540/1

v -100.744 0 -36.6188
vt 3.96632 1.44169
f 239/542/1 238/541/1 235/539/1

v -100.744 0 -44.6188
vt 3.96632 1.75665
f 239/542/1 240/543/1 238/541/1

v -101.062 0 -44.2046
vt 3.97883 1.74034
f 239/542/1 241/544/1 240/543/1

v -101.062 0 -37.033
vt 3.97883 1.45799
f 242/545/1 241/544/1 239/542/1

v -101.477 0 -37.3509
vt 3.99514 1.47051
f 243/546/1 241/544/1 242/545/1

v -101.477 0 -43.8868
vt 3.99514 1.72783
f 243/546/1 244/547/1 241/544/1

v -101.959 0 -37.5507
vt 4.01413 1.47837
f 245/548/1 244/547/1 243/546/1

f 245/548/1 85/217/1 244/547/1

f 84/216/1 85/217/1 245/548/1

vt -4.19331 0
vt -4.17275 0
v -101.959 2 -37.5507
vt -4.17275 0.0787402
vt -4.19331 0.0787402
f 84/549/26 245/550/28 246/551/28 65/552/26 

vt -4.27432 0
vt -4.25377 0
v -101.477 2 -37.3509
vt -4.25377 0.0787402
vt -4.27432 0.0787402
f 245/553/28 243/554/10 247/555/10 246/556/28 

vt -4.06474 0
vt -4.04419 0
v -101.062 2 -37.033
vt -4.04419 0.0787402
vt -4.06474 0.0787402
f 243/557/10 242/558/9 248/559/9 247/560/10 

vt -3.57886 0
vt -3.55831 0
v -100.744 2 -36.6188
vt -3.55831 0.0787402
vt -3.57886 0.0787402
f 242/561/9 239/562/8 249/563/8 248/564/9 

vt -2.84979 0
vt -2.82923 0
vt -2.82923 0.0787402
vt -2.84979 0.0787402
f 239/565/8 235/566/7 236/567/7 249/568/8 

vt -3.96632 1.44169
vt -3.95845 1.42269
f 64/144/17 249/569/17 236/570/17

vt -3.97883 1.45799
f 64/144/17 248/571/17 249/569/17

vt -3.99514 1.47051
f 64/144/17 247/572/17 248/571/17

vt -4.01413 1.47837
f 64/144/17 246/573/17 247/572/17

f 64/144/17 65/143/17 246/573/17

f 64/144/17 236/570/17 227/487/17

vt -2.28323 1.47837
f 64/144/17 227/487/17 209/574/17

vt -2.30223 1.47051
f 209/574/17 227/487/17 208/575/17

vt -2.31853 1.45799
f 208/575/17 227/487/17 207/576/17

vt -2.33105 1.44169
f 207/576/17 227/487/17 206/577/17

vt -2.33891 1.42269
f 206/577/17 227/487/17 205/578/17

vt -2.3416 1.40232
f 205/578/17 227/487/17 204/579/17

vt -2.33891 1.38194
f 227/487/17 203/580/17 204/579/17

f 227/487/17 201/486/17 203/580/17

vt -2.26286 1.48106
f 64/144/17 209/574/17 210/581/17

vt -2.24248 1.47837
f 64/144/17 210/581/17 211/582/17

vt -2.22349 1.47051
f 64/144/17 211/582/17 212/583/17

vt -2.20718 1.45799
f 64/144/17 212/583/17 213/584/17

vt -2.19466 1.44169
f 64/144/17 213/584/17 214/585/17

vt -2.1868 1.42269
f 64/144/17 214/585/17 215/586/17

vt -2.18412 1.40232
f 64/144/17 215/586/17 216/587/17

v -54.6481 2 -32.7904
vt -2.1515 1.29096
f 64/144/17 216/587/17 250/588/17

v -55.4765 2 -32.1547
vt -2.18412 1.26593
f 216/587/17 251/589/17 250/588/17

vt -2.1868 1.38194
f 218/590/17 251/589/17 216/587/17

v -55.7445 2 -34.6188
vt -2.19466 1.36295
f 252/591/17 251/589/17 218/590/17

v -56.0623 2 -34.2046
vt -2.20718 1.34664
f 253/592/17 251/589/17 252/591/17

vt -2.2221 1.2502
f 253/592/17 195/593/17 251/589/17

vt -2.22349 1.33412
f 223/594/17 195/593/17 253/592/17

vt -2.24248 1.32626
f 222/595/17 195/593/17 223/594/17

vt -2.26286 1.32358
f 224/596/17 195/593/17 222/595/17

f 224/596/17 193/484/17 195/593/17

vt -2.28323 1.32626
f 225/597/17 193/484/17 224/596/17

f 226/485/17 193/484/17 225/597/17

vt 0.931291 0
vt 0.951846 0
vt 0.951846 0.0787402
vt 0.931291 0.0787402
f 220/598/4 221/599/3 223/600/3 253/601/4 

vt 0.25473 0
vt 0.275285 0
vt 0.275285 0.0787402
vt 0.25473 0.0787402
f 219/602/20 220/603/4 253/604/4 252/605/20 

vt -0.439891 0
vt -0.419335 0
vt -0.419335 0.0787402
vt -0.439891 0.0787402
f 217/606/38 219/607/20 252/608/20 218/609/38 

vt -1.57452 0
vt -1.53341 0
vt -1.53341 0.0787402
vt -1.57452 0.0787402
f 194/610/35 114/611/32 251/612/32 195/613/35 

vt -0.962124 0
vt -0.921013 0
vt -0.921013 0.0787402
vt -0.962124 0.0787402
f 114/614/32 112/615/31 250/616/31 251/617/32 

vt -0.285563 0
vt -0.244452 0
v -54.0124 2 -33.6188
vt -0.244452 0.0787402
vt -0.285563 0.0787402
f 112/618/31 110/619/15 254/620/15 250/621/31 

vt 0.409058 0
vt 0.450168 0
v -53.6128 2 -34.5835
vt 0.450168 0.0787402
vt 0.409058 0.0787402
f 110/622/15 108/623/14 255/624/14 254/625/15 

vt 1.0744 0
vt 1.11551 0
vn 0.991445 0 0.130526
v -53.4765 2 -35.6188
vt 1.11551 0.0787402
vt 1.0744 0.0787402
f 108/626/14 107/627/42 256/628/42 255/629/14 

vt 1.52043 0.0787402
vt 1.40232 0.0787402
vt 1.40232 0
vt 1.52043 0
f 64/630/13 256/631/13 107/632/13 53/633/13 

vt -2.11074 1.36156
vt -2.10538 1.40232
f 64/144/17 255/634/17 256/635/17

vt -2.12647 1.32358
f 64/144/17 254/636/17 255/634/17

f 64/144/17 250/588/17 254/636/17

f 107/246/1 49/101/1 53/100/1

vt 3.02982 0
vt 3.05037 0
vt 3.05037 0.0787402
vt 3.02982 0.0787402
f 244/637/3 85/638/2 86/639/2 87/640/3 

vt 2.09717 0
vt 2.11772 0
vt 2.11772 0.0787402
vt 2.09717 0.0787402
f 241/641/4 244/642/3 87/643/3 88/644/4 

vt 1.0209 0
vt 1.04146 0
vt 1.04146 0.0787402
vt 1.0209 0.0787402
f 240/645/20 241/646/4 88/647/4 89/648/20 

vt -0.12564 0
vt -0.105085 0
vt -0.105085 0.0787402
vt -0.12564 0.0787402
f 238/649/38 240/650/20 89/651/20 90/652/38 

vt -1.26432 0
vt -1.24376 0
vt -1.24376 0.0787402
vt -1.26432 0.0787402
f 237/653/5 238/654/38 90/655/38 91/656/5 

v -100.545 0 -46.1364
vt -2.31754 0
vt -2.29698 0
vt -2.29698 0.0787402
v -100.545 2 -46.1364
vt -2.31754 0.0787402
f 257/657/7 237/658/5 91/659/5 258/660/7 

vt 3.95845 1.8164
v -100.477 0 -49.0829
vt 3.95577 1.9324
f 257/661/1 259/662/1 237/540/1

v -100.744 0 -46.6188
vt 3.96632 1.83539
f 260/663/1 259/662/1 257/661/1

v -101.062 0 -47.033
vt 3.97883 1.85169
f 261/664/1 259/662/1 260/663/1

v -101.441 0 -49.4825
vt 3.99375 1.94813
f 261/664/1 262/665/1 259/662/1

v -101.477 0 -47.3509
vt 3.99514 1.86421
f 263/666/1 262/665/1 261/664/1

v -101.959 0 -47.5507
vt 4.01413 1.87207
f 264/667/1 262/665/1 263/666/1

v -102.477 0 -47.6188
vt 4.03451 1.87476
f 265/668/1 262/665/1 264/667/1

f 265/668/1 37/67/1 262/665/1

v -102.994 0 -47.5507
vt 4.05489 1.87207
f 266/669/1 37/67/1 265/668/1

f 36/66/1 37/67/1 266/669/1

vt -3.05037 0
vt -3.02982 0
v -102.994 2 -47.5507
vt -3.02982 0.0787402
vt -3.05037 0.0787402
f 36/670/32 266/671/35 267/672/35 39/673/32 

vt -3.77584 0
vt -3.75529 0
v -102.477 2 -47.6188
vt -3.75529 0.0787402
vt -3.77584 0.0787402
f 266/674/35 265/675/26 268/676/26 267/677/35 

vt -4.2447 0
vt -4.22414 0
v -101.959 2 -47.5507
vt -4.22414 0.0787402
vt -4.2447 0.0787402
f 265/678/26 264/679/28 269/680/28 268/681/26 

vt -4.42498 0
vt -4.40443 0
v -101.477 2 -47.3509
vt -4.40443 0.0787402
vt -4.42498 0.0787402
f 264/682/28 263/683/10 270/684/10 269/685/28 

vt -4.30441 0
vt -4.28386 0
v -101.062 2 -47.033
vt -4.28386 0.0787402
vt -4.30441 0.0787402
f 263/686/10 261/687/9 271/688/9 270/689/10 

vt -3.89121 0
vt -3.87065 0
v -100.744 2 -46.6188
vt -3.87065 0.0787402
vt -3.89121 0.0787402
f 261/690/9 260/691/8 272/692/8 271/693/9 

vt -3.21352 0
vt -3.19296 0
vt -3.19296 0.0787402
vt -3.21352 0.0787402
f 260/694/8 257/695/7 258/696/7 272/697/8 

v -100.477 2 -49.0829
vt -3.95577 1.9324
vt -3.96632 1.83539
vt -3.95845 1.8164
f 273/698/17 272/699/17 258/700/17

vt -3.97883 1.85169
f 273/698/17 271/701/17 272/699/17

v -101.441 2 -49.4825
vt -3.99375 1.94813
f 274/702/17 271/701/17 273/698/17

vt -3.99514 1.86421
f 274/702/17 270/703/17 271/701/17

vt -4.01413 1.87207
f 274/702/17 269/704/17 270/703/17

f 38/74/17 269/704/17 274/702/17

vt -4.03451 1.87476
f 38/74/17 268/705/17 269/704/17

vt -4.05489 1.87207
f 38/74/17 267/706/17 268/705/17

f 38/74/17 39/73/17 267/706/17

vt 4.21386 0
vt 4.25498 0
vt 4.25498 0.0787402
vt 4.21386 0.0787402
f 262/707/33 37/708/16 38/709/16 274/710/33 

vt 4.39415 0
vt 4.43526 0
vt 4.43526 0.0787402
vt 4.39415 0.0787402
f 259/711/30 262/712/33 274/713/33 273/714/30 

v -99.6481 0 -48.4472
vt 4.27358 0
vt 4.31469 0
vt 4.31469 0.0787402
v -99.6481 2 -48.4472
vt 4.27358 0.0787402
f 275/715/29 259/716/30 273/717/30 276/718/29 

vt 3.92315 1.90737
f 237/540/1 259/662/1 275/719/1

f 237/540/1 275/719/1 177/357/1

f 174/354/1 177/357/1 275/719/1

v -99.0124 0 -47.6188
vt 3.89813 1.87476
f 174/354/1 275/719/1 277/720/1

vt 3.86037 0
vt 3.90148 0
vt 3.90148 0.0787402
v -99.0124 2 -47.6188
vt 3.86037 0.0787402
f 277/721/11 275/722/29 276/723/29 278/724/11 

vt -3.92315 1.90737
vt -3.89813 1.87476
f 276/725/17 92/228/17 278/726/17

f 273/698/17 92/228/17 276/725/17

f 91/227/17 92/228/17 273/698/17

f 273/698/17 258/700/17 91/227/17

v -98.6128 2 -46.6541
vt -3.88239 1.83677
f 278/726/17 92/228/17 279/727/17

vt 2.2867 0
vn 0.991445 0 -0.130526
v -98.6128 0 -46.6541
vt 2.32782 0
vt 2.32782 0.0787402
vt 2.2867 0.0787402
f 174/728/43 280/729/12 279/730/12 92/731/43 

vt 3.88239 1.83677
f 174/354/1 277/720/1 280/732/1

vt 3.18269 0
vt 3.2238 0
vt 3.2238 0.0787402
vt 3.18269 0.0787402
f 280/733/12 277/734/11 278/735/11 279/736/12 

vt 2.42034 0
vt 3.87703 0
vt 3.87703 0.0787402
v -61.4765 2 -45.6188
vt 2.42034 0.0787402
f 173/737/16 174/738/16 92/739/16 281/740/16 

v -58.4765 2 -43.8868
vt -2.30223 1.72783
vt -2.42034 1.79602
f 92/228/17 282/741/17 281/742/17

f 92/228/17 93/229/17 282/741/17

vt 2.76763 0
vt 2.78819 0
vt 2.78819 0.0787402
vt 2.76763 0.0787402
f 159/743/33 161/744/30 282/745/30 93/746/33 

vt 2.87831 0
vt 2.89887 0
v -58.8907 2 -44.2046
vt 2.89887 0.0787402
vt 2.87831 0.0787402
f 161/747/30 163/748/29 283/749/29 282/750/30 

vt 2.79214 0
vt 2.81269 0
v -59.2086 2 -44.6188
vt 2.81269 0.0787402
vt 2.79214 0.0787402
f 163/751/29 165/752/11 284/753/11 283/754/29 

vt 2.51498 0
vt 2.53554 0
v -59.4084 2 -45.1012
vt 2.53554 0.0787402
vt 2.51498 0.0787402
f 165/755/11 167/756/12 285/757/12 284/758/11 

vt 2.06574 0
vt 2.08629 0
vt 2.08629 0.0787402
vt 2.06574 0.0787402
f 167/759/12 133/760/13 135/761/13 285/762/12 

v -60.305 2 -48.4472
vt -2.37421 1.90737
vt -2.33891 1.77564
vt -2.3416 1.79602
f 286/763/17 285/764/17 135/765/17

v -60.9406 2 -47.6188
vt -2.39924 1.87476
f 287/766/17 285/764/17 286/763/17

vt -2.33105 1.75665
f 287/766/17 284/767/17 285/764/17

v -61.3402 2 -46.6541
vt -2.41497 1.83677
f 288/768/17 284/767/17 287/766/17

vt -2.31853 1.74034
f 288/768/17 283/769/17 284/767/17

f 281/742/17 283/769/17 288/768/17

f 281/742/17 282/741/17 283/769/17

vt -1.50584 0
vt -1.46473 0
vn -0.991445 0 -0.130526
vt -1.46473 0.0787402
vt -1.50584 0.0787402
f 171/770/38 173/771/44 281/772/44 288/773/38 

vt -0.813901 0
vt -0.77279 0
vt -0.77279 0.0787402
vt -0.813901 0.0787402
f 170/774/20 171/775/38 288/776/38 287/777/20 

vt -0.0678916 0
vt -0.026781 0
vt -0.026781 0.0787402
vt -0.0678916 0.0787402
f 169/778/4 170/779/20 287/780/20 286/781/4 

vt 0.681343 0
vt 0.722454 0
vt 0.722454 0.0787402
v -59.4765 2 -49.0829
vt 0.681343 0.0787402
f 132/782/3 169/783/4 286/784/4 289/785/3 

vt -2.3416 1.9324
f 135/765/17 289/786/17 286/763/17

vt -2.33891 1.8164
f 289/786/17 135/765/17 134/787/17

v -58.5118 2 -49.4825
vt -2.30361 1.94813
f 289/786/17 134/787/17 290/788/17

vt -2.33105 1.83539
f 290/788/17 134/787/17 136/789/17

vt -2.31853 1.85169
f 290/788/17 136/789/17 137/790/17

vt -2.30223 1.86421
f 290/788/17 137/790/17 138/791/17

v -57.4765 2 -49.6188
vt -2.26286 1.9535
f 290/788/17 138/791/17 291/792/17

vt -2.28323 1.87207
f 291/792/17 138/791/17 139/793/17

vt -2.26286 1.87476
f 291/792/17 139/793/17 140/794/17

vt -2.24248 1.87207
f 291/792/17 140/794/17 141/795/17

v -56.4412 2 -49.4825
vt -2.2221 1.94813
f 291/792/17 141/795/17 292/796/17

vt -2.22349 1.86421
f 292/796/17 141/795/17 142/797/17

vt -2.20718 1.85169
f 292/796/17 142/797/17 143/798/17

f 292/796/17 143/798/17 101/237/17

vt -2.19466 1.83539
f 101/237/17 143/798/17 144/799/17

vt -2.1868 1.8164
f 101/237/17 144/799/17 145/800/17

f 101/237/17 145/800/17 100/236/17

vt 2.75736 0
vt 2.79847 0
vt 2.79847 0.0787402
vt 2.75736 0.0787402
f 117/801/30 121/802/33 292/803/33 101/804/30 

vt 2.45737 0
vt 2.49848 0
vn 3.63936e-016 0 -1
vt 2.49848 0.0787402
vt 2.45737 0.0787402
f 121/805/33 125/806/45 291/807/45 292/808/33 

vt 1.98851 0
vt 2.02962 0
vt 2.02962 0.0787402
vt 1.98851 0.0787402
f 125/809/45 128/810/2 290/811/2 291/812/45 

vt 1.38274 0
vt 1.42386 0
vt 1.42386 0.0787402
vt 1.38274 0.0787402
f 128/813/2 132/814/3 289/815/3 290/816/2 

vt 2.86803 0
vt 2.90914 0
vt 2.90914 0.0787402
vt 2.86803 0.0787402
f 113/817/29 117/818/30 101/819/30 102/820/29 

vt 2.78186 0
vt 2.82297 0
vt 2.82297 0.0787402
vt 2.78186 0.0787402
f 111/821/11 113/822/29 102/823/29 103/824/11 

vt 2.5047 0
vt 2.54582 0
vt 2.54582 0.0787402
vt 2.5047 0.0787402
f 109/825/12 111/826/11 103/827/11 104/828/12 

vt 2.05546 0
vt 2.09657 0
vt 2.09657 0.0787402
vt 2.05546 0.0787402
f 106/829/43 109/830/12 104/831/12 105/832/43 

vt 2.46765 0
vt 2.4882 0
vt 2.4882 0.0787402
vt 2.46765 0.0787402
f 157/833/16 159/834/33 93/835/33 94/836/16 

vt 1.99879 0
vt 2.01935 0
vt 2.01935 0.0787402
vt 1.99879 0.0787402
f 155/837/2 157/838/16 94/839/16 95/840/2 

vt 1.39302 0
vt 1.41358 0
vt 1.41358 0.0787402
vt 1.39302 0.0787402
f 153/841/3 155/842/2 95/843/2 96/844/3 

vt 0.691621 0
vt 0.712176 0
vt 0.712176 0.0787402
vt 0.691621 0.0787402
f 151/845/4 153/846/3 96/847/3 97/848/4 

vt -0.0576139 0
vt -0.0370586 0
vt -0.0370586 0.0787402
vt -0.0576139 0.0787402
f 149/849/20 151/850/4 97/851/4 98/852/20 

vt -0.803623 0
vt -0.783068 0
vt -0.783068 0.0787402
vt -0.803623 0.0787402
f 146/853/38 149/854/20 98/855/20 99/856/38 

vt -2.11772 0
vt -2.09717 0
vt -2.09717 0.0787402
vt -2.11772 0.0787402
f 35/857/31 36/858/32 39/859/32 40/860/31 

vt -1.04146 0
vt -1.0209 0
vt -1.0209 0.0787402
vt -1.04146 0.0787402
f 33/861/15 35/862/31 40/863/31 34/864/15 

vt -0.37415 0.15748
vn -0.866025 1.31318e-015 0.5
vt -0.395457 0.15748
vn -0.92388 2.60388e-015 0.382683
vt -0.395457 7.85942e-015
vt -0.37415 7.94269e-015
f 58/865/46 59/866/47 54/867/47 55/868/46 

v 67.9879 4 -37.0833
vt 0.471193 0.15748
vt 0.419805 0.15748
vt 0.419805 8.32667e-017
v 67.9879 2.11497e-015 -37.0833
vt 0.471193 8.32667e-017
f 293/869/9 58/870/46 55/871/46 294/872/9 

vt 2.67669 1.45997
f 57/111/17 58/110/17 293/873/17

v 67.9879 4 -44.1543
vt 2.67669 1.73836
f 57/111/17 293/873/17 295/874/17

v 69.0235 4 -36.2887
vt 2.71746 1.42869
f 295/874/17 293/873/17 296/875/17

vt 1.28618 0.15748
vt 1.23479 0.15748
vt 1.23479 8.32667e-017
v 69.0235 2.11497e-015 -36.2887
vt 1.28618 8.32667e-017
f 296/876/10 293/877/9 294/878/9 297/879/10 

vt -2.67669 1.45997
v 69.0235 0.018483 -44.9489
vt -2.71746 1.76964
vt -2.71746 1.42869
f 294/880/1 298/881/1 297/882/1

v 67.9879 0.018483 -44.1543
vt -2.67669 1.73836
f 294/880/1 299/883/1 298/881/1

f 294/880/1 56/104/1 299/883/1

f 55/103/1 56/104/1 294/880/1

vt -2.95721 0.15748
vt -3.0086 0.15748
vt -3.0086 0.000727677
vt -2.95721 0.000727677
f 57/884/20 295/885/4 299/886/4 56/887/20 

vt -3.18181 0.15748
v 69.0235 4 -44.9489
vt -3.2332 0.15748
vt -3.2332 0.000727677
vt -3.18181 0.000727677
f 295/888/4 300/889/3 298/890/3 299/891/4 

vt 2.71746 1.76964
f 295/874/17 296/875/17 300/892/17

v 69.5235 4 -40.6188
vt 2.73714 1.59917
f 300/892/17 296/875/17 301/893/17

v 69.5916 4 -40.1012
vt 2.73983 1.57879
f 301/893/17 296/875/17 302/894/17

v 70.2294 4 -35.7892
vt 2.76494 1.40902
f 302/894/17 296/875/17 303/895/17

vt 2.01526 0.15748
vt 1.96387 0.15748
vt 1.96387 8.32667e-017
v 70.2294 2.11497e-015 -35.7892
vt 2.01526 8.32667e-017
f 303/896/28 296/897/10 297/898/10 304/899/28 

v 69.5916 0.00767627 -40.1012
vt -2.73983 1.57879
vt -2.76494 1.40902
f 297/882/1 305/900/1 304/901/1

v 69.5235 0.00767627 -40.6188
vt -2.73714 1.59917
f 297/882/1 306/902/1 305/900/1

f 297/882/1 298/881/1 306/902/1

v 69.5916 0.00767627 -41.1364
vt -2.73983 1.61955
f 298/881/1 307/903/1 306/902/1

v 70.2294 0.018483 -45.4484
vt -2.76494 1.78931
f 307/903/1 298/881/1 308/904/1

vt -3.18782 0.15748
v 70.2294 4 -45.4484
vt -3.23921 0.15748
vt -3.23921 0.000727677
vt -3.18782 0.000727677
f 300/905/3 309/906/2 308/907/2 298/908/3 

v 69.5916 4 -41.1364
vt 2.73983 1.61955
vt 2.76494 1.78931
f 300/892/17 310/909/17 309/910/17

f 310/909/17 300/892/17 301/893/17

vt 1.96331 0.15748
vt 1.94275 0.15748
vn 1 0 -1.1422e-014
vt 1.94275 0.000302215
vt 1.96331 0.000302215
f 310/911/14 301/912/48 306/913/48 307/914/14 

vt 1.22822 0.15748
vt 1.20766 0.15748
vt 1.20766 0.000302215
vt 1.22822 0.000302215
f 301/915/48 302/916/12 305/917/12 306/918/48 

vt 0.410122 0.15748
v 69.7914 4 -39.6188
vt 0.389566 0.15748
v 69.7914 0.00767627 -39.6188
vt 0.389566 0.000302215
vt 0.410122 0.000302215
f 302/919/12 311/920/11 312/921/11 305/922/12 

vt 2.74769 1.5598
f 302/894/17 303/895/17 311/923/17

v 70.1093 4 -39.2046
vt 2.76021 1.54349
f 311/923/17 303/895/17 313/924/17

v 70.5235 4 -38.8868
vt 2.77651 1.53097
f 313/924/17 303/895/17 314/925/17

v 71.5235 4 -35.6188
vt 2.81588 1.40232
f 314/925/17 303/895/17 315/926/17

vt 2.60876 0.15748
vt 2.55737 0.15748
vt 2.55737 8.32667e-017
v 71.5235 2.11497e-015 -35.6188
vt 2.60876 8.32667e-017
f 315/927/39 303/928/28 304/929/28 316/930/39 

v 70.5235 0.00767627 -38.8868
vt -2.77651 1.53097
vt -2.81588 1.40232
f 304/901/1 317/931/1 316/932/1

v 70.1093 0.00767627 -39.2046
vt -2.76021 1.54349
f 304/901/1 318/933/1 317/931/1

vt -2.74769 1.5598
f 304/901/1 312/934/1 318/933/1

f 304/901/1 305/900/1 312/934/1

vt -0.435221 0.15748
vt -0.455776 0.15748
vt -0.455776 0.000302215
vt -0.435221 0.000302215
f 311/935/11 313/936/29 318/937/29 312/938/11 

vt -1.2502 0.15748
vt -1.27076 0.15748
vt -1.27076 0.000302215
vt -1.2502 0.000302215
f 313/939/29 314/940/30 317/941/30 318/942/29 

vt -1.97929 0.15748
v 71.0058 4 -38.687
vt -1.99984 0.15748
v 71.0058 0.00767627 -38.687
vt -1.99984 0.000302215
vt -1.97929 0.000302215
f 314/943/30 319/944/33 320/945/33 317/946/30 

vt 2.79551 1.52311
f 314/925/17 315/926/17 319/947/17

v 71.5235 4 -38.6188
vt 2.81588 1.52043
f 319/947/17 315/926/17 321/948/17

v 81.5235 4 -35.6188
vt 3.20959 1.40232
f 321/948/17 315/926/17 322/949/17

vt 3.20959 0.15748
vt 2.81588 0.15748
vt 2.81588 8.32667e-017
v 81.5235 2.11497e-015 -35.6188
vt 3.20959 8.32667e-017
f 322/950/26 315/951/26 316/952/26 323/953/26 

v 71.5235 0.00767627 -38.6188
vt -2.81588 1.52043
vt -3.20959 1.40232
f 316/932/1 324/954/1 323/955/1

vt -2.79551 1.52311
f 316/932/1 320/956/1 324/954/1

f 316/932/1 317/931/1 320/956/1

vt -2.57278 0.15748
vt -2.59334 0.15748
vn -5.34706e-015 0 -1
vt -2.59334 0.000302215
vt -2.57278 0.000302215
f 319/957/33 321/958/49 324/959/49 320/960/33 

vt -2.99025 0.15748
v 72.0411 4 -38.687
vt -3.01081 0.15748
v 72.0411 0.00767627 -38.687
vt -3.01081 0.000302215
vt -2.99025 0.000302215
f 321/961/49 325/962/2 326/963/2 324/964/49 

vt 2.83626 1.52311
f 321/948/17 322/949/17 325/965/17

v 72.5235 4 -38.8868
vt 2.85525 1.53097
f 325/965/17 322/949/17 327/966/17

v 72.9377 4 -39.2046
vt 2.87156 1.54349
f 327/966/17 322/949/17 328/967/17

v 73.2555 4 -39.6188
vt 2.88408 1.5598
f 328/967/17 322/949/17 329/968/17

v 73.4553 4 -40.1012
vt 2.89194 1.57879
f 329/968/17 322/949/17 330/969/17

v 73.5235 4 -40.6188
vt 2.89462 1.59917
f 330/969/17 322/949/17 331/970/17

v 79.7914 4 -39.6188
vt 3.14139 1.5598
f 331/970/17 322/949/17 332/971/17

v 80.1093 4 -39.2046
vt 3.15391 1.54349
f 332/971/17 322/949/17 333/972/17

v 80.5235 4 -38.8868
vt 3.17022 1.53097
f 333/972/17 322/949/17 334/973/17

v 81.0058 4 -38.687
vt 3.18921 1.52311
f 334/973/17 322/949/17 335/974/17

v 81.5235 4 -38.6188
vt 3.20959 1.52043
f 335/974/17 322/949/17 336/975/17

v 82.8176 4 -35.7892
vt 3.26053 1.40902
f 336/975/17 322/949/17 337/976/17

vt 3.41655 0.15748
vt 3.36517 0.15748
vt 3.36517 8.32667e-017
v 82.8176 2.11497e-015 -35.7892
vt 3.41655 8.32667e-017
f 337/977/35 322/978/41 323/979/41 338/980/35 

v 82.0411 0.00767627 -38.687
vt -3.22997 1.52311
vt -3.26053 1.40902
f 323/955/1 339/981/1 338/982/1

v 81.5235 0.00767627 -38.6188
vt -3.20959 1.52043
f 323/955/1 340/983/1 339/981/1

v 81.0058 0.00767627 -38.687
vt -3.18921 1.52311
f 323/955/1 341/984/1 340/983/1

v 80.5235 0.00767627 -38.8868
vt -3.17022 1.53097
f 323/955/1 342/985/1 341/984/1

v 80.1093 0.00767627 -39.2046
vt -3.15391 1.54349
f 323/955/1 343/986/1 342/985/1

v 79.7914 0.00767627 -39.6188
vt -3.14139 1.5598
f 323/955/1 344/987/1 343/986/1

v 73.5235 0.00767627 -40.6188
vt -2.89462 1.59917
f 323/955/1 345/988/1 344/987/1

v 73.4553 0.00767627 -40.1012
vt -2.89194 1.57879
f 323/955/1 346/989/1 345/988/1

v 73.2555 0.00767627 -39.6188
vt -2.88408 1.5598
f 323/955/1 347/990/1 346/989/1

v 72.9377 0.00767627 -39.2046
vt -2.87156 1.54349
f 323/955/1 348/991/1 347/990/1

v 72.5235 0.00767627 -38.8868
vt -2.85525 1.53097
f 323/955/1 349/992/1 348/991/1

vt -2.83626 1.52311
f 323/955/1 326/993/1 349/992/1

f 323/955/1 324/954/1 326/993/1

vt -3.20323 0.15748
vt -3.22379 0.15748
vt -3.22379 0.000302215
vt -3.20323 0.000302215
f 325/994/2 327/995/3 349/996/3 326/997/2 

vt -3.19722 0.15748
vt -3.21778 0.15748
vt -3.21778 0.000302215
vt -3.19722 0.000302215
f 327/998/3 328/999/4 348/1000/4 349/1001/3 

vt -2.97263 0.15748
vt -2.99318 0.15748
vt -2.99318 0.000302215
vt -2.97263 0.000302215
f 328/1002/4 329/1003/20 347/1004/20 348/1005/4 

vt -2.54475 0.15748
vt -2.56531 0.15748
vt -2.56531 0.000302215
vt -2.54475 0.000302215
f 329/1006/20 330/1007/38 346/1008/38 347/1009/20 

vt -1.94275 0.15748
vt -1.96331 0.15748
vn -1 0 1.1422e-014
vt -1.96331 0.000302215
vt -1.94275 0.000302215
f 330/1010/38 331/1011/50 345/1012/50 346/1013/38 

vt -1.20766 0.15748
v 73.4553 4 -41.1364
vt -1.22822 0.15748
v 73.4553 0.00767627 -41.1364
vt -1.22822 0.000302215
vt -1.20766 0.000302215
f 331/1014/50 350/1015/7 351/1016/7 345/1017/50 

v 81.5235 4 -45.6188
vt 3.20959 1.79602
vt 2.89194 1.61955
f 352/1018/17 350/1019/17 331/970/17

v 73.2555 4 -41.6188
vt 2.88408 1.63854
f 352/1018/17 353/1020/17 350/1019/17

v 72.9377 4 -42.033
vt 2.87156 1.65484
f 352/1018/17 354/1021/17 353/1020/17

v 72.5235 4 -42.3509
vt 2.85525 1.66736
f 352/1018/17 355/1022/17 354/1021/17

v 72.0411 4 -42.5507
vt 2.83626 1.67522
f 352/1018/17 356/1023/17 355/1022/17

v 71.5235 4 -45.6188
vt 2.81588 1.79602
f 357/1024/17 356/1023/17 352/1018/17

v 71.5235 4 -42.6188
vt 2.81588 1.67791
f 357/1024/17 358/1025/17 356/1023/17

v 71.0058 4 -42.5507
vt 2.79551 1.67522
f 357/1024/17 359/1026/17 358/1025/17

v 70.5235 4 -42.3509
vt 2.77651 1.66736
f 357/1024/17 360/1027/17 359/1026/17

f 309/910/17 360/1027/17 357/1024/17

v 70.1093 4 -42.033
vt 2.76021 1.65484
f 309/910/17 361/1028/17 360/1027/17

v 69.7914 4 -41.6188
vt 2.74769 1.63854
f 309/910/17 362/1029/17 361/1028/17

f 309/910/17 310/909/17 362/1029/17

vt 2.56531 0.15748
vt 2.54475 0.15748
vt 2.54475 0.000302215
v 69.7914 0.00767627 -41.6188
vt 2.56531 0.000302215
f 362/1030/15 310/1031/14 307/1032/14 363/1033/15 

vt -2.74769 1.63854
f 307/903/1 308/904/1 363/1034/1

v 70.1093 0.00767627 -42.033
vt -2.76021 1.65484
f 363/1034/1 308/904/1 364/1035/1

v 70.5235 0.00767627 -42.3509
vt -2.77651 1.66736
f 364/1035/1 308/904/1 365/1036/1

v 71.5235 0.018483 -45.6188
vt -2.81588 1.79602
f 365/1036/1 308/904/1 366/1037/1

vt -2.97483 0.15748
vt -3.02622 0.15748
vn -0.130526 0 -0.991445
vt -3.02622 0.000727677
vt -2.97483 0.000727677
f 309/1038/2 357/1039/51 366/1040/51 308/1041/2 

vt -2.81588 0.15748
vt -3.20959 0.15748
v 81.5235 0.018483 -45.6188
vt -3.20959 0.000727677
vt -2.81588 0.000727677
f 357/1042/16 352/1043/16 367/1044/16 366/1045/16 

vt -2.9477 0.15748
vn 0.130526 0 -0.991445
v 82.8176 4 -45.4484
vt -2.99909 0.15748
v 82.8176 0.018483 -45.4484
vt -2.99909 0.000727677
vt -2.9477 0.000727677
f 352/1046/52 368/1047/33 369/1048/33 367/1049/52 

v 82.0411 4 -42.5507
vt 3.22997 1.67522
vt 3.26053 1.78931
f 352/1018/17 370/1050/17 368/1051/17

v 81.5235 4 -42.6188
vt 3.20959 1.67791
f 352/1018/17 371/1052/17 370/1050/17

v 81.0058 4 -42.5507
vt 3.18921 1.67522
f 352/1018/17 372/1053/17 371/1052/17

v 80.5235 4 -42.3509
vt 3.17022 1.66736
f 352/1018/17 373/1054/17 372/1053/17

v 80.1093 4 -42.033
vt 3.15391 1.65484
f 352/1018/17 374/1055/17 373/1054/17

v 79.7914 4 -41.6188
vt 3.14139 1.63854
f 352/1018/17 375/1056/17 374/1055/17

f 352/1018/17 331/970/17 375/1056/17

v 79.5916 4 -41.1364
vt 3.13353 1.61955
f 375/1056/17 331/970/17 376/1057/17

v 79.5235 4 -40.6188
vt 3.13085 1.59917
f 376/1057/17 331/970/17 377/1058/17

v 79.5916 4 -40.1012
vt 3.13353 1.57879
f 331/970/17 378/1059/17 377/1058/17

f 331/970/17 332/971/17 378/1059/17

vt 0.259459 0.15748
vt 0.238904 0.15748
vt 0.238904 0.000302215
v 79.5916 0.00767627 -40.1012
vt 0.259459 0.000302215
f 378/1060/12 332/1061/11 344/1062/11 379/1063/12 

vt -0.674891 0.15748
vt -0.695446 0.15748
vt -0.695446 0.000302215
vt -0.674891 0.000302215
f 332/1064/11 333/1065/29 343/1066/29 344/1067/11 

vt -1.56255 0.15748
vt -1.5831 0.15748
vt -1.5831 0.000302215
vt -1.56255 0.000302215
f 333/1068/29 334/1069/30 342/1070/30 343/1071/29 

vt -2.34302 0.15748
vt -2.36357 0.15748
vt -2.36357 0.000302215
vt -2.34302 0.000302215
f 334/1072/30 335/1073/33 341/1074/33 342/1075/30 

vt -2.96312 0.15748
vt -2.98367 0.15748
vn -1.39975e-015 0 -1
vt -2.98367 0.000302215
vt -2.96312 0.000302215
f 335/1076/33 336/1077/53 340/1078/53 341/1079/33 

vt -3.38058 0.15748
v 82.0411 4 -38.687
vt -3.40114 0.15748
vt -3.40114 0.000302215
vt -3.38058 0.000302215
f 336/1080/53 380/1081/2 339/1082/2 340/1083/53 

vt 3.22997 1.52311
f 336/975/17 337/976/17 380/1084/17

v 82.5235 4 -38.8868
vt 3.24896 1.53097
f 380/1084/17 337/976/17 381/1085/17

v 82.9377 4 -39.2046
vt 3.26526 1.54349
f 381/1085/17 337/976/17 382/1086/17

v 84.0235 4 -36.2887
vt 3.30801 1.42869
f 382/1086/17 337/976/17 383/1087/17

vt 3.60294 0.15748
vt 3.55155 0.15748
vt 3.55155 8.32667e-017
v 84.0235 2.11497e-015 -36.2887
vt 3.60294 8.32667e-017
f 383/1088/32 337/1089/35 338/1090/35 384/1091/32 

v 82.9377 0.00767627 -39.2046
vt -3.26526 1.54349
vt -3.30801 1.42869
f 338/982/1 385/1092/1 384/1093/1

v 82.5235 0.00767627 -38.8868
vt -3.24896 1.53097
f 338/982/1 386/1094/1 385/1092/1

f 338/982/1 339/981/1 386/1094/1

vt -3.56697 0.15748
vt -3.58752 0.15748
vt -3.58752 0.000302215
vt -3.56697 0.000302215
f 380/1095/2 381/1096/3 386/1097/3 339/1098/2 

vt -3.50957 0.15748
vt -3.53012 0.15748
vt -3.53012 0.000302215
vt -3.50957 0.000302215
f 381/1099/3 382/1100/4 385/1101/4 386/1102/3 

vt -3.2123 0.15748
v 83.2555 4 -39.6188
vt -3.23285 0.15748
v 83.2555 0.00767627 -39.6188
vt -3.23285 0.000302215
vt -3.2123 0.000302215
f 382/1103/4 387/1104/20 388/1105/20 385/1106/4 

vt 3.27778 1.5598
f 382/1086/17 383/1087/17 387/1107/17

v 83.4553 4 -40.1012
vt 3.28564 1.57879
f 387/1107/17 383/1087/17 389/1108/17

v 83.5235 4 -40.6188
vt 3.28833 1.59917
f 389/1108/17 383/1087/17 390/1109/17

v 84.0235 4 -44.9489
vt 3.30801 1.76964
f 391/1110/17 390/1109/17 383/1087/17

v 83.4553 4 -41.1364
vt 3.28564 1.61955
f 391/1110/17 392/1111/17 390/1109/17

v 83.2555 4 -41.6188
vt 3.27778 1.63854
f 391/1110/17 393/1112/17 392/1111/17

v 82.9377 4 -42.033
vt 3.26526 1.65484
f 391/1110/17 394/1113/17 393/1112/17

f 368/1051/17 394/1113/17 391/1110/17

v 82.5235 4 -42.3509
vt 3.24896 1.66736
f 368/1051/17 395/1114/17 394/1113/17

f 368/1051/17 370/1050/17 395/1114/17

vt 2.36357 0.15748
vt 2.34302 0.15748
v 82.0411 0.00767627 -42.5507
vt 2.34302 0.000302215
v 82.5235 0.00767627 -42.3509
vt 2.36357 0.000302215
f 395/1115/10 370/1116/28 396/1117/28 397/1118/10 

vt 2.98367 0.15748
vt 2.96312 0.15748
vn -1.39975e-015 0 1
v 81.5235 0.00767627 -42.6188
vt 2.96312 0.000302215
vt 2.98367 0.000302215
f 370/1119/28 371/1120/54 398/1121/54 396/1122/28 

vt 3.40114 0.15748
vt 3.38058 0.15748
v 81.0058 0.00767627 -42.5507
vt 3.38058 0.000302215
vt 3.40114 0.000302215
f 371/1123/54 372/1124/35 399/1125/35 398/1126/54 

vt 3.58752 0.15748
vt 3.56697 0.15748
v 80.5235 0.00767627 -42.3509
vt 3.56697 0.000302215
vt 3.58752 0.000302215
f 372/1127/35 373/1128/32 400/1129/32 399/1130/35 

vt 3.53012 0.15748
vt 3.50957 0.15748
v 80.1093 0.00767627 -42.033
vt 3.50957 0.000302215
vt 3.53012 0.000302215
f 373/1131/32 374/1132/31 401/1133/31 400/1134/32 

vt 3.23285 0.15748
vt 3.2123 0.15748
v 79.7914 0.00767627 -41.6188
vt 3.2123 0.000302215
vt 3.23285 0.000302215
f 374/1135/31 375/1136/15 402/1137/15 401/1138/31 

vt 2.71597 0.15748
vt 2.69541 0.15748
v 79.5916 0.00767627 -41.1364
vt 2.69541 0.000302215
vt 2.71597 0.000302215
f 375/1139/15 376/1140/14 403/1141/14 402/1142/15 

vt 2.0147 0.15748
vt 1.99414 0.15748
vn 1 0 9.99424e-015
v 79.5235 0.00767627 -40.6188
vt 1.99414 0.000302215
vt 2.0147 0.000302215
f 376/1143/14 377/1144/55 404/1145/55 403/1146/14 

vt 1.17683 0.15748
vt 1.15627 0.15748
vt 1.15627 0.000302215
vt 1.17683 0.000302215
f 377/1147/55 378/1148/12 379/1149/12 404/1150/55 

vt -3.13353 1.57879
vt -3.13085 1.59917
f 379/1151/1 345/988/1 404/1152/1

f 344/987/1 345/988/1 379/1151/1

vt -3.13353 1.61955
f 345/988/1 403/1153/1 404/1152/1

vt -3.14139 1.63854
f 345/988/1 402/1154/1 403/1153/1

vt -3.20959 1.79602
f 345/988/1 367/1155/1 402/1154/1

vt -2.89194 1.61955
f 351/1156/1 367/1155/1 345/988/1

v 73.2555 0.00767627 -41.6188
vt -2.88408 1.63854
f 405/1157/1 367/1155/1 351/1156/1

v 72.9377 0.00767627 -42.033
vt -2.87156 1.65484
f 406/1158/1 367/1155/1 405/1157/1

v 72.5235 0.00767627 -42.3509
vt -2.85525 1.66736
f 407/1159/1 367/1155/1 406/1158/1

v 72.0411 0.00767627 -42.5507
vt -2.83626 1.67522
f 408/1160/1 367/1155/1 407/1159/1

f 408/1160/1 366/1037/1 367/1155/1

v 71.5235 0.00767627 -42.6188
vt -2.81588 1.67791
f 409/1161/1 366/1037/1 408/1160/1

v 71.0058 0.00767627 -42.5507
vt -2.79551 1.67522
f 410/1162/1 366/1037/1 409/1161/1

f 365/1036/1 366/1037/1 410/1162/1

vt 3.22379 0.15748
vt 3.20323 0.15748
vt 3.20323 0.000302215
vt 3.22379 0.000302215
f 359/1163/35 360/1164/32 365/1165/32 410/1166/35 

vt 3.21778 0.15748
vt 3.19722 0.15748
vt 3.19722 0.000302215
vt 3.21778 0.000302215
f 360/1167/32 361/1168/31 364/1169/31 365/1170/32 

vt 2.99318 0.15748
vt 2.97263 0.15748
vt 2.97263 0.000302215
vt 2.99318 0.000302215
f 361/1171/31 362/1172/15 363/1173/15 364/1174/31 

vt 3.01081 0.15748
vn 5.36106e-015 0 1
vt 2.99025 0.15748
vt 2.99025 0.000302215
vt 3.01081 0.000302215
f 358/1175/56 359/1176/35 410/1177/35 409/1178/56 

vt 2.59334 0.15748
vt 2.57278 0.15748
vt 2.57278 0.000302215
vt 2.59334 0.000302215
f 356/1179/28 358/1180/56 409/1181/56 408/1182/28 

vt 1.99984 0.15748
vt 1.97929 0.15748
vt 1.97929 0.000302215
vt 1.99984 0.000302215
f 355/1183/10 356/1184/28 408/1185/28 407/1186/10 

vt 1.27076 0.15748
vt 1.2502 0.15748
vt 1.2502 0.000302215
vt 1.27076 0.000302215
f 354/1187/9 355/1188/10 407/1189/10 406/1190/9 

vt 0.455776 0.15748
vt 0.435221 0.15748
vt 0.435221 0.000302215
vt 0.455776 0.000302215
f 353/1191/8 354/1192/9 406/1193/9 405/1194/8 

vt -0.389566 0.15748
vt -0.410122 0.15748
vt -0.410122 0.000302215
vt -0.389566 0.000302215
f 350/1195/7 353/1196/8 405/1197/8 351/1198/7 

vt -3.15391 1.65484
f 402/1154/1 367/1155/1 401/1199/1

vt -3.17022 1.66736
f 401/1199/1 367/1155/1 400/1200/1

vt -3.18921 1.67522
f 400/1200/1 367/1155/1 399/1201/1

vt -3.20959 1.67791
f 399/1201/1 367/1155/1 398/1202/1

vt -3.26053 1.78931
f 398/1202/1 367/1155/1 369/1203/1

vt -3.22997 1.67522
f 398/1202/1 369/1203/1 396/1204/1

vt -3.24896 1.66736
f 396/1204/1 369/1203/1 397/1205/1

v 82.9377 0.00767627 -42.033
vt -3.26526 1.65484
f 397/1205/1 369/1203/1 411/1206/1

v 84.0235 0.018483 -44.9489
vt -3.30801 1.76964
f 411/1206/1 369/1203/1 412/1207/1

vt -2.3276 0.15748
vt -2.37899 0.15748
vt -2.37899 0.000727677
vt -2.3276 0.000727677
f 368/1208/33 391/1209/30 412/1210/30 369/1211/33 

vt -1.54713 0.15748
v 85.059 4 -44.1543
vt -1.59852 0.15748
v 85.059 0.018483 -44.1543
vt -1.59852 0.000727677
vt -1.54713 0.000727677
f 391/1212/30 413/1213/29 414/1214/29 412/1215/30 

v 85.059 4 -37.0833
vt 3.34878 1.45997
vt 3.34878 1.73836
f 391/1110/17 415/1216/17 413/1217/17

f 391/1110/17 383/1087/17 415/1216/17

vt 3.54554 0.15748
vt 3.49415 0.15748
vt 3.49415 8.32667e-017
v 85.059 2.11497e-015 -37.0833
vt 3.54554 8.32667e-017
f 415/1218/31 383/1219/32 384/1220/32 416/1221/31 

vt -3.34878 1.73836
vt -3.34878 1.45997
f 384/1093/1 414/1222/1 416/1223/1

f 384/1093/1 412/1207/1 414/1222/1

v 83.5235 0.00767627 -40.6188
vt -3.28833 1.59917
f 384/1093/1 417/1224/1 412/1207/1

v 83.4553 0.00767627 -40.1012
vt -3.28564 1.57879
f 384/1093/1 418/1225/1 417/1224/1

vt -3.27778 1.5598
f 384/1093/1 388/1226/1 418/1225/1

f 384/1093/1 385/1092/1 388/1226/1

vt -2.69541 0.15748
vt -2.71597 0.15748
vt -2.71597 0.000302215
vt -2.69541 0.000302215
f 387/1227/20 389/1228/38 418/1229/38 388/1230/20 

vt -1.99414 0.15748
vt -2.0147 0.15748
vt -2.0147 0.000302215
vt -1.99414 0.000302215
f 389/1231/38 390/1232/5 417/1233/5 418/1234/38 

vt -1.15627 0.15748
vt -1.17683 0.15748
v 83.4553 0.00767627 -41.1364
vt -1.17683 0.000302215
vt -1.15627 0.000302215
f 390/1235/5 392/1236/7 419/1237/7 417/1238/5 

vt -0.238904 0.15748
vt -0.259459 0.15748
v 83.2555 0.00767627 -41.6188
vt -0.259459 0.000302215
vt -0.238904 0.000302215
f 392/1239/7 393/1240/8 420/1241/8 419/1242/7 

vt 0.695446 0.15748
vt 0.674891 0.15748
vt 0.674891 0.000302215
vt 0.695446 0.000302215
f 393/1243/8 394/1244/9 411/1245/9 420/1246/8 

vt 1.5831 0.15748
vt 1.56255 0.15748
vt 1.56255 0.000302215
vt 1.5831 0.000302215
f 394/1247/9 395/1248/10 397/1249/10 411/1250/9 

vt -3.27778 1.63854
f 411/1206/1 412/1207/1 420/1251/1

vt -3.28564 1.61955
f 420/1251/1 412/1207/1 419/1252/1

f 419/1252/1 412/1207/1 417/1224/1

v 85.8536 0.018483 -43.1188
vt -3.38006 1.69759
f 416/1223/1 414/1222/1 421/1253/1

vt -0.659474 0.15748
v 85.8536 4 -43.1188
vt -0.710863 0.15748
vn 0.866025 1.33024e-018 -0.5
vt -0.710863 0.000727677
vt -0.659474 0.000727677
f 413/1254/29 422/1255/57 421/1256/57 414/1257/29 

v 85.8536 4 -38.1188
vt 3.38006 1.50074
vt 3.38006 1.69759
f 413/1217/17 423/1258/17 422/1259/17

f 413/1217/17 415/1216/17 423/1258/17

vt 3.24827 0.15748
vn 0.866025 4.14607e-018 0.5
vt 3.19688 0.15748
vt 3.19688 8.32667e-017
v 85.8536 2.11497e-015 -38.1188
vt 3.24827 8.32667e-017
f 423/1260/58 415/1261/31 416/1262/31 424/1263/58 

vt -3.38006 1.50074
f 416/1223/1 421/1253/1 424/1264/1

v 86.0607 0.018483 -42.6188
vt -3.38822 1.67791
f 424/1264/1 421/1253/1 425/1265/1

v 86.0607 4 -42.6188
vt 0.253568 0.15748
vn 0.92388 2.63772e-018 -0.382683
v 86.3531 4 -41.9129
vt 0.223487 0.15748
vn 0.965926 1.33024e-018 -0.258819
v 86.3531 0.018483 -41.9129
vt 0.223487 0.000727677
vt 0.253568 0.000727677
vt 0.274875 0.000727677
vt 0.274875 0.15748
f 426/1266/59 427/1267/60 428/1268/60 425/1269/59 421/1270/57 422/1271/57 

vt 3.38822 1.67791
v 86.3531 4 -39.3247
vt 3.39973 1.54822
vt 3.39973 1.65011
f 426/1272/17 429/1273/17 427/1274/17

v 86.0607 4 -38.6188
vt 3.38822 1.52043
f 426/1272/17 430/1275/17 429/1273/17

f 422/1259/17 430/1275/17 426/1272/17

f 422/1259/17 423/1258/17 430/1275/17

vt 2.7013 0.15748
vn 0.92388 8.2212e-018 0.382683
vt 2.68 0.15748
vt 2.68 6.23153e-017
v 86.0607 0 -38.6188
vt 2.7013 -2.09514e-017
v 86.3531 0.018483 -39.3247
vt 2.73139 0.000727677
vn 0.965926 4.14607e-018 0.258819
vt 2.73139 0.15748
f 430/1276/61 423/1277/58 424/1278/58 431/1279/61 432/1280/62 429/1281/62 

vt -3.38822 1.52043
f 424/1264/1 425/1265/1 431/1282/1

vt -3.39973 1.65011
f 431/1282/1 425/1265/1 428/1283/1

vt -3.39973 1.54822
f 431/1282/1 428/1283/1 432/1284/1

v 86.5235 0.018483 -40.6188
vt -3.40644 1.59917
f 432/1284/1 428/1283/1 433/1285/1

vt 1.19224 0.15748
v 86.5235 4 -40.6188
vt 1.14086 0.15748
vt 1.14086 0.000727677
vt 1.19224 0.000727677
f 427/1286/60 434/1287/43 433/1288/43 428/1289/60 

vt 3.40644 1.59917
f 427/1274/17 429/1273/17 434/1290/17

vt 2.03011 0.15748
vt 1.97873 0.15748
vt 1.97873 0.000727677
vt 2.03011 0.000727677
f 434/1291/42 429/1292/62 432/1293/62 433/1294/42 

vt -1.2746 0
vt -1.23349 0
vt -1.23349 0.0787402
vt -1.2746 0.0787402
f 13/1295/38 15/1296/44 19/1297/44 42/1298/38 

vt -0.135918 0
vt -0.0948075 0
vt -0.0948075 0.0787402
vt -0.135918 0.0787402
f 11/1299/20 13/1300/38 42/1301/38 41/1302/20 

vt 1.01062 0
vt 1.05173 0
vt 1.05173 0.0787402
vt 1.01062 0.0787402
f 7/1303/4 11/1304/20 41/1305/20 8/1306/4 

