# Alias OBJ Model File
# Exported from SketchUp, (c) 2000-2012 Trimble Navigation Limited
# File units = millimeters

mtllib rama_R.mtl

g Mesh1 Model

usemtl FrontColor
v 33.5235 2 -42.6188
vt 1.31982 1.67791
vn 0 1 -0
v 36.5235 2 -43.8868
vt 1.43793 1.72783
v 33.5235 2 -45.6188
vt 1.31982 1.79602
f 1/1/1 2/2/1 3/3/1

v 37.0058 2 -43.687
vt 1.45692 1.71996
f 2/2/1 1/1/1 4/4/1

v 37.5235 2 -43.6188
vt 1.4773 1.71728
f 4/4/1 1/1/1 5/5/1

v 86.5235 2 -42.6188
vt 3.40644 1.67791
f 5/5/1 1/1/1 6/6/1

v 33.5235 0 -42.6188
vt -1.31982 -1.80291e-016
vn 1.73964e-017 1.0745e-016 -1
v -86.9393 0.018483 -42.6188
vt 3.42281 0.000727677
v -86.9393 4 -42.6188
vt 3.42281 0.15748
v -86.4765 4 -42.6188
vt 3.40459 0.15748
v 33.5235 4 -42.6188
vt -1.31982 0.15748
vt -3.40644 0.0787402
vt -1.31982 0.0787402
f 7/7/2 8/8/2 9/9/2 10/10/2 11/11/2 6/12/2 1/13/2 

v -86.9393 0 -38.6188
vt 3.42281 1.52043
vn -6.65478e-005 -1 -0.000330543
vt 3.42281 1.67791
vt -1.31982 1.67791
f 12/14/3 8/15/3 7/16/3

v -87.1464 2.11497e-015 -38.1188
vt 3.43096 1.50074
f 13/17/3 8/15/3 12/14/3

v -87.1464 0.018483 -43.1188
vt 3.43096 1.69759
f 13/17/3 14/18/3 8/15/3

v -87.941 2.11497e-015 -37.0833
vt 3.46224 1.45997
f 15/19/3 14/18/3 13/17/3

v -87.941 0.018483 -44.1543
vt 3.46224 1.73836
f 15/19/3 16/20/3 14/18/3

v -88.9765 2.11497e-015 -36.2887
vt 3.50301 1.42869
f 17/21/3 16/20/3 15/19/3

v -88.9765 0.018483 -44.9489
vt 3.50301 1.76964
f 17/21/3 18/22/3 16/20/3

v -89.4765 0.00767627 -40.6188
vt 3.5227 1.59917
f 17/21/3 19/23/3 18/22/3

v -89.5447 0.00767627 -40.1012
vt 3.52538 1.57879
f 17/21/3 20/24/3 19/23/3

v -89.7445 0.00767627 -39.6188
vt 3.53325 1.5598
f 17/21/3 21/25/3 20/24/3

v -90.0623 0.00767627 -39.2046
vt 3.54576 1.54349
f 17/21/3 22/26/3 21/25/3

v -90.1824 2.11497e-015 -35.7892
vt 3.55049 1.40902
f 23/27/3 22/26/3 17/21/3

v -90.4765 0.00767627 -38.8868
vt 3.56207 1.53097
f 23/27/3 24/28/3 22/26/3

v -90.9589 0.00767627 -38.687
vt 3.58106 1.52311
f 23/27/3 25/29/3 24/28/3

v -91.4765 2.11497e-015 -35.6188
vt 3.60144 1.40232
f 26/30/3 25/29/3 23/27/3

v -91.4765 0.00767627 -38.6188
vt 3.60144 1.52043
f 26/30/3 27/31/3 25/29/3

v -91.9942 0.00767627 -38.687
vt 3.62182 1.52311
f 26/30/3 28/32/3 27/31/3

v -92.4765 0.00767627 -38.8868
vt 3.64081 1.53097
f 26/30/3 29/33/3 28/32/3

v -92.8907 0.00767627 -39.2046
vt 3.65712 1.54349
f 26/30/3 30/34/3 29/33/3

v -93.2086 0.00767627 -39.6188
vt 3.66963 1.5598
f 26/30/3 31/35/3 30/34/3

v -99.4765 0.00767627 -40.6188
vt 3.9164 1.59917
f 26/30/3 32/36/3 31/35/3

v -99.5447 0.00767627 -40.1012
vt 3.91908 1.57879
f 26/30/3 33/37/3 32/36/3

v -99.7445 0.00767627 -39.6188
vt 3.92695 1.5598
f 26/30/3 34/38/3 33/37/3

v -100.062 0.00767627 -39.2046
vt 3.93946 1.54349
f 26/30/3 35/39/3 34/38/3

v -100.477 0.00767627 -38.8868
vt 3.95577 1.53097
f 26/30/3 36/40/3 35/39/3

v -100.959 0.00767627 -38.687
vt 3.97476 1.52311
f 26/30/3 37/41/3 36/40/3

v -101.477 2.11497e-015 -35.6188
vt 3.99514 1.40232
f 38/42/3 37/41/3 26/30/3

v -101.477 0.00767627 -38.6188
vt 3.99514 1.52043
f 38/42/3 39/43/3 37/41/3

v -101.994 0.00767627 -38.687
vt 4.01552 1.52311
f 38/42/3 40/44/3 39/43/3

v -102.477 0.00767627 -38.8868
vt 4.03451 1.53097
f 38/42/3 41/45/3 40/44/3

v -102.771 2.11497e-015 -35.7892
vt 4.04609 1.40902
f 42/46/3 41/45/3 38/42/3

v -102.891 0.00767627 -39.2046
vt 4.05082 1.54349
f 42/46/3 43/47/3 41/45/3

v -103.209 0.00767627 -39.6188
vt 4.06333 1.5598
f 42/46/3 44/48/3 43/47/3

v -103.408 0.00767627 -40.1012
vt 4.0712 1.57879
f 42/46/3 45/49/3 44/48/3

v -103.977 2.11497e-015 -36.2887
vt 4.09356 1.42869
f 46/50/3 45/49/3 42/46/3

v -103.477 0.00767627 -40.6188
vt 4.07388 1.59917
f 45/49/3 46/50/3 47/51/3

v -103.977 0.018483 -44.9489
vt 4.09356 1.76964
f 46/50/3 48/52/3 47/51/3

v -105.012 2.11497e-015 -37.0833
vt 4.13433 1.45997
f 49/53/3 48/52/3 46/50/3

v -105.012 0.018483 -44.1543
vt 4.13433 1.73836
f 49/53/3 50/54/3 48/52/3

v -105.807 2.11497e-015 -38.1188
vt 4.16562 1.50074
f 51/55/3 50/54/3 49/53/3

v -105.807 0.018483 -43.1188
vt 4.16562 1.69759
f 51/55/3 52/56/3 50/54/3

v -106.014 0 -38.6188
vt 4.17377 1.52043
f 53/57/3 52/56/3 51/55/3

v -106.014 0.018483 -42.6188
vt 4.17377 1.67791
f 53/57/3 54/58/3 52/56/3

v -106.306 0.018483 -39.3247
vt 4.18528 1.54822
f 55/59/3 54/58/3 53/57/3

v -106.306 0.018483 -41.9129
vt 4.18528 1.65011
f 55/59/3 56/60/3 54/58/3

v -106.477 0.018483 -40.6188
vt 4.19199 1.59917
f 56/60/3 55/59/3 57/61/3

v -106.306 4 -39.3247
vt -2.08126 0.15748
vn -0.965926 4.14607e-018 0.258819
v -106.477 4 -40.6188
vt -2.13265 0.15748
vn -0.991445 0 0.130526
vt -2.13265 0.000727677
vt -2.08126 0.000727677
f 58/62/4 59/63/5 57/64/5 55/65/4 

vt -4.18528 1.54822
v -106.306 4 -41.9129
vt -4.18528 1.65011
vt -4.19199 1.59917
f 58/66/1 60/67/1 59/68/1

v -106.014 4 -38.6188
vt -4.17377 1.52043
f 60/67/1 58/66/1 61/69/1

v -105.807 4 -38.1188
vt -2.98062 0.15748
vn -0.866025 4.14607e-018 0.5
vt -3.00192 0.15748
vn -0.92388 8.2212e-018 0.382683
vt -3.032 0.15748
vt -3.032 0.000727677
vt -3.00192 -2.6918e-017
vt -2.98062 5.63487e-017
f 62/70/6 61/71/7 58/72/4 55/73/4 53/74/7 51/75/6 

v -106.014 4 -42.6188
vt -4.17377 1.67791
vt -4.16562 1.50074
f 63/76/1 61/69/1 62/77/1

f 60/67/1 61/69/1 63/76/1

vt 0.0771311 0.15748
vn -0.965926 1.33024e-018 -0.258819
vt 0.0470498 0.15748
vn -0.92388 2.63772e-018 -0.382683
v -105.807 4 -43.1188
vt 0.0257429 0.15748
vn -0.866025 1.33024e-018 -0.5
vt 0.0257429 0.000727677
vt 0.0470498 0.000727677
vt 0.0771311 0.000727677
f 60/78/8 63/79/9 64/80/10 52/81/10 54/82/9 56/83/8 

vt -4.16562 1.69759
f 63/76/1 62/77/1 64/84/1

v -105.012 4 -37.0833
vt -4.13433 1.45997
f 64/84/1 62/77/1 65/85/1

vt -3.6751 0.15748
vn -0.707107 0 0.707107
vt -3.72648 0.15748
vt -3.72648 8.32667e-017
vt -3.6751 8.32667e-017
f 65/86/11 62/87/6 51/88/6 49/89/11 

v -103.977 4 -36.2887
vt -4.11737 0.15748
vn -0.5 0 0.866025
vt -4.16876 0.15748
vt -4.16876 8.32667e-017
vt -4.11737 8.32667e-017
f 66/90/12 65/91/11 49/92/11 46/93/12 

v -105.012 4 -44.1543
vt -4.13433 1.73836
vt -4.09356 1.42869
f 67/94/1 65/85/1 66/95/1

f 64/84/1 65/85/1 67/94/1

vt 1.18908 0.15748
vt 1.13769 0.15748
vn -0.707107 0 -0.707107
vt 1.13769 0.000727677
vt 1.18908 0.000727677
f 64/96/10 67/97/13 50/98/13 52/99/10 

vt 2.22174 0.15748
v -103.977 4 -44.9489
vt 2.17035 0.15748
vn -0.5 0 -0.866025
vt 2.17035 0.000727677
vt 2.22174 0.000727677
f 67/100/13 68/101/14 48/102/14 50/103/13 

vt -4.09356 1.76964
f 67/94/1 66/95/1 68/104/1

v -103.477 4 -40.6188
vt -4.07388 1.59917
f 68/104/1 66/95/1 69/105/1

v -103.408 4 -40.1012
vt -4.0712 1.57879
f 69/105/1 66/95/1 70/106/1

v -102.771 4 -35.7892
vt -4.04609 1.40902
f 70/106/1 66/95/1 71/107/1

vt -4.27731 0.15748
vn -0.258819 0 0.965926
vt -4.3287 0.15748
vt -4.3287 8.32667e-017
vt -4.27731 8.32667e-017
f 71/108/15 66/109/12 46/110/12 42/111/15 

v -101.477 4 -35.6188
vt -4.144 0.15748
vn -0.130526 0 0.991445
vt -4.19539 0.15748
vt -4.19539 8.32667e-017
vt -4.144 8.32667e-017
f 72/112/16 71/113/15 42/114/15 38/115/16 

v -102.477 4 -38.8868
vt -4.03451 1.53097
vt -3.99514 1.40232
f 73/116/1 71/107/1 72/117/1

v -102.891 4 -39.2046
vt -4.05082 1.54349
f 74/118/1 71/107/1 73/116/1

v -103.209 4 -39.6188
vt -4.06333 1.5598
f 75/119/1 71/107/1 74/118/1

f 70/106/1 71/107/1 75/119/1

vt 3.01659 0.15748
vn 0.965926 0 -0.258819
vt 2.99603 0.15748
vn 0.866025 0 -0.5
vt 2.99603 0.000302215
vt 3.01659 0.000302215
f 70/120/17 75/121/18 44/122/18 45/123/17 

vt 3.71107 0.15748
vt 3.69051 0.15748
vn 0.707107 0 -0.707107
vt 3.69051 0.000302215
vt 3.71107 0.000302215
f 75/124/18 74/125/19 43/126/19 44/127/18 

vt 4.15334 0.15748
vt 4.13279 0.15748
vn 0.5 0 -0.866025
vt 4.13279 0.000302215
vt 4.15334 0.000302215
f 74/128/19 73/129/20 41/130/20 43/131/19 

vt 4.31328 0.15748
v -101.994 4 -38.687
vt 4.29272 0.15748
vn 0.258819 0 -0.965926
vt 4.29272 0.000302215
vt 4.31328 0.000302215
f 73/132/20 76/133/21 40/134/21 41/135/20 

vt -4.01552 1.52311
f 73/116/1 72/117/1 76/136/1

v -101.477 4 -38.6188
vt -3.99514 1.52043
f 76/136/1 72/117/1 77/137/1

v -91.4765 4 -35.6188
vt -3.60144 1.40232
f 77/137/1 72/117/1 78/138/1

vt -3.60144 0.15748
vn 0 0 1
vt -3.99514 0.15748
vt -3.99514 8.32667e-017
vt -3.60144 8.32667e-017
f 78/139/22 72/140/22 38/141/22 26/142/22 

v -90.1824 4 -35.7892
vt -3.3362 0.15748
vn 0.258819 0 0.965926
vt -3.38759 0.15748
vn 0.130526 0 0.991445
vt -3.38759 8.32667e-017
vt -3.3362 8.32667e-017
f 79/143/23 78/144/24 26/145/24 23/146/23 

v -90.9589 4 -38.687
vt -3.58106 1.52311
vt -3.55049 1.40902
f 80/147/1 78/138/1 79/148/1

v -91.4765 4 -38.6188
vt -3.60144 1.52043
f 81/149/1 78/138/1 80/147/1

v -91.9942 4 -38.687
vt -3.62182 1.52311
f 82/150/1 78/138/1 81/149/1

v -92.4765 4 -38.8868
vt -3.64081 1.53097
f 83/151/1 78/138/1 82/150/1

v -92.8907 4 -39.2046
vt -3.65712 1.54349
f 84/152/1 78/138/1 83/151/1

v -93.2086 4 -39.6188
vt -3.66963 1.5598
f 85/153/1 78/138/1 84/152/1

v -99.4765 4 -40.6188
vt -3.9164 1.59917
f 86/154/1 78/138/1 85/153/1

v -99.5447 4 -40.1012
vt -3.91908 1.57879
f 87/155/1 78/138/1 86/154/1

v -99.7445 4 -39.6188
vt -3.92695 1.5598
f 88/156/1 78/138/1 87/155/1

v -100.062 4 -39.2046
vt -3.93946 1.54349
f 89/157/1 78/138/1 88/156/1

v -100.477 4 -38.8868
vt -3.95577 1.53097
f 90/158/1 78/138/1 89/157/1

v -100.959 4 -38.687
vt -3.97476 1.52311
f 91/159/1 78/138/1 90/158/1

f 77/137/1 78/138/1 91/159/1

vt 3.7625 0.15748
vn 1.39975e-015 0 -1
vt 3.74195 0.15748
vn -0.258819 0 -0.965926
vt 3.74195 0.000302215
vt 3.7625 0.000302215
f 77/160/25 91/161/26 37/162/26 39/163/25 

vt 3.08933 0.15748
vt 3.06878 0.15748
vt 3.06878 0.000302215
vt 3.08933 0.000302215
f 91/164/26 90/165/14 36/166/14 37/167/26 

vt 2.20632 0.15748
vt 2.18577 0.15748
vt 2.18577 0.000302215
vt 2.20632 0.000302215
f 90/168/14 89/169/13 35/170/13 36/171/14 

vt 1.17366 0.15748
vt 1.15311 0.15748
vn -0.866025 0 -0.5
vt 1.15311 0.000302215
vt 1.17366 0.000302215
f 89/172/13 88/173/27 34/174/27 35/175/13 

vt 0.0617147 0.15748
vt 0.0411594 0.15748
vn -0.965926 0 -0.258819
vt 0.0411594 0.000302215
vt 0.0617147 0.000302215
f 88/176/27 87/177/28 33/178/28 34/179/27 

vt -1.05374 0.15748
vt -1.07429 0.15748
vn -1 0 9.99424e-015
vt -1.07429 0.000302215
vt -1.05374 0.000302215
f 87/180/28 86/181/29 32/182/29 33/183/28 

vt -2.09668 0.15748
v -99.5447 4 -41.1364
vt -2.11723 0.15748
vn -0.965926 0 0.258819
v -99.5447 0.00767627 -41.1364
vt -2.11723 0.000302215
vt -2.09668 0.000302215
f 86/184/29 92/185/30 93/186/30 32/187/29 

v -91.4765 4 -45.6188
vt -3.60144 1.79602
vt -3.91908 1.61955
f 94/188/1 92/189/1 86/154/1

v -99.7445 4 -41.6188
vt -3.92695 1.63854
f 94/188/1 95/190/1 92/189/1

v -100.062 4 -42.033
vt -3.93946 1.65484
f 94/188/1 96/191/1 95/190/1

v -100.477 4 -42.3509
vt -3.95577 1.66736
f 94/188/1 97/192/1 96/191/1

v -100.959 4 -42.5507
vt -3.97476 1.67522
f 94/188/1 98/193/1 97/192/1

v -101.477 4 -45.6188
vt -3.99514 1.79602
f 99/194/1 98/193/1 94/188/1

v -101.477 4 -42.6188
vt -3.99514 1.67791
f 99/194/1 100/195/1 98/193/1

v -101.994 4 -42.5507
vt -4.01552 1.67522
f 99/194/1 101/196/1 100/195/1

v -102.477 4 -42.3509
vt -4.03451 1.66736
f 99/194/1 102/197/1 101/196/1

v -102.771 4 -45.4484
vt -4.04609 1.78931
f 103/198/1 102/197/1 99/194/1

v -102.891 4 -42.033
vt -4.05082 1.65484
f 103/198/1 104/199/1 102/197/1

v -103.209 4 -41.6188
vt -4.06333 1.63854
f 103/198/1 105/200/1 104/199/1

v -103.408 4 -41.1364
vt -4.0712 1.61955
f 103/198/1 106/201/1 105/200/1

f 68/104/1 106/201/1 103/198/1

f 106/201/1 68/104/1 69/105/1

vt 1.07429 0.15748
vn 0.965926 0 0.258819
vt 1.05374 0.15748
vn 1 0 -0
vt 1.05374 0.000302215
v -103.408 0.00767627 -41.1364
vt 1.07429 0.000302215
f 106/202/31 69/203/32 47/204/32 107/205/31 

vt 2.11723 0.15748
vt 2.09668 0.15748
vt 2.09668 0.000302215
vt 2.11723 0.000302215
f 69/206/32 70/207/17 45/208/17 47/209/32 

vt 4.0712 1.61955
f 47/51/3 48/52/3 107/210/3

v -102.771 0.018483 -45.4484
vt 4.04609 1.78931
f 107/210/3 48/52/3 108/211/3

vt 3.10475 0.15748
vt 3.05336 0.15748
vt 3.05336 0.000727677
vt 3.10475 0.000727677
f 68/212/14 103/213/26 108/214/26 48/215/14 

vt 3.77792 0.15748
vt 3.72653 0.15748
vn -0.130526 0 -0.991445
v -101.477 0.018483 -45.6188
vt 3.72653 0.000727677
vt 3.77792 0.000727677
f 103/216/26 99/217/33 109/218/33 108/219/26 

vt 3.99514 0.15748
vn 0 0 -1
vt 3.60144 0.15748
v -91.4765 0.018483 -45.6188
vt 3.60144 0.000727677
vt 3.99514 0.000727677
f 99/220/34 94/221/34 110/222/34 109/223/34 

vt 3.80505 0.15748
vn 0.130526 0 -0.991445
v -90.1824 4 -45.4484
vt 3.75367 0.15748
v -90.1824 0.018483 -45.4484
vt 3.75367 0.000727677
vt 3.80505 0.000727677
f 94/224/35 111/225/21 112/226/21 110/227/35 

v -91.4765 4 -42.6188
vt -3.60144 1.67791
vt -3.55049 1.78931
f 94/188/1 113/228/1 111/229/1

v -91.9942 4 -42.5507
vt -3.62182 1.67522
f 94/188/1 114/230/1 113/228/1

v -92.4765 4 -42.3509
vt -3.64081 1.66736
f 94/188/1 115/231/1 114/230/1

v -92.8907 4 -42.033
vt -3.65712 1.65484
f 94/188/1 116/232/1 115/231/1

v -93.2086 4 -41.6188
vt -3.66963 1.63854
f 94/188/1 117/233/1 116/232/1

f 94/188/1 86/154/1 117/233/1

v -93.4084 4 -41.1364
vt -3.6775 1.61955
f 117/233/1 86/154/1 118/234/1

v -93.4765 4 -40.6188
vt -3.68018 1.59917
f 118/234/1 86/154/1 119/235/1

v -93.4084 4 -40.1012
vt -3.6775 1.57879
f 86/154/1 120/236/1 119/235/1

f 86/154/1 85/153/1 120/236/1

vt 2.86592 0.15748
vt 2.84537 0.15748
vt 2.84537 0.000302215
v -93.4084 0.00767627 -40.1012
vt 2.86592 0.000302215
f 120/237/17 85/238/18 31/239/18 121/240/17 

vt 3.4714 0.15748
vt 3.45084 0.15748
vt 3.45084 0.000302215
vt 3.4714 0.000302215
f 85/241/18 84/242/19 30/243/19 31/244/18 

vt 3.841 0.15748
vt 3.82045 0.15748
vt 3.82045 0.000302215
vt 3.841 0.000302215
f 84/245/19 83/246/20 29/247/20 30/248/19 

vt 3.94955 0.15748
vt 3.92899 0.15748
vt 3.92899 0.000302215
vt 3.94955 0.000302215
f 83/249/20 82/250/21 28/251/21 29/252/20 

vt 3.78964 0.15748
vt 3.76908 0.15748
vn 5.34706e-015 0 -1
vt 3.76908 0.000302215
vt 3.78964 0.000302215
f 82/253/21 81/254/36 27/255/36 28/256/21 

vt 3.37217 0.15748
vt 3.35162 0.15748
vt 3.35162 0.000302215
vt 3.37217 0.000302215
f 81/257/36 80/258/26 25/259/26 27/260/36 

vt 2.7256 0.15748
v -90.4765 4 -38.8868
vt 2.70504 0.15748
vt 2.70504 0.000302215
vt 2.7256 0.000302215
f 80/261/26 122/262/14 24/263/14 25/264/26 

vt -3.56207 1.53097
f 80/147/1 79/148/1 122/265/1

v -90.0623 4 -39.2046
vt -3.54576 1.54349
f 122/265/1 79/148/1 123/266/1

v -88.9765 4 -36.2887
vt -3.50301 1.42869
f 123/266/1 79/148/1 124/267/1

vt -2.68963 0.15748
vn 0.5 0 0.866025
vt -2.74101 0.15748
vt -2.74101 8.32667e-017
vt -2.68963 8.32667e-017
f 124/268/37 79/269/23 23/270/23 17/271/37 

v -87.941 4 -37.0833
vt -1.85801 0.15748
vn 0.707107 0 0.707107
vt -1.9094 0.15748
vt -1.9094 8.32667e-017
vt -1.85801 8.32667e-017
f 125/272/38 124/273/37 17/274/37 15/275/38 

v -87.941 4 -44.1543
vt -3.46224 1.73836
vt -3.46224 1.45997
f 126/276/1 124/267/1 125/277/1

v -88.9765 4 -44.9489
vt -3.50301 1.76964
f 127/278/1 124/267/1 126/276/1

v -89.4765 4 -40.6188
vt -3.5227 1.59917
f 128/279/1 124/267/1 127/278/1

v -89.5447 4 -40.1012
vt -3.52538 1.57879
f 129/280/1 124/267/1 128/279/1

v -89.7445 4 -39.6188
vt -3.53325 1.5598
f 130/281/1 124/267/1 129/280/1

f 123/266/1 124/267/1 130/281/1

vt 0.933991 0.15748
vt 0.913435 0.15748
vt 0.913435 0.000302215
vt 0.933991 0.000302215
f 123/282/13 130/283/27 21/284/27 22/285/13 

vt -0.0889481 0.15748
vt -0.109503 0.15748
vt -0.109503 0.000302215
vt -0.0889481 0.000302215
f 130/286/27 129/287/28 20/288/28 21/289/27 

vt -1.10512 0.15748
vt -1.12568 0.15748
vn -1 0 -1.1422e-014
vt -1.12568 0.000302215
vt -1.10512 0.000302215
f 129/290/28 128/291/39 19/292/39 20/293/28 

vt -2.04529 0.15748
v -89.5447 4 -41.1364
vt -2.06584 0.15748
v -89.5447 0.00767627 -41.1364
vt -2.06584 0.000302215
vt -2.04529 0.000302215
f 128/294/39 131/295/30 132/296/30 19/297/39 

vt -3.52538 1.61955
f 127/278/1 131/298/1 128/279/1

v -89.7445 4 -41.6188
vt -3.53325 1.63854
f 127/278/1 133/299/1 131/298/1

v -90.0623 4 -42.033
vt -3.54576 1.65484
f 127/278/1 134/300/1 133/299/1

f 111/229/1 134/300/1 127/278/1

v -90.4765 4 -42.3509
vt -3.56207 1.66736
f 111/229/1 135/301/1 134/300/1

v -90.9589 4 -42.5507
vt -3.58106 1.67522
f 111/229/1 136/302/1 135/301/1

f 111/229/1 113/228/1 136/302/1

vt -3.76908 0.15748
vt -3.78964 0.15748
vn -5.36106e-015 0 1
v -91.4765 0.00767627 -42.6188
vt -3.78964 0.000302215
v -90.9589 0.00767627 -42.5507
vt -3.76908 0.000302215
f 136/303/15 113/304/40 137/305/40 138/306/15 

vt -3.35162 0.15748
vt -3.37217 0.15748
v -91.9942 0.00767627 -42.5507
vt -3.37217 0.000302215
vt -3.35162 0.000302215
f 113/307/40 114/308/23 139/309/23 137/310/40 

vt -2.70504 0.15748
vt -2.7256 0.15748
v -92.4765 0.00767627 -42.3509
vt -2.7256 0.000302215
vt -2.70504 0.000302215
f 114/311/23 115/312/37 140/313/37 139/314/23 

vt -1.87342 0.15748
vt -1.89398 0.15748
v -92.8907 0.00767627 -42.033
vt -1.89398 0.000302215
vt -1.87342 0.000302215
f 115/315/37 116/316/38 141/317/38 140/318/37 

vt -0.913435 0.15748
vt -0.933991 0.15748
vn 0.866025 0 0.5
v -93.2086 0.00767627 -41.6188
vt -0.933991 0.000302215
vt -0.913435 0.000302215
f 116/319/38 117/320/41 142/321/41 141/322/38 

vt 0.109503 0.15748
vt 0.0889481 0.15748
v -93.4084 0.00767627 -41.1364
vt 0.0889481 0.000302215
vt 0.109503 0.000302215
f 117/323/41 118/324/31 143/325/31 142/326/41 

vt 1.12568 0.15748
vt 1.10512 0.15748
vn 1 0 1.1422e-014
v -93.4765 0.00767627 -40.6188
vt 1.10512 0.000302215
vt 1.12568 0.000302215
f 118/327/31 119/328/42 144/329/42 143/330/31 

vt 2.06584 0.15748
vt 2.04529 0.15748
vt 2.04529 0.000302215
vt 2.06584 0.000302215
f 119/331/42 120/332/17 121/333/17 144/334/42 

vt 3.6775 1.57879
vt 3.68018 1.59917
f 121/335/3 32/36/3 144/336/3

f 31/35/3 32/36/3 121/335/3

vt 3.6775 1.61955
f 32/36/3 143/337/3 144/336/3

vt 3.66963 1.63854
f 32/36/3 142/338/3 143/337/3

vt 3.60144 1.79602
f 32/36/3 110/339/3 142/338/3

vt 3.91908 1.61955
f 93/340/3 110/339/3 32/36/3

v -99.7445 0.00767627 -41.6188
vt 3.92695 1.63854
f 145/341/3 110/339/3 93/340/3

v -100.062 0.00767627 -42.033
vt 3.93946 1.65484
f 146/342/3 110/339/3 145/341/3

v -100.477 0.00767627 -42.3509
vt 3.95577 1.66736
f 147/343/3 110/339/3 146/342/3

v -100.959 0.00767627 -42.5507
vt 3.97476 1.67522
f 148/344/3 110/339/3 147/343/3

v -101.477 0.00767627 -42.6188
vt 3.99514 1.67791
f 149/345/3 110/339/3 148/344/3

vt 3.99514 1.79602
f 149/345/3 109/346/3 110/339/3

v -101.994 0.00767627 -42.5507
vt 4.01552 1.67522
f 150/347/3 109/346/3 149/345/3

v -102.477 0.00767627 -42.3509
vt 4.03451 1.66736
f 151/348/3 109/346/3 150/347/3

f 151/348/3 108/211/3 109/346/3

v -102.891 0.00767627 -42.033
vt 4.05082 1.65484
f 152/349/3 108/211/3 151/348/3

v -103.209 0.00767627 -41.6188
vt 4.06333 1.63854
f 153/350/3 108/211/3 152/349/3

f 107/210/3 108/211/3 153/350/3

vt -0.0411594 0.15748
vt -0.0617147 0.15748
vt -0.0617147 0.000302215
vt -0.0411594 0.000302215
f 105/351/41 106/352/31 107/353/31 153/354/41 

vt -1.15311 0.15748
vt -1.17366 0.15748
vt -1.17366 0.000302215
vt -1.15311 0.000302215
f 104/355/38 105/356/41 153/357/41 152/358/38 

vt -2.18577 0.15748
vt -2.20632 0.15748
vt -2.20632 0.000302215
vt -2.18577 0.000302215
f 102/359/37 104/360/38 152/361/38 151/362/37 

vt -3.06878 0.15748
vt -3.08933 0.15748
vt -3.08933 0.000302215
vt -3.06878 0.000302215
f 101/363/23 102/364/37 151/365/37 150/366/23 

vt -3.74195 0.15748
vn 1.39975e-015 0 1
vt -3.7625 0.15748
vt -3.7625 0.000302215
vt -3.74195 0.000302215
f 100/367/43 101/368/23 150/369/23 149/370/43 

vt -4.15942 0.15748
vt -4.17997 0.15748
vt -4.17997 0.000302215
vt -4.15942 0.000302215
f 98/371/15 100/372/43 149/373/43 148/374/15 

vt -4.29272 0.15748
vt -4.31328 0.15748
vt -4.31328 0.000302215
vt -4.29272 0.000302215
f 97/375/12 98/376/15 148/377/15 147/378/12 

vt -4.13279 0.15748
vt -4.15334 0.15748
vt -4.15334 0.000302215
vt -4.13279 0.000302215
f 96/379/11 97/380/12 147/381/12 146/382/11 

vt -3.69051 0.15748
vn -0.866025 0 0.5
vt -3.71107 0.15748
vt -3.71107 0.000302215
vt -3.69051 0.000302215
f 95/383/44 96/384/11 146/385/11 145/386/44 

vt -2.99603 0.15748
vt -3.01659 0.15748
vt -3.01659 0.000302215
vt -2.99603 0.000302215
f 92/387/30 95/388/44 145/389/44 93/390/30 

vt 3.65712 1.65484
f 142/338/3 110/339/3 141/391/3

vt 3.64081 1.66736
f 141/391/3 110/339/3 140/392/3

vt 3.62182 1.67522
f 140/392/3 110/339/3 139/393/3

vt 3.60144 1.67791
f 139/393/3 110/339/3 137/394/3

vt 3.55049 1.78931
f 137/394/3 110/339/3 112/395/3

vt 3.58106 1.67522
f 137/394/3 112/395/3 138/396/3

v -90.4765 0.00767627 -42.3509
vt 3.56207 1.66736
f 138/396/3 112/395/3 154/397/3

v -90.0623 0.00767627 -42.033
vt 3.54576 1.65484
f 154/397/3 112/395/3 155/398/3

f 155/398/3 112/395/3 18/22/3

vt 3.96496 0.15748
vt 3.91357 0.15748
vt 3.91357 0.000727677
vt 3.96496 0.000727677
f 111/399/21 127/400/20 18/401/20 112/402/21 

vt 3.85642 0.15748
vt 3.80503 0.15748
vt 3.80503 0.000727677
vt 3.85642 0.000727677
f 127/403/20 126/404/19 16/405/19 18/406/20 

vt 3.48681 0.15748
v -87.1464 4 -43.1188
vt 3.43543 0.15748
vt 3.43543 0.000727677
vt 3.48681 0.000727677
f 126/407/19 156/408/18 14/409/18 16/410/19 

v -87.1464 4 -38.1188
vt -3.43096 1.50074
vt -3.43096 1.69759
f 126/276/1 157/411/1 156/412/1

f 126/276/1 125/277/1 157/411/1

vt -0.898019 0.15748
vn 0.866025 1.31318e-015 0.5
vt -0.949407 0.15748
vt -0.949407 8.32667e-017
vt -0.898019 8.32667e-017
f 157/413/45 125/414/38 15/415/38 13/416/45 

v -86.9393 4 -38.6188
vt 0.0948386 0.15748
vn 0.92388 2.60388e-015 0.382683
vt 0.0735316 0.15748
vt 0.0735316 9.83247e-015
vt 0.0948386 9.74921e-015
f 158/417/46 157/418/45 13/419/45 12/420/46 

vt -3.42281 1.67791
vt -3.42281 1.52043
f 9/421/1 157/411/1 158/422/1

f 156/412/1 157/411/1 9/421/1

vt 2.88134 0.15748
vt 2.86003 0.15748
vn 0.92388 0 -0.382683
vt 2.86003 0.000727677
vt 2.88134 0.000727677
f 156/423/18 9/424/47 8/425/47 14/426/18 

vt -3.40459 1.67791
f 9/421/1 158/422/1 10/427/1

v -86.4765 4 -38.6188
vt -3.40459 1.52043
f 10/427/1 158/422/1 159/428/1

vt -3.40459 0.15748
vt -3.42281 0.15748
vt -3.42281 0
v 33.5235 0 -38.6188
vt 1.31982 0
v 33.5235 2 -38.6188
vt 1.31982 0.0787402
v 86.5235 2 -38.6188
vt 3.40644 0.0787402
v 33.5235 4 -38.6188
vt 1.31982 0.15748
f 159/429/22 158/430/22 12/431/22 160/432/22 161/433/22 162/434/22 163/435/22 

vt -1.31982 1.52043
f 12/14/3 7/16/3 160/436/3

v 33.6598 0 -46.6541
vt -1.32519 1.83677
f 7/16/3 164/437/3 160/436/3

v 33.5235 0 -45.6188
vt -1.31982 1.79602
f 164/437/3 7/16/3 165/438/3

vt -1.79602 0
vn -1 0 -0
vt -1.67791 0
vt -1.67791 0.0787402
vt -1.79602 0.0787402
f 165/439/48 7/440/48 1/441/48 3/442/48 

vt -1.99403 0
vt -1.95292 0
vn -0.991445 0 -0.130526
vt -1.95292 0.0787402
v 33.6598 2 -46.6541
vt -1.99403 0.0787402
f 164/443/28 165/444/49 3/445/49 166/446/28 

v 36.1093 2 -44.2046
vt 1.42162 1.74034
vt 1.32519 1.83677
f 3/3/1 167/447/1 166/448/1

f 3/3/1 2/2/1 167/447/1

v 36.5235 0 -43.8868
vt -0.0889549 0
v 36.1093 0 -44.2046
vt -0.0683996 0
vt -0.0683996 0.0787402
vt -0.0889549 0.0787402
f 168/449/20 169/450/19 167/451/19 2/452/20 

v 36.1093 0 -37.033
vt -1.42162 1.45799
vt -1.42162 1.74034
vt -1.43793 1.72783
f 170/453/3 169/454/3 168/455/3

v 35.7914 0 -36.6188
vt -1.40911 1.44169
f 171/456/3 169/454/3 170/453/3

v 35.7914 0 -44.6188
vt -1.40911 1.75665
f 171/456/3 172/457/3 169/454/3

v 35.5916 0 -36.1364
vt -1.40124 1.42269
f 173/458/3 172/457/3 171/456/3

v 35.5916 0 -45.1012
vt -1.40124 1.77564
f 173/458/3 174/459/3 172/457/3

v 35.5235 0 -35.6188
vt -1.39856 1.40232
f 175/460/3 174/459/3 173/458/3

v 35.5235 0 -45.6188
vt -1.39856 1.79602
f 174/459/3 175/460/3 176/461/3

v 35.5235 0 -32.1547
vt -1.39856 1.26593
f 177/462/3 176/461/3 175/460/3

v 34.695 0 -48.4472
vt -1.36595 1.90737
f 177/462/3 178/463/3 176/461/3

v 34.695 0 -32.7904
vt -1.36595 1.29096
f 179/464/3 178/463/3 177/462/3

v 34.0594 0 -33.6188
vt -1.34092 1.32358
f 180/465/3 178/463/3 179/464/3

v 34.0594 0 -47.6188
vt -1.34092 1.87476
f 180/465/3 181/466/3 178/463/3

v 33.6598 0 -34.5835
vt -1.32519 1.36156
f 182/467/3 181/466/3 180/465/3

f 182/467/3 164/437/3 181/466/3

v 33.5235 0 -35.6188
vt -1.31982 1.40232
f 183/468/3 164/437/3 182/467/3

f 160/436/3 164/437/3 183/468/3

v 33.5235 2 -35.6188
vt -1.40232 0.0787402
vt -1.52043 0.0787402
vt -1.52043 0
vt -1.40232 0
f 184/469/48 161/470/48 160/471/48 183/472/48 

v 33.6598 2 -34.5835
vt 1.32519 1.36156
vt 1.31982 1.52043
vt 1.31982 1.40232
f 185/473/1 161/474/1 184/475/1

v 36.1093 2 -37.033
vt 1.42162 1.45799
f 161/474/1 185/473/1 186/476/1

v 35.7914 2 -36.6188
vt 1.40911 1.44169
f 186/476/1 185/473/1 187/477/1

v 34.0594 2 -33.6188
vt 1.34092 1.32358
f 187/477/1 185/473/1 188/478/1

vt -0.750787 0
vt -0.709676 0
vt -0.709676 0.0787402
vt -0.750787 0.0787402
f 182/479/30 180/480/44 188/481/44 185/482/30 

vt -0.233762 0
vt -0.192652 0
v 34.695 2 -32.7904
vt -0.192652 0.0787402
vt -0.233762 0.0787402
f 180/483/44 179/484/11 189/485/11 188/486/44 

vt 0.297792 0
vt 0.338902 0
v 35.5235 2 -32.1547
vt 0.338902 0.0787402
vt 0.297792 0.0787402
f 179/487/11 177/488/12 190/489/12 189/490/11 

vt 0.807651 0
v 36.4882 0 -31.7551
vt 0.848762 0
v 36.4882 2 -31.7551
vt 0.848762 0.0787402
vt 0.807651 0.0787402
f 177/491/12 191/492/15 192/493/15 190/494/12 

v 35.5916 0 -35.1012
vt -1.40124 1.38194
vt -1.43654 1.2502
f 177/462/3 193/495/3 191/496/3

f 177/462/3 175/460/3 193/495/3

vt 1.18721 0
vt 1.20777 0
vn 1 0 -6.99877e-016
v 35.5235 2 -35.6188
vt 1.20777 0.0787402
v 35.5916 2 -35.1012
vt 1.18721 0.0787402
f 193/497/17 175/498/50 194/499/50 195/500/17 

vt 1.57287 0
vt 1.59342 0
v 35.5916 2 -36.1364
vt 1.59342 0.0787402
vt 1.57287 0.0787402
f 175/501/50 173/502/31 196/503/31 194/504/50 

vt 1.85063 0
vt 1.87119 0
vt 1.87119 0.0787402
vt 1.85063 0.0787402
f 173/505/31 171/506/41 187/507/41 196/508/31 

vt 2.00158 0
vt 2.02213 0
vt 2.02213 0.0787402
vt 2.00158 0.0787402
f 171/509/41 170/510/38 186/511/38 187/512/41 

vt 2.01542 0
v 36.5235 0 -37.3509
vt 2.03598 0
v 36.5235 2 -37.3509
vt 2.03598 0.0787402
vt 2.01542 0.0787402
f 170/513/38 197/514/37 198/515/37 186/516/38 

vt -1.43793 1.47051
f 170/453/3 168/455/3 197/517/3

v 37.0058 0 -43.687
vt -1.45692 1.71996
f 197/517/3 168/455/3 199/518/3

vt -0.687821 0
vt -0.667266 0
vt -0.667266 0.0787402
vt -0.687821 0.0787402
f 199/519/21 168/520/20 2/521/20 4/522/21 

v 37.5235 0 -43.6188
vt -1.24051 0
vt -1.21996 0
vt -1.21996 0.0787402
vt -1.24051 0.0787402
f 200/523/34 199/524/21 4/525/21 5/526/34 

v 37.0058 0 -37.5507
vt -1.45692 1.47837
vt -1.4773 1.71728
f 201/527/3 199/518/3 200/528/3

f 197/517/3 199/518/3 201/527/3

vt 1.89121 0
vt 1.91177 0
v 37.0058 2 -37.5507
vt 1.91177 0.0787402
vt 1.89121 0.0787402
f 197/529/37 201/530/23 202/531/23 198/532/37 

vt 1.63742 0
v 37.5235 0 -37.6188
vt 1.65798 0
vn 6.99877e-016 0 1
v 37.5235 2 -37.6188
vt 1.65798 0.0787402
vt 1.63742 0.0787402
f 201/533/23 203/534/51 204/535/51 202/536/23 

vt -1.4773 1.48106
f 201/527/3 200/528/3 203/537/3

v 38.0411 0 -43.687
vt -1.49768 1.71996
f 203/537/3 200/528/3 205/538/3

vt -1.70937 0
vt -1.68881 0
vt -1.68881 0.0787402
v 38.0411 2 -43.687
vt -1.70937 0.0787402
f 205/539/26 200/540/34 5/541/34 206/542/26 

vt 1.49768 1.71996
f 5/5/1 6/6/1 206/543/1

v 38.5235 2 -43.8868
vt 1.51667 1.72783
f 206/543/1 6/6/1 207/544/1

v 38.9377 2 -44.2046
vt 1.53298 1.74034
f 207/544/1 6/6/1 208/545/1

v 39.2555 2 -44.6188
vt 1.54549 1.75665
f 208/545/1 6/6/1 209/546/1

v 39.4553 2 -45.1012
vt 1.55336 1.77564
f 209/546/1 6/6/1 210/547/1

v 39.5235 2 -45.6188
vt 1.55604 1.79602
f 210/547/1 6/6/1 211/548/1

v 41.5235 2 -45.6188
vt 1.63478 1.79602
f 211/548/1 6/6/1 212/549/1

v 82.0058 2 -43.687
vt 3.22858 1.71996
f 212/549/1 6/6/1 213/550/1

v 82.5235 2 -43.6188
vt 3.24896 1.71728
f 213/550/1 6/6/1 214/551/1

v 83.0411 2 -43.687
vt 3.26934 1.71996
f 214/551/1 6/6/1 215/552/1

v 83.5235 2 -43.8868
vt 3.28833 1.72783
f 215/552/1 6/6/1 216/553/1

v 83.9377 2 -44.2046
vt 3.30463 1.74034
f 216/553/1 6/6/1 217/554/1

v 84.2555 2 -44.6188
vt 3.31715 1.75665
f 217/554/1 6/6/1 218/555/1

v 84.4553 2 -45.1012
vt 3.32501 1.77564
f 218/555/1 6/6/1 219/556/1

v 84.5235 2 -45.6188
vt 3.3277 1.79602
f 219/556/1 6/6/1 220/557/1

v 84.5235 2 -49.0829
vt 3.3277 1.9324
f 220/557/1 6/6/1 221/558/1

v 85.3519 2 -48.4472
vt 3.36031 1.90737
f 221/558/1 6/6/1 222/559/1

v 85.9876 2 -47.6188
vt 3.38534 1.87476
f 222/559/1 6/6/1 223/560/1

v 86.3872 2 -46.6541
vt 3.40107 1.83677
f 223/560/1 6/6/1 224/561/1

v 86.5235 2 -45.6188
vt 3.40644 1.79602
f 224/561/1 6/6/1 225/562/1

v 86.5235 0 -35.6188
vt 1.40232 0
v 86.5235 0 -45.6188
vt 1.79602 0
vt 1.79602 0.0787402
vt 1.67791 0.0787402
vt 1.52043 0.0787402
v 86.5235 2 -35.6188
vt 1.40232 0.0787402
f 226/563/32 227/564/32 225/565/32 6/566/32 162/567/32 228/568/32 

v 86.3872 0 -34.5835
vt -3.40107 1.36156
vt -3.40644 1.79602
vt -3.40644 1.40232
f 229/569/3 227/570/3 226/571/3

v 86.3872 0 -46.6541
vt -3.40107 1.83677
f 229/569/3 230/572/3 227/570/3

v 85.9876 0 -33.6188
vt -3.38534 1.32358
f 231/573/3 230/572/3 229/569/3

v 85.9876 0 -47.6188
vt -3.38534 1.87476
f 231/573/3 232/574/3 230/572/3

v 85.3519 0 -32.7904
vt -3.36031 1.29096
f 233/575/3 232/574/3 231/573/3

v 85.3519 0 -48.4472
vt -3.36031 1.90737
f 233/575/3 234/576/3 232/574/3

v 84.5235 0 -49.0829
vt -3.3277 1.9324
f 233/575/3 235/577/3 234/576/3

v 84.5235 0 -32.1547
vt -3.3277 1.26593
f 236/578/3 235/577/3 233/575/3

v 84.5235 0 -35.6188
vt -3.3277 1.40232
f 237/579/3 235/577/3 236/578/3

v 84.5235 0 -45.6188
vt -3.3277 1.79602
f 238/580/3 235/577/3 237/579/3

v 84.4553 0 -46.1364
vt -3.32501 1.8164
f 239/581/3 235/577/3 238/580/3

v 84.2555 0 -46.6188
vt -3.31715 1.83539
f 240/582/3 235/577/3 239/581/3

v 83.9377 0 -47.033
vt -3.30463 1.85169
f 241/583/3 235/577/3 240/582/3

v 83.5588 0 -49.4825
vt -3.28971 1.94813
f 241/583/3 242/584/3 235/577/3

v 83.5235 0 -47.3509
vt -3.28833 1.86421
f 243/585/3 242/584/3 241/583/3

v 83.0411 0 -47.5507
vt -3.26934 1.87207
f 244/586/3 242/584/3 243/585/3

v 82.5235 0 -47.6188
vt -3.24896 1.87476
f 245/587/3 242/584/3 244/586/3

v 82.5235 0 -49.6188
vt -3.24896 1.9535
f 245/587/3 246/588/3 242/584/3

v 82.0058 0 -47.5507
vt -3.22858 1.87207
f 247/589/3 246/588/3 245/587/3

v 81.5235 0 -47.3509
vt -3.20959 1.86421
f 248/590/3 246/588/3 247/589/3

v 81.4882 0 -49.4825
vt -3.2082 1.94813
f 248/590/3 249/591/3 246/588/3

v 81.1093 0 -47.033
vt -3.19328 1.85169
f 250/592/3 249/591/3 248/590/3

v 80.7914 0 -46.6188
vt -3.18076 1.83539
f 251/593/3 249/591/3 250/592/3

v 80.5916 0 -46.1364
vt -3.1729 1.8164
f 252/594/3 249/591/3 251/593/3

v 80.5235 0 -49.0829
vt -3.17022 1.9324
f 252/594/3 253/595/3 249/591/3

v 80.5235 0 -45.6188
vt -3.17022 1.79602
f 253/595/3 252/594/3 254/596/3

vt 2.19445 0
vt 2.215 0
v 80.5916 2 -46.1364
vt 2.215 0.0787402
v 80.5235 2 -45.6188
vt 2.19445 0.0787402
f 254/597/32 252/598/31 255/599/31 256/600/32 

vt 2.89235 0
vt 2.9129 0
v 80.7914 2 -46.6188
vt 2.9129 0.0787402
vt 2.89235 0.0787402
f 252/601/31 251/602/41 257/603/41 255/604/31 

vt 3.39244 0
vt 3.41299 0
v 81.1093 2 -47.033
vt 3.41299 0.0787402
vt 3.39244 0.0787402
f 251/605/41 250/606/38 258/607/38 257/608/41 

vt 3.66064 0
vt 3.68119 0
v 81.5235 2 -47.3509
vt 3.68119 0.0787402
vt 3.66064 0.0787402
f 250/609/38 248/610/37 259/611/37 258/612/38 

vt 3.67867 0
vt 3.69923 0
v 82.0058 2 -47.5507
vt 3.69923 0.0787402
vt 3.67867 0.0787402
f 248/613/37 247/614/23 260/615/23 259/616/37 

vt 3.44531 0
vt 3.46587 0
v 82.5235 2 -47.6188
vt 3.46587 0.0787402
vt 3.44531 0.0787402
f 247/617/23 245/618/22 261/619/22 260/620/23 

vt 2.97646 0
vt 2.99701 0
v 83.0411 2 -47.5507
vt 2.99701 0.0787402
vt 2.97646 0.0787402
f 245/621/22 244/622/15 262/623/15 261/624/22 

vt 2.30406 0
vt 2.32462 0
v 83.5235 2 -47.3509
vt 2.32462 0.0787402
vt 2.30406 0.0787402
f 244/625/15 243/626/12 263/627/12 262/628/15 

vt 1.47395 0
vt 1.4945 0
v 83.9377 2 -47.033
vt 1.4945 0.0787402
vt 1.47395 0.0787402
f 243/629/12 241/630/11 264/631/11 263/632/12 

vt 0.542686 0
vt 0.563241 0
v 84.2555 2 -46.6188
vt 0.563241 0.0787402
vt 0.542686 0.0787402
f 241/633/11 240/634/44 265/635/44 264/636/11 

vt -0.426259 0
vt -0.405703 0
v 84.4553 2 -46.1364
vt -0.405703 0.0787402
vt -0.426259 0.0787402
f 240/637/44 239/638/30 266/639/30 265/640/44 

vt -1.36685 0
vt -1.3463 0
vt -1.3463 0.0787402
vt -1.36685 0.0787402
f 239/641/30 238/642/48 220/643/48 266/644/30 

vt -2.215 0
v 84.4553 0 -45.1012
vt -2.19445 0
vt -2.19445 0.0787402
vt -2.215 0.0787402
f 238/645/48 267/646/28 219/647/28 220/648/48 

v 84.4553 0 -36.1364
vt -3.32501 1.42269
vt -3.32501 1.77564
f 268/649/3 267/650/3 238/580/3

v 84.2555 0 -36.6188
vt -3.31715 1.44169
f 269/651/3 267/650/3 268/649/3

v 84.2555 0 -44.6188
vt -3.31715 1.75665
f 269/651/3 270/652/3 267/650/3

v 83.9377 0 -37.033
vt -3.30463 1.45799
f 271/653/3 270/652/3 269/651/3

v 83.9377 0 -44.2046
vt -3.30463 1.74034
f 271/653/3 272/654/3 270/652/3

v 83.5235 0 -37.3509
vt -3.28833 1.47051
f 273/655/3 272/654/3 271/653/3

v 83.5235 0 -43.8868
vt -3.28833 1.72783
f 273/655/3 274/656/3 272/654/3

v 83.0411 0 -37.5507
vt -3.26934 1.47837
f 275/657/3 274/656/3 273/655/3

v 83.0411 0 -43.687
vt -3.26934 1.71996
f 275/657/3 276/658/3 274/656/3

v 82.5235 0 -37.6188
vt -3.24896 1.48106
f 277/659/3 276/658/3 275/657/3

v 82.5235 0 -43.6188
vt -3.24896 1.71728
f 277/659/3 278/660/3 276/658/3

v 82.0058 0 -37.5507
vt -3.22858 1.47837
f 279/661/3 278/660/3 277/659/3

v 82.0058 0 -43.687
vt -3.22858 1.71996
f 279/661/3 280/662/3 278/660/3

v 81.5235 0 -37.3509
vt -3.20959 1.47051
f 281/663/3 280/662/3 279/661/3

v 81.5235 0 -43.8868
vt -3.20959 1.72783
f 281/663/3 282/664/3 280/662/3

v 81.1093 0 -37.033
vt -3.19328 1.45799
f 283/665/3 282/664/3 281/663/3

v 81.1093 0 -44.2046
vt -3.19328 1.74034
f 283/665/3 284/666/3 282/664/3

v 80.7914 0 -36.6188
vt -3.18076 1.44169
f 285/667/3 284/666/3 283/665/3

v 80.7914 0 -44.6188
vt -3.18076 1.75665
f 285/667/3 286/668/3 284/666/3

v 80.5916 0 -36.1364
vt -3.1729 1.42269
f 287/669/3 286/668/3 285/667/3

v 80.5916 0 -45.1012
vt -3.1729 1.77564
f 287/669/3 288/670/3 286/668/3

v 80.5235 0 -35.6188
vt -3.17022 1.40232
f 289/671/3 288/670/3 287/669/3

f 288/670/3 289/671/3 254/596/3

f 289/671/3 253/595/3 254/596/3

v 79.695 0 -48.4472
vt -3.1376 1.90737
f 289/671/3 290/672/3 253/595/3

v 79.0594 0 -47.6188
vt -3.11257 1.87476
f 289/671/3 291/673/3 290/672/3

v 78.6598 0 -46.6541
vt -3.09684 1.83677
f 289/671/3 292/674/3 291/673/3

v 80.5916 0 -35.1012
vt -3.1729 1.38194
f 293/675/3 292/674/3 289/671/3

v 78.5235 0 -45.6188
vt -3.09148 1.79602
f 293/675/3 294/676/3 292/674/3

v 41.5235 0 -45.6188
vt -1.63478 1.79602
f 293/675/3 295/677/3 294/676/3

v 80.7914 0 -34.6188
vt -3.18076 1.36295
f 296/678/3 295/677/3 293/675/3

v 82.5235 0 -31.6188
vt -3.24896 1.24483
f 297/679/3 295/677/3 296/678/3

v 39.5235 0 -35.6188
vt -1.55604 1.40232
f 297/679/3 298/680/3 295/677/3

v 39.4553 0 -35.1012
vt -1.55336 1.38194
f 297/679/3 299/681/3 298/680/3

v 39.2555 0 -34.6188
vt -1.54549 1.36295
f 297/679/3 300/682/3 299/681/3

v 38.9377 0 -34.2046
vt -1.53298 1.34664
f 297/679/3 301/683/3 300/682/3

v 38.5235 0 -33.8868
vt -1.51667 1.33412
f 297/679/3 302/684/3 301/683/3

v 38.0411 0 -33.687
vt -1.49768 1.32626
f 297/679/3 303/685/3 302/684/3

v 37.5235 0 -31.6188
vt -1.4773 1.24483
f 304/686/3 303/685/3 297/679/3

v 37.5235 0 -33.6188
vt -1.4773 1.32358
f 304/686/3 305/687/3 303/685/3

v 37.0058 0 -33.687
vt -1.45692 1.32626
f 304/686/3 306/688/3 305/687/3

v 36.5235 0 -33.8868
vt -1.43793 1.33412
f 304/686/3 307/689/3 306/688/3

f 191/496/3 307/689/3 304/686/3

v 36.1093 0 -34.2046
vt -1.42162 1.34664
f 191/496/3 308/690/3 307/689/3

v 35.7914 0 -34.6188
vt -1.40911 1.36295
f 191/496/3 309/691/3 308/690/3

f 191/496/3 193/495/3 309/691/3

vt 0.719954 0
vt 0.740509 0
vt 0.740509 0.0787402
v 35.7914 2 -34.6188
vt 0.719954 0.0787402
f 309/692/18 193/693/17 195/694/17 310/695/18 

vt 1.40124 1.38194
vt 1.43654 1.2502
vt 1.40911 1.36295
f 195/696/1 192/697/1 310/698/1

vt 1.39856 1.26593
f 195/696/1 190/699/1 192/697/1

vt 1.39856 1.40232
f 190/699/1 195/696/1 194/700/1

vt 1.36595 1.29096
f 194/700/1 189/701/1 190/699/1

vt 1.40124 1.42269
f 196/702/1 189/701/1 194/700/1

f 196/702/1 188/478/1 189/701/1

f 187/477/1 188/478/1 196/702/1

v 36.1093 2 -34.2046
vt 1.42162 1.34664
f 310/698/1 192/697/1 311/703/1

v 36.5235 2 -33.8868
vt 1.43793 1.33412
f 311/703/1 192/697/1 312/704/1

v 37.5235 2 -31.6188
vt 1.4773 1.24483
f 312/704/1 192/697/1 313/705/1

vt 1.26107 0
vt 1.30218 0
vt 1.30218 0.0787402
vt 1.26107 0.0787402
f 191/706/15 304/707/16 313/708/16 192/709/15 

vt 1.4773 0
vn -1.25332e-016 0 1
vt 3.24896 0
v 82.5235 2 -31.6188
vt 3.24896 0.0787402
vt 1.4773 0.0787402
f 304/710/52 297/711/52 314/712/52 313/713/52 

vt 3.38364 0
v 83.5588 0 -31.7551
vt 3.42475 0
v 83.5588 2 -31.7551
vt 3.42475 0.0787402
vt 3.38364 0.0787402
f 297/714/24 315/715/23 316/716/23 314/717/24 

v 83.0411 0 -33.687
vt -3.26934 1.32626
vt -3.28971 1.2502
f 297/679/3 317/718/3 315/719/3

v 82.5235 0 -33.6188
vt -3.24896 1.32358
f 297/679/3 318/720/3 317/718/3

v 82.0058 0 -33.687
vt -3.22858 1.32626
f 297/679/3 319/721/3 318/720/3

v 81.5235 0 -33.8868
vt -3.20959 1.33412
f 297/679/3 320/722/3 319/721/3

v 81.1093 0 -34.2046
vt -3.19328 1.34664
f 297/679/3 321/723/3 320/722/3

f 297/679/3 296/678/3 321/723/3

vt -0.875585 0
vt -0.85503 0
v 80.7914 2 -34.6188
vt -0.85503 0.0787402
v 81.1093 2 -34.2046
vt -0.875585 0.0787402
f 321/724/19 296/725/18 322/726/18 323/727/19 

vt 0.0419712 0
vt 0.0625265 0
v 80.5916 2 -35.1012
vt 0.0625265 0.0787402
vt 0.0419712 0.0787402
f 296/728/18 293/729/17 324/730/17 322/731/18 

vt 0.955967 0
vt 0.976522 0
v 80.5235 2 -35.6188
vt 0.976522 0.0787402
vt 0.955967 0.0787402
f 293/732/17 289/733/32 325/734/32 324/735/17 

vt 1.80411 0
vt 1.82467 0
v 80.5916 2 -36.1364
vt 1.82467 0.0787402
vt 1.80411 0.0787402
f 289/736/32 287/737/31 326/738/31 325/739/32 

vt 2.52861 0
vt 2.54917 0
v 80.7914 2 -36.6188
vt 2.54917 0.0787402
vt 2.52861 0.0787402
f 287/740/31 285/741/41 327/742/41 326/743/31 

vt 3.08009 0
vt 3.10065 0
v 81.1093 2 -37.033
vt 3.10065 0.0787402
vt 3.08009 0.0787402
f 285/744/41 283/745/38 328/746/38 327/747/41 

vt 3.42097 0
vt 3.44152 0
v 81.5235 2 -37.3509
vt 3.44152 0.0787402
vt 3.42097 0.0787402
f 283/748/38 281/749/37 329/750/37 328/751/38 

vt 3.52801 0
vt 3.54856 0
v 82.0058 2 -37.5507
vt 3.54856 0.0787402
vt 3.52801 0.0787402
f 281/752/37 279/753/23 330/754/23 329/755/37 

vt 3.39392 0
vt 3.41448 0
v 82.5235 2 -37.6188
vt 3.41448 0.0787402
vt 3.39392 0.0787402
f 279/756/23 277/757/22 331/758/22 330/759/23 

vt 3.02784 0
vt 3.0484 0
v 83.0411 2 -37.5507
vt 3.0484 0.0787402
vt 3.02784 0.0787402
f 277/760/22 275/761/15 332/762/15 331/763/22 

vt 2.45472 0
vt 2.47528 0
v 83.5235 2 -37.3509
vt 2.47528 0.0787402
vt 2.45472 0.0787402
f 275/764/15 273/765/12 333/766/12 332/767/15 

vt 1.71362 0
vt 1.73417 0
v 83.9377 2 -37.033
vt 1.73417 0.0787402
vt 1.71362 0.0787402
f 273/768/12 271/769/11 334/770/11 333/771/12 

vt 0.85503 0
vt 0.875585 0
v 84.2555 2 -36.6188
vt 0.875585 0.0787402
vt 0.85503 0.0787402
f 271/772/11 269/773/44 335/774/44 334/775/11 

vt -0.0625265 0
vt -0.0419712 0
v 84.4553 2 -36.1364
vt -0.0419712 0.0787402
vt -0.0625265 0.0787402
f 269/776/44 268/777/30 336/778/30 335/779/44 

vt -0.976522 0
vt -0.955967 0
v 84.5235 2 -35.6188
vt -0.955967 0.0787402
vt -0.976522 0.0787402
f 268/780/30 237/781/48 337/782/48 336/783/30 

f 268/649/3 238/580/3 237/579/3

vt -1.82467 0
v 84.4553 0 -35.1012
vt -1.80411 0
v 84.4553 2 -35.1012
vt -1.80411 0.0787402
vt -1.82467 0.0787402
f 237/784/48 338/785/28 339/786/28 337/787/48 

vt -3.32501 1.38194
f 236/578/3 338/788/3 237/579/3

v 84.2555 0 -34.6188
vt -3.31715 1.36295
f 236/578/3 340/789/3 338/788/3

v 83.9377 0 -34.2046
vt -3.30463 1.34664
f 236/578/3 341/790/3 340/789/3

f 315/719/3 341/790/3 236/578/3

v 83.5235 0 -33.8868
vt -3.28833 1.33412
f 315/719/3 342/791/3 341/790/3

f 315/719/3 317/718/3 342/791/3

vt -3.54856 0
vt -3.52801 0
v 83.0411 2 -33.687
vt -3.52801 0.0787402
v 83.5235 2 -33.8868
vt -3.54856 0.0787402
f 342/792/14 317/793/26 343/794/26 344/795/14 

vt -3.41448 0
vt -3.39392 0
vn -1.39975e-015 0 -1
v 82.5235 2 -33.6188
vt -3.39392 0.0787402
vt -3.41448 0.0787402
f 317/796/26 318/797/53 345/798/53 343/799/26 

vt -3.0484 0
vt -3.02784 0
v 82.0058 2 -33.687
vt -3.02784 0.0787402
vt -3.0484 0.0787402
f 318/800/53 319/801/21 346/802/21 345/803/53 

vt -2.47528 0
vt -2.45472 0
v 81.5235 2 -33.8868
vt -2.45472 0.0787402
vt -2.47528 0.0787402
f 319/804/21 320/805/20 347/806/20 346/807/21 

vt -1.73417 0
vt -1.71362 0
vt -1.71362 0.0787402
vt -1.73417 0.0787402
f 320/808/20 321/809/19 323/810/19 347/811/20 

vt 3.19328 1.34664
vt 3.24896 1.24483
vt 3.20959 1.33412
f 323/812/1 314/813/1 347/814/1

vt 3.18076 1.36295
f 322/815/1 314/813/1 323/812/1

v 39.5235 2 -35.6188
vt 1.55604 1.40232
f 348/816/1 314/813/1 322/815/1

v 39.4553 2 -35.1012
vt 1.55336 1.38194
f 349/817/1 314/813/1 348/816/1

v 39.2555 2 -34.6188
vt 1.54549 1.36295
f 350/818/1 314/813/1 349/817/1

v 38.9377 2 -34.2046
vt 1.53298 1.34664
f 351/819/1 314/813/1 350/818/1

v 38.5235 2 -33.8868
vt 1.51667 1.33412
f 352/820/1 314/813/1 351/819/1

v 38.0411 2 -33.687
vt 1.49768 1.32626
f 353/821/1 314/813/1 352/820/1

v 37.5235 2 -33.6188
vt 1.4773 1.32358
f 354/822/1 314/813/1 353/821/1

f 354/822/1 313/705/1 314/813/1

v 37.0058 2 -33.687
vt 1.45692 1.32626
f 355/823/1 313/705/1 354/822/1

f 312/704/1 313/705/1 355/823/1

vt -0.838484 0
vt -0.817929 0
vt -0.817929 0.0787402
vt -0.838484 0.0787402
f 306/824/21 307/825/20 312/826/20 355/827/21 

vt -0.328625 0
vt -0.308069 0
vt -0.308069 0.0787402
vt -0.328625 0.0787402
f 307/828/20 308/829/19 311/830/19 312/831/20 

vt 0.202929 0
vt 0.223485 0
vt 0.223485 0.0787402
vt 0.202929 0.0787402
f 308/832/19 309/833/18 310/834/18 311/835/19 

vt -1.2919 0
vt -1.27135 0
vt -1.27135 0.0787402
vt -1.2919 0.0787402
f 305/836/34 306/837/21 355/838/21 354/839/34 

vt -1.65798 0
vt -1.63742 0
vt -1.63742 0.0787402
vt -1.65798 0.0787402
f 303/840/26 305/841/34 354/842/34 353/843/26 

vt -1.91177 0
vt -1.89121 0
vt -1.89121 0.0787402
vt -1.91177 0.0787402
f 302/844/14 303/845/26 353/846/26 352/847/14 

vt -2.03598 0
vt -2.01542 0
vt -2.01542 0.0787402
vt -2.03598 0.0787402
f 301/848/13 302/849/14 352/850/14 351/851/13 

vt -2.02213 0
vt -2.00158 0
vt -2.00158 0.0787402
vt -2.02213 0.0787402
f 300/852/27 301/853/13 351/854/13 350/855/27 

vt -1.87119 0
vt -1.85063 0
vt -1.85063 0.0787402
vt -1.87119 0.0787402
f 299/856/28 300/857/27 350/858/27 349/859/28 

vt -1.59342 0
vt -1.57287 0
vt -1.57287 0.0787402
vt -1.59342 0.0787402
f 298/860/48 299/861/28 349/862/28 348/863/48 

v 39.4553 0 -36.1364
vt -1.20777 0
vt -1.18721 0
vt -1.18721 0.0787402
v 39.4553 2 -36.1364
vt -1.20777 0.0787402
f 356/864/30 298/865/48 348/866/48 357/867/30 

vt -1.55336 1.42269
v 39.5235 0 -45.6188
vt -1.55604 1.79602
f 356/868/3 358/869/3 298/680/3

v 39.4553 0 -45.1012
vt -1.55336 1.77564
f 356/868/3 359/870/3 358/869/3

v 39.2555 0 -36.6188
vt -1.54549 1.44169
f 360/871/3 359/870/3 356/868/3

v 39.2555 0 -44.6188
vt -1.54549 1.75665
f 360/871/3 361/872/3 359/870/3

v 38.9377 0 -37.033
vt -1.53298 1.45799
f 362/873/3 361/872/3 360/871/3

v 38.9377 0 -44.2046
vt -1.53298 1.74034
f 362/873/3 363/874/3 361/872/3

v 38.5235 0 -37.3509
vt -1.51667 1.47051
f 364/875/3 363/874/3 362/873/3

v 38.5235 0 -43.8868
vt -1.51667 1.72783
f 364/875/3 365/876/3 363/874/3

v 38.0411 0 -37.5507
vt -1.49768 1.47837
f 366/877/3 365/876/3 364/875/3

f 366/877/3 205/538/3 365/876/3

f 203/537/3 205/538/3 366/877/3

vt 1.27135 0
vt 1.2919 0
v 38.0411 2 -37.5507
vt 1.2919 0.0787402
vt 1.27135 0.0787402
f 203/878/51 366/879/15 367/880/15 204/881/51 

vt 0.817929 0
vt 0.838484 0
v 38.5235 2 -37.3509
vt 0.838484 0.0787402
vt 0.817929 0.0787402
f 366/882/15 364/883/12 368/884/12 367/885/15 

vt 0.308069 0
vt 0.328625 0
v 38.9377 2 -37.033
vt 0.328625 0.0787402
vt 0.308069 0.0787402
f 364/886/12 362/887/11 369/888/11 368/889/12 

vt -0.223485 0
vt -0.202929 0
v 39.2555 2 -36.6188
vt -0.202929 0.0787402
vt -0.223485 0.0787402
f 362/890/11 360/891/44 370/892/44 369/893/11 

vt -0.740509 0
vt -0.719954 0
vt -0.719954 0.0787402
vt -0.740509 0.0787402
f 360/894/44 356/895/30 357/896/30 370/897/44 

vt 3.40644 1.52043
vt 1.54549 1.44169
vt 1.55336 1.42269
f 162/898/1 370/899/1 357/900/1

vt 1.53298 1.45799
f 162/898/1 369/901/1 370/899/1

vt 1.51667 1.47051
f 162/898/1 368/902/1 369/901/1

vt 1.49768 1.47837
f 162/898/1 367/903/1 368/902/1

vt 1.4773 1.48106
f 162/898/1 204/904/1 367/903/1

f 161/474/1 204/904/1 162/898/1

vt 1.45692 1.47837
f 161/474/1 202/905/1 204/904/1

vt 1.43793 1.47051
f 161/474/1 198/906/1 202/905/1

f 161/474/1 186/476/1 198/906/1

f 162/898/1 357/900/1 348/816/1

vt 3.22858 1.47837
f 162/898/1 348/816/1 330/907/1

vt 3.20959 1.47051
f 330/907/1 348/816/1 329/908/1

vt 3.19328 1.45799
f 329/908/1 348/816/1 328/909/1

vt 3.18076 1.44169
f 328/909/1 348/816/1 327/910/1

vt 3.1729 1.42269
f 327/910/1 348/816/1 326/911/1

vt 3.17022 1.40232
f 326/911/1 348/816/1 325/912/1

vt 3.1729 1.38194
f 348/816/1 324/913/1 325/912/1

f 348/816/1 322/815/1 324/913/1

vt 3.24896 1.48106
f 162/898/1 330/907/1 331/914/1

vt 3.26934 1.47837
f 162/898/1 331/914/1 332/915/1

vt 3.28833 1.47051
f 162/898/1 332/915/1 333/916/1

vt 3.30463 1.45799
f 162/898/1 333/916/1 334/917/1

vt 3.31715 1.44169
f 162/898/1 334/917/1 335/918/1

vt 3.32501 1.42269
f 162/898/1 335/918/1 336/919/1

vt 3.3277 1.40232
f 162/898/1 336/919/1 337/920/1

v 85.3519 2 -32.7904
vt 3.36031 1.29096
f 162/898/1 337/920/1 371/921/1

v 84.5235 2 -32.1547
vt 3.3277 1.26593
f 337/920/1 372/922/1 371/921/1

vt 3.32501 1.38194
f 339/923/1 372/922/1 337/920/1

v 84.2555 2 -34.6188
vt 3.31715 1.36295
f 373/924/1 372/922/1 339/923/1

v 83.9377 2 -34.2046
vt 3.30463 1.34664
f 374/925/1 372/922/1 373/924/1

vt 3.28971 1.2502
f 374/925/1 316/926/1 372/922/1

vt 3.28833 1.33412
f 344/927/1 316/926/1 374/925/1

vt 3.26934 1.32626
f 343/928/1 316/926/1 344/927/1

vt 3.24896 1.32358
f 345/929/1 316/926/1 343/928/1

f 345/929/1 314/813/1 316/926/1

vt 3.22858 1.32626
f 346/930/1 314/813/1 345/929/1

f 347/814/1 314/813/1 346/930/1

vt -3.44152 0
vt -3.42097 0
vt -3.42097 0.0787402
vt -3.44152 0.0787402
f 341/931/13 342/932/14 344/933/14 374/934/13 

vt -3.10065 0
vt -3.08009 0
vt -3.08009 0.0787402
vt -3.10065 0.0787402
f 340/935/27 341/936/13 374/937/13 373/938/27 

vt -2.54917 0
vt -2.52861 0
vt -2.52861 0.0787402
vt -2.54917 0.0787402
f 338/939/28 340/940/27 373/941/27 339/942/28 

vt 3.51773 0
vt 3.55884 0
vt 3.55884 0.0787402
vt 3.51773 0.0787402
f 315/943/23 236/944/37 372/945/37 316/946/23 

vt 3.41069 0
vt 3.4518 0
vt 3.4518 0.0787402
vt 3.41069 0.0787402
f 236/947/37 233/948/38 371/949/38 372/950/37 

vt 3.06982 0
vt 3.11093 0
v 85.9876 2 -33.6188
vt 3.11093 0.0787402
vt 3.06982 0.0787402
f 233/951/38 231/952/41 375/953/41 371/954/38 

vt 2.51834 0
vt 2.55945 0
v 86.3872 2 -34.5835
vt 2.55945 0.0787402
vt 2.51834 0.0787402
f 231/955/41 229/956/31 376/957/31 375/958/41 

vt 1.79384 0
vt 1.83495 0
vn 0.991445 0 0.130526
vt 1.83495 0.0787402
vt 1.79384 0.0787402
f 229/959/31 226/960/54 228/961/54 376/962/31 

vt 3.40107 1.36156
vt 3.40644 1.40232
f 162/898/1 376/963/1 228/964/1

vt 3.38534 1.32358
f 162/898/1 375/965/1 376/963/1

f 162/898/1 371/921/1 375/965/1

vt -2.06243 0
vt -2.04188 0
vt -2.04188 0.0787402
vt -2.06243 0.0787402
f 365/966/14 205/967/26 206/968/26 207/969/14 

vt -2.27565 0
vt -2.25509 0
vt -2.25509 0.0787402
vt -2.27565 0.0787402
f 363/970/13 365/971/14 207/972/14 208/973/13 

vt -2.33448 0
vt -2.31392 0
vt -2.31392 0.0787402
vt -2.33448 0.0787402
f 361/974/27 363/975/13 208/976/13 209/977/27 

vt -2.23492 0
vt -2.21436 0
vt -2.21436 0.0787402
vt -2.23492 0.0787402
f 359/978/28 361/979/27 209/980/27 210/981/28 

vt -1.98376 0
vt -1.9632 0
vt -1.9632 0.0787402
vt -1.98376 0.0787402
f 358/982/48 359/983/28 210/984/28 211/985/48 

v 39.4553 0 -46.1364
vt -1.5981 0
vt -1.57755 0
vt -1.57755 0.0787402
v 39.4553 2 -46.1364
vt -1.5981 0.0787402
f 377/986/30 358/987/48 211/988/48 378/989/30 

vt -1.55336 1.8164
v 39.5235 0 -49.0829
vt -1.55604 1.9324
f 377/990/3 379/991/3 358/869/3

v 39.2555 0 -46.6188
vt -1.54549 1.83539
f 380/992/3 379/991/3 377/990/3

v 38.9377 0 -47.033
vt -1.53298 1.85169
f 381/993/3 379/991/3 380/992/3

v 38.5588 0 -49.4825
vt -1.51806 1.94813
f 381/993/3 382/994/3 379/991/3

v 38.5235 0 -47.3509
vt -1.51667 1.86421
f 383/995/3 382/994/3 381/993/3

v 38.0411 0 -47.5507
vt -1.49768 1.87207
f 384/996/3 382/994/3 383/995/3

v 37.5235 0 -47.6188
vt -1.4773 1.87476
f 385/997/3 382/994/3 384/996/3

v 37.5235 0 -49.6188
vt -1.4773 1.9535
f 385/997/3 386/998/3 382/994/3

v 37.0058 0 -47.5507
vt -1.45692 1.87207
f 387/999/3 386/998/3 385/997/3

v 36.5235 0 -47.3509
vt -1.43793 1.86421
f 388/1000/3 386/998/3 387/999/3

v 36.4882 0 -49.4825
vt -1.43654 1.94813
f 388/1000/3 389/1001/3 386/998/3

v 36.1093 0 -47.033
vt -1.42162 1.85169
f 390/1002/3 389/1001/3 388/1000/3

v 35.7914 0 -46.6188
vt -1.40911 1.83539
f 391/1003/3 389/1001/3 390/1002/3

v 35.5916 0 -46.1364
vt -1.40124 1.8164
f 392/1004/3 389/1001/3 391/1003/3

v 35.5235 0 -49.0829
vt -1.39856 1.9324
f 392/1004/3 393/1005/3 389/1001/3

f 176/461/3 393/1005/3 392/1004/3

f 393/1005/3 176/461/3 178/463/3

vt -2.28592 0
vt -2.24481 0
v 34.695 2 -48.4472
vt -2.24481 0.0787402
v 35.5235 2 -49.0829
vt -2.28592 0.0787402
f 393/1006/14 178/1007/13 394/1008/13 395/1009/14 

vt -2.34476 0
vt -2.30364 0
v 34.0594 2 -47.6188
vt -2.30364 0.0787402
vt -2.34476 0.0787402
f 178/1010/13 181/1011/27 396/1012/27 394/1013/13 

vt -2.2452 0
vt -2.20409 0
vt -2.20409 0.0787402
vt -2.2452 0.0787402
f 181/1014/27 164/1015/28 166/1016/28 396/1017/27 

v 35.7914 2 -44.6188
vt 1.40911 1.75665
vt 1.34092 1.87476
f 166/448/1 397/1018/1 396/1019/1

f 166/448/1 167/447/1 397/1018/1

vt 0.515273 0
vt 0.535828 0
vt 0.535828 0.0787402
vt 0.515273 0.0787402
f 169/1020/19 172/1021/18 397/1022/18 167/1023/19 

vt 1.08369 0
vt 1.10424 0
v 35.5916 2 -45.1012
vt 1.10424 0.0787402
vt 1.08369 0.0787402
f 172/1024/18 174/1025/17 398/1026/17 397/1027/18 

vt 1.57755 0
vt 1.5981 0
v 35.5235 2 -45.6188
vt 1.5981 0.0787402
vt 1.57755 0.0787402
f 174/1028/17 176/1029/50 399/1030/50 398/1031/17 

vt 1.9632 0
vt 1.98376 0
v 35.5916 2 -46.1364
vt 1.98376 0.0787402
vt 1.9632 0.0787402
f 176/1032/50 392/1033/31 400/1034/31 399/1035/50 

vt 2.21436 0
vt 2.23492 0
v 35.7914 2 -46.6188
vt 2.23492 0.0787402
vt 2.21436 0.0787402
f 392/1036/31 391/1037/41 401/1038/41 400/1039/31 

vt 2.31392 0
vt 2.33448 0
v 36.1093 2 -47.033
vt 2.33448 0.0787402
vt 2.31392 0.0787402
f 391/1040/41 390/1041/38 402/1042/38 401/1043/41 

vt 2.25509 0
vt 2.27565 0
v 36.5235 2 -47.3509
vt 2.27565 0.0787402
vt 2.25509 0.0787402
f 390/1044/38 388/1045/37 403/1046/37 402/1047/38 

vt 2.04188 0
vt 2.06243 0
v 37.0058 2 -47.5507
vt 2.06243 0.0787402
vt 2.04188 0.0787402
f 388/1048/37 387/1049/23 404/1050/23 403/1051/37 

vt 1.68881 0
vt 1.70937 0
v 37.5235 2 -47.6188
vt 1.70937 0.0787402
vt 1.68881 0.0787402
f 387/1052/23 385/1053/51 405/1054/51 404/1055/23 

vt 1.21996 0
vt 1.24051 0
v 38.0411 2 -47.5507
vt 1.24051 0.0787402
vt 1.21996 0.0787402
f 385/1056/51 384/1057/15 406/1058/15 405/1059/51 

vt 0.667266 0
vt 0.687821 0
v 38.5235 2 -47.3509
vt 0.687821 0.0787402
vt 0.667266 0.0787402
f 384/1060/15 383/1061/12 407/1062/12 406/1063/15 

vt 0.0683996 0
vt 0.0889549 0
v 38.9377 2 -47.033
vt 0.0889549 0.0787402
vt 0.0683996 0.0787402
f 383/1064/12 381/1065/11 408/1066/11 407/1067/12 

vt -0.535828 0
vt -0.515273 0
v 39.2555 2 -46.6188
vt -0.515273 0.0787402
vt -0.535828 0.0787402
f 381/1068/11 380/1069/44 409/1070/44 408/1071/11 

vt -1.10424 0
vt -1.08369 0
vt -1.08369 0.0787402
vt -1.10424 0.0787402
f 380/1072/44 377/1073/30 378/1074/30 409/1075/44 

v 39.5235 2 -49.0829
vt 1.55604 1.9324
vt 1.54549 1.83539
vt 1.55336 1.8164
f 410/1076/1 409/1077/1 378/1078/1

vt 1.53298 1.85169
f 410/1076/1 408/1079/1 409/1077/1

v 38.5588 2 -49.4825
vt 1.51806 1.94813
f 411/1080/1 408/1079/1 410/1076/1

vt 1.51667 1.86421
f 411/1080/1 407/1081/1 408/1079/1

vt 1.49768 1.87207
f 411/1080/1 406/1082/1 407/1081/1

v 37.5235 2 -49.6188
vt 1.4773 1.9535
f 412/1083/1 406/1082/1 411/1080/1

vt 1.4773 1.87476
f 412/1083/1 405/1084/1 406/1082/1

vt 1.45692 1.87207
f 412/1083/1 404/1085/1 405/1084/1

vt 1.43793 1.86421
f 412/1083/1 403/1086/1 404/1085/1

v 36.4882 2 -49.4825
vt 1.43654 1.94813
f 413/1087/1 403/1086/1 412/1083/1

vt 1.42162 1.85169
f 413/1087/1 402/1088/1 403/1086/1

vt 1.40911 1.83539
f 413/1087/1 401/1089/1 402/1088/1

vt 1.40124 1.8164
f 413/1087/1 400/1090/1 401/1089/1

vt 1.39856 1.9324
f 395/1091/1 400/1090/1 413/1087/1

vt 1.39856 1.79602
f 395/1091/1 399/1092/1 400/1090/1

vt 1.36595 1.90737
f 399/1092/1 395/1091/1 394/1093/1

vt 1.40124 1.77564
f 394/1093/1 398/1094/1 399/1092/1

f 396/1019/1 398/1094/1 394/1093/1

f 396/1019/1 397/1018/1 398/1094/1

vt -2.07271 0
vt -2.0316 0
vt -2.0316 0.0787402
vt -2.07271 0.0787402
f 389/1095/26 393/1096/14 395/1097/14 413/1098/26 

vt -1.71965 0
vn -3.63936e-016 0 -1
vt -1.67854 0
vt -1.67854 0.0787402
vt -1.71965 0.0787402
f 386/1099/55 389/1100/26 413/1101/26 412/1102/55 

vt -1.25079 0
vt -1.20968 0
vt -1.20968 0.0787402
vt -1.25079 0.0787402
f 382/1103/21 386/1104/55 412/1105/55 411/1106/21 

vt -0.698099 0
vt -0.656988 0
vt -0.656988 0.0787402
vt -0.698099 0.0787402
f 379/1107/20 382/1108/21 411/1109/21 410/1110/20 

v 40.3519 0 -48.4472
vt -0.0992326 0
vt -0.058122 0
vt -0.058122 0.0787402
v 40.3519 2 -48.4472
vt -0.0992326 0.0787402
f 414/1111/19 379/1112/20 410/1113/20 415/1114/19 

vt -1.58866 1.90737
f 358/869/3 379/991/3 414/1115/3

f 358/869/3 414/1115/3 298/680/3

f 295/677/3 298/680/3 414/1115/3

v 40.9876 0 -47.6188
vt -1.61368 1.87476
f 295/677/3 414/1115/3 416/1116/3

vt 0.504995 0
vt 0.546106 0
vt 0.546106 0.0787402
v 40.9876 2 -47.6188
vt 0.504995 0.0787402
f 416/1117/18 414/1118/19 415/1119/19 417/1120/18 

vt 1.58866 1.90737
vt 1.61368 1.87476
f 415/1121/1 212/549/1 417/1122/1

f 410/1076/1 212/549/1 415/1121/1

f 211/548/1 212/549/1 410/1076/1

f 410/1076/1 378/1078/1 211/548/1

v 41.3872 2 -46.6541
vt 1.62942 1.83677
f 417/1122/1 212/549/1 418/1123/1

vt 1.56727 0
vn 0.991445 0 -0.130526
v 41.3872 0 -46.6541
vt 1.60838 0
vt 1.60838 0.0787402
vt 1.56727 0.0787402
f 295/1124/56 419/1125/17 418/1126/17 212/1127/56 

vt -1.62942 1.83677
f 295/677/3 416/1116/3 419/1128/3

vt 1.07341 0
vt 1.11452 0
vt 1.11452 0.0787402
vt 1.07341 0.0787402
f 419/1129/17 416/1130/18 417/1131/18 418/1132/17 

vt -3.09148 0
vt -1.63478 0
vt -1.63478 0.0787402
v 78.5235 2 -45.6188
vt -3.09148 0.0787402
f 294/1133/34 295/1134/34 212/1135/34 420/1136/34 

v 81.5235 2 -43.8868
vt 3.20959 1.72783
vt 3.09148 1.79602
f 212/549/1 421/1137/1 420/1138/1

f 212/549/1 213/550/1 421/1137/1

vt -2.32462 0
vt -2.30406 0
vt -2.30406 0.0787402
vt -2.32462 0.0787402
f 280/1139/21 282/1140/20 421/1141/20 213/1142/21 

vt -1.4945 0
vt -1.47395 0
v 81.1093 2 -44.2046
vt -1.47395 0.0787402
vt -1.4945 0.0787402
f 282/1143/20 284/1144/19 422/1145/19 421/1146/20 

vt -0.563241 0
vt -0.542686 0
v 80.7914 2 -44.6188
vt -0.542686 0.0787402
vt -0.563241 0.0787402
f 284/1147/19 286/1148/18 423/1149/18 422/1150/19 

vt 0.405703 0
vt 0.426259 0
v 80.5916 2 -45.1012
vt 0.426259 0.0787402
vt 0.405703 0.0787402
f 286/1151/18 288/1152/17 424/1153/17 423/1154/18 

vt 1.3463 0
vt 1.36685 0
vt 1.36685 0.0787402
vt 1.3463 0.0787402
f 288/1155/17 254/1156/32 256/1157/32 424/1158/17 

v 79.695 2 -48.4472
vt 3.1376 1.90737
vt 3.1729 1.77564
vt 3.17022 1.79602
f 425/1159/1 424/1160/1 256/1161/1

v 79.0594 2 -47.6188
vt 3.11257 1.87476
f 426/1162/1 424/1160/1 425/1159/1

vt 3.18076 1.75665
f 426/1162/1 423/1163/1 424/1160/1

v 78.6598 2 -46.6541
vt 3.09684 1.83677
f 427/1164/1 423/1163/1 426/1162/1

vt 3.19328 1.74034
f 427/1164/1 422/1165/1 423/1163/1

f 420/1138/1 422/1165/1 427/1164/1

f 420/1138/1 421/1137/1 422/1165/1

vt -2.22528 0
vt -2.18417 0
vt -2.18417 0.0787402
vt -2.22528 0.0787402
f 292/1166/28 294/1167/49 420/1168/49 427/1169/28 

vt -2.92318 0
vt -2.88207 0
vt -2.88207 0.0787402
vt -2.92318 0.0787402
f 291/1170/27 292/1171/28 427/1172/28 426/1173/27 

vt -3.42327 0
vt -3.38216 0
vt -3.38216 0.0787402
vt -3.42327 0.0787402
f 290/1174/13 291/1175/27 426/1176/27 425/1177/13 

vt -3.69147 0
vt -3.65036 0
vt -3.65036 0.0787402
v 80.5235 2 -49.0829
vt -3.69147 0.0787402
f 253/1178/14 290/1179/13 425/1180/13 428/1181/14 

vt 3.17022 1.9324
f 256/1161/1 428/1182/1 425/1159/1

vt 3.1729 1.8164
f 428/1182/1 256/1161/1 255/1183/1

v 81.4882 2 -49.4825
vt 3.2082 1.94813
f 428/1182/1 255/1183/1 429/1184/1

vt 3.18076 1.83539
f 429/1184/1 255/1183/1 257/1185/1

vt 3.19328 1.85169
f 429/1184/1 257/1185/1 258/1186/1

vt 3.20959 1.86421
f 429/1184/1 258/1186/1 259/1187/1

v 82.5235 2 -49.6188
vt 3.24896 1.9535
f 429/1184/1 259/1187/1 430/1188/1

vt 3.22858 1.87207
f 430/1188/1 259/1187/1 260/1189/1

vt 3.24896 1.87476
f 430/1188/1 260/1189/1 261/1190/1

vt 3.26934 1.87207
f 430/1188/1 261/1190/1 262/1191/1

v 83.5588 2 -49.4825
vt 3.28971 1.94813
f 430/1188/1 262/1191/1 431/1192/1

vt 3.28833 1.86421
f 431/1192/1 262/1191/1 263/1193/1

vt 3.30463 1.85169
f 431/1192/1 263/1193/1 264/1194/1

f 431/1192/1 264/1194/1 221/558/1

vt 3.31715 1.83539
f 221/558/1 264/1194/1 265/1195/1

vt 3.32501 1.8164
f 221/558/1 265/1195/1 266/1196/1

f 221/558/1 266/1196/1 220/557/1

vt -2.33489 0
vt -2.29378 0
vt -2.29378 0.0787402
vt -2.33489 0.0787402
f 235/1197/20 242/1198/21 431/1199/21 221/1200/20 

vt -3.00729 0
vt -2.96618 0
vt -2.96618 0.0787402
vt -3.00729 0.0787402
f 242/1201/21 246/1202/34 430/1203/34 431/1204/21 

vt -3.47614 0
vt -3.43503 0
vt -3.43503 0.0787402
vt -3.47614 0.0787402
f 246/1205/34 249/1206/26 429/1207/26 430/1208/34 

vt -3.7095 0
vt -3.66839 0
vt -3.66839 0.0787402
vt -3.7095 0.0787402
f 249/1209/26 253/1210/14 428/1211/14 429/1212/26 

vt -1.50478 0
vt -1.46367 0
vt -1.46367 0.0787402
vt -1.50478 0.0787402
f 234/1213/19 235/1214/20 221/1215/20 222/1216/19 

vt -0.573519 0
vt -0.532408 0
vt -0.532408 0.0787402
vt -0.573519 0.0787402
f 232/1217/18 234/1218/19 222/1219/19 223/1220/18 

vt 0.395426 0
vt 0.436536 0
vt 0.436536 0.0787402
vt 0.395426 0.0787402
f 230/1221/17 232/1222/18 223/1223/18 224/1224/17 

vt 1.33602 0
vt 1.37713 0
vt 1.37713 0.0787402
vt 1.33602 0.0787402
f 227/1225/56 230/1226/17 224/1227/17 225/1228/56 

vt -2.99701 0
vt -2.97646 0
vt -2.97646 0.0787402
vt -2.99701 0.0787402
f 278/1229/53 280/1230/21 213/1231/21 214/1232/53 

vt -3.46587 0
vt -3.44531 0
vt -3.44531 0.0787402
vt -3.46587 0.0787402
f 276/1233/26 278/1234/53 214/1235/53 215/1236/26 

vt -3.69923 0
vt -3.67867 0
vt -3.67867 0.0787402
vt -3.69923 0.0787402
f 274/1237/14 276/1238/26 215/1239/26 216/1240/14 

vt -3.68119 0
vt -3.66064 0
vt -3.66064 0.0787402
vt -3.68119 0.0787402
f 272/1241/13 274/1242/14 216/1243/14 217/1244/13 

vt -3.41299 0
vt -3.39244 0
vt -3.39244 0.0787402
vt -3.41299 0.0787402
f 270/1245/27 272/1246/13 217/1247/13 218/1248/27 

vt -2.9129 0
vt -2.89235 0
vt -2.89235 0.0787402
vt -2.9129 0.0787402
f 267/1249/28 270/1250/27 218/1251/27 219/1252/28 

v 33.5235 6 -40.6188
vt 1.59917 -1.2983
vn 0.0752577 0.997164 -6.18538e-017
vt 1.52043 -3.39085
vt 1.67791 -3.39085
f 432/1253/57 162/1254/57 6/1255/57

vt 1.37622 1.15017
vn 0.0266738 0.706855 0.706855
vt 3.46135 1.03886
vt 1.37919 1.26149
f 163/1256/58 162/1257/58 432/1258/58

vt 1.31982 1.18646
vn 1.4439e-019 0.707107 0.707107
vt 1.31982 1.29781
v -81.4765 6 -40.6188
vt -3.20774 1.29781
vt -3.40459 1.18646
f 163/1259/59 432/1260/59 433/1261/59 159/1262/59 

vt -1.31982 -0.963748
vn -7.21951e-020 0.707107 -0.707107
vt -1.31982 -1.0751
vt 3.40459 -1.0751
vt 3.20774 -0.963748
f 432/1263/60 11/1264/60 10/1265/60 433/1266/60 

vt -3.34074 -1.22029
vn 0.0266738 0.706855 -0.706855
vt -1.25561 -1.10898
vt -1.25858 -0.997662
f 6/1267/61 11/1268/61 432/1269/61

vt -1.59917 -2.89058
vn -0.371391 0.928477 -1.94836e-017
vt -1.67791 -3.10259
vt -1.52043 -3.10259
f 433/1270/62 10/1271/62 159/1272/62

vt -1.21805 0
vt -1.17694 0
vt -1.17694 0.0787402
vt -1.21805 0.0787402
f 183/1273/5 182/1274/30 185/1275/30 184/1276/5 

v -89.7445 0.00767627 -41.6188
vt 3.53325 1.63854
f 155/398/3 18/22/3 434/1277/3

vt 3.52538 1.61955
f 434/1277/3 18/22/3 132/1278/3

f 132/1278/3 18/22/3 19/23/3

vt -2.84537 0.15748
vt -2.86592 0.15748
vt -2.86592 0.000302215
vt -2.84537 0.000302215
f 131/1279/30 133/1280/44 434/1281/44 132/1282/30 

vt -3.45084 0.15748
vt -3.4714 0.15748
vt -3.4714 0.000302215
vt -3.45084 0.000302215
f 133/1283/44 134/1284/11 155/1285/11 434/1286/44 

vt -3.82045 0.15748
vt -3.841 0.15748
vt -3.841 0.000302215
vt -3.82045 0.000302215
f 134/1287/11 135/1288/12 154/1289/12 155/1290/11 

vt -3.92899 0.15748
vt -3.94955 0.15748
vt -3.94955 0.000302215
vt -3.92899 0.000302215
f 135/1291/12 136/1292/15 138/1293/15 154/1294/12 

vt 1.89398 0.15748
vt 1.87342 0.15748
vt 1.87342 0.000302215
vt 1.89398 0.000302215
f 122/1295/14 123/1296/13 22/1297/13 24/1298/14 

vt 4.17997 0.15748
vt 4.15942 0.15748
vt 4.15942 0.000302215
vt 4.17997 0.000302215
f 76/1299/21 77/1300/25 39/1301/25 40/1302/21 

vt -1.03832 0.15748
vt -1.08971 0.15748
vt -1.08971 0.000727677
vt -1.03832 0.000727677
f 59/1303/49 60/1304/8 56/1305/8 57/1306/49 

