%TF.GenerationSoftware,KiCad,Pcbnew,7.0.10*%
%TF.CreationDate,2024-02-21T17:24:27+03:00*%
%TF.ProjectId,druver_drv8825,64727576-6572-45f6-9472-76383832352e,rev?*%
%TF.SameCoordinates,Original*%
%TF.FileFunction,Copper,L2,Bot*%
%TF.FilePolarity,Positive*%
%FSLAX46Y46*%
G04 Gerber Fmt 4.6, Leading zero omitted, Abs format (unit mm)*
G04 Created by KiCad (PCBNEW 7.0.10) date 2024-02-21 17:24:27*
%MOMM*%
%LPD*%
G01*
G04 APERTURE LIST*
G04 Aperture macros list*
%AMRoundRect*
0 Rectangle with rounded corners*
0 $1 Rounding radius*
0 $2 $3 $4 $5 $6 $7 $8 $9 X,Y pos of 4 corners*
0 Add a 4 corners polygon primitive as box body*
4,1,4,$2,$3,$4,$5,$6,$7,$8,$9,$2,$3,0*
0 Add four circle primitives for the rounded corners*
1,1,$1+$1,$2,$3*
1,1,$1+$1,$4,$5*
1,1,$1+$1,$6,$7*
1,1,$1+$1,$8,$9*
0 Add four rect primitives between the rounded corners*
20,1,$1+$1,$2,$3,$4,$5,0*
20,1,$1+$1,$4,$5,$6,$7,0*
20,1,$1+$1,$6,$7,$8,$9,0*
20,1,$1+$1,$8,$9,$2,$3,0*%
G04 Aperture macros list end*
%TA.AperFunction,ComponentPad*%
%ADD10R,1.600000X1.600000*%
%TD*%
%TA.AperFunction,ComponentPad*%
%ADD11O,1.600000X1.600000*%
%TD*%
%TA.AperFunction,ComponentPad*%
%ADD12R,2.000000X2.000000*%
%TD*%
%TA.AperFunction,ComponentPad*%
%ADD13C,2.000000*%
%TD*%
%TA.AperFunction,ComponentPad*%
%ADD14R,1.700000X1.700000*%
%TD*%
%TA.AperFunction,ComponentPad*%
%ADD15O,1.700000X1.700000*%
%TD*%
%TA.AperFunction,ComponentPad*%
%ADD16RoundRect,0.250000X-0.650000X-1.550000X0.650000X-1.550000X0.650000X1.550000X-0.650000X1.550000X0*%
%TD*%
%TA.AperFunction,ComponentPad*%
%ADD17O,1.800000X3.600000*%
%TD*%
%TA.AperFunction,ComponentPad*%
%ADD18RoundRect,0.250000X1.550000X-0.650000X1.550000X0.650000X-1.550000X0.650000X-1.550000X-0.650000X0*%
%TD*%
%TA.AperFunction,ComponentPad*%
%ADD19O,3.600000X1.800000*%
%TD*%
%TA.AperFunction,ViaPad*%
%ADD20C,1.200000*%
%TD*%
%TA.AperFunction,Conductor*%
%ADD21C,2.000000*%
%TD*%
%TA.AperFunction,Conductor*%
%ADD22C,1.000000*%
%TD*%
%TA.AperFunction,Conductor*%
%ADD23C,1.500000*%
%TD*%
G04 APERTURE END LIST*
D10*
%TO.P,A4,1,D1/TX*%
%TO.N,unconnected-(A4-D1{slash}TX-Pad1)*%
X42950000Y-49610000D03*
D11*
%TO.P,A4,2,D0/RX*%
%TO.N,unconnected-(A4-D0{slash}RX-Pad2)*%
X45490000Y-49610000D03*
%TO.P,A4,3,~{RESET}*%
%TO.N,unconnected-(A4-~{RESET}-Pad3)*%
X48030000Y-49610000D03*
%TO.P,A4,4,GND*%
%TO.N,GND*%
X50570000Y-49610000D03*
%TO.P,A4,5,D2*%
%TO.N,DIR_1*%
X53110000Y-49610000D03*
%TO.P,A4,6,D3*%
%TO.N,STEP_1*%
X55650000Y-49610000D03*
%TO.P,A4,7,D4*%
%TO.N,CLK*%
X58190000Y-49610000D03*
%TO.P,A4,8,D5*%
%TO.N,unconnected-(A4-D5-Pad8)*%
X60730000Y-49610000D03*
%TO.P,A4,9,D6*%
%TO.N,CS*%
X63270000Y-49610000D03*
%TO.P,A4,10,D7*%
%TO.N,CMD*%
X65810000Y-49610000D03*
%TO.P,A4,11,D8*%
%TO.N,DAT*%
X68350000Y-49610000D03*
%TO.P,A4,12,D9*%
%TO.N,SIG_1*%
X70890000Y-49610000D03*
%TO.P,A4,13,D10*%
%TO.N,SIG_2*%
X73430000Y-49610000D03*
%TO.P,A4,14,D11*%
%TO.N,SIG_3*%
X75970000Y-49610000D03*
%TO.P,A4,15,D12*%
%TO.N,DIR_3*%
X78510000Y-49610000D03*
%TO.P,A4,16,D13*%
%TO.N,STEP_3*%
X78510000Y-34370000D03*
%TO.P,A4,17,3V3*%
%TO.N,unconnected-(A4-3V3-Pad17)*%
X75970000Y-34370000D03*
%TO.P,A4,18,AREF*%
%TO.N,unconnected-(A4-AREF-Pad18)*%
X73430000Y-34370000D03*
%TO.P,A4,19,A0*%
%TO.N,EN*%
X70890000Y-34370000D03*
%TO.P,A4,20,A1*%
%TO.N,DIR_2*%
X68350000Y-34370000D03*
%TO.P,A4,21,A2*%
%TO.N,STEP_2*%
X65810000Y-34370000D03*
%TO.P,A4,22,A3*%
%TO.N,unconnected-(A4-A3-Pad22)*%
X63270000Y-34370000D03*
%TO.P,A4,23,A4*%
%TO.N,unconnected-(A4-A4-Pad23)*%
X60730000Y-34370000D03*
%TO.P,A4,24,A5*%
%TO.N,unconnected-(A4-A5-Pad24)*%
X58190000Y-34370000D03*
%TO.P,A4,25,A6*%
%TO.N,unconnected-(A4-A6-Pad25)*%
X55650000Y-34370000D03*
%TO.P,A4,26,A7*%
%TO.N,unconnected-(A4-A7-Pad26)*%
X53110000Y-34370000D03*
%TO.P,A4,27,+5V*%
%TO.N,+5v*%
X50570000Y-34370000D03*
%TO.P,A4,28,~{RESET}*%
%TO.N,unconnected-(A4-~{RESET}-Pad28)*%
X48030000Y-34370000D03*
%TO.P,A4,29,GND*%
%TO.N,GND*%
X45490000Y-34370000D03*
%TO.P,A4,30,VIN*%
%TO.N,+6v*%
X42950000Y-34370000D03*
%TD*%
D12*
%TO.P,C3,1*%
%TO.N,+12v*%
X24617677Y-13000000D03*
D13*
%TO.P,C3,2*%
%TO.N,GND*%
X21117677Y-13000000D03*
%TD*%
D14*
%TO.P,J3,1,Pin_1*%
%TO.N,Net-(A3-A1)*%
X62000000Y-23080000D03*
D15*
%TO.P,J3,2,Pin_2*%
%TO.N,Net-(A3-A2)*%
X62000000Y-20540000D03*
%TO.P,J3,3,Pin_3*%
%TO.N,Net-(A3-B1)*%
X62000000Y-18000000D03*
%TO.P,J3,4,Pin_4*%
%TO.N,Net-(A3-B2)*%
X62000000Y-15460000D03*
%TD*%
D14*
%TO.P,J2,1,Pin_1*%
%TO.N,Net-(A2-A1)*%
X88340000Y-22730000D03*
D15*
%TO.P,J2,2,Pin_2*%
%TO.N,Net-(A2-A2)*%
X88340000Y-20190000D03*
%TO.P,J2,3,Pin_3*%
%TO.N,Net-(A2-B1)*%
X88340000Y-17650000D03*
%TO.P,J2,4,Pin_4*%
%TO.N,Net-(A2-B2)*%
X88340000Y-15110000D03*
%TD*%
D10*
%TO.P,A3,1,GND*%
%TO.N,GND*%
X55000000Y-28080000D03*
D11*
%TO.P,A3,2,~{FLT}*%
%TO.N,unconnected-(A3-~{FLT}-Pad2)*%
X55000000Y-25540000D03*
%TO.P,A3,3,A2*%
%TO.N,Net-(A3-A2)*%
X55000000Y-23000000D03*
%TO.P,A3,4,A1*%
%TO.N,Net-(A3-A1)*%
X55000000Y-20460000D03*
%TO.P,A3,5,B1*%
%TO.N,Net-(A3-B1)*%
X55000000Y-17920000D03*
%TO.P,A3,6,B2*%
%TO.N,Net-(A3-B2)*%
X55000000Y-15380000D03*
%TO.P,A3,7,GND*%
%TO.N,GND*%
X55000000Y-12840000D03*
%TO.P,A3,8,VMOT*%
%TO.N,+12v*%
X55000000Y-10300000D03*
%TO.P,A3,9,~{EN}*%
%TO.N,EN*%
X42300000Y-10300000D03*
%TO.P,A3,10,M0*%
%TO.N,unconnected-(A3-M0-Pad10)*%
X42300000Y-12840000D03*
%TO.P,A3,11,M1*%
%TO.N,unconnected-(A3-M1-Pad11)*%
X42300000Y-15380000D03*
%TO.P,A3,12,M2*%
%TO.N,unconnected-(A3-M2-Pad12)*%
X42300000Y-17920000D03*
%TO.P,A3,13,~{RST}*%
%TO.N,+5v*%
X42300000Y-20460000D03*
%TO.P,A3,14,~{SLP}*%
X42300000Y-23000000D03*
%TO.P,A3,15,STEP*%
%TO.N,STEP_3*%
X42300000Y-25540000D03*
%TO.P,A3,16,DIR*%
%TO.N,DIR_3*%
X42300000Y-28080000D03*
%TD*%
D14*
%TO.P,J4,1,Pin_1*%
%TO.N,GND*%
X70000000Y-58000000D03*
D15*
%TO.P,J4,2,Pin_2*%
%TO.N,+5v*%
X67460000Y-58000000D03*
%TO.P,J4,3,Pin_3*%
%TO.N,DAT*%
X64920000Y-58000000D03*
%TO.P,J4,4,Pin_4*%
%TO.N,CMD*%
X62380000Y-58000000D03*
%TO.P,J4,5,Pin_5*%
%TO.N,CLK*%
X59840000Y-58000000D03*
%TO.P,J4,6,Pin_6*%
%TO.N,CS*%
X57300000Y-58000000D03*
%TD*%
D16*
%TO.P,J9,1,Pin_1*%
%TO.N,+12v*%
X5940000Y-11750000D03*
D17*
%TO.P,J9,2,Pin_2*%
%TO.N,GND*%
X9750000Y-11750000D03*
%TD*%
D14*
%TO.P,J7,1,Pin_1*%
%TO.N,SIG_2*%
X80910000Y-57790000D03*
D15*
%TO.P,J7,2,Pin_2*%
%TO.N,+6v*%
X80910000Y-60330000D03*
%TO.P,J7,3,Pin_3*%
%TO.N,GND*%
X80910000Y-62870000D03*
%TD*%
D10*
%TO.P,A2,1,GND*%
%TO.N,GND*%
X81340000Y-27890000D03*
D11*
%TO.P,A2,2,~{FLT}*%
%TO.N,unconnected-(A2-~{FLT}-Pad2)*%
X81340000Y-25350000D03*
%TO.P,A2,3,A2*%
%TO.N,Net-(A2-A2)*%
X81340000Y-22810000D03*
%TO.P,A2,4,A1*%
%TO.N,Net-(A2-A1)*%
X81340000Y-20270000D03*
%TO.P,A2,5,B1*%
%TO.N,Net-(A2-B1)*%
X81340000Y-17730000D03*
%TO.P,A2,6,B2*%
%TO.N,Net-(A2-B2)*%
X81340000Y-15190000D03*
%TO.P,A2,7,GND*%
%TO.N,GND*%
X81340000Y-12650000D03*
%TO.P,A2,8,VMOT*%
%TO.N,+12v*%
X81340000Y-10110000D03*
%TO.P,A2,9,~{EN}*%
%TO.N,EN*%
X68640000Y-10110000D03*
%TO.P,A2,10,M0*%
%TO.N,unconnected-(A2-M0-Pad10)*%
X68640000Y-12650000D03*
%TO.P,A2,11,M1*%
%TO.N,unconnected-(A2-M1-Pad11)*%
X68640000Y-15190000D03*
%TO.P,A2,12,M2*%
%TO.N,unconnected-(A2-M2-Pad12)*%
X68640000Y-17730000D03*
%TO.P,A2,13,~{RST}*%
%TO.N,+5v*%
X68640000Y-20270000D03*
%TO.P,A2,14,~{SLP}*%
X68640000Y-22810000D03*
%TO.P,A2,15,STEP*%
%TO.N,STEP_2*%
X68640000Y-25350000D03*
%TO.P,A2,16,DIR*%
%TO.N,DIR_2*%
X68640000Y-27890000D03*
%TD*%
D18*
%TO.P,J10,1,Pin_1*%
%TO.N,+6v*%
X8000000Y-45060000D03*
D19*
%TO.P,J10,2,Pin_2*%
%TO.N,GND*%
X8000000Y-41250000D03*
%TD*%
D14*
%TO.P,J1,1,Pin_1*%
%TO.N,Net-(A1-A2)*%
X35977677Y-23620000D03*
D15*
%TO.P,J1,2,Pin_2*%
%TO.N,Net-(A1-A1)*%
X35977677Y-21080000D03*
%TO.P,J1,3,Pin_3*%
%TO.N,Net-(A1-B1)*%
X35977677Y-18540000D03*
%TO.P,J1,4,Pin_4*%
%TO.N,Net-(A1-B2)*%
X35977677Y-16000000D03*
%TD*%
D14*
%TO.P,J6,1,Pin_1*%
%TO.N,SIG_1*%
X75910000Y-57790000D03*
D15*
%TO.P,J6,2,Pin_2*%
%TO.N,+6v*%
X75910000Y-60330000D03*
%TO.P,J6,3,Pin_3*%
%TO.N,GND*%
X75910000Y-62870000D03*
%TD*%
D12*
%TO.P,C2,1*%
%TO.N,+12v*%
X76500000Y-12890000D03*
D13*
%TO.P,C2,2*%
%TO.N,GND*%
X73000000Y-12890000D03*
%TD*%
D14*
%TO.P,J8,1,Pin_1*%
%TO.N,SIG_3*%
X85910000Y-57790000D03*
D15*
%TO.P,J8,2,Pin_2*%
%TO.N,+5v*%
X85910000Y-60330000D03*
%TO.P,J8,3,Pin_3*%
%TO.N,GND*%
X85910000Y-62870000D03*
%TD*%
D12*
%TO.P,C1,1*%
%TO.N,+12v*%
X50000000Y-13080000D03*
D13*
%TO.P,C1,2*%
%TO.N,GND*%
X46500000Y-13080000D03*
%TD*%
D10*
%TO.P,A1,1,GND*%
%TO.N,GND*%
X29317677Y-28620000D03*
D11*
%TO.P,A1,2,~{FLT}*%
%TO.N,unconnected-(A1-~{FLT}-Pad2)*%
X29317677Y-26080000D03*
%TO.P,A1,3,A2*%
%TO.N,Net-(A1-A2)*%
X29317677Y-23540000D03*
%TO.P,A1,4,A1*%
%TO.N,Net-(A1-A1)*%
X29317677Y-21000000D03*
%TO.P,A1,5,B1*%
%TO.N,Net-(A1-B1)*%
X29317677Y-18460000D03*
%TO.P,A1,6,B2*%
%TO.N,Net-(A1-B2)*%
X29317677Y-15920000D03*
%TO.P,A1,7,GND*%
%TO.N,GND*%
X29317677Y-13380000D03*
%TO.P,A1,8,VMOT*%
%TO.N,+12v*%
X29317677Y-10840000D03*
%TO.P,A1,9,~{EN}*%
%TO.N,EN*%
X16617677Y-10840000D03*
%TO.P,A1,10,M0*%
%TO.N,unconnected-(A1-M0-Pad10)*%
X16617677Y-13380000D03*
%TO.P,A1,11,M1*%
%TO.N,unconnected-(A1-M1-Pad11)*%
X16617677Y-15920000D03*
%TO.P,A1,12,M2*%
%TO.N,unconnected-(A1-M2-Pad12)*%
X16617677Y-18460000D03*
%TO.P,A1,13,~{RST}*%
%TO.N,+5v*%
X16617677Y-21000000D03*
%TO.P,A1,14,~{SLP}*%
X16617677Y-23540000D03*
%TO.P,A1,15,STEP*%
%TO.N,STEP_1*%
X16617677Y-26080000D03*
%TO.P,A1,16,DIR*%
%TO.N,DIR_1*%
X16617677Y-28620000D03*
%TD*%
D20*
%TO.N,+5v*%
X87500000Y-54500000D03*
X70000000Y-54500000D03*
%TO.N,GND*%
X45500000Y-37500000D03*
X31500000Y-51500000D03*
%TO.N,+6v*%
X43000000Y-37500000D03*
X20560000Y-45060000D03*
%TO.N,CLK*%
X58000000Y-52000000D03*
X60000000Y-55500000D03*
%TD*%
D21*
%TO.N,+12v*%
X50000000Y-13080000D02*
X50000000Y-12500000D01*
X50000000Y-12500000D02*
X52200000Y-10300000D01*
X52200000Y-10300000D02*
X55000000Y-10300000D01*
%TO.N,GND*%
X52500000Y-16500000D02*
X52500000Y-14200000D01*
X52500000Y-14200000D02*
X53860000Y-12840000D01*
X53860000Y-12840000D02*
X55000000Y-12840000D01*
X55000000Y-28080000D02*
X54145786Y-28080000D01*
X54145786Y-28080000D02*
X52500000Y-26434214D01*
X52500000Y-26434214D02*
X52500000Y-16500000D01*
X52500000Y-16500000D02*
X52250000Y-16250000D01*
D22*
%TO.N,STEP_2*%
X65810000Y-34370000D02*
X65810000Y-27090000D01*
X65810000Y-27090000D02*
X67550000Y-25350000D01*
X67550000Y-25350000D02*
X68640000Y-25350000D01*
D21*
%TO.N,GND*%
X73000000Y-12890000D02*
X73000000Y-14304213D01*
X80350000Y-12650000D02*
X81340000Y-12650000D01*
X73000000Y-14304213D02*
X74695787Y-16000000D01*
X74695787Y-16000000D02*
X78800000Y-16000000D01*
X78900000Y-14100000D02*
X80350000Y-12650000D01*
X78800000Y-16000000D02*
X78900000Y-15900000D01*
X78900000Y-15900000D02*
X78900000Y-14100000D01*
D22*
%TO.N,EN*%
X70890000Y-34370000D02*
X70890000Y-11140000D01*
X70890000Y-11140000D02*
X69860000Y-10110000D01*
X69860000Y-10110000D02*
X68640000Y-10110000D01*
X42300000Y-10300000D02*
X43300000Y-10300000D01*
X43300000Y-10300000D02*
X44250000Y-11250000D01*
X44250000Y-11250000D02*
X44250000Y-21250000D01*
X67390000Y-10110000D02*
X68640000Y-10110000D01*
X44250000Y-21250000D02*
X53500000Y-30500000D01*
X53500000Y-30500000D02*
X57680000Y-30500000D01*
X57680000Y-30500000D02*
X66000000Y-22180000D01*
X66000000Y-22180000D02*
X66000000Y-11500000D01*
X66000000Y-11500000D02*
X67390000Y-10110000D01*
D21*
%TO.N,Net-(A1-A2)*%
X35977677Y-23620000D02*
X29397677Y-23620000D01*
X29397677Y-23620000D02*
X29317677Y-23540000D01*
%TO.N,Net-(A1-A1)*%
X29317677Y-21000000D02*
X35897677Y-21000000D01*
X35897677Y-21000000D02*
X35977677Y-21080000D01*
%TO.N,Net-(A1-B1)*%
X35707677Y-18460000D02*
X29317677Y-18460000D01*
%TO.N,Net-(A1-B2)*%
X29317677Y-15920000D02*
X35707677Y-15920000D01*
%TO.N,GND*%
X46500000Y-13080000D02*
X46500000Y-14494213D01*
X46500000Y-14494213D02*
X48005787Y-16000000D01*
X48005787Y-16000000D02*
X52250000Y-16000000D01*
X52250000Y-16000000D02*
X52250000Y-16250000D01*
X81340000Y-27890000D02*
X80030000Y-27890000D01*
X80030000Y-27890000D02*
X77500000Y-25360000D01*
X77500000Y-25360000D02*
X77500000Y-16000000D01*
X26000000Y-16000000D02*
X26000000Y-15750000D01*
X26000000Y-15750000D02*
X28370000Y-13380000D01*
X28370000Y-13380000D02*
X29317677Y-13380000D01*
X21117677Y-13000000D02*
X21117677Y-14414213D01*
X21117677Y-14414213D02*
X22703464Y-16000000D01*
X22703464Y-16000000D02*
X26000000Y-16000000D01*
X29317677Y-28620000D02*
X27870000Y-28620000D01*
X26000000Y-26750000D02*
X26000000Y-16000000D01*
X27870000Y-28620000D02*
X26000000Y-26750000D01*
X9750000Y-11750000D02*
X13500000Y-8000000D01*
X13500000Y-8000000D02*
X18577082Y-8000000D01*
X18577082Y-8000000D02*
X21117677Y-10540595D01*
X21117677Y-10540595D02*
X21117677Y-13000000D01*
D23*
%TO.N,+5v*%
X85910000Y-60330000D02*
X87170000Y-60330000D01*
X87170000Y-60330000D02*
X88000000Y-59500000D01*
X88000000Y-59500000D02*
X88000000Y-55000000D01*
X88000000Y-55000000D02*
X87500000Y-54500000D01*
D21*
%TO.N,GND*%
X81340000Y-27890000D02*
X90500000Y-37050000D01*
X90500000Y-37050000D02*
X90500000Y-60500000D01*
X90500000Y-60500000D02*
X88130000Y-62870000D01*
X88130000Y-62870000D02*
X85910000Y-62870000D01*
%TO.N,+5v*%
X67460000Y-58000000D02*
X67460000Y-56040000D01*
X67460000Y-56040000D02*
X69000000Y-54500000D01*
X69000000Y-54500000D02*
X70000000Y-54500000D01*
D23*
%TO.N,DAT*%
X64920000Y-58000000D02*
X64920000Y-54767500D01*
X64920000Y-54767500D02*
X68350000Y-51337500D01*
X68350000Y-51337500D02*
X68350000Y-49610000D01*
%TO.N,CMD*%
X62380000Y-58000000D02*
X62380000Y-54120000D01*
X62380000Y-54120000D02*
X65810000Y-50690000D01*
X65810000Y-50690000D02*
X65810000Y-49610000D01*
D21*
%TO.N,GND*%
X45500000Y-37500000D02*
X45500000Y-34380000D01*
X45500000Y-34380000D02*
X45490000Y-34370000D01*
%TO.N,+6v*%
X75910000Y-60330000D02*
X74707919Y-60330000D01*
X74707919Y-60330000D02*
X68537919Y-66500000D01*
X68537919Y-66500000D02*
X42000000Y-66500000D01*
X42000000Y-66500000D02*
X20560000Y-45060000D01*
%TO.N,GND*%
X70000000Y-58000000D02*
X70000000Y-60500000D01*
X21250000Y-41250000D02*
X8000000Y-41250000D01*
X70000000Y-60500000D02*
X67000000Y-63500000D01*
X67000000Y-63500000D02*
X43500000Y-63500000D01*
X43500000Y-63500000D02*
X21250000Y-41250000D01*
%TO.N,+5v*%
X16617677Y-21000000D02*
X15000000Y-21000000D01*
X15000000Y-21000000D02*
X14000000Y-22000000D01*
X14000000Y-22000000D02*
X14000000Y-30000000D01*
X14000000Y-30000000D02*
X44750000Y-60750000D01*
X44750000Y-60750000D02*
X66000000Y-60750000D01*
X66000000Y-60750000D02*
X67460000Y-59290000D01*
X67460000Y-59290000D02*
X67460000Y-58000000D01*
D23*
%TO.N,CS*%
X57300000Y-58000000D02*
X57380000Y-57920000D01*
X61390000Y-51360000D02*
X61520000Y-51360000D01*
X57380000Y-57920000D02*
X57380000Y-55370000D01*
X57380000Y-55370000D02*
X61390000Y-51360000D01*
X61520000Y-51360000D02*
X63270000Y-49610000D01*
%TO.N,CLK*%
X60000000Y-55500000D02*
X60000000Y-57840000D01*
X60000000Y-57840000D02*
X59840000Y-58000000D01*
X58000000Y-52000000D02*
X58000000Y-49800000D01*
X58000000Y-49800000D02*
X58190000Y-49610000D01*
D21*
%TO.N,+6v*%
X20560000Y-45060000D02*
X8000000Y-45060000D01*
D23*
X43000000Y-37500000D02*
X43000000Y-34420000D01*
X43000000Y-34420000D02*
X42950000Y-34370000D01*
D22*
%TO.N,STEP_3*%
X42300000Y-25540000D02*
X43540000Y-25540000D01*
X43540000Y-25540000D02*
X44500000Y-26500000D01*
X44500000Y-26500000D02*
X44500000Y-28500000D01*
X44500000Y-28500000D02*
X40000000Y-33000000D01*
X42500000Y-40500000D02*
X73750000Y-40500000D01*
X40000000Y-33000000D02*
X40000000Y-38000000D01*
X40000000Y-38000000D02*
X42500000Y-40500000D01*
X73750000Y-40500000D02*
X78510000Y-35740000D01*
X78510000Y-35740000D02*
X78510000Y-34370000D01*
%TO.N,DIR_3*%
X42300000Y-28080000D02*
X36500000Y-33880000D01*
X36500000Y-33880000D02*
X36500000Y-40000000D01*
X36500000Y-40000000D02*
X40000000Y-43500000D01*
X40000000Y-43500000D02*
X74750000Y-43500000D01*
X74750000Y-43500000D02*
X78510000Y-47260000D01*
X78510000Y-47260000D02*
X78510000Y-49610000D01*
%TO.N,STEP_1*%
X16617677Y-26080000D02*
X35537677Y-45000000D01*
X35537677Y-45000000D02*
X53000000Y-45000000D01*
X53000000Y-45000000D02*
X55650000Y-47650000D01*
X55650000Y-47650000D02*
X55650000Y-49610000D01*
%TO.N,DIR_1*%
X16617677Y-28620000D02*
X34997677Y-47000000D01*
X34997677Y-47000000D02*
X52000000Y-47000000D01*
X52000000Y-47000000D02*
X53110000Y-48110000D01*
X53110000Y-48110000D02*
X53110000Y-49610000D01*
D21*
%TO.N,GND*%
X8000000Y-41250000D02*
X2000000Y-35250000D01*
X2000000Y-35250000D02*
X2000000Y-8000000D01*
X2000000Y-8000000D02*
X8000000Y-2000000D01*
X8000000Y-2000000D02*
X78000000Y-2000000D01*
X78000000Y-2000000D02*
X84000000Y-8000000D01*
X84000000Y-8000000D02*
X84000000Y-12000000D01*
X84000000Y-12000000D02*
X83350000Y-12650000D01*
X83350000Y-12650000D02*
X81340000Y-12650000D01*
X75780000Y-63000000D02*
X75910000Y-62870000D01*
X73000000Y-10250000D02*
X73000000Y-12890000D01*
X46500000Y-9750000D02*
X46500000Y-13080000D01*
X55000000Y-12840000D02*
X60410000Y-12840000D01*
X44500000Y-7750000D02*
X46500000Y-9750000D01*
X75910000Y-62870000D02*
X85910000Y-62870000D01*
X32370000Y-13380000D02*
X38000000Y-7750000D01*
X60410000Y-12840000D02*
X65750000Y-7500000D01*
X38000000Y-7750000D02*
X44500000Y-7750000D01*
X65750000Y-7500000D02*
X70250000Y-7500000D01*
X70250000Y-7500000D02*
X73000000Y-10250000D01*
X29317677Y-13380000D02*
X32370000Y-13380000D01*
%TO.N,+12v*%
X29317677Y-5250000D02*
X29317677Y-10840000D01*
X26777677Y-10840000D02*
X29317677Y-10840000D01*
X76500000Y-9500000D02*
X77110000Y-10110000D01*
X9250000Y-5000000D02*
X72000000Y-5000000D01*
X72000000Y-5000000D02*
X76500000Y-9500000D01*
X24617677Y-13000000D02*
X26777677Y-10840000D01*
X55000000Y-10300000D02*
X55000000Y-5000000D01*
X5940000Y-11750000D02*
X5940000Y-8310000D01*
X5940000Y-8310000D02*
X9250000Y-5000000D01*
X77110000Y-10110000D02*
X81340000Y-10110000D01*
X76500000Y-9500000D02*
X76500000Y-12890000D01*
D22*
%TO.N,EN*%
X39000000Y-11750000D02*
X40450000Y-10300000D01*
X16617677Y-10840000D02*
X17590000Y-10840000D01*
X17590000Y-10840000D02*
X19000000Y-12250000D01*
X27250000Y-31500000D02*
X32750000Y-31500000D01*
X19000000Y-12250000D02*
X19000000Y-23250000D01*
X39000000Y-25250000D02*
X39000000Y-11750000D01*
X40450000Y-10300000D02*
X42300000Y-10300000D01*
X19000000Y-23250000D02*
X27250000Y-31500000D01*
X32750000Y-31500000D02*
X39000000Y-25250000D01*
%TO.N,+5v*%
X41500000Y-23000000D02*
X42300000Y-23000000D01*
X40500000Y-24000000D02*
X41500000Y-23000000D01*
X67492944Y-22810000D02*
X68640000Y-22810000D01*
X42300000Y-23000000D02*
X42300000Y-20460000D01*
X50570000Y-32000000D02*
X58302944Y-32000000D01*
X44000000Y-23000000D02*
X42300000Y-23000000D01*
X50570000Y-34370000D02*
X50570000Y-32000000D01*
X16617677Y-23540000D02*
X16617677Y-21000000D01*
X50570000Y-34370000D02*
X50570000Y-29570000D01*
X50570000Y-29570000D02*
X44000000Y-23000000D01*
X58302944Y-32000000D02*
X67492944Y-22810000D01*
X26077677Y-33000000D02*
X33697056Y-33000000D01*
X33697056Y-33000000D02*
X40500000Y-26197056D01*
X40500000Y-26197056D02*
X40500000Y-24000000D01*
X68640000Y-22810000D02*
X68640000Y-20270000D01*
X16617677Y-23540000D02*
X26077677Y-33000000D01*
D21*
%TO.N,Net-(A2-A2)*%
X81420000Y-22730000D02*
X81340000Y-22810000D01*
X88340000Y-22730000D02*
X81420000Y-22730000D01*
%TO.N,Net-(A2-A1)*%
X88340000Y-20190000D02*
X81420000Y-20190000D01*
X81420000Y-20190000D02*
X81340000Y-20270000D01*
%TO.N,Net-(A2-B1)*%
X81420000Y-17650000D02*
X81340000Y-17730000D01*
X88340000Y-17650000D02*
X81420000Y-17650000D01*
%TO.N,Net-(A2-B2)*%
X81420000Y-15110000D02*
X81340000Y-15190000D01*
X88340000Y-15110000D02*
X81420000Y-15110000D01*
D22*
%TO.N,DIR_2*%
X68350000Y-28180000D02*
X68640000Y-27890000D01*
X68350000Y-34370000D02*
X68350000Y-28180000D01*
D21*
%TO.N,Net-(A3-A2)*%
X55080000Y-23080000D02*
X55000000Y-23000000D01*
X62000000Y-23080000D02*
X55080000Y-23080000D01*
%TO.N,Net-(A3-A1)*%
X55080000Y-20540000D02*
X55000000Y-20460000D01*
X62000000Y-20540000D02*
X55080000Y-20540000D01*
%TO.N,Net-(A3-B1)*%
X62000000Y-18000000D02*
X55080000Y-18000000D01*
X55080000Y-18000000D02*
X55000000Y-17920000D01*
%TO.N,Net-(A3-B2)*%
X62000000Y-15460000D02*
X55080000Y-15460000D01*
X55080000Y-15460000D02*
X55000000Y-15380000D01*
D22*
%TO.N,SIG_1*%
X75910000Y-56160000D02*
X75910000Y-57790000D01*
X70890000Y-51140000D02*
X75910000Y-56160000D01*
X70890000Y-49610000D02*
X70890000Y-51140000D01*
%TO.N,SIG_2*%
X73430000Y-51180000D02*
X77000000Y-54750000D01*
X79250000Y-54750000D02*
X80910000Y-56410000D01*
X77000000Y-54750000D02*
X79250000Y-54750000D01*
X80910000Y-56410000D02*
X80910000Y-57790000D01*
X73430000Y-49610000D02*
X73430000Y-51180000D01*
%TO.N,SIG_3*%
X82500000Y-53000000D02*
X85910000Y-56410000D01*
X75970000Y-49610000D02*
X75970000Y-50970000D01*
X85910000Y-56410000D02*
X85910000Y-57790000D01*
X78000000Y-53000000D02*
X82500000Y-53000000D01*
X75970000Y-50970000D02*
X78000000Y-53000000D01*
D21*
%TO.N,+6v*%
X80910000Y-60330000D02*
X75910000Y-60330000D01*
%TD*%
M02*
