#
## Alias OBJ Material File
# Exported from SketchUp, (c) 2000-2012 Trimble Navigation Limited

newmtl Color_K08
Ka 0.000000 0.000000 0.000000
Kd 0.400000 0.000000 0.400000
Ks 0.330000 0.330000 0.330000

