# Alias OBJ Model File
# Exported from SketchUp, (c) 2000-2012 Trimble Navigation Limited
# File units = millimeters

mtllib systaf.mtl

g Mesh1 Group1 Model

usemtl FrontColor
v 56.1746 33.9269 -70.1916
vt 0 1.47245
vn -2.63678e-016 0 -1
v 56.1746 27.927 -70.1916
vt 0 1.23623
v 40.1746 27.927 -70.1916
vt 0.629921 1.23623
v 40.1746 33.9269 -70.1916
vt 0.629921 1.47245
f 1/1/1 2/2/1 3/3/1 4/4/1 

v 56.1746 33.9269 -26.3323
vt -1.68737 1.47245
vn 1 0 -2.63678e-016
v 56.1746 30.9269 -26.3323
vt -1.68737 1.35434
v 56.1746 30.9269 -42.1333
vt -1.06529 1.35434
v 56.1746 7.44471e-013 -42.1333
vt -1.06529 0.136744
v 56.1746 7.44471e-013 -52.1333
vt -0.671588 0.136744
v 56.1746 27.927 -52.1333
vt -0.671588 1.23623
vt 0.0393701 1.23623
vt 0.0393701 1.47245
f 5/5/2 6/6/2 7/7/2 8/8/2 9/9/2 10/10/2 2/11/2 1/12/2 

vt -1.67294 1.47245
vn 0.991445 0 0.130526
v 55.902 33.9269 -24.2618
vt -1.75516 1.47245
vn 0.965926 0 0.258819
v 55.902 30.9269 -24.2618
vt -1.75516 1.35434
vt -1.67294 1.35434
f 5/13/3 11/14/4 12/15/4 6/16/3 

vt 0 1.68737
vn 0 1 -0
v 50.9459 33.9269 -48.7333
vt 0.205855 0.805447
vt 0.010732 1.76889
f 5/17/5 13/18/5 11/19/5

vt 0 -0.0393701
f 1/20/5 13/18/5 5/17/5

vt 0.629921 -0.0393701
f 13/18/5 1/20/5 4/21/5

v 48.1746 33.9269 -50.3333
vt 0.314961 0.742455
f 13/18/5 4/21/5 14/22/5

v 45.4033 33.9269 -48.7333
vt 0.424066 0.805447
f 14/22/5 4/21/5 15/23/5

v 45.4033 33.9269 -45.5333
vt 0.424066 0.931431
f 15/23/5 4/21/5 16/24/5

v 44.1746 33.9269 -19.4041
vt 0.472441 1.96014
f 16/24/5 4/21/5 17/25/5

v 42.5177 33.9269 -20.6755
vt 0.537671 1.91008
f 17/25/5 4/21/5 18/26/5

v 41.2464 33.9269 -22.3323
vt 0.587725 1.84485
f 18/26/5 4/21/5 19/27/5

v 40.4472 33.9269 -24.2618
vt 0.619189 1.76889
f 19/27/5 4/21/5 20/28/5

v 40.1746 33.9269 -26.3323
vt 0.629921 1.68737
f 20/28/5 4/21/5 21/29/5

vt -0.0393701 1.47245
vn -1 0 2.63678e-016
vt -0.0393701 1.23623
v 40.1746 27.927 -64.1333
vt 0.199147 1.23623
v 40.1746 27.927 -52.1333
vt 0.671588 1.23623
v 40.1746 4.92704 -52.1333
vt 0.671588 0.330722
v 40.1746 4.92704 -70.1916
vt -0.0393701 0.330722
v 40.1746 0 -70.1916
vt -0.0393701 0.136744
v 40.1746 7.44471e-013 -42.1333
vt 1.06529 0.136744
v 40.1746 30.9269 -42.1333
vt 1.06529 1.35434
v 40.1746 30.9269 -26.3323
vt 1.68737 1.35434
vt 1.68737 1.47245
f 4/30/6 3/31/6 22/32/6 23/33/6 24/34/6 25/35/6 26/36/6 27/37/6 28/38/6 29/39/6 21/40/6 

vt -7.26279e-017 -0.0393701
vn -5.87493e-017 -1 -6.37527e-017
vt -7.26279e-017 0.671588
vt -0.629921 0.671588
vt -0.629921 0.199147
vt -0.629921 -0.0393701
f 2/41/7 10/42/7 23/43/7 22/44/7 3/45/7 

vn 1.30047e-014 5.51214e-015 -1
vt -8.9109e-015 1.23623
vt -8.9109e-015 0.136744
v 54.1746 7.44471e-013 -52.1333
vt 0.0787402 0.136744
v 54.1746 4.92704 -52.1333
vt 0.0787402 0.330722
vt 0.629921 0.330722
f 23/3/8 10/46/8 9/47/8 30/48/8 31/49/8 24/50/8 

vt 1.06079e-015 0.671588
vn 7.75749e-015 -1 2.72143e-014
v 49.9066 7.44471e-013 -46.1333
vt -0.24677 0.907809
vt -0.0787402 0.671588
f 9/51/9 32/52/9 30/53/9

v 49.5888 7.44471e-013 -45.719
vt -0.259283 0.924116
f 9/51/9 33/54/9 32/52/9

vt 1.06079e-015 1.06529
f 8/55/9 33/54/9 9/51/9

v 49.1746 7.44471e-013 -45.4012
vt -0.275591 0.93663
f 33/54/9 8/55/9 34/56/9

v 48.6922 7.44471e-013 -45.2014
vt -0.294581 0.944496
f 34/56/9 8/55/9 35/57/9

vt -0.629921 1.06529
f 35/57/9 8/55/9 27/58/9

vt 0 1.35434
vn 2.63678e-016 0 1
vt -0.629921 1.35434
vt -0.629921 0.136744
vt 0 0.136744
f 7/59/10 28/60/10 27/61/10 8/62/10 

vt 0 1.06529
vn 0 -1 0
vt -0.010732 1.76889
f 7/63/11 12/64/11 28/58/11

f 12/64/11 7/63/11 6/17/11

v 55.1028 30.9269 -22.3323
vt -0.0421967 1.84485
f 28/58/11 12/64/11 36/65/11

vt -1.63835 1.47245
v 55.1028 33.9269 -22.3323
vt -1.72057 1.47245
vn 0.866025 0 0.5
vt -1.72057 1.35434
vt -1.63835 1.35434
f 11/66/4 37/67/12 36/68/12 12/69/4 

vt 0.0421967 1.84485
f 11/19/5 13/18/5 37/70/5

v 53.8314 33.9269 -20.6755
vt 0.0922498 1.91008
f 37/70/5 13/18/5 38/71/5

v 52.1746 33.9269 -19.4041
vt 0.15748 1.96014
f 38/71/5 13/18/5 39/72/5

v 50.9459 33.9269 -45.5333
vt 0.205855 0.931431
f 40/73/5 39/72/5 13/18/5

v 50.6746 33.9269 -26.3323
vt 0.216535 1.68737
f 41/74/5 39/72/5 40/73/5

v 50.2451 33.9269 -18.6049
vt 0.233443 1.9916
f 39/72/5 41/74/5 42/75/5

v 50.5894 33.9269 -25.6853
vt 0.219889 1.71285
f 42/75/5 41/74/5 43/76/5

vt 1.7269 1.47245
vn -0.965926 0 -0.258819
vt 1.7012 1.47245
vn -1 0 -4.25753e-015
v 50.6746 30.9269 -26.3323
vt 1.7012 1.35434
v 50.5894 30.9269 -25.6853
vt 1.7269 1.35434
f 43/77/13 41/78/14 44/79/14 45/80/13 

vt 1.64467 1.47245
v 50.5894 33.9269 -26.9794
vt 1.61898 1.47245
vn -0.965926 0 0.258819
v 50.5894 30.9269 -26.9794
vt 1.61898 1.35434
vt 1.64467 1.35434
f 41/81/14 46/82/15 47/83/15 44/84/14 

vt 0.219889 1.6619
f 40/73/5 46/85/5 41/74/5

v 48.1746 33.9269 -43.9333
vt 0.314961 0.994423
f 46/85/5 40/73/5 48/86/5

vt 0.769975 1.47245
vn -0.5 0 -0.866025
vt 0.643991 1.47245
v 50.9459 13.9269 -45.5333
vt 0.643991 0.685046
v 48.1746 13.9269 -43.9333
vt 0.769975 0.685046
f 48/87/16 40/88/16 49/89/16 50/90/16 

vt 0.931431 1.47245
vt 0.805447 1.47245
v 50.9459 13.9269 -48.7333
vt 0.805447 0.685046
vt 0.931431 0.685046
f 40/91/6 13/92/6 51/93/6 49/94/6 

vt 0.224448 1.47245
vn -0.5 0 0.866025
vt 0.0984633 1.47245
v 48.1746 13.9269 -50.3333
vt 0.0984633 0.685046
vt 0.224448 0.685046
f 13/95/17 14/96/17 52/97/17 51/98/17 

vt -0.643991 1.47245
vn 0.5 0 0.866025
vt -0.769975 1.47245
v 45.4033 13.9269 -48.7333
vt -0.769975 0.685046
vt -0.643991 0.685046
f 14/99/18 15/100/18 53/101/18 52/102/18 

vt -0.805447 1.47245
vt -0.931431 1.47245
v 45.4033 13.9269 -45.5333
vt -0.931431 0.685046
vt -0.805447 0.685046
f 15/103/2 16/104/2 54/105/2 53/106/2 

vt -0.0984633 1.47245
vn 0.5 0 -0.866025
vt -0.224448 1.47245
vt -0.224448 0.685046
vt -0.0984633 0.685046
f 16/107/19 48/108/19 50/109/19 54/110/19 

v 48.1746 33.9269 -28.8323
vt 0.314961 1.58895
f 55/111/5 48/86/5 16/24/5

v 48.8216 33.9269 -28.7471
vt 0.289486 1.5923
f 56/112/5 48/86/5 55/111/5

v 49.4246 33.9269 -28.4974
vt 0.265748 1.60213
f 57/113/5 48/86/5 56/112/5

v 49.9423 33.9269 -28.1001
vt 0.245364 1.61778
f 58/114/5 48/86/5 57/113/5

v 50.3396 33.9269 -27.5823
vt 0.229722 1.63816
f 59/115/5 48/86/5 58/114/5

f 46/85/5 48/86/5 59/115/5

vt 1.45125 1.47245
vt 1.42555 1.47245
vn -0.866025 0 0.5
v 50.3396 30.9269 -27.5823
vt 1.42555 1.35434
vt 1.45125 1.35434
f 46/116/15 59/117/20 60/118/20 47/119/15 

vt 1.15979 1.47245
vt 1.1341 1.47245
vn -0.707107 0 0.707107
v 49.9423 30.9269 -28.1001
vt 1.1341 1.35434
vt 1.15979 1.35434
f 59/120/20 58/121/21 61/122/21 60/123/20 

vt 0.79018 1.47245
vt 0.764486 1.47245
v 49.4246 30.9269 -28.4974
vt 0.764486 1.35434
vt 0.79018 1.35434
f 58/124/21 57/125/17 62/126/17 61/127/21 

vt 0.367591 1.47245
vt 0.341897 1.47245
vn -0.258819 0 0.965926
v 48.8216 30.9269 -28.7471
vt 0.341897 1.35434
vt 0.367591 1.35434
f 57/128/17 56/129/22 63/130/22 62/131/17 

vt -0.0791726 1.47245
vt -0.104867 1.47245
vn 2.53128e-015 0 1
v 48.1746 30.9269 -28.8323
vt -0.104867 1.35434
vt -0.0791726 1.35434
f 56/132/22 55/133/23 64/134/23 63/135/22 

vt -0.519665 1.47245
v 47.5275 33.9269 -28.7471
vt -0.54536 1.47245
vn 0.258819 0 0.965926
v 47.5275 30.9269 -28.7471
vt -0.54536 1.35434
vt -0.519665 1.35434
f 55/136/23 65/137/24 66/138/24 64/139/23 

vt 0.340435 1.5923
f 55/111/5 16/24/5 65/140/5

v 46.9246 33.9269 -28.4974
vt 0.364173 1.60213
f 65/140/5 16/24/5 67/141/5

v 46.4068 33.9269 -28.1001
vt 0.384558 1.61778
f 67/141/5 16/24/5 68/142/5

v 46.0095 33.9269 -27.5823
vt 0.400199 1.63816
f 68/142/5 16/24/5 69/143/5

v 45.7598 33.9269 -26.9794
vt 0.410032 1.6619
f 69/143/5 16/24/5 70/144/5

v 45.6746 33.9269 -26.3323
vt 0.413386 1.68737
f 70/144/5 16/24/5 71/145/5

f 17/25/5 71/145/5 16/24/5

v 45.7598 33.9269 -25.6853
vt 0.410032 1.71285
f 17/25/5 72/146/5 71/145/5

v 46.0095 33.9269 -25.0823
vt 0.400199 1.73659
f 17/25/5 73/147/5 72/146/5

v 46.104 33.9269 -18.6049
vt 0.396478 1.9916
f 74/148/5 73/147/5 17/25/5

v 46.4068 33.9269 -24.5646
vt 0.384558 1.75697
f 74/148/5 75/149/5 73/147/5

v 46.9246 33.9269 -24.1673
vt 0.364173 1.77261
f 74/148/5 76/150/5 75/149/5

v 47.5275 33.9269 -23.9175
vt 0.340435 1.78244
f 74/148/5 77/151/5 76/150/5

v 48.1746 33.9269 -18.3323
vt 0.314961 2.00233
f 78/152/5 77/151/5 74/148/5

v 48.1746 33.9269 -23.8323
vt 0.314961 1.7858
f 78/152/5 79/153/5 77/151/5

v 48.8216 33.9269 -23.9175
vt 0.289486 1.78244
f 78/152/5 80/154/5 79/153/5

v 49.4246 33.9269 -24.1673
vt 0.265748 1.77261
f 78/152/5 81/155/5 80/154/5

v 49.9423 33.9269 -24.5646
vt 0.245364 1.75697
f 78/152/5 82/156/5 81/155/5

f 42/75/5 82/156/5 78/152/5

v 50.3396 33.9269 -25.0823
vt 0.229722 1.73659
f 42/75/5 83/157/5 82/156/5

f 42/75/5 43/76/5 83/157/5

vt 1.69231 1.47245
vn -0.866025 0 -0.5
vt 1.66661 1.47245
vt 1.66661 1.35434
v 50.3396 30.9269 -25.0823
vt 1.69231 1.35434
f 83/158/25 43/159/13 45/160/13 84/161/25 

vt -0.219889 1.71285
v 50.2451 30.9269 -18.6049
vt -0.233443 1.9916
vt -0.229722 1.73659
f 45/162/11 85/163/11 84/164/11

vt -0.216535 1.68737
f 44/165/11 85/163/11 45/162/11

v 52.1746 30.9269 -19.4041
vt -0.15748 1.96014
f 85/163/11 44/165/11 86/166/11

vt -0.219889 1.6619
f 47/167/11 86/166/11 44/165/11

v 53.8314 30.9269 -20.6755
vt -0.0922498 1.91008
f 47/167/11 87/168/11 86/166/11

vt -0.229722 1.63816
f 60/169/11 87/168/11 47/167/11

f 60/169/11 36/65/11 87/168/11

f 28/58/11 36/65/11 60/169/11

vt -0.245364 1.61778
f 28/58/11 60/169/11 61/170/11

vt -0.265748 1.60213
f 28/58/11 61/170/11 62/171/11

vt -0.289486 1.5923
f 28/58/11 62/171/11 63/172/11

vt -0.314961 1.58895
f 28/58/11 63/172/11 64/173/11

vt -0.340435 1.5923
f 28/58/11 64/173/11 66/174/11

v 46.9246 30.9269 -28.4974
vt -0.364173 1.60213
f 28/58/11 66/174/11 88/175/11

vt -0.923868 1.47245
vt -0.949563 1.47245
vt -0.949563 1.35434
vt -0.923868 1.35434
f 65/176/24 67/177/18 88/178/18 66/179/24 

vt -1.26424 1.47245
vt -1.28993 1.47245
vn 0.707107 0 0.707107
v 46.4068 30.9269 -28.1001
vt -1.28993 1.35434
vt -1.26424 1.35434
f 67/180/18 68/181/26 89/182/26 88/183/18 

vt -1.51757 1.47245
vt -1.54327 1.47245
v 46.0095 30.9269 -27.5823
vt -1.54327 1.35434
vt -1.51757 1.35434
f 68/184/26 69/185/12 90/186/12 89/187/26 

vt -1.66661 1.47245
vt -1.69231 1.47245
v 45.7598 30.9269 -26.9794
vt -1.69231 1.35434
vt -1.66661 1.35434
f 69/188/12 70/189/4 91/190/4 90/191/12 

vt -1.7012 1.47245
vt -1.7269 1.47245
vn 1 0 4.25753e-015
v 45.6746 30.9269 -26.3323
vt -1.7269 1.35434
vt -1.7012 1.35434
f 70/192/4 71/193/27 92/194/27 91/195/4 

vt -1.61898 1.47245
vt -1.64467 1.47245
vn 0.965926 0 -0.258819
v 45.7598 30.9269 -25.6853
vt -1.64467 1.35434
vt -1.61898 1.35434
f 71/196/27 72/197/28 93/198/28 92/199/27 

vt -1.42555 1.47245
vt -1.45125 1.47245
vn 0.866025 0 -0.5
v 46.0095 30.9269 -25.0823
vt -1.45125 1.35434
vt -1.42555 1.35434
f 72/200/28 73/201/29 94/202/29 93/203/28 

vt -1.1341 1.47245
vt -1.15979 1.47245
vn 0.707107 0 -0.707107
v 46.4068 30.9269 -24.5646
vt -1.15979 1.35434
vt -1.1341 1.35434
f 73/204/29 75/205/30 95/206/30 94/207/29 

vt -0.764486 1.47245
vt -0.79018 1.47245
v 46.9246 30.9269 -24.1673
vt -0.79018 1.35434
vt -0.764486 1.35434
f 75/208/30 76/209/19 96/210/19 95/211/30 

vt -0.341897 1.47245
vt -0.367591 1.47245
vn 0.258819 0 -0.965926
v 47.5275 30.9269 -23.9175
vt -0.367591 1.35434
vt -0.341897 1.35434
f 76/212/19 77/213/31 97/214/31 96/215/19 

vt 0.104867 1.47245
vt 0.0791726 1.47245
vn -2.53128e-015 0 -1
v 48.1746 30.9269 -23.8323
vt 0.0791726 1.35434
vt 0.104867 1.35434
f 77/216/31 79/217/32 98/218/32 97/219/31 

vt 0.54536 1.47245
vt 0.519665 1.47245
vn -0.258819 0 -0.965926
v 48.8216 30.9269 -23.9175
vt 0.519665 1.35434
vt 0.54536 1.35434
f 79/220/32 80/221/33 99/222/33 98/223/32 

vt 0.949563 1.47245
vt 0.923868 1.47245
v 49.4246 30.9269 -24.1673
vt 0.923868 1.35434
vt 0.949563 1.35434
f 80/224/33 81/225/16 100/226/16 99/227/33 

vt 1.28993 1.47245
vt 1.26424 1.47245
vn -0.707107 0 -0.707107
v 49.9423 30.9269 -24.5646
vt 1.26424 1.35434
vt 1.28993 1.35434
f 81/228/16 82/229/34 101/230/34 100/231/16 

vt 1.54327 1.47245
vt 1.51757 1.47245
vt 1.51757 1.35434
vt 1.54327 1.35434
f 82/232/34 83/233/25 84/234/25 101/235/34 

vt -0.245364 1.75697
f 84/164/11 85/163/11 101/236/11

v 48.1746 30.9269 -18.3323
vt -0.314961 2.00233
f 101/236/11 85/163/11 102/237/11

vt -0.491402 1.47245
vt -0.573623 1.47245
vt -0.573623 1.35434
vt -0.491402 1.35434
f 42/238/24 78/239/10 102/240/10 85/241/24 

vt -0.0509091 1.47245
vt -0.13313 1.47245
v 46.104 30.9269 -18.6049
vt -0.13313 1.35434
vt -0.0509091 1.35434
f 78/242/10 74/243/22 103/244/22 102/245/10 

vt 0.395855 1.47245
vt 0.313634 1.47245
v 44.1746 30.9269 -19.4041
vt 0.313634 1.35434
vt 0.395855 1.35434
f 74/246/22 17/247/17 104/248/17 103/249/22 

vt 0.818443 1.47245
vt 0.736222 1.47245
v 42.5177 30.9269 -20.6755
vt 0.736222 1.35434
vt 0.818443 1.35434
f 17/250/17 18/251/21 105/252/21 104/253/17 

vt 1.18806 1.47245
vt 1.10584 1.47245
v 41.2464 30.9269 -22.3323
vt 1.10584 1.35434
vt 1.18806 1.35434
f 18/254/21 19/255/20 106/256/20 105/257/21 

vt 1.47951 1.47245
vt 1.39729 1.47245
v 40.4472 30.9269 -24.2618
vt 1.39729 1.35434
vt 1.47951 1.35434
f 19/258/20 20/259/15 107/260/15 106/261/20 

vt 1.67294 1.47245
vt 1.59072 1.47245
vn -0.991445 0 0.130526
vt 1.59072 1.35434
vt 1.67294 1.35434
f 20/262/15 21/263/35 29/264/35 107/265/15 

vt -0.619189 1.76889
vt -0.629921 1.68737
f 28/58/11 107/266/11 29/267/11

vt -0.587725 1.84485
f 28/58/11 106/268/11 107/266/11

vt -0.537671 1.91008
f 28/58/11 105/269/11 106/268/11

vt -0.472441 1.96014
f 28/58/11 104/270/11 105/269/11

vt -0.413386 1.68737
f 28/58/11 92/271/11 104/270/11

vt -0.410032 1.6619
f 28/58/11 91/272/11 92/271/11

vt -0.400199 1.63816
f 28/58/11 90/273/11 91/272/11

vt -0.384558 1.61778
f 28/58/11 89/274/11 90/273/11

f 28/58/11 88/175/11 89/274/11

vt -0.410032 1.71285
f 93/275/11 104/270/11 92/271/11

vt -0.400199 1.73659
f 94/276/11 104/270/11 93/275/11

vt -0.396478 1.9916
f 94/276/11 103/277/11 104/270/11

vt -0.384558 1.75697
f 95/278/11 103/277/11 94/276/11

vt -0.364173 1.77261
f 96/279/11 103/277/11 95/278/11

vt -0.340435 1.78244
f 97/280/11 103/277/11 96/279/11

f 97/280/11 102/237/11 103/277/11

vt -0.314961 1.7858
f 98/281/11 102/237/11 97/280/11

vt -0.289486 1.78244
f 99/282/11 102/237/11 98/281/11

vt -0.265748 1.77261
f 100/283/11 102/237/11 99/282/11

f 101/236/11 102/237/11 100/283/11

vt -0.895605 1.47245
vt -0.977826 1.47245
vt -0.977826 1.35434
vt -0.895605 1.35434
f 39/284/18 42/285/24 85/286/24 86/287/18 

vt -1.23597 1.47245
vt -1.31819 1.47245
vt -1.31819 1.35434
vt -1.23597 1.35434
f 38/288/26 39/289/18 86/290/18 87/291/26 

vt -1.48931 1.47245
vt -1.57153 1.47245
vt -1.57153 1.35434
vt -1.48931 1.35434
f 37/292/12 38/293/26 87/294/26 36/295/12 

v 47.6569 13.9269 -45.2014
vt 0.33534 0.944496
f 50/86/5 108/296/5 54/24/5

v 48.1746 13.9269 -45.1333
vt 0.314961 0.947179
f 50/86/5 109/297/5 108/296/5

v 48.6922 13.9269 -45.2014
vt 0.294581 0.944496
f 50/86/5 110/298/5 109/297/5

v 49.1746 13.9269 -45.4012
vt 0.275591 0.93663
f 50/86/5 111/299/5 110/298/5

v 49.5888 13.9269 -45.719
vt 0.259283 0.924116
f 50/86/5 112/300/5 111/299/5

f 49/73/5 112/300/5 50/86/5

v 49.9066 13.9269 -46.1333
vt 0.24677 0.907809
f 112/300/5 49/73/5 113/301/5

v 50.1064 13.9269 -46.6156
vt 0.238903 0.888818
f 113/301/5 49/73/5 114/302/5

v 50.1746 13.9269 -47.1333
vt 0.23622 0.868439
f 114/302/5 49/73/5 115/303/5

v 50.1064 13.9269 -47.6509
vt 0.238903 0.848059
f 49/73/5 116/304/5 115/303/5

f 51/18/5 116/304/5 49/73/5

v 49.9066 13.9269 -48.1333
vt 0.24677 0.829069
f 116/304/5 51/18/5 117/305/5

v 49.5888 13.9269 -48.5475
vt 0.259283 0.812761
f 117/305/5 51/18/5 118/306/5

f 118/306/5 51/18/5 52/22/5

v 49.1746 13.9269 -48.8653
vt 0.275591 0.800248
f 118/306/5 52/22/5 119/307/5

v 48.6922 13.9269 -49.0651
vt 0.294581 0.792382
f 119/307/5 52/22/5 120/308/5

v 48.1746 13.9269 -49.1333
vt 0.314961 0.789699
f 120/308/5 52/22/5 121/309/5

v 47.6569 13.9269 -49.0651
vt 0.33534 0.792382
f 121/309/5 52/22/5 122/310/5

f 122/310/5 52/22/5 53/23/5

v 47.1746 13.9269 -48.8653
vt 0.354331 0.800248
f 122/310/5 53/23/5 123/311/5

v 46.7604 13.9269 -48.5475
vt 0.370638 0.812761
f 123/311/5 53/23/5 124/312/5

v 46.4425 13.9269 -48.1333
vt 0.383152 0.829069
f 124/312/5 53/23/5 125/313/5

v 46.2427 13.9269 -47.6509
vt 0.391018 0.848059
f 125/313/5 53/23/5 126/314/5

v 46.1746 13.9269 -47.1333
vt 0.393701 0.868439
f 126/314/5 53/23/5 127/315/5

f 54/24/5 127/315/5 53/23/5

v 46.2427 13.9269 -46.6156
vt 0.391018 0.888818
f 54/24/5 128/316/5 127/315/5

v 46.4425 13.9269 -46.1333
vt 0.383152 0.907809
f 54/24/5 129/317/5 128/316/5

v 46.4853 13.9269 -46.0775
vt 0.381466 0.910005
f 54/24/5 130/318/5 129/317/5

v 46.7604 13.9269 -45.719
vt 0.370638 0.924116
f 54/24/5 131/319/5 130/318/5

v 47.1746 13.9269 -45.4012
vt 0.354331 0.93663
f 54/24/5 132/320/5 131/319/5

f 54/24/5 108/296/5 132/320/5

v 47.6569 7.44471e-013 -45.2014
vt -0.0516291 0.136744
v 47.1746 7.44471e-013 -45.4012
vt -0.0310738 0.136744
vt -0.0310738 0.685046
vt -0.0516291 0.685046
f 133/321/31 134/322/19 132/323/19 108/324/31 

vt -0.33534 0.944496
vt -0.354331 0.93663
f 133/325/9 27/58/9 134/326/9

v 48.1746 7.44471e-013 -45.1333
vt -0.314961 0.947179
f 135/327/9 27/58/9 133/325/9

f 35/57/9 27/58/9 135/327/9

vt 0.415342 0.136744
vt 0.435898 0.136744
vt 0.435898 0.685046
vt 0.415342 0.685046
f 35/328/33 135/329/1 109/330/1 110/331/33 

vt 0.188634 0.136744
vt 0.20919 0.136744
vt 0.20919 0.685046
vt 0.188634 0.685046
f 135/332/1 133/333/31 108/334/31 109/335/1 

vt 0.613045 0.136744
vt 0.6336 0.136744
vt 0.6336 0.685046
vt 0.613045 0.685046
f 34/336/16 35/337/33 110/338/33 111/339/16 

vt 0.768269 0.136744
vt 0.788825 0.136744
vt 0.788825 0.685046
vt 0.768269 0.685046
f 33/340/34 34/341/16 111/342/16 112/343/34 

vt 0.870437 0.136744
vt 0.890992 0.136744
vt 0.890992 0.685046
vt 0.870437 0.685046
f 32/344/25 33/345/34 112/346/34 113/347/25 

v 50.1064 7.44471e-013 -46.6156
vt 0.912585 0.136744
vt 0.933141 0.136744
vt 0.933141 0.685046
vt 0.912585 0.685046
f 136/348/13 32/349/25 113/350/25 114/351/13 

vt -0.238903 0.888818
f 30/53/9 32/52/9 136/352/9

v 50.1746 7.44471e-013 -47.1333
vt -0.23622 0.868439
f 30/53/9 136/352/9 137/353/9

vt 0.891842 0.136744
vn -1 0 -2.11526e-014
vt 0.912397 0.136744
vt 0.912397 0.685046
vt 0.891842 0.685046
f 137/354/36 136/355/13 114/356/13 115/357/36 

v 50.1064 7.44471e-013 -47.6509
vt 0.809621 0.136744
vt 0.830176 0.136744
vt 0.830176 0.685046
vt 0.809621 0.685046
f 138/358/15 137/359/36 115/360/36 116/361/15 

v 49.1746 1.09979e-013 -66.6916
vt -0.275591 0.0984252
vt -0.238903 0.848059
f 139/362/9 137/353/9 138/363/9

f 139/362/9 30/53/9 137/353/9

v 49.1064 8.7419e-014 -67.2092
vt -0.278274 0.0780457
f 140/364/9 30/53/9 139/362/9

v 54.1746 0 -70.1916
vt -0.0787402 -0.0393701
f 140/364/9 141/365/9 30/53/9

v 49.0443 8.1779e-014 -67.3593
vt -0.280721 0.0721362
f 142/366/9 141/365/9 140/364/9

v 48.9066 6.48592e-014 -67.6916
vt -0.28614 0.0590551
f 143/367/9 141/365/9 142/366/9

v 48.5888 4.79394e-014 -68.1058
vt -0.298653 0.0427475
f 144/368/9 141/365/9 143/367/9

v 48.1746 3.66596e-014 -68.4237
vt -0.314961 0.0302342
f 145/369/9 141/365/9 144/368/9

v 47.6922 2.53797e-014 -68.6235
vt -0.333951 0.022368
f 146/370/9 141/365/9 145/369/9

f 141/365/9 146/370/9 26/45/9

v 47.1746 2.53797e-014 -68.6916
vt -0.354331 0.019685
f 26/45/9 146/370/9 147/371/9

v 47.6922 4.92704 -68.6235
vt -0.328175 0.330722
vn -0.258819 3.99386e-014 0.965926
v 47.1746 4.92704 -68.6916
vt -0.34873 0.330722
vn 2.16659e-014 4.13626e-014 1
vt -0.34873 0.136744
vt -0.328175 0.136744
f 148/372/37 149/373/38 147/374/38 146/375/37 

vt 0.333951 0.022368
vn 5.22236e-028 1 -4.12513e-014
vt 0.354331 0.019685
f 148/376/39 25/21/39 149/377/39

v 54.1746 4.92704 -70.1916
vt 0.0787402 -0.0393701
f 148/376/39 150/378/39 25/21/39

v 48.1746 4.92704 -68.4237
vt 0.314961 0.0302342
f 151/379/39 150/378/39 148/376/39

v 48.5888 4.92704 -68.1058
vt 0.298653 0.0427475
f 152/380/39 150/378/39 151/379/39

v 48.9066 4.92704 -67.6916
vt 0.28614 0.0590551
f 153/381/39 150/378/39 152/380/39

v 49.0443 4.92704 -67.3593
vt 0.280721 0.0721362
f 154/382/39 150/378/39 153/381/39

v 49.1064 4.92704 -67.2092
vt 0.278274 0.0780457
f 155/383/39 150/378/39 154/382/39

vt 0.0787402 0.671588
f 150/378/39 155/383/39 31/384/39

v 49.1746 4.92704 -66.6916
vt 0.275591 0.0984252
f 31/384/39 155/383/39 156/385/39

vt 0.0616114 0.330722
vn -1 -5.6427e-017 2.16659e-014
vt 0.0410561 0.330722
vn -0.965926 1.06509e-014 0.258819
vt 0.0410561 0.136744
vt 0.0616114 0.136744
f 156/386/40 155/387/41 140/388/41 139/389/40 

vt -0.0343858 0.330722
vt -0.0407823 0.330722
vn -0.92388 1.57766e-014 0.382683
vt -0.0407823 0.136744
vt -0.0343858 0.136744
f 155/390/41 154/391/42 142/392/42 140/393/41 

vt -0.0549411 0.330722
vn -0.866025 2.06324e-014 0.5
vt -0.0549411 0.136744
f 154/391/42 153/394/43 143/395/43 142/392/42 

vt -0.127339 0.330722
vt -0.147895 0.330722
vn -0.707107 2.92078e-014 0.707107
vt -0.147895 0.136744
vt -0.127339 0.136744
f 153/396/43 152/397/44 144/398/44 143/399/43 

vt -0.210914 0.330722
vt -0.23147 0.330722
vn -0.5 3.57928e-014 0.866025
vt -0.23147 0.136744
vt -0.210914 0.136744
f 152/400/44 151/401/45 145/402/45 144/403/44 

vt -0.279416 0.330722
vt -0.299971 0.330722
vt -0.299971 0.136744
vt -0.279416 0.136744
f 151/404/45 148/405/37 146/406/37 145/407/45 

v 49.1064 4.92704 -66.174
vt 0.15411 0.330722
vn -0.965926 -1.07599e-014 -0.258819
vt 0.133555 0.330722
vt 0.133555 0.136744
v 49.1064 1.26898e-013 -66.174
vt 0.15411 0.136744
f 157/408/46 156/409/40 139/410/40 158/411/46 

vt 0.278274 0.118805
f 157/412/39 31/384/39 156/385/39

v 48.9066 4.92704 -65.6916
vt 0.28614 0.137795
f 159/413/39 31/384/39 157/412/39

vt 0.629921 0.671588
f 31/384/39 159/413/39 24/414/39

v 48.5888 4.92704 -65.2774
vt 0.298653 0.154103
f 24/414/39 159/413/39 160/415/39

vt 0.304066 0.330722
vn -0.707107 -2.92876e-014 -0.707107
vt 0.283511 0.330722
vn -0.866025 -2.07301e-014 -0.5
v 48.9066 1.49458e-013 -65.6916
vt 0.283511 0.136744
v 48.5888 1.66378e-013 -65.2774
vt 0.304066 0.136744
f 160/416/47 159/417/48 161/418/48 162/419/47 

vt 0.236807 0.330722
vt 0.216252 0.330722
vt 0.216252 0.136744
vt 0.236807 0.136744
f 159/420/48 157/421/46 158/422/46 161/423/48 

vt -0.278274 0.118805
v 48.6922 7.44471e-013 -49.0651
vt -0.294581 0.792382
vt -0.28614 0.137795
f 158/424/9 163/425/9 161/426/9

v 49.1746 7.44471e-013 -48.8653
vt -0.275591 0.800248
f 158/424/9 164/427/9 163/425/9

f 139/362/9 164/427/9 158/424/9

v 49.5888 7.44471e-013 -48.5475
vt -0.259283 0.812761
f 164/427/9 139/362/9 165/428/9

v 49.8638 7.44471e-013 -48.189
vt -0.248455 0.826873
f 139/362/9 166/429/9 165/428/9

v 49.9066 7.44471e-013 -48.1333
vt -0.24677 0.829069
f 139/362/9 167/430/9 166/429/9

f 139/362/9 138/363/9 167/430/9

vt 0.671525 0.136744
vt 0.69208 0.136744
vt 0.69208 0.685046
vt 0.671525 0.685046
f 167/431/20 138/432/15 116/433/15 117/434/20 

vt 0.504752 0.136744
vn -0.793353 0 0.608761
vt 0.507521 0.136744
vt 0.507521 0.685046
v 49.8638 13.9269 -48.189
vt 0.504752 0.685046
f 166/435/49 167/436/20 117/437/20 168/438/49 

vt 0.248455 0.826873
f 117/305/5 118/306/5 168/439/5

vt 0.486965 0.136744
vt 0.486965 0.685046
f 165/440/21 166/435/49 168/438/49 118/441/21 

vt 0.268519 0.136744
vt 0.289075 0.136744
vt 0.289075 0.685046
vt 0.268519 0.685046
f 164/442/17 165/443/21 118/444/21 119/445/17 

vt 0.0310738 0.136744
vt 0.0516291 0.136744
vt 0.0516291 0.685046
vt 0.0310738 0.685046
f 163/446/22 164/447/17 119/448/17 120/449/22 

v 48.1746 7.44471e-013 -49.1333
vt -0.20919 0.136744
vt -0.188634 0.136744
vt -0.188634 0.685046
vt -0.20919 0.685046
f 169/450/10 163/451/22 120/452/22 121/453/10 

vt -0.298653 0.154103
vt -0.314961 0.789699
f 162/454/9 163/425/9 169/455/9

f 161/426/9 163/425/9 162/454/9

v 48.1746 1.77658e-013 -64.9596
vt -0.314961 0.166616
f 162/454/9 169/455/9 170/456/9

v 47.6922 1.88938e-013 -64.7598
vt -0.333951 0.174482
f 170/456/9 169/455/9 171/457/9

v 47.6569 7.44471e-013 -49.0651
vt -0.33534 0.792382
f 171/457/9 169/455/9 172/458/9

vt -0.435898 0.136744
vt -0.415342 0.136744
vt -0.415342 0.685046
vt -0.435898 0.685046
f 172/459/24 169/460/10 121/461/10 122/462/24 

v 47.1746 7.44471e-013 -48.8653
vt -0.6336 0.136744
vt -0.613045 0.136744
vt -0.613045 0.685046
vt -0.6336 0.685046
f 173/463/18 172/464/24 122/465/24 123/466/18 

v 47.1746 1.88938e-013 -64.6916
vt -0.354331 0.177165
vt -0.354331 0.800248
f 174/467/9 172/458/9 173/468/9

f 171/457/9 172/458/9 174/467/9

v 47.1746 4.92704 -64.6916
vt 0.374424 0.330722
vn -2.16659e-014 -4.13626e-014 -1
v 47.6922 4.92704 -64.7598
vt 0.353869 0.330722
vn -0.258819 -3.99678e-014 -0.965926
vt 0.353869 0.136744
vt 0.374424 0.136744
f 175/469/50 176/470/51 171/471/51 174/472/50 

vt 0.333951 0.174482
vt 0.354331 0.177165
f 24/414/39 176/473/39 175/474/39

v 48.1746 4.92704 -64.9596
vt 0.314961 0.166616
f 24/414/39 177/475/39 176/473/39

f 24/414/39 160/415/39 177/475/39

vt 0.351305 0.330722
vn -0.5 -3.58492e-014 -0.866025
vt 0.330749 0.330722
vt 0.330749 0.136744
vt 0.351305 0.136744
f 177/476/52 160/477/47 162/478/47 170/479/52 

vt 0.375302 0.330722
vt 0.354747 0.330722
vt 0.354747 0.136744
vt 0.375302 0.136744
f 176/480/51 177/481/52 170/482/52 171/483/51 

v 46.6569 4.92704 -64.7598
vt 0.37471 0.174482
f 24/414/39 175/474/39 178/484/39

vt 0.34873 0.330722
vn 0.258819 -3.99386e-014 -0.965926
vt 0.328175 0.330722
vt 0.328175 0.136744
v 46.6569 1.88938e-013 -64.7598
vt 0.34873 0.136744
f 178/485/53 175/486/50 174/487/50 179/488/53 

vt -0.37471 0.174482
f 174/467/9 173/468/9 179/489/9

v 46.7604 7.44471e-013 -48.5475
vt -0.370638 0.812761
f 179/489/9 173/468/9 180/490/9

vt -0.788825 0.136744
vt -0.768269 0.136744
vt -0.768269 0.685046
vt -0.788825 0.685046
f 180/491/26 173/492/18 123/493/18 124/494/26 

v 46.4425 7.44471e-013 -48.1333
vt -0.890992 0.136744
vt -0.870437 0.136744
vt -0.870437 0.685046
vt -0.890992 0.685046
f 181/495/12 180/496/26 124/497/26 125/498/12 

vt -0.383152 0.829069
f 179/489/9 180/490/9 181/499/9

v 46.1746 1.77658e-013 -64.9596
vt -0.393701 0.166616
f 179/489/9 181/499/9 182/500/9

v 46.2427 7.44471e-013 -47.6509
vt -0.391018 0.848059
f 182/500/9 181/499/9 183/501/9

vt -0.933141 0.136744
vt -0.912585 0.136744
vt -0.912585 0.685046
vt -0.933141 0.685046
f 183/502/4 181/503/12 125/504/12 126/505/4 

v 46.1746 7.44471e-013 -47.1333
vt -0.912397 0.136744
vn 1 0 2.11526e-014
vt -0.891842 0.136744
vt -0.891842 0.685046
vt -0.912397 0.685046
f 184/506/54 183/507/4 126/508/4 127/509/54 

vt -0.393701 0.868439
f 182/500/9 183/501/9 184/510/9

v 45.7604 1.66378e-013 -65.2774
vt -0.410008 0.154103
f 182/500/9 184/510/9 185/511/9

f 184/510/9 27/58/9 185/511/9

v 46.2427 7.44471e-013 -46.6156
vt -0.391018 0.888818
f 186/512/9 27/58/9 184/510/9

v 46.4425 7.44471e-013 -46.1333
vt -0.383152 0.907809
f 187/513/9 27/58/9 186/512/9

v 46.4853 7.44471e-013 -46.0775
vt -0.381466 0.910005
f 188/514/9 27/58/9 187/513/9

v 46.7604 7.44471e-013 -45.719
vt -0.370638 0.924116
f 189/515/9 27/58/9 188/514/9

f 134/326/9 27/58/9 189/515/9

vt -0.289075 0.136744
vt -0.268519 0.136744
vt -0.268519 0.685046
vt -0.289075 0.685046
f 134/516/19 189/517/30 131/518/30 132/519/19 

vt -0.507521 0.136744
vt -0.489733 0.136744
vn 0.793353 0 -0.608761
vt -0.489733 0.685046
vt -0.507521 0.685046
f 189/520/30 188/521/55 130/522/55 131/523/30 

vt -0.486965 0.136744
vt -0.486965 0.685046
f 188/521/55 187/524/29 129/525/29 130/522/55 

vt -0.69208 0.136744
vt -0.671525 0.136744
vt -0.671525 0.685046
vt -0.69208 0.685046
f 187/526/29 186/527/28 128/528/28 129/529/29 

vt -0.830176 0.136744
vt -0.809621 0.136744
vt -0.809621 0.685046
vt -0.830176 0.685046
f 186/530/28 184/531/54 127/532/54 128/533/28 

v 45.4425 1.49458e-013 -65.6916
vt -0.422522 0.137795
f 185/511/9 27/58/9 190/534/9

v 45.3049 1.32538e-013 -66.0239
vt -0.42794 0.124714
f 190/534/9 27/58/9 191/535/9

v 45.2427 1.26898e-013 -66.174
vt -0.430388 0.118805
f 191/535/9 27/58/9 192/536/9

v 45.1746 1.09979e-013 -66.6916
vt -0.433071 0.0984252
f 192/536/9 27/58/9 193/537/9

f 193/537/9 27/58/9 26/45/9

v 45.2427 8.7419e-014 -67.2092
vt -0.430388 0.0780457
f 26/45/9 194/538/9 193/537/9

v 45.4425 6.48592e-014 -67.6916
vt -0.422522 0.0590551
f 26/45/9 195/539/9 194/538/9

v 45.7604 4.79394e-014 -68.1058
vt -0.410008 0.0427475
f 26/45/9 196/540/9 195/539/9

v 46.1746 3.66596e-014 -68.4237
vt -0.393701 0.0302342
f 26/45/9 197/541/9 196/540/9

v 46.6569 2.53797e-014 -68.6235
vt -0.37471 0.022368
f 26/45/9 198/542/9 197/541/9

f 26/45/9 147/371/9 198/542/9

vt -0.353869 0.330722
v 46.6569 4.92704 -68.6235
vt -0.374424 0.330722
vn 0.258819 3.99678e-014 0.965926
vt -0.374424 0.136744
vt -0.353869 0.136744
f 149/543/38 199/544/56 198/545/56 147/546/38 

vt 0.37471 0.022368
f 149/377/39 25/21/39 199/547/39

v 46.1746 4.92704 -68.4237
vt 0.393701 0.0302342
f 199/547/39 25/21/39 200/548/39

v 45.7604 4.92704 -68.1058
vt 0.410008 0.0427475
f 200/548/39 25/21/39 201/549/39

v 45.4425 4.92704 -67.6916
vt 0.422522 0.0590551
f 201/549/39 25/21/39 202/550/39

v 45.2427 4.92704 -67.2092
vt 0.430388 0.0780457
f 202/550/39 25/21/39 203/551/39

v 45.1746 4.92704 -66.6916
vt 0.433071 0.0984252
f 203/551/39 25/21/39 204/552/39

f 24/414/39 204/552/39 25/21/39

v 45.2427 4.92704 -66.174
vt 0.430388 0.118805
f 24/414/39 205/553/39 204/552/39

v 45.3049 4.92704 -66.0239
vt 0.42794 0.124714
f 24/414/39 206/554/39 205/553/39

v 45.4425 4.92704 -65.6916
vt 0.422522 0.137795
f 24/414/39 207/555/39 206/554/39

v 45.7604 4.92704 -65.2774
vt 0.410008 0.154103
f 24/414/39 208/556/39 207/555/39

v 46.1746 4.92704 -64.9596
vt 0.393701 0.166616
f 24/414/39 209/557/39 208/556/39

f 24/414/39 178/484/39 209/557/39

vt 0.299971 0.330722
vn 0.5 -3.57928e-014 -0.866025
vt 0.279416 0.330722
vt 0.279416 0.136744
vt 0.299971 0.136744
f 209/558/57 178/559/53 179/560/53 182/561/57 

vt 0.23147 0.330722
vn 0.707107 -2.92078e-014 -0.707107
vt 0.210914 0.330722
vt 0.210914 0.136744
vt 0.23147 0.136744
f 208/562/58 209/563/57 182/564/57 185/565/58 

vt 0.147895 0.330722
vn 0.866025 -2.06324e-014 -0.5
vt 0.127339 0.330722
vt 0.127339 0.136744
vt 0.147895 0.136744
f 207/566/59 208/567/58 185/568/58 190/569/59 

vt 0.0485446 0.330722
vn 0.92388 -1.57766e-014 -0.382683
vt 0.0343858 0.330722
vt 0.0343858 0.136744
vt 0.0485446 0.136744
f 206/570/60 207/571/59 190/572/59 191/573/60 

vt 0.0549411 0.330722
vn 0.965926 -1.06509e-014 -0.258819
vt 0.0549411 0.136744
f 205/574/61 206/570/60 191/573/60 192/575/61 

vt -0.0410561 0.330722
vn 1 5.6427e-017 -2.16659e-014
vt -0.0616114 0.330722
vt -0.0616114 0.136744
vt -0.0410561 0.136744
f 204/576/62 205/577/61 192/578/61 193/579/62 

vt -0.133555 0.330722
vn 0.965926 1.07599e-014 0.258819
vt -0.15411 0.330722
vt -0.15411 0.136744
vt -0.133555 0.136744
f 203/580/63 204/581/62 193/582/62 194/583/63 

vt -0.216252 0.330722
vn 0.866025 2.07301e-014 0.5
vt -0.236807 0.330722
vt -0.236807 0.136744
vt -0.216252 0.136744
f 202/584/64 203/585/63 194/586/63 195/587/64 

vt -0.283511 0.330722
vn 0.707107 2.92876e-014 0.707107
vt -0.304066 0.330722
vt -0.304066 0.136744
vt -0.283511 0.136744
f 201/588/65 202/589/64 195/590/64 196/591/65 

vt -0.330749 0.330722
vn 0.5 3.58492e-014 0.866025
vt -0.351305 0.330722
vt -0.351305 0.136744
vt -0.330749 0.136744
f 200/592/66 201/593/65 196/594/65 197/595/66 

vt -0.354747 0.330722
vt -0.375302 0.330722
vt -0.375302 0.136744
vt -0.354747 0.136744
f 199/596/56 200/597/66 197/598/66 198/599/56 

vt -0.671588 0.330722
vn 1 7.37826e-029 7.79337e-015
vt 0.0393701 0.136744
vt 0.0393701 0.330722
f 31/600/67 30/9/67 141/601/67 150/602/67 

vt 0.629921 0.136744
vn 7.79337e-015 -4.12089e-014 -1
f 26/603/68 25/50/68 150/49/68 141/48/68 

