# Alias OBJ Model File
# Exported from SketchUp, (c) 2000-2012 Trimble Navigation Limited
# File units = millimeters

mtllib Servo1_crep.mtl

g Mesh1 G_4_pleco_2_1 Model

usemtl FrontColor
v 101.049 5.51764 -25.3572
vt -3.41283 3.96952
vn 0 0 1
v 100.98 15 -25.3572
vt -3.41014 3.5962
v 100.98 5 -25.3572
vt -3.41014 3.9899
f 1/1/1 2/2/1 3/3/1

v 101.049 14.4824 -25.3572
vt -3.41283 3.61658
f 2/2/1 1/1/1 4/4/1

v 101.248 6 -25.3572
vt -3.42069 3.95053
f 4/4/1 1/1/1 5/5/1

vt 2.34077 0
vn 0.866025 -0.5 -0
vt 2.36132 0
vn 0.965926 -0.258819 -0
v 101.049 5.51764 -29.3572
vt 2.36132 0.15748
v 101.248 6 -29.3572
vt 2.34077 0.15748
f 5/6/2 1/7/3 6/8/3 7/9/2 

vt 3.49009 0
vt 3.51065 0
vn 1 1.39975e-015 -0
v 100.98 5 -29.3572
vt 3.51065 0.15748
vt 3.49009 0.15748
f 1/10/3 3/11/4 8/12/4 6/13/3 

vt 4.40088 0
v 101.049 4.48236 -25.3572
vt 4.42143 0
vn 0.965926 0.258819 -0
v 101.049 4.48236 -29.3572
vt 4.42143 0.15748
vt 4.40088 0.15748
f 3/14/4 9/15/5 10/16/5 8/17/4 

v 76.4804 10 -25.3572
vt -2.44558 3.79305
vt -3.41283 4.01028
f 11/18/1 9/19/1 3/3/1

v 101.248 4 -25.3572
vt -3.42069 4.02927
f 11/18/1 12/20/1 9/19/1

v 101.566 3.58579 -25.3572
vt -3.43321 4.04557
f 11/18/1 13/21/1 12/20/1

v 101.98 3.26795 -25.3572
vt -3.44951 4.05809
f 11/18/1 14/22/1 13/21/1

v 107.98 0 -25.3572
vt -3.68573 4.18675
f 11/18/1 15/23/1 14/22/1

v 76.3271 8.83531 -25.3572
vt -2.43954 3.8389
f 16/24/1 15/23/1 11/18/1

v 75.8775 7.75 -25.3572
vt -2.42184 3.88163
f 17/25/1 15/23/1 16/24/1

v 75.1624 6.81802 -25.3572
vt -2.39369 3.91832
f 18/26/1 15/23/1 17/25/1

v 74.2304 6.10289 -25.3572
vt -2.35699 3.94648
f 19/27/1 15/23/1 18/26/1

v 73.1451 5.65333 -25.3572
vt -2.31427 3.96417
f 20/28/1 15/23/1 19/27/1

v 71.9804 5.5 -25.3572
vt -2.26841 3.97021
f 21/29/1 15/23/1 20/28/1

v 71.9804 0 -25.3572
vt -2.26841 4.18675
f 21/29/1 22/30/1 15/23/1

v 70.8157 5.65333 -25.3572
vt -2.22256 3.96417
f 23/31/1 22/30/1 21/29/1

v 69.7304 6.10289 -25.3572
vt -2.17983 3.94648
f 24/32/1 22/30/1 23/31/1

v 69.3922 0.340742 -25.3572
vt -2.16651 4.17333
f 24/32/1 25/33/1 22/30/1

v 68.7984 6.81802 -25.3572
vt -2.14314 3.91832
f 26/34/1 25/33/1 24/32/1

v 68.0833 7.75 -25.3572
vt -2.11498 3.88163
f 27/35/1 25/33/1 26/34/1

v 67.6337 8.83531 -25.3572
vt -2.09728 3.8389
f 28/36/1 25/33/1 27/35/1

v 66.9804 1.33975 -25.3572
vt -2.07156 4.134
f 28/36/1 29/37/1 25/33/1

v 67.4804 10 -25.3572
vt -2.09125 3.79305
f 30/38/1 29/37/1 28/36/1

v 66.9804 18.6603 -25.3572
vt -2.07156 3.45209
f 31/39/1 29/37/1 30/38/1

v 64.9093 17.0711 -25.3572
vt -1.99002 3.51466
f 32/40/1 29/37/1 31/39/1

v 64.9093 2.92893 -25.3572
vt -1.99002 4.07143
f 32/40/1 33/41/1 29/37/1

v 63.3201 15 -25.3572
vt -1.92746 3.5962
f 34/42/1 33/41/1 32/40/1

v 63.3201 5 -25.3572
vt -1.92746 3.9899
f 34/42/1 35/43/1 33/41/1

v 62.3211 12.5882 -25.3572
vt -1.88813 3.69115
f 36/44/1 35/43/1 34/42/1

v 62.3211 7.41181 -25.3572
vt -1.88813 3.89494
f 36/44/1 37/45/1 35/43/1

v 61.9804 10 -25.3572
vt -1.87471 3.79305
f 37/45/1 36/44/1 38/46/1

vt -3.5159 0
vn -1 0 -0
vt -3.41312 0
vn -0.965926 0.258819 -0
v 62.3211 12.5882 -27.3572
vt -3.41312 0.0787402
v 61.9804 10 -27.3572
vt -3.5159 0.0787402
f 38/47/6 36/48/7 39/49/7 40/50/6 

vt -2.68762 0
vt -2.58485 0
vn -0.866025 0.5 -0
v 63.3201 15 -27.3572
vt -2.58485 0.0787402
vt -2.68762 0.0787402
f 36/51/7 34/52/8 41/53/8 39/54/7 

vt -1.67969 0
vt -1.57692 0
vn -0.707107 0.707107 -0
v 64.9093 17.0711 -27.3572
vt -1.57692 0.0787402
vt -1.67969 0.0787402
f 34/55/8 32/56/9 42/57/9 41/58/8 

vt -0.560797 0
vt -0.45802 0
vn -0.5 0.866025 -0
v 66.9804 18.6603 -27.3572
vt -0.45802 0.0787402
vt -0.560797 0.0787402
f 32/59/9 31/60/10 43/61/10 42/62/9 

vt 0.592815 0
v 69.3922 19.6593 -25.3572
vt 0.695591 0
vn -0.258819 0.965926 -0
v 69.3922 19.6593 -27.3572
vt 0.695591 0.0787402
vt 0.592815 0.0787402
f 31/63/10 44/64/11 45/65/11 43/66/10 

v 67.6337 11.1647 -25.3572
vt -2.09728 3.74719
vt -2.16651 3.41276
f 31/39/1 46/67/1 44/68/1

f 46/67/1 31/39/1 30/38/1

vt 3.44138 0
vt 3.48763 0
vn 1 0 -0
v 67.4804 10 -27.3572
vt 3.48763 0.0787402
v 67.6337 11.1647 -27.3572
vt 3.44138 0.0787402
f 46/69/3 30/70/12 47/71/12 48/72/3 

vt 4.03356 0
vt 4.07981 0
v 67.6337 8.83531 -27.3572
vt 4.07981 0.0787402
vt 4.03356 0.0787402
f 30/73/12 28/74/5 49/75/5 47/76/12 

vt 4.34928 0
vt 4.39553 0
vn 0.866025 0.5 -0
v 68.0833 7.75 -27.3572
vt 4.39553 0.0787402
vt 4.34928 0.0787402
f 28/77/5 27/78/13 50/79/13 49/80/5 

vt 4.36702 0
vt 4.41327 0
vn 0.707107 0.707107 -0
v 68.7984 6.81802 -27.3572
vt 4.41327 0.0787402
vt 4.36702 0.0787402
f 27/81/13 26/82/14 51/83/14 50/84/13 

vt 4.08559 0
vt 4.13184 0
vn 0.5 0.866025 -0
v 69.7304 6.10289 -27.3572
vt 4.13184 0.0787402
vt 4.08559 0.0787402
f 26/85/14 24/86/15 52/87/15 51/88/14 

vt 3.52415 0
vt 3.5704 0
vn 0.258819 0.965926 -0
v 70.8157 5.65333 -27.3572
vt 3.5704 0.0787402
vt 3.52415 0.0787402
f 24/89/15 23/90/16 53/91/16 52/92/15 

vt 2.72097 0
vt 2.76722 0
vn 0 1 -0
v 71.9804 5.5 -27.3572
vt 2.76722 0.0787402
vt 2.72097 0.0787402
f 23/93/16 21/94/17 54/95/17 53/96/16 

vt 1.73079 0
vt 1.77704 0
v 73.1451 5.65333 -27.3572
vt 1.77704 0.0787402
vt 1.73079 0.0787402
f 21/97/17 20/98/11 55/99/11 54/100/17 

vt 0.621078 0
vt 0.667328 0
v 74.2304 6.10289 -27.3572
vt 0.667328 0.0787402
vt 0.621078 0.0787402
f 20/101/11 19/102/10 56/103/10 55/104/11 

vt -0.532533 0
vt -0.486284 0
v 75.1624 6.81802 -27.3572
vt -0.486284 0.0787402
vt -0.532533 0.0787402
f 19/105/10 18/106/9 57/107/9 56/108/10 

vt -1.65143 0
vt -1.60518 0
v 75.8775 7.75 -27.3572
vt -1.60518 0.0787402
vt -1.65143 0.0787402
f 18/109/9 17/110/8 58/111/8 57/112/9 

vt -2.65936 0
vt -2.61311 0
v 76.3271 8.83531 -27.3572
vt -2.61311 0.0787402
vt -2.65936 0.0787402
f 17/113/8 16/114/7 59/115/7 58/116/8 

vt -3.48763 0
vt -3.44138 0
v 76.4804 10 -27.3572
vt -3.44138 0.0787402
vt -3.48763 0.0787402
f 16/117/7 11/118/6 60/119/6 59/120/7 

vt -4.07981 0
v 76.3271 11.1647 -25.3572
vt -4.03356 0
vn -0.965926 -0.258819 -0
v 76.3271 11.1647 -27.3572
vt -4.03356 0.0787402
vt -4.07981 0.0787402
f 11/121/6 61/122/18 62/123/18 60/124/6 

v 107.98 20 -25.3572
vt -3.68573 3.39935
vt -2.43954 3.74719
f 63/125/1 61/126/1 11/18/1

v 75.8775 12.25 -25.3572
vt -2.42184 3.70446
f 63/125/1 64/127/1 61/126/1

v 75.1624 13.182 -25.3572
vt -2.39369 3.66777
f 63/125/1 65/128/1 64/127/1

v 74.2304 13.8971 -25.3572
vt -2.35699 3.63962
f 63/125/1 66/129/1 65/128/1

v 73.1451 14.3467 -25.3572
vt -2.31427 3.62192
f 63/125/1 67/130/1 66/129/1

v 71.9804 20 -25.3572
vt -2.26841 3.39935
f 68/131/1 67/130/1 63/125/1

v 71.9804 14.5 -25.3572
vt -2.26841 3.61588
f 68/131/1 69/132/1 67/130/1

v 70.8157 14.3467 -25.3572
vt -2.22256 3.62192
f 68/131/1 70/133/1 69/132/1

v 69.7304 13.8971 -25.3572
vt -2.17983 3.63962
f 68/131/1 71/134/1 70/133/1

f 44/68/1 71/134/1 68/131/1

v 68.7984 13.182 -25.3572
vt -2.14314 3.66777
f 44/68/1 72/135/1 71/134/1

v 68.0833 12.25 -25.3572
vt -2.11498 3.70446
f 44/68/1 73/136/1 72/135/1

f 44/68/1 46/67/1 73/136/1

vt 2.61311 0
vt 2.65936 0
vt 2.65936 0.0787402
v 68.0833 12.25 -27.3572
vt 2.61311 0.0787402
f 73/137/2 46/138/3 48/139/3 74/140/2 

vt 2.09728 3.74719
vn 0 0 -1
vt 2.16651 3.41276
vt 2.11498 3.70446
f 48/141/19 45/142/19 74/143/19

vt 2.07156 3.45209
f 48/141/19 43/144/19 45/142/19

vt 2.09125 3.79305
f 47/145/19 43/144/19 48/141/19

v 66.9804 1.33975 -27.3572
vt 2.07156 4.134
f 75/146/19 43/144/19 47/145/19

v 64.9093 2.92893 -27.3572
vt 1.99002 4.07143
f 76/147/19 43/144/19 75/146/19

vt 1.99002 3.51466
f 76/147/19 42/148/19 43/144/19

v 63.3201 5 -27.3572
vt 1.92746 3.9899
f 77/149/19 42/148/19 76/147/19

vt 1.92746 3.5962
f 77/149/19 41/150/19 42/148/19

v 62.3211 7.41181 -27.3572
vt 1.88813 3.89494
f 78/151/19 41/150/19 77/149/19

vt 1.88813 3.69115
f 78/151/19 39/152/19 41/150/19

vt 1.87471 3.79305
f 39/152/19 78/151/19 40/153/19

vt -4.10807 0
vt -4.0053 0
vt -4.0053 0.0787402
vt -4.10807 0.0787402
f 37/154/18 38/155/6 40/156/6 78/157/18 

vt -4.42379 0
vn -0.866025 -0.5 -0
vt -4.32101 0
vt -4.32101 0.0787402
vt -4.42379 0.0787402
f 35/158/20 37/159/18 78/160/18 77/161/20 

vt -4.44154 0
vn -0.707107 -0.707107 -0
vt -4.33876 0
vt -4.33876 0.0787402
vt -4.44154 0.0787402
f 33/162/21 35/163/20 77/164/20 76/165/21 

vt -4.1601 0
vn -0.5 -0.866025 -0
vt -4.05732 0
vt -4.05732 0.0787402
vt -4.1601 0.0787402
f 29/166/22 33/167/21 76/168/21 75/169/22 

vt -3.59866 0
vn -0.258819 -0.965926 -0
vt -3.49589 0
vt -3.49589 0.0787402
v 69.3922 0.340742 -27.3572
vt -3.59866 0.0787402
f 25/170/23 29/171/22 75/172/22 79/173/23 

vt 2.09728 3.8389
vt 2.16651 4.17333
f 75/146/19 49/174/19 79/175/19

f 49/174/19 75/146/19 47/145/19

vt 2.11498 3.88163
f 79/175/19 49/174/19 50/176/19

vt 2.14314 3.91832
f 79/175/19 50/176/19 51/177/19

vt 2.17983 3.94648
f 79/175/19 51/177/19 52/178/19

v 71.9804 0 -27.3572
vt 2.26841 4.18675
f 79/175/19 52/178/19 80/179/19

vt 2.22256 3.96417
f 80/179/19 52/178/19 53/180/19

vt 2.26841 3.97021
f 80/179/19 53/180/19 54/181/19

vt 2.31427 3.96417
f 80/179/19 54/181/19 55/182/19

v 76.3367 0 -27.3572
vt 2.43992 4.18675
f 80/179/19 55/182/19 81/183/19

vt 2.35699 3.94648
f 81/183/19 55/182/19 56/184/19

vt 2.39369 3.91832
f 81/183/19 56/184/19 57/185/19

vt 2.42184 3.88163
f 81/183/19 57/185/19 58/186/19

vt 2.43954 3.8389
f 81/183/19 58/186/19 59/187/19

vt 2.44558 3.79305
f 81/183/19 59/187/19 60/188/19

v 77.4804 0.473721 -27.3572
vt 2.48495 4.1681
f 81/183/19 60/188/19 82/189/19

v 77.4804 19.5263 -27.3572
vt 2.48495 3.418
f 82/189/19 60/188/19 83/190/19

v 76.3367 20 -27.3572
vt 2.43992 3.39935
f 60/188/19 84/191/19 83/190/19

vt 2.43954 3.74719
f 62/192/19 84/191/19 60/188/19

v 75.8775 12.25 -27.3572
vt 2.42184 3.70446
f 85/193/19 84/191/19 62/192/19

v 75.1624 13.182 -27.3572
vt 2.39369 3.66777
f 86/194/19 84/191/19 85/193/19

v 74.2304 13.8971 -27.3572
vt 2.35699 3.63962
f 87/195/19 84/191/19 86/194/19

v 73.1451 14.3467 -27.3572
vt 2.31427 3.62192
f 88/196/19 84/191/19 87/195/19

v 71.9804 14.5 -27.3572
vt 2.26841 3.61588
f 89/197/19 84/191/19 88/196/19

v 71.9804 20 -27.3572
vt 2.26841 3.39935
f 89/197/19 90/198/19 84/191/19

v 70.8157 14.3467 -27.3572
vt 2.22256 3.62192
f 91/199/19 90/198/19 89/197/19

v 69.7304 13.8971 -27.3572
vt 2.17983 3.63962
f 92/200/19 90/198/19 91/199/19

f 92/200/19 45/142/19 90/198/19

v 68.7984 13.182 -27.3572
vt 2.14314 3.66777
f 93/201/19 45/142/19 92/200/19

f 74/143/19 45/142/19 93/201/19

vt 1.60518 0
vn 0.707107 -0.707107 -0
vt 1.65143 0
vt 1.65143 0.0787402
vt 1.60518 0.0787402
f 72/202/24 73/203/2 74/204/2 93/205/24 

vt 0.486284 0
vn 0.5 -0.866025 -0
vt 0.532533 0
vt 0.532533 0.0787402
vt 0.486284 0.0787402
f 71/206/25 72/207/24 93/208/24 92/209/25 

vt -0.667328 0
vn 0.258819 -0.965926 -0
vt -0.621078 0
vt -0.621078 0.0787402
vt -0.667328 0.0787402
f 70/210/26 71/211/25 92/212/25 91/213/26 

vt -1.77704 0
vn 0 -1 -0
vt -1.73079 0
vt -1.73079 0.0787402
vt -1.77704 0.0787402
f 69/214/27 70/215/26 91/216/26 89/217/27 

vt -2.76722 0
vt -2.72097 0
vt -2.72097 0.0787402
vt -2.76722 0.0787402
f 67/218/23 69/219/27 89/220/27 88/221/23 

vt -3.5704 0
vt -3.52415 0
vt -3.52415 0.0787402
vt -3.5704 0.0787402
f 66/222/22 67/223/23 88/224/23 87/225/22 

vt -4.13184 0
vt -4.08559 0
vt -4.08559 0.0787402
vt -4.13184 0.0787402
f 65/226/21 66/227/22 87/228/22 86/229/21 

vt -4.41327 0
vt -4.36702 0
vt -4.36702 0.0787402
vt -4.41327 0.0787402
f 64/230/20 65/231/21 86/232/21 85/233/20 

vt -4.39553 0
vt -4.34928 0
vt -4.34928 0.0787402
vt -4.39553 0.0787402
f 61/234/18 64/235/20 85/236/20 62/237/18 

vt 1.70252 0
vt 1.8053 0
vn -0.130526 0.991445 -0
vt 1.8053 0.0787402
vt 1.70252 0.0787402
f 44/238/11 68/239/28 90/240/28 45/241/11 

vt 2.26841 0
vt 3.68573 0
v 107.98 20 -29.3572
vt 3.68573 0.15748
v 76.3367 20 -29.3572
vt 2.43992 0.15748
vt 2.43992 0.0787402
vt 2.26841 0.0787402
f 68/242/17 63/243/17 94/244/17 95/245/17 84/246/17 90/247/17 

vt 3.39935 0
vt 4.18675 0
v 107.98 0 -29.3572
vt 4.18675 0.15748
vt 3.39935 0.15748
f 63/248/12 15/249/12 96/250/12 94/251/12 

v 104.98 5 -25.3572
vt -3.56762 3.9899
f 63/125/1 97/252/1 15/23/1

v 104.98 15 -25.3572
vt -3.56762 3.5962
f 63/125/1 98/253/1 97/252/1

v 104.912 15.5176 -25.3572
vt -3.56494 3.57582
f 63/125/1 99/254/1 98/253/1

v 104.712 16 -25.3572
vt -3.55708 3.55683
f 63/125/1 100/255/1 99/254/1

v 104.395 16.4142 -25.3572
vt -3.54456 3.54052
f 63/125/1 101/256/1 100/255/1

v 103.98 16.7321 -25.3572
vt -3.52825 3.528
f 63/125/1 102/257/1 101/256/1

v 103.498 16.9319 -25.3572
vt -3.50926 3.52014
f 63/125/1 103/258/1 102/257/1

v 102.98 17 -25.3572
vt -3.48888 3.51746
f 63/125/1 104/259/1 103/258/1

v 102.463 16.9319 -25.3572
vt -3.4685 3.52014
f 63/125/1 105/260/1 104/259/1

v 101.98 16.7321 -25.3572
vt -3.44951 3.528
f 63/125/1 106/261/1 105/260/1

f 63/125/1 11/18/1 106/261/1

v 101.566 16.4142 -25.3572
vt -3.43321 3.54052
f 106/261/1 11/18/1 107/262/1

v 101.248 16 -25.3572
vt -3.42069 3.55683
f 107/262/1 11/18/1 108/263/1

v 101.049 15.5176 -25.3572
vt -3.41283 3.57582
f 108/263/1 11/18/1 109/264/1

f 109/264/1 11/18/1 2/2/1

f 2/2/1 11/18/1 3/3/1

vt 3.09976 0
vt 3.12032 0
vn 1 -1.39975e-015 -0
v 100.98 15 -29.3572
vt 3.12032 0.15748
v 101.049 15.5176 -29.3572
vt 3.09976 0.15748
f 109/265/3 2/266/29 110/267/29 111/268/3 

vt 4.01054 0
vt 4.0311 0
v 101.049 14.4824 -29.3572
vt 4.0311 0.15748
vt 4.01054 0.15748
f 2/269/29 4/270/5 112/271/5 110/272/29 

vt 4.64731 0
v 101.248 14 -25.3572
vt 4.66787 0
v 101.248 14 -29.3572
vt 4.66787 0.15748
vt 4.64731 0.15748
f 4/273/5 113/274/13 114/275/13 112/276/5 

vt -3.42069 3.63557
f 4/4/1 5/5/1 113/277/1

v 101.566 6.41421 -25.3572
vt -3.43321 3.93422
f 113/277/1 5/5/1 115/278/1

vt 1.03122 0
vt 1.05178 0
vt 1.05178 0.15748
v 101.566 6.41421 -29.3572
vt 1.03122 0.15748
f 115/279/24 5/280/2 7/281/2 116/282/24 

vt 3.42069 3.95053
v 101.566 13.5858 -29.3572
vt 3.43321 3.65187
vt 3.43321 3.93422
f 7/283/19 117/284/19 116/285/19

vt 3.42069 3.63557
f 7/283/19 114/286/19 117/284/19

vt 3.41283 3.96952
f 6/287/19 114/286/19 7/283/19

vt 3.41283 3.61658
f 6/287/19 112/288/19 114/286/19

vt 3.41014 3.9899
f 8/289/19 112/288/19 6/287/19

vt 3.41014 3.5962
f 112/288/19 8/289/19 110/290/19

v 82.9804 10 -29.3572
vt 2.70148 3.79305
f 8/289/19 118/291/19 110/290/19

vt 3.41283 4.01028
f 10/292/19 118/291/19 8/289/19

v 101.248 4 -29.3572
vt 3.42069 4.02927
f 119/293/19 118/291/19 10/292/19

v 101.566 3.58579 -29.3572
vt 3.43321 4.04557
f 120/294/19 118/291/19 119/293/19

v 101.98 3.26795 -29.3572
vt 3.44951 4.05809
f 121/295/19 118/291/19 120/294/19

vt 3.68573 4.18675
f 96/296/19 118/291/19 121/295/19

v 82.6056 7.15299 -29.3572
vt 2.68673 3.90513
f 96/296/19 122/297/19 118/291/19

v 81.5067 4.5 -29.3572
vt 2.64346 4.00958
f 96/296/19 123/298/19 122/297/19

v 79.7586 2.22183 -29.3572
vt 2.57464 4.09927
f 96/296/19 124/299/19 123/298/19

v 77.4804 0.473721 -29.3572
f 96/296/19 125/189/19 124/299/19

v 76.3367 0 -29.3572
f 125/189/19 96/296/19 126/183/19

vt -3.68573 0
vt -2.26841 0
vt -2.26841 0.0787402
vt -2.43992 0.0787402
vt -2.43992 0.15748
vt -3.68573 0.15748
f 15/300/27 22/301/27 80/302/27 81/303/27 126/304/27 96/305/27 

vt -2.79549 0
vn -0.130526 -0.991445 -0
vt -2.69271 0
vt -2.69271 0.0787402
vt -2.79549 0.0787402
f 22/306/30 25/307/23 79/308/23 80/309/30 

vt 0.70073 0.15748
vt 0.651994 0.15748
vn -0.382683 0.92388 -0
vt 0.651994 0.0787402
vt 0.70073 0.0787402
f 125/310/10 126/311/31 81/312/31 82/313/10 

vt -0.452881 0.15748
vt -0.565935 0.15748
vt -0.565935 0.0787402
v 79.7586 2.22183 -27.3572
vt -0.452881 0.0787402
f 124/314/9 125/315/10 82/316/10 127/317/9 

v 79.7586 17.7782 -27.3572
vt 2.57464 3.48682
f 82/189/19 128/318/19 127/299/19

f 82/189/19 83/190/19 128/318/19

v 77.4804 19.5263 -29.3572
vt -4.05219 0.15748
v 79.7586 17.7782 -29.3572
vt -4.16524 0.15748
vt -4.16524 0.0787402
vt -4.05219 0.0787402
f 129/319/22 130/320/21 128/321/21 83/322/22 

vt 3.68573 3.39935
f 129/190/19 94/323/19 130/318/19

f 94/323/19 129/190/19 95/191/19

vt -3.55507 0.15748
vn -0.382683 -0.92388 -0
vt -3.6038 0.15748
vt -3.6038 0.0787402
vt -3.55507 0.0787402
f 95/324/32 129/325/22 83/326/22 84/327/32 

v 81.5067 15.5 -29.3572
vt 2.64346 3.57651
f 130/318/19 94/323/19 131/328/19

v 82.6056 12.847 -29.3572
vt 2.68673 3.68096
f 131/328/19 94/323/19 132/329/19

f 132/329/19 94/323/19 118/291/19

v 101.98 16.7321 -29.3572
vt 3.44951 3.528
f 118/291/19 94/323/19 133/330/19

v 102.463 16.9319 -29.3572
vt 3.4685 3.52014
f 133/330/19 94/323/19 134/331/19

v 102.98 17 -29.3572
vt 3.48888 3.51746
f 134/331/19 94/323/19 135/332/19

v 103.498 16.9319 -29.3572
vt 3.50926 3.52014
f 135/332/19 94/323/19 136/333/19

v 103.98 16.7321 -29.3572
vt 3.52825 3.528
f 136/333/19 94/323/19 137/334/19

v 104.395 16.4142 -29.3572
vt 3.54456 3.54052
f 137/334/19 94/323/19 138/335/19

v 104.712 16 -29.3572
vt 3.55708 3.55683
f 138/335/19 94/323/19 139/336/19

v 104.912 15.5176 -29.3572
vt 3.56494 3.57582
f 139/336/19 94/323/19 140/337/19

v 104.98 15 -29.3572
vt 3.56762 3.5962
f 140/337/19 94/323/19 141/338/19

v 104.98 5 -29.3572
vt 3.56762 3.9899
f 141/338/19 94/323/19 142/339/19

f 96/296/19 142/339/19 94/323/19

v 104.912 4.48236 -29.3572
vt 3.56494 4.01028
f 96/296/19 143/340/19 142/339/19

v 104.712 4 -29.3572
vt 3.55708 4.02927
f 96/296/19 144/341/19 143/340/19

v 104.395 3.58579 -29.3572
vt 3.54456 4.04557
f 96/296/19 145/342/19 144/341/19

v 103.98 3.26795 -29.3572
vt 3.52825 4.05809
f 96/296/19 146/343/19 145/342/19

v 103.498 3.06815 -29.3572
vt 3.50926 4.06595
f 96/296/19 147/344/19 146/343/19

v 102.98 3 -29.3572
vt 3.48888 4.06864
f 96/296/19 148/345/19 147/344/19

v 102.463 3.06815 -29.3572
vt 3.4685 4.06595
f 96/296/19 149/346/19 148/345/19

f 96/296/19 121/295/19 149/346/19

vt 4.7399 0
v 102.463 3.06815 -25.3572
vt 4.76045 0
vt 4.76045 0.15748
vt 4.7399 0.15748
f 14/347/15 150/348/16 149/349/16 121/350/15 

vt -3.4685 4.06595
f 14/22/1 15/23/1 150/351/1

v 102.98 3 -25.3572
vt -3.48888 4.06864
f 150/351/1 15/23/1 151/352/1

v 103.498 3.06815 -25.3572
vt -3.50926 4.06595
f 151/352/1 15/23/1 152/353/1

v 103.98 3.26795 -25.3572
vt -3.52825 4.05809
f 152/353/1 15/23/1 153/354/1

v 104.395 3.58579 -25.3572
vt -3.54456 4.04557
f 153/354/1 15/23/1 154/355/1

v 104.712 4 -25.3572
vt -3.55708 4.02927
f 154/355/1 15/23/1 155/356/1

v 104.912 4.48236 -25.3572
vt -3.56494 4.01028
f 155/356/1 15/23/1 156/357/1

f 156/357/1 15/23/1 97/252/1

vt -3.51065 0
vt -3.49009 0
vn -1 1.39975e-015 -0
vt -3.49009 0.15748
vt -3.51065 0.15748
f 156/358/7 97/359/33 142/360/33 143/361/7 

vt -4.42143 0
v 104.912 5.51764 -25.3572
vt -4.40088 0
v 104.912 5.51764 -29.3572
vt -4.40088 0.15748
vt -4.42143 0.15748
f 97/362/33 157/363/18 158/364/18 142/365/33 

vt -3.56494 3.96952
f 98/253/1 157/366/1 97/252/1

v 104.912 14.4824 -25.3572
vt -3.56494 3.61658
f 159/367/1 157/366/1 98/253/1

v 104.712 14 -25.3572
vt -3.55708 3.63557
f 160/368/1 157/366/1 159/367/1

v 104.712 6 -25.3572
vt -3.55708 3.95053
f 160/368/1 161/369/1 157/366/1

v 104.395 13.5858 -25.3572
vt -3.54456 3.65187
f 162/370/1 161/369/1 160/368/1

v 104.395 6.41421 -25.3572
vt -3.54456 3.93422
f 162/370/1 163/371/1 161/369/1

v 103.98 13.2679 -25.3572
vt -3.52825 3.66439
f 164/372/1 163/371/1 162/370/1

v 103.98 6.73205 -25.3572
vt -3.52825 3.92171
f 164/372/1 165/373/1 163/371/1

v 103.498 13.0681 -25.3572
vt -3.50926 3.67225
f 166/374/1 165/373/1 164/372/1

v 103.498 6.93185 -25.3572
vt -3.50926 3.91384
f 166/374/1 167/375/1 165/373/1

v 102.98 13 -25.3572
vt -3.48888 3.67494
f 168/376/1 167/375/1 166/374/1

v 102.98 7 -25.3572
vt -3.48888 3.91116
f 168/376/1 169/377/1 167/375/1

v 102.463 13.0681 -25.3572
vt -3.4685 3.67225
f 170/378/1 169/377/1 168/376/1

v 102.463 6.93185 -25.3572
vt -3.4685 3.91384
f 170/378/1 171/379/1 169/377/1

v 101.98 13.2679 -25.3572
vt -3.44951 3.66439
f 172/380/1 171/379/1 170/378/1

v 101.98 6.73205 -25.3572
vt -3.44951 3.92171
f 172/380/1 173/381/1 171/379/1

v 101.566 13.5858 -25.3572
vt -3.43321 3.65187
f 174/382/1 173/381/1 172/380/1

f 174/382/1 115/278/1 173/381/1

f 113/277/1 115/278/1 174/382/1

vt 4.96667 0
vt 4.98723 0
vt 4.98723 0.15748
vt 4.96667 0.15748
f 113/383/13 174/384/14 117/385/14 114/386/13 

vt 4.94687 0
vt 4.96742 0
v 101.98 13.2679 -29.3572
vt 4.96742 0.15748
vt 4.94687 0.15748
f 174/387/14 172/388/15 175/389/15 117/390/14 

vt 4.58924 0
vt 4.60979 0
v 102.463 13.0681 -29.3572
vt 4.60979 0.15748
vt 4.58924 0.15748
f 172/391/15 170/392/16 176/393/16 175/394/15 

vt 3.91816 0
vt 3.93871 0
vn 1.39975e-015 1 -0
v 102.98 13 -29.3572
vt 3.93871 0.15748
vt 3.91816 0.15748
f 170/395/16 168/396/34 177/397/34 176/398/16 

vt 2.97936 0
vt 2.99992 0
v 103.498 13.0681 -29.3572
vt 2.99992 0.15748
vt 2.97936 0.15748
f 168/399/34 166/400/11 178/401/11 177/402/34 

vt 1.83683 0
vt 1.85738 0
v 103.98 13.2679 -29.3572
vt 1.85738 0.15748
vt 1.83683 0.15748
f 166/403/11 164/404/10 179/405/10 178/406/11 

vt 0.568415 0
vt 0.58897 0
v 104.395 13.5858 -29.3572
vt 0.58897 0.15748
vt 0.568415 0.15748
f 164/407/10 162/408/9 180/409/9 179/410/10 

vt -0.739434 0
vt -0.718878 0
v 104.712 14 -29.3572
vt -0.718878 0.15748
vt -0.739434 0.15748
f 162/411/9 160/412/8 181/413/8 180/414/9 

vt -1.99759 0
vt -1.97704 0
v 104.912 14.4824 -29.3572
vt -1.97704 0.15748
vt -1.99759 0.15748
f 160/415/8 159/416/7 182/417/7 181/418/8 

vt -3.12032 0
vt -3.09976 0
vt -3.09976 0.15748
vt -3.12032 0.15748
f 159/419/7 98/420/6 141/421/6 182/422/7 

vt -4.0311 0
vt -4.01054 0
vt -4.01054 0.15748
vt -4.0311 0.15748
f 98/423/6 99/424/18 140/425/18 141/426/6 

vt -4.66787 0
vt -4.64731 0
vt -4.64731 0.15748
vt -4.66787 0.15748
f 99/427/18 100/428/20 139/429/20 140/430/18 

vt -4.98723 0
vt -4.96667 0
vt -4.96667 0.15748
vt -4.98723 0.15748
f 100/431/20 101/432/21 138/433/21 139/434/20 

vt -4.96742 0
vt -4.94687 0
vt -4.94687 0.15748
vt -4.96742 0.15748
f 101/435/21 102/436/22 137/437/22 138/438/21 

vt -4.60979 0
vt -4.58924 0
vt -4.58924 0.15748
vt -4.60979 0.15748
f 102/439/22 103/440/23 136/441/23 137/442/22 

vt -3.93871 0
vt -3.91816 0
vt -3.91816 0.15748
vt -3.93871 0.15748
f 103/443/23 104/444/27 135/445/27 136/446/23 

vt -2.99992 0
vt -2.97936 0
vt -2.97936 0.15748
vt -2.99992 0.15748
f 104/447/27 105/448/26 134/449/26 135/450/27 

vt -1.85738 0
vt -1.83683 0
vt -1.83683 0.15748
vt -1.85738 0.15748
f 105/451/26 106/452/25 133/453/25 134/454/26 

vt -0.58897 0
vt -0.568415 0
v 101.566 16.4142 -29.3572
vt -0.568415 0.15748
vt -0.58897 0.15748
f 106/455/25 107/456/24 183/457/24 133/458/25 

vt 0.718878 0
vt 0.739434 0
v 101.248 16 -29.3572
vt 0.739434 0.15748
vt 0.718878 0.15748
f 107/459/24 108/460/2 184/461/2 183/462/24 

vt 1.97704 0
vt 1.99759 0
vt 1.99759 0.15748
vt 1.97704 0.15748
f 108/463/2 109/464/3 111/465/3 184/466/2 

vt 3.42069 3.55683
vt 3.41283 3.57582
f 118/291/19 184/467/19 111/468/19

vt 3.43321 3.54052
f 118/291/19 183/469/19 184/467/19

f 118/291/19 133/330/19 183/469/19

f 118/291/19 111/468/19 110/290/19

vt 3.56494 3.96952
vt 3.56494 3.61658
f 158/470/19 182/471/19 141/338/19

v 104.712 6 -29.3572
vt 3.55708 3.95053
f 185/472/19 182/471/19 158/470/19

vt 3.55708 3.63557
f 185/472/19 181/473/19 182/471/19

v 104.395 6.41421 -29.3572
vt 3.54456 3.93422
f 186/474/19 181/473/19 185/472/19

vt 3.54456 3.65187
f 186/474/19 180/475/19 181/473/19

v 103.98 6.73205 -29.3572
vt 3.52825 3.92171
f 187/476/19 180/475/19 186/474/19

vt 3.52825 3.66439
f 187/476/19 179/477/19 180/475/19

v 103.498 6.93185 -29.3572
vt 3.50926 3.91384
f 188/478/19 179/477/19 187/476/19

vt 3.50926 3.67225
f 188/478/19 178/479/19 179/477/19

v 102.98 7 -29.3572
vt 3.48888 3.91116
f 189/480/19 178/479/19 188/478/19

vt 3.48888 3.67494
f 189/480/19 177/481/19 178/479/19

v 102.463 6.93185 -29.3572
vt 3.4685 3.91384
f 190/482/19 177/481/19 189/480/19

vt 3.4685 3.67225
f 190/482/19 176/483/19 177/481/19

v 101.98 6.73205 -29.3572
vt 3.44951 3.92171
f 191/484/19 176/483/19 190/482/19

vt 3.44951 3.66439
f 191/484/19 175/485/19 176/483/19

f 191/484/19 117/284/19 175/485/19

f 116/285/19 117/284/19 191/484/19

vt -0.3493 0
vt -0.328745 0
vt -0.328745 0.15748
vt -0.3493 0.15748
f 173/486/25 115/487/24 116/488/24 191/489/25 

vt -1.70672 0
vt -1.68616 0
vt -1.68616 0.15748
vt -1.70672 0.15748
f 171/490/26 173/491/25 191/492/25 190/493/26 

vt -2.94853 0
vt -2.92797 0
vt -2.92797 0.15748
vt -2.94853 0.15748
f 169/494/27 171/495/26 190/496/26 189/497/27 

vt -3.9901 0
vt -3.96954 0
vt -3.96954 0.15748
vt -3.9901 0.15748
f 167/498/23 169/499/27 189/500/27 188/501/23 

vt -4.76045 0
vt -4.7399 0
vt -4.7399 0.15748
vt -4.76045 0.15748
f 165/502/22 167/503/23 188/504/23 187/505/22 

vt -5.20709 0
vt -5.18654 0
vt -5.18654 0.15748
vt -5.20709 0.15748
f 163/506/21 165/507/22 187/508/22 186/509/21 

vt -5.29957 0
vt -5.27902 0
vt -5.27902 0.15748
vt -5.29957 0.15748
f 161/510/20 163/511/21 186/512/21 185/513/20 

vt -5.0316 0
vt -5.01104 0
vt -5.01104 0.15748
vt -5.0316 0.15748
f 157/514/18 161/515/20 185/516/20 158/517/18 

f 158/470/19 141/338/19 142/339/19

vt -2.36132 0
vt -2.34077 0
vt -2.34077 0.15748
vt -2.36132 0.15748
f 155/518/8 156/519/7 143/520/7 144/521/8 

vt -1.05178 0
vt -1.03122 0
vt -1.03122 0.15748
vt -1.05178 0.15748
f 154/522/9 155/523/8 144/524/8 145/525/9 

vt 0.328745 0
vt 0.3493 0
vt 0.3493 0.15748
vt 0.328745 0.15748
f 153/526/10 154/527/9 145/528/9 146/529/10 

vt 1.68616 0
vt 1.70672 0
vt 1.70672 0.15748
vt 1.68616 0.15748
f 152/530/11 153/531/10 146/532/10 147/533/11 

vt 2.92797 0
vn -2.14022e-014 1 -0
vt 2.94853 0
vt 2.94853 0.15748
vt 2.92797 0.15748
f 151/534/35 152/535/11 147/536/11 148/537/35 

vt 3.96954 0
vt 3.9901 0
vt 3.9901 0.15748
vt 3.96954 0.15748
f 150/538/16 151/539/35 148/540/35 149/541/16 

vt 5.18654 0
vt 5.20709 0
vt 5.20709 0.15748
vt 5.18654 0.15748
f 13/542/14 14/543/15 121/544/15 120/545/14 

vt 5.27902 0
vt 5.29957 0
vt 5.29957 0.15748
vt 5.27902 0.15748
f 12/546/13 13/547/14 120/548/14 119/549/13 

vt 5.01104 0
vt 5.0316 0
vt 5.0316 0.15748
vt 5.01104 0.15748
f 9/550/5 12/551/13 119/552/13 10/553/5 

vt -4.00016 0.15748
vt -4.11321 0.15748
vn -1 -1.6937e-015 -0
v 82.9804 10 -27.3572
vt -4.11321 0.0787402
v 82.6056 12.847 -27.3572
vt -4.00016 0.0787402
f 132/554/18 118/555/36 192/556/36 193/557/18 

vt -3.40798 0.15748
vt -3.52104 0.15748
v 82.6056 7.15299 -27.3572
vt -3.52104 0.0787402
vt -3.40798 0.0787402
f 118/558/36 122/559/7 194/560/7 192/561/36 

vt -2.57971 0.15748
vt -2.69276 0.15748
v 81.5067 4.5 -27.3572
vt -2.69276 0.0787402
vt -2.57971 0.0787402
f 122/562/7 123/563/8 195/564/8 194/565/7 

vt -1.57178 0.15748
vt -1.68483 0.15748
vt -1.68483 0.0787402
vt -1.57178 0.0787402
f 123/566/8 124/567/9 127/568/9 195/569/8 

v 81.5067 15.5 -27.3572
f 127/299/19 196/328/19 195/298/19

f 127/299/19 128/318/19 196/328/19

vt -4.33362 0.15748
vt -4.44667 0.15748
vt -4.44667 0.0787402
vt -4.33362 0.0787402
f 130/570/21 131/571/20 196/572/20 128/573/21 

vt -4.31587 0.15748
vt -4.42893 0.15748
vt -4.42893 0.0787402
vt -4.31587 0.0787402
f 131/574/20 132/575/18 193/576/18 196/577/20 

f 195/298/19 196/328/19 193/329/19

f 195/298/19 193/329/19 194/297/19

f 194/297/19 193/329/19 192/291/19

