# Alias OBJ Model File
# Exported from SketchUp, (c) 2000-2012 Trimble Navigation Limited
# File units = millimeters

mtllib pult_1.mtl

g Mesh1 Model

usemtl FrontColor
v 121.573 0 -104.154
vt -4.78635 4.10055
vn 0 -1 -0
v 122.635 0 -95.654
vt -4.82817 3.7659
v 121.523 0 -97.1037
vt -4.78437 3.82298
f 1/1/1 2/2/1 3/3/1

v 121.812 0 -102.342
vt -4.79574 4.02922
f 2/2/1 1/1/1 4/4/1

vt 3.36878 0
vn 0.965926 0 -0.258819
vt 3.44072 0
vn 1 0 1.60972e-015
v 121.573 2 -104.154
vt 3.44072 0.0787402
v 121.812 2 -102.342
vt 3.36878 0.0787402
f 4/5/2 1/6/3 5/7/3 6/8/2 

vt 4.69021 0
v 121.812 0 -105.966
vt 4.76216 0
vn 0.965926 0 0.258819
v 121.812 2 -105.966
vt 4.76216 0.0787402
vt 4.69021 0.0787402
f 1/9/3 7/10/4 8/11/4 5/12/3 

v 122.635 0 -112.654
vt -4.82817 4.43519
vt -4.79574 4.17188
f 1/1/1 9/13/1 7/14/1

v 121.523 0 -111.204
vt -4.78437 4.37812
f 1/1/1 10/15/1 9/13/1

f 3/3/1 10/15/1 1/1/1

v 120.073 0 -98.2161
vt -4.72729 3.86678
f 11/16/1 10/15/1 3/3/1

v 120.073 0 -110.092
vt -4.72729 4.33432
f 11/16/1 12/17/1 10/15/1

v 118.385 0 -98.9154
vt -4.66083 3.89431
f 13/18/1 12/17/1 11/16/1

v 118.385 0 -109.392
vt -4.66083 4.30679
f 13/18/1 14/19/1 12/17/1

v 116.573 0 -99.154
vt -4.5895 3.9037
f 15/20/1 14/19/1 13/18/1

v 116.573 0 -109.154
vt -4.5895 4.2974
f 15/20/1 16/21/1 14/19/1

v 114.762 0 -98.9154
vt -4.51817 3.89431
f 17/22/1 16/21/1 15/20/1

v 114.762 0 -109.392
vt -4.51817 4.30679
f 17/22/1 18/23/1 16/21/1

v 113.073 0 -98.2161
vt -4.4517 3.86678
f 19/24/1 18/23/1 17/22/1

v 113.073 0 -110.092
vt -4.4517 4.33432
f 19/24/1 20/25/1 18/23/1

v 111.623 0 -97.1037
vt -4.39463 3.82298
f 21/26/1 20/25/1 19/24/1

v 111.623 0 -111.204
vt -4.39463 4.37812
f 21/26/1 22/27/1 20/25/1

v 111.573 0 -104.154
vt -4.39265 4.10055
f 21/26/1 23/28/1 22/27/1

v 111.335 0 -102.342
vt -4.38326 4.02922
f 21/26/1 24/29/1 23/28/1

v 110.635 0 -100.654
vt -4.35573 3.96275
f 21/26/1 25/30/1 24/29/1

v 110.511 0 -95.654
vt -4.35083 3.7659
f 26/31/1 25/30/1 21/26/1

v 109.812 0 -93.9657
vt -4.3233 3.69944
f 27/32/1 25/30/1 26/31/1

v 109.573 0 -92.154
vt -4.31391 3.62811
f 28/33/1 25/30/1 27/32/1

v 109.523 0 -99.2042
vt -4.31193 3.90568
f 25/30/1 28/33/1 29/34/1

v 108.073 0 -98.0918
vt -4.25485 3.86188
f 28/33/1 30/35/1 29/34/1

v 109.812 0 -90.3422
vt -4.3233 3.55678
f 31/36/1 30/35/1 28/33/1

v 106.385 0 -97.3925
vt -4.18838 3.83435
f 31/36/1 32/37/1 30/35/1

v 110.511 0 -88.654
vt -4.35083 3.49031
f 33/38/1 32/37/1 31/36/1

v 104.573 0 -97.154
vt -4.11706 3.82496
f 33/38/1 34/39/1 32/37/1

v 120.573 -1.05749e-015 -73.154
vt -4.74698 2.88008
f 35/40/1 34/39/1 33/38/1

v 102.762 0 -97.3925
vt -4.04573 3.83435
f 35/40/1 36/41/1 34/39/1

v 101.073 0 -98.0918
vt -3.97926 3.86188
f 35/40/1 37/42/1 36/41/1

v 99.6235 0 -99.2042
vt -3.92218 3.90568
f 35/40/1 38/43/1 37/42/1

v 84.5732 0 -104.154
vt -3.32966 4.10055
f 35/40/1 39/44/1 38/43/1

v 84.0962 0 -100.53
vt -3.31087 3.95789
f 35/40/1 40/45/1 39/44/1

v 82.6976 0 -97.154
vt -3.25581 3.82496
f 35/40/1 41/46/1 40/45/1

v 80.4727 0 -94.2545
vt -3.16822 3.71081
f 35/40/1 42/47/1 41/46/1

v 77.5732 0 -92.0296
vt -3.05406 3.62321
f 35/40/1 43/48/1 42/47/1

v 74.1967 0 -90.631
vt -2.92113 3.56815
f 35/40/1 44/49/1 43/48/1

v 70.5732 0 -90.154
vt -2.77847 3.54937
f 35/40/1 45/50/1 44/49/1

v 66.9498 0 -90.631
vt -2.63582 3.56815
f 35/40/1 46/51/1 45/50/1

v 33.5732 0 -71.154
vt -1.32178 2.80134
f 35/40/1 47/52/1 46/51/1

v 142.573 0 -71.154
vt -5.61312 2.80134
f 47/52/1 35/40/1 48/53/1

v 140.573 -1.05749e-015 -73.154
vt -5.53438 2.88008
f 48/53/1 35/40/1 49/54/1

v 120.573 2 -73.154
vt -4.74698 0.0787402
vn -9.76406e-017 1.5473e-017 -1
v 35.5732 2 -73.154
vt -1.40052 0.0787402
v 35.5732 32 -73.154
vt -1.40052 1.25984
v 140.573 32 -73.154
vt -5.53438 1.25984
vt -5.53438 -8.61967e-017
vt -4.74698 -8.61967e-017
f 50/55/5 51/56/5 52/57/5 53/58/5 49/59/5 35/60/5 

v 66.9498 2 -90.631
vt 2.63582 3.56815
vn 0 1 -0
vt 1.40052 2.88008
vt 4.74698 2.88008
f 54/61/6 51/62/6 50/63/6

v 63.5732 2 -92.0296
vt 2.50288 3.62321
f 55/64/6 51/62/6 54/61/6

v 60.6737 2 -94.2545
vt 2.38873 3.71081
f 56/65/6 51/62/6 55/64/6

v 58.4489 2 -97.154
vt 2.30114 3.82496
f 57/66/6 51/62/6 56/65/6

v 35.5732 2 -127.154
vt 1.40052 5.00606
f 51/62/6 57/66/6 58/67/6

v 57.0503 2 -100.53
vt 2.24607 3.95789
f 58/67/6 57/66/6 59/68/6

v 58.4489 0 -97.154
vt 2.65319 0
vn 0.866025 0 -0.5
v 57.0503 0 -100.53
vt 2.79708 0
vt 2.79708 0.0787402
vt 2.65319 0.0787402
f 60/69/7 61/70/2 59/71/2 57/72/7 

vt -2.30114 3.82496
vt -2.24607 3.95789
f 60/73/1 47/52/1 61/74/1

v 60.6737 0 -94.2545
vt -2.38873 3.71081
f 62/75/1 47/52/1 60/73/1

v 63.5732 0 -92.0296
vt -2.50288 3.62321
f 63/76/1 47/52/1 62/75/1

f 46/51/1 47/52/1 63/76/1

vt -1.06971 0
vn 0.258819 0 -0.965926
vt -0.925819 0
vn 0.5 0 -0.866025
vt -0.925819 0.0787402
vt -1.06971 0.0787402
f 46/77/8 63/78/9 55/79/9 54/80/8 

vt 0.220001 0
vt 0.363888 0
vn 0.707107 0 -0.707107
vt 0.363888 0.0787402
vt 0.220001 0.0787402
f 63/81/9 62/82/10 56/83/10 55/84/9 

vt 1.48981 0
vt 1.6337 0
vt 1.6337 0.0787402
vt 1.48981 0.0787402
f 62/85/10 60/86/7 57/87/7 56/88/10 

vt -2.29142 0
vn -2.09963e-016 0 -1
vt -2.14753 0
vt -2.14753 0.0787402
v 70.5732 2 -90.154
vt -2.29142 0.0787402
f 45/89/11 46/90/8 54/91/8 64/92/11 

vt 2.77847 3.54937
f 54/61/6 50/63/6 64/93/6

v 74.1967 2 -90.631
vt 2.92113 3.56815
f 64/93/6 50/63/6 65/94/6

v 77.5732 2 -92.0296
vt 3.05406 3.62321
f 65/94/6 50/63/6 66/95/6

v 80.4727 2 -94.2545
vt 3.16822 3.71081
f 66/95/6 50/63/6 67/96/6

v 82.6976 2 -97.154
vt 3.25581 3.82496
f 67/96/6 50/63/6 68/97/6

v 84.0962 2 -100.53
vt 3.31087 3.95789
f 68/97/6 50/63/6 69/98/6

v 84.5732 2 -104.154
vt 3.32966 4.10055
f 69/98/6 50/63/6 70/99/6

v 99.6235 2 -99.2042
vt 3.92218 3.90568
f 70/99/6 50/63/6 71/100/6

v 101.073 2 -98.0918
vt 3.97926 3.86188
f 71/100/6 50/63/6 72/101/6

v 102.762 2 -97.3925
vt 4.04573 3.83435
f 72/101/6 50/63/6 73/102/6

v 104.573 2 -97.154
vt 4.11706 3.82496
f 73/102/6 50/63/6 74/103/6

v 110.511 2 -88.654
vt 4.35083 3.49031
f 74/103/6 50/63/6 75/104/6

v 111.623 2 -87.2042
vt 4.39463 3.43324
f 75/104/6 50/63/6 76/105/6

v 113.073 2 -86.0918
vt 4.4517 3.38944
f 76/105/6 50/63/6 77/106/6

v 114.762 2 -85.3925
vt 4.51817 3.36191
f 77/106/6 50/63/6 78/107/6

v 116.573 2 -85.154
vt 4.5895 3.35252
f 78/107/6 50/63/6 79/108/6

v 118.385 2 -85.3925
vt 4.66083 3.36191
f 79/108/6 50/63/6 80/109/6

v 120.073 2 -86.0918
vt 4.72729 3.38944
f 80/109/6 50/63/6 81/110/6

v 120.573 2 -82.154
vt 4.74698 3.23441
f 81/110/6 50/63/6 82/111/6

vt 3.23441 0.0787402
vn 1 0 -0
vt 2.88008 0.0787402
vt 2.88008 -4.16334e-017
v 120.573 -1.05749e-015 -82.154
vt 3.23441 -4.16334e-017
f 82/112/12 50/113/12 35/114/12 83/115/12 

v 120.073 0 -86.0918
vt -4.72729 3.38944
vt -4.74698 3.23441
f 35/40/1 84/116/1 83/117/1

v 118.385 0 -85.3925
vt -4.66083 3.36191
f 35/40/1 85/118/1 84/116/1

v 116.573 0 -85.154
vt -4.5895 3.35252
f 35/40/1 86/119/1 85/118/1

v 114.762 0 -85.3925
vt -4.51817 3.36191
f 35/40/1 87/120/1 86/119/1

v 113.073 0 -86.0918
vt -4.4517 3.38944
f 35/40/1 88/121/1 87/120/1

v 111.623 0 -87.2042
vt -4.39463 3.43324
f 35/40/1 89/122/1 88/121/1

f 35/40/1 33/38/1 89/122/1

vt 0.048491 0
vt 0.120435 0
vt 0.120435 0.0787402
vt 0.048491 0.0787402
f 89/123/10 33/124/7 75/125/7 76/126/10 

vt 1.55964 0
vt 1.63158 0
v 109.812 2 -90.3422
vt 1.63158 0.0787402
vt 1.55964 0.0787402
f 33/127/7 31/128/2 90/129/2 75/130/7 

vt 2.96205 0
vt 3.03399 0
v 109.573 2 -92.154
vt 3.03399 0.0787402
vt 2.96205 0.0787402
f 31/131/2 28/132/12 91/133/12 90/134/2 

vt 4.16015 0
vt 4.23209 0
v 109.812 2 -93.9657
vt 4.23209 0.0787402
vt 4.16015 0.0787402
f 28/135/12 27/136/4 92/137/4 91/138/12 

vt 5.07229 0
vt 5.14423 0
vn 0.866025 0 0.5
v 110.511 2 -95.654
vt 5.14423 0.0787402
vt 5.07229 0.0787402
f 27/139/4 26/140/13 93/141/13 92/142/4 

vt 5.63631 0
vt 5.70825 0
vn 0.707107 0 0.707107
v 111.623 2 -97.1037
vt 5.70825 0.0787402
vt 5.63631 0.0787402
f 26/143/13 21/144/14 94/145/14 93/146/13 

vt 5.81377 0
vt 5.88572 0
vn 0.5 0 0.866025
v 113.073 2 -98.2161
vt 5.88572 0.0787402
vt 5.81377 0.0787402
f 21/147/14 19/148/15 95/149/15 94/150/14 

vt 5.59259 0
vt 5.66453 0
vn 0.258819 0 0.965926
v 114.762 2 -98.9154
vt 5.66453 0.0787402
vt 5.59259 0.0787402
f 19/151/15 17/152/16 96/153/16 95/154/15 

vt 4.98783 0
vt 5.05977 0
vn -3.06546e-015 0 1
v 116.573 2 -99.154
vt 5.05977 0.0787402
vt 4.98783 0.0787402
f 17/155/16 15/156/17 97/157/17 96/158/16 

vt 4.0407 0
vt 4.11264 0
vn -0.258819 0 0.965926
v 118.385 2 -98.9154
vt 4.11264 0.0787402
vt 4.0407 0.0787402
f 15/159/17 13/160/18 98/161/18 97/162/17 

vt 2.81575 0
vt 2.8877 0
vn -0.5 0 0.866025
v 120.073 2 -98.2161
vt 2.8877 0.0787402
vt 2.81575 0.0787402
f 13/163/18 11/164/19 99/165/19 98/166/18 

vt 1.39647 0
vt 1.46841 0
vn -0.707107 0 0.707107
v 121.523 2 -97.1037
vt 1.46841 0.0787402
vt 1.39647 0.0787402
f 11/167/19 3/168/20 100/169/20 99/170/19 

vt -0.120435 0
vt -0.048491 0
vn -0.866025 0 0.5
v 122.635 2 -95.654
vt -0.048491 0.0787402
vt -0.120435 0.0787402
f 3/171/20 2/172/21 101/173/21 100/174/20 

vt -1.63158 0
v 123.335 0 -93.9657
vt -1.55964 0
vn -0.965926 0 0.258819
v 123.335 2 -93.9657
vt -1.55964 0.0787402
vt -1.63158 0.0787402
f 2/175/21 102/176/22 103/177/22 101/178/21 

v 123.623 0 -99.2042
vt -4.86707 3.90568
vt -4.8557 3.69944
f 2/2/1 104/179/1 102/180/1

v 122.511 0 -100.654
vt -4.82327 3.96275
f 2/2/1 105/181/1 104/179/1

f 2/2/1 4/4/1 105/181/1

vt 1.81532 0
vt 1.88727 0
vt 1.88727 0.0787402
v 122.511 2 -100.654
vt 1.81532 0.0787402
f 105/182/7 4/183/2 6/184/2 106/185/7 

vt 4.79574 4.02922
vt 4.82817 3.7659
vt 4.82327 3.96275
f 6/186/6 101/187/6 106/188/6

vt 4.78635 4.10055
f 5/189/6 101/187/6 6/186/6

vt 4.78437 3.82298
f 5/189/6 100/190/6 101/187/6

v 121.523 2 -111.204
vt 4.78437 4.37812
f 107/191/6 100/190/6 5/189/6

vt 4.72729 3.86678
f 107/191/6 99/192/6 100/190/6

v 120.073 2 -110.092
vt 4.72729 4.33432
f 108/193/6 99/192/6 107/191/6

v 118.385 2 -109.392
vt 4.66083 4.30679
f 109/194/6 99/192/6 108/193/6

vt 4.66083 3.89431
f 109/194/6 98/195/6 99/192/6

v 116.573 2 -109.154
vt 4.5895 4.2974
f 110/196/6 98/195/6 109/194/6

vt 4.5895 3.9037
f 110/196/6 97/197/6 98/195/6

v 114.762 2 -109.392
vt 4.51817 4.30679
f 111/198/6 97/197/6 110/196/6

vt 4.51817 3.89431
f 111/198/6 96/199/6 97/197/6

vt 4.4517 3.86678
f 111/198/6 95/200/6 96/199/6

v 113.073 2 -110.092
vt 4.4517 4.33432
f 112/201/6 95/200/6 111/198/6

v 111.623 2 -111.204
vt 4.39463 4.37812
f 113/202/6 95/200/6 112/201/6

vt 4.39463 3.82298
f 113/202/6 94/203/6 95/200/6

v 111.573 2 -104.154
vt 4.39265 4.10055
f 113/202/6 114/204/6 94/203/6

v 111.335 2 -105.966
vt 4.38326 4.17188
f 113/202/6 115/205/6 114/204/6

v 110.635 2 -107.654
vt 4.35573 4.23834
f 113/202/6 116/206/6 115/205/6

v 110.511 2 -112.654
vt 4.35083 4.43519
f 117/207/6 116/206/6 113/202/6

v 109.812 2 -114.342
vt 4.3233 4.50166
f 118/208/6 116/206/6 117/207/6

v 109.573 2 -116.154
vt 4.31391 4.57299
f 119/209/6 116/206/6 118/208/6

v 109.523 2 -109.104
vt 4.31193 4.29542
f 116/206/6 119/209/6 120/210/6

v 108.073 2 -110.216
vt 4.25485 4.33922
f 119/209/6 121/211/6 120/210/6

v 109.812 2 -117.966
vt 4.3233 4.64432
f 122/212/6 121/211/6 119/209/6

v 106.385 2 -110.915
vt 4.18838 4.36675
f 122/212/6 123/213/6 121/211/6

v 110.511 2 -119.654
vt 4.35083 4.71079
f 124/214/6 123/213/6 122/212/6

v 104.573 2 -111.154
vt 4.11706 4.37614
f 124/214/6 125/215/6 123/213/6

v 102.762 2 -110.915
vt 4.04573 4.36675
f 124/214/6 126/216/6 125/215/6

v 111.623 2 -121.104
vt 4.39463 4.76786
f 127/217/6 126/216/6 124/214/6

v 101.073 2 -110.216
vt 3.97926 4.33922
f 127/217/6 128/218/6 126/216/6

v 99.6235 2 -109.104
vt 3.92218 4.29542
f 127/217/6 129/219/6 128/218/6

f 127/217/6 70/99/6 129/219/6

v 113.073 2 -122.216
vt 4.4517 4.81166
f 130/220/6 70/99/6 127/217/6

v 84.0962 2 -107.777
vt 3.31087 4.24321
f 130/220/6 131/221/6 70/99/6

v 82.6976 2 -111.154
vt 3.25581 4.37614
f 130/220/6 132/222/6 131/221/6

v 114.762 2 -122.915
vt 4.51817 4.83919
f 133/223/6 132/222/6 130/220/6

v 80.4727 2 -114.053
vt 3.16822 4.49029
f 133/223/6 134/224/6 132/222/6

v 77.5732 2 -116.278
vt 3.05406 4.57789
f 133/223/6 135/225/6 134/224/6

v 74.1967 2 -117.677
vt 2.92113 4.63295
f 133/223/6 136/226/6 135/225/6

v 140.573 2 -127.154
vt 5.53438 5.00606
f 137/227/6 136/226/6 133/223/6

v 70.5732 2 -118.154
vt 2.77847 4.65173
f 137/227/6 138/228/6 136/226/6

f 58/67/6 138/228/6 137/227/6

v 66.9498 2 -117.677
vt 2.63582 4.63295
f 138/228/6 58/67/6 139/229/6

v 63.5732 2 -116.278
vt 2.50288 4.57789
f 139/229/6 58/67/6 140/230/6

v 60.6737 2 -114.053
vt 2.38873 4.49029
f 140/230/6 58/67/6 141/231/6

v 58.4489 2 -111.154
vt 2.30114 4.37614
f 141/231/6 58/67/6 142/232/6

v 57.0503 2 -107.777
vt 2.24607 4.24321
f 142/232/6 58/67/6 143/233/6

v 56.5732 2 -104.154
vt 2.22729 4.10055
f 143/233/6 58/67/6 144/234/6

f 58/67/6 59/68/6 144/234/6

vt 3.63086 0
v 56.5732 0 -104.154
vt 3.77475 0
vn 1 0 1.95966e-016
vt 3.77475 0.0787402
vt 3.63086 0.0787402
f 61/235/2 145/236/23 144/237/23 59/238/2 

vt -2.22729 4.10055
f 61/74/1 47/52/1 145/239/1

v 57.0503 0 -107.777
vt -2.24607 4.24321
f 47/52/1 146/240/1 145/239/1

v 58.4489 0 -111.154
vt -2.30114 4.37614
f 47/52/1 147/241/1 146/240/1

v 33.5732 0 -129.154
vt -1.32178 5.0848
f 148/242/1 147/241/1 47/52/1

v 60.6737 0 -114.053
vt -2.38873 4.49029
f 147/241/1 148/242/1 149/243/1

v 63.5732 0 -116.278
vt -2.50288 4.57789
f 149/243/1 148/242/1 150/244/1

v 66.9498 0 -117.677
vt -2.63582 4.63295
f 150/244/1 148/242/1 151/245/1

v 142.573 0 -129.154
vt -5.61312 5.0848
f 151/245/1 148/242/1 152/246/1

vt -5.61312 0
vn 0 0 -1
vt -1.32178 0
v 33.5732 32 -129.154
vt -1.32178 1.25984
v 142.573 32 -129.154
vt -5.61312 1.25984
f 152/247/24 148/248/24 153/249/24 154/250/24 

vt -5.0848 0
vn -1 0 4.86201e-017
v 33.5732 10 -95.154
vt -3.74622 0.393701
vt -5.0848 1.25984
f 148/251/25 155/252/25 153/253/25

v 33.5732 10 -82.154
vt -3.23441 0.393701
f 148/251/25 156/254/25 155/252/25

vt -2.80134 0
f 47/255/25 156/254/25 148/251/25

v 33.5732 23 -82.154
vt -3.23441 0.905512
f 156/254/25 47/255/25 157/256/25

v 33.5732 32 -71.154
vt -2.80134 1.25984
f 158/257/25 157/256/25 47/255/25

f 157/256/25 158/257/25 153/253/25

vt 1.32178 2.80134
vt 1.32178 5.0848
f 158/258/6 52/62/6 153/259/6

v 142.573 32 -71.154
vt 5.61312 2.80134
f 52/62/6 158/258/6 159/260/6

vt 1.32178 1.25984
vn 1.03485e-016 0 1
v 88.0732 17 -71.154
vt 3.46745 0.669291
vt 5.61312 1.25984
f 158/261/26 160/262/26 159/263/26

v 86.5203 16.7956 -71.154
vt 3.40631 0.661242
f 158/261/26 161/264/26 160/262/26

v 85.0732 16.1962 -71.154
vt 3.34934 0.637644
f 158/261/26 162/265/26 161/264/26

v 83.8306 15.2426 -71.154
vt 3.30042 0.600104
f 158/261/26 163/266/26 162/265/26

v 83.0732 14.2556 -71.154
vt 3.2706 0.561245
f 158/261/26 164/267/26 163/266/26

v 83.0732 7.74437 -71.154
vt 3.2706 0.304896
f 158/261/26 165/268/26 164/267/26

v 83.8306 6.75736 -71.154
vt 3.30042 0.266038
f 158/261/26 166/269/26 165/268/26

v 85.0732 5.80385 -71.154
vt 3.34934 0.228498
f 158/261/26 167/270/26 166/269/26

vt 1.32178 0
f 47/271/26 167/270/26 158/261/26

v 86.5203 5.20445 -71.154
vt 3.40631 0.204899
f 167/270/26 47/271/26 168/272/26

v 88.0732 5 -71.154
vt 3.46745 0.19685
f 168/272/26 47/271/26 169/273/26

vt 5.61312 0
f 48/274/26 169/273/26 47/271/26

v 89.6262 5.20445 -71.154
vt 3.52859 0.204899
f 169/273/26 48/274/26 170/275/26

v 91.0732 5.80385 -71.154
vt 3.58556 0.228498
f 170/275/26 48/274/26 171/276/26

f 171/276/26 48/274/26 159/263/26

vt 2.80134 0
vn 1 0 -3.88961e-016
vt 5.0848 0
vt 5.0848 1.25984
vt 2.80134 1.25984
f 48/277/27 152/278/27 154/279/27 159/280/27 

f 48/53/1 49/54/1 152/246/1

v 140.573 -1.05749e-015 -82.154
vt -5.53438 3.23441
f 172/281/1 152/246/1 49/54/1

v 135.573 0 -104.154
vt -5.33753 4.10055
f 173/282/1 152/246/1 172/281/1

v 135.335 0 -105.966
vt -5.32814 4.17188
f 174/283/1 152/246/1 173/282/1

v 134.635 0 -107.654
vt -5.30061 4.23834
f 175/284/1 152/246/1 174/283/1

v 133.523 0 -109.104
vt -5.25681 4.29542
f 176/285/1 152/246/1 175/284/1

v 132.073 0 -110.216
vt -5.19973 4.33922
f 177/286/1 152/246/1 176/285/1

v 130.385 0 -110.915
vt -5.13327 4.36675
f 178/287/1 152/246/1 177/286/1

v 128.573 0 -111.154
vt -5.06194 4.37614
f 179/288/1 152/246/1 178/287/1

v 126.762 0 -110.915
vt -4.99061 4.36675
f 180/289/1 152/246/1 179/288/1

v 125.073 0 -110.216
vt -4.92414 4.33922
f 181/290/1 152/246/1 180/289/1

v 123.623 0 -109.104
vt -4.86707 4.29542
f 182/291/1 152/246/1 181/290/1

v 123.573 0 -116.154
vt -4.86509 4.57299
f 183/292/1 152/246/1 182/291/1

v 123.335 0 -117.966
vt -4.8557 4.64432
f 184/293/1 152/246/1 183/292/1

v 122.635 0 -119.654
vt -4.82817 4.71079
f 185/294/1 152/246/1 184/293/1

v 121.523 0 -121.104
vt -4.78437 4.76786
f 186/295/1 152/246/1 185/294/1

v 120.073 0 -122.216
vt -4.72729 4.81166
f 187/296/1 152/246/1 186/295/1

v 118.385 0 -122.915
vt -4.66083 4.83919
f 188/297/1 152/246/1 187/296/1

v 116.573 0 -123.154
vt -4.5895 4.84858
f 189/298/1 152/246/1 188/297/1

v 114.762 0 -122.915
vt -4.51817 4.83919
f 190/299/1 152/246/1 189/298/1

v 77.5732 0 -116.278
vt -3.05406 4.57789
f 191/300/1 152/246/1 190/299/1

v 74.1967 0 -117.677
vt -2.92113 4.63295
f 192/301/1 152/246/1 191/300/1

v 70.5732 0 -118.154
vt -2.77847 4.65173
f 193/302/1 152/246/1 192/301/1

f 151/245/1 152/246/1 193/302/1

vt 3.21799 0
vt 3.36188 0
vn 2.09963e-016 0 1
vt 3.36188 0.0787402
vt 3.21799 0.0787402
f 151/303/16 193/304/28 138/305/28 139/306/16 

vt 2.14753 0
vt 2.29142 0
vt 2.29142 0.0787402
vt 2.14753 0.0787402
f 193/307/28 192/308/18 136/309/18 138/310/28 

vt 0.925819 0
vt 1.06971 0
vt 1.06971 0.0787402
vt 0.925819 0.0787402
f 192/311/18 191/312/19 135/313/19 136/314/18 

vt -0.363888 0
v 80.4727 0 -114.053
vt -0.220001 0
vt -0.220001 0.0787402
vt -0.363888 0.0787402
f 191/315/19 194/316/20 134/317/20 135/318/19 

vt -3.16822 4.49029
f 191/300/1 190/299/1 194/319/1

v 82.6976 0 -111.154
vt -3.25581 4.37614
f 194/319/1 190/299/1 195/320/1

v 113.073 0 -122.216
vt -4.4517 4.81166
f 195/320/1 190/299/1 196/321/1

vt 5.95418 0
vt 6.02612 0
vt 6.02612 0.0787402
vt 5.95418 0.0787402
f 196/322/15 190/323/16 133/324/16 130/325/15 

vt 5.11116 0
vt 5.1831 0
vn 0 0 1
v 116.573 2 -123.154
vt 5.1831 0.0787402
vt 5.11116 0.0787402
f 190/326/16 189/327/29 197/328/29 133/329/16 

vt 3.91737 0
vt 3.98931 0
v 118.385 2 -122.915
vt 3.98931 0.0787402
vt 3.91737 0.0787402
f 189/330/29 188/331/18 198/332/18 197/333/29 

vt 2.45416 0
vt 2.52611 0
v 120.073 2 -122.216
vt 2.52611 0.0787402
vt 2.45416 0.0787402
f 188/334/18 187/335/19 199/336/19 198/337/18 

vt 0.821261 0
vt 0.893205 0
v 121.523 2 -121.104
vt 0.893205 0.0787402
vt 0.821261 0.0787402
f 187/338/19 186/339/20 200/340/20 199/341/19 

vt -0.87006 0
vt -0.798116 0
v 122.635 2 -119.654
vt -0.798116 0.0787402
vt -0.87006 0.0787402
f 186/342/20 185/343/21 201/344/21 200/345/20 

vt -2.50454 0
vt -2.4326 0
v 123.335 2 -117.966
vt -2.4326 0.0787402
vt -2.50454 0.0787402
f 185/346/21 184/347/22 202/348/22 201/349/21 

vt -3.97079 0
vt -3.89885 0
vn -1 0 -0
v 123.573 2 -116.154
vt -3.89885 0.0787402
vt -3.97079 0.0787402
f 184/350/22 183/351/30 203/352/30 202/353/22 

vt -5.16889 0
v 123.335 0 -114.342
vt -5.09695 0
vn -0.965926 0 -0.258819
v 123.335 2 -114.342
vt -5.09695 0.0787402
vt -5.16889 0.0787402
f 183/354/30 204/355/31 205/356/31 203/357/30 

vt -4.8557 4.50166
f 182/291/1 204/358/1 183/292/1

f 182/291/1 9/13/1 204/358/1

v 122.511 0 -107.654
vt -4.82327 4.23834
f 206/359/1 9/13/1 182/291/1

f 7/14/1 9/13/1 206/359/1

vt 5.68956 0
vt 5.76151 0
v 122.511 2 -107.654
vt 5.76151 0.0787402
vt 5.68956 0.0787402
f 7/360/4 206/361/13 207/362/13 8/363/4 

vt 6.29873 0
vt 6.37067 0
v 123.623 2 -109.104
vt 6.37067 0.0787402
vt 6.29873 0.0787402
f 206/364/13 182/365/14 208/366/14 207/367/13 

vt 6.47619 0
vt 6.54813 0
v 125.073 2 -110.216
vt 6.54813 0.0787402
vt 6.47619 0.0787402
f 182/368/14 181/369/15 209/370/15 208/371/14 

vt 6.20986 0
vt 6.28181 0
v 126.762 2 -110.915
vt 6.28181 0.0787402
vt 6.20986 0.0787402
f 181/372/15 180/373/16 210/374/16 209/375/15 

vt 5.51789 0
vt 5.58983 0
v 128.573 2 -111.154
vt 5.58983 0.0787402
vt 5.51789 0.0787402
f 180/376/16 179/377/29 211/378/29 210/379/16 

vt 4.44743 0
vt 4.51938 0
v 130.385 2 -110.915
vt 4.51938 0.0787402
vt 4.44743 0.0787402
f 179/380/29 178/381/18 212/382/18 211/383/29 

vt 3.07144 0
vt 3.14338 0
v 132.073 2 -110.216
vt 3.14338 0.0787402
vt 3.07144 0.0787402
f 178/384/18 177/385/19 213/386/19 212/387/18 

vt 1.48368 0
vt 1.55562 0
v 133.523 2 -109.104
vt 1.55562 0.0787402
vt 1.48368 0.0787402
f 177/388/19 176/389/20 214/390/20 213/391/19 

vt -0.207643 0
vt -0.1357 0
v 134.635 2 -107.654
vt -0.1357 0.0787402
vt -0.207643 0.0787402
f 176/392/20 175/393/21 215/394/21 214/395/20 

vt -1.88727 0
vt -1.81532 0
v 135.335 2 -105.966
vt -1.81532 0.0787402
vt -1.88727 0.0787402
f 175/396/21 174/397/22 216/398/22 215/399/21 

vt -3.44072 0
vt -3.36878 0
vn -1 0 1.60972e-015
v 135.573 2 -104.154
vt -3.36878 0.0787402
vt -3.44072 0.0787402
f 174/400/22 173/401/32 217/402/32 216/403/22 

vt -4.76216 0
v 135.335 0 -102.342
vt -4.69021 0
v 135.335 2 -102.342
vt -4.69021 0.0787402
vt -4.76216 0.0787402
f 173/404/32 218/405/31 219/406/31 217/407/32 

vt -5.32814 4.02922
f 172/281/1 218/408/1 173/282/1

v 134.635 0 -100.654
vt -5.30061 3.96275
f 172/281/1 220/409/1 218/408/1

v 133.523 0 -99.2042
vt -5.25681 3.90568
f 172/281/1 221/410/1 220/409/1

v 132.073 0 -98.0918
vt -5.19973 3.86188
f 172/281/1 222/411/1 221/410/1

v 130.385 0 -97.3925
vt -5.13327 3.83435
f 172/281/1 223/412/1 222/411/1

v 128.573 0 -97.154
vt -5.06194 3.82496
f 172/281/1 224/413/1 223/412/1

v 126.762 0 -97.3925
vt -4.99061 3.83435
f 172/281/1 225/414/1 224/413/1

v 125.073 0 -98.0918
vt -4.92414 3.86188
f 172/281/1 226/415/1 225/414/1

f 172/281/1 104/179/1 226/415/1

v 123.573 0 -92.154
vt -4.86509 3.62811
f 172/281/1 227/416/1 104/179/1

v 123.335 0 -90.3422
vt -4.8557 3.55678
f 172/281/1 228/417/1 227/416/1

v 122.635 0 -88.654
vt -4.82817 3.49031
f 172/281/1 229/418/1 228/417/1

v 121.523 0 -87.2042
vt -4.78437 3.43324
f 172/281/1 230/419/1 229/418/1

f 83/117/1 230/419/1 172/281/1

f 230/419/1 83/117/1 84/116/1

vt -5.88572 0
vn -0.707107 0 -0.707107
vt -5.81377 0
vn -0.5 0 -0.866025
vt -5.81377 0.0787402
v 121.523 2 -87.2042
vt -5.88572 0.0787402
f 230/420/33 84/421/34 81/422/34 231/423/33 

vt -5.66453 0
vt -5.59259 0
vn -0.258819 0 -0.965926
vt -5.59259 0.0787402
vt -5.66453 0.0787402
f 84/424/34 85/425/35 80/426/35 81/427/34 

vt -5.05977 0
vt -4.98783 0
vt -4.98783 0.0787402
vt -5.05977 0.0787402
f 85/428/35 86/429/24 79/430/24 80/431/35 

vt -4.11264 0
vt -4.0407 0
vt -4.0407 0.0787402
vt -4.11264 0.0787402
f 86/432/24 87/433/8 78/434/8 79/435/24 

vt -2.8877 0
vt -2.81575 0
vt -2.81575 0.0787402
vt -2.8877 0.0787402
f 87/436/8 88/437/9 77/438/9 78/439/8 

vt -1.46841 0
vt -1.39647 0
vt -1.39647 0.0787402
vt -1.46841 0.0787402
f 88/440/9 89/441/10 76/442/10 77/443/9 

vt 4.78437 3.43324
f 81/110/6 82/111/6 231/444/6

v 140.573 2 -82.154
vt 5.53438 3.23441
f 231/444/6 82/111/6 232/445/6

vt 5.53438 0.0787402
vt 4.74698 0.0787402
vt 4.74698 -4.16334e-017
vt 5.53438 -4.16334e-017
f 232/446/29 82/447/29 83/448/29 172/449/29 

vt -5.00606 0.0787402
vn -1 -3.88961e-017 4.32179e-016
vt -3.23441 0.0787402
vt -3.23441 -2.56899e-016
vt -2.88008 -2.56899e-016
vt -2.88008 1.25984
v 140.573 32 -127.154
vt -5.00606 1.25984
f 137/450/36 232/451/36 172/452/36 49/453/36 53/454/36 233/455/36 

vt 5.33753 4.10055
f 217/456/6 232/445/6 137/227/6

vt 5.32814 4.02922
f 219/457/6 232/445/6 217/456/6

v 134.635 2 -100.654
vt 5.30061 3.96275
f 234/458/6 232/445/6 219/457/6

v 133.523 2 -99.2042
vt 5.25681 3.90568
f 235/459/6 232/445/6 234/458/6

v 132.073 2 -98.0918
vt 5.19973 3.86188
f 236/460/6 232/445/6 235/459/6

v 130.385 2 -97.3925
vt 5.13327 3.83435
f 237/461/6 232/445/6 236/460/6

v 128.573 2 -97.154
vt 5.06194 3.82496
f 238/462/6 232/445/6 237/461/6

v 126.762 2 -97.3925
vt 4.99061 3.83435
f 239/463/6 232/445/6 238/462/6

v 125.073 2 -98.0918
vt 4.92414 3.86188
f 240/464/6 232/445/6 239/463/6

v 123.623 2 -99.2042
vt 4.86707 3.90568
f 241/465/6 232/445/6 240/464/6

v 123.573 2 -92.154
vt 4.86509 3.62811
f 242/466/6 232/445/6 241/465/6

v 123.335 2 -90.3422
vt 4.8557 3.55678
f 243/467/6 232/445/6 242/466/6

v 122.635 2 -88.654
vt 4.82817 3.49031
f 244/468/6 232/445/6 243/467/6

f 231/444/6 232/445/6 244/468/6

vt -5.70825 0
vn -0.866025 0 -0.5
vt -5.63631 0
vt -5.63631 0.0787402
vt -5.70825 0.0787402
f 229/469/37 230/470/33 231/471/33 244/472/37 

vt -5.14423 0
vt -5.07229 0
vt -5.07229 0.0787402
vt -5.14423 0.0787402
f 228/473/31 229/474/37 244/475/37 243/476/31 

vt -4.23209 0
vt -4.16015 0
vt -4.16015 0.0787402
vt -4.23209 0.0787402
f 227/477/30 228/478/31 243/479/31 242/480/30 

vt -3.03399 0
vt -2.96205 0
vt -2.96205 0.0787402
vt -3.03399 0.0787402
f 102/481/22 227/482/30 242/483/30 103/484/22 

f 102/180/1 104/179/1 227/416/1

vt 4.8557 3.69944
f 241/465/6 103/485/6 242/466/6

f 241/465/6 101/187/6 103/485/6

f 106/188/6 101/187/6 241/465/6

vt 0.1357 0
vt 0.207643 0
vt 0.207643 0.0787402
vt 0.1357 0.0787402
f 104/486/10 105/487/7 106/488/7 241/489/10 

vt -1.55562 0
vt -1.48368 0
vt -1.48368 0.0787402
vt -1.55562 0.0787402
f 226/490/9 104/491/10 241/492/10 240/493/9 

vt -3.14338 0
vt -3.07144 0
vt -3.07144 0.0787402
vt -3.14338 0.0787402
f 225/494/8 226/495/9 240/496/9 239/497/8 

vt -4.51938 0
vt -4.44743 0
vt -4.44743 0.0787402
vt -4.51938 0.0787402
f 224/498/24 225/499/8 239/500/8 238/501/24 

vt -5.58983 0
vt -5.51789 0
vt -5.51789 0.0787402
vt -5.58983 0.0787402
f 223/502/35 224/503/24 238/504/24 237/505/35 

vt -6.28181 0
vt -6.20986 0
vt -6.20986 0.0787402
vt -6.28181 0.0787402
f 222/506/34 223/507/35 237/508/35 236/509/34 

vt -6.54813 0
vt -6.47619 0
vt -6.47619 0.0787402
vt -6.54813 0.0787402
f 221/510/33 222/511/34 236/512/34 235/513/33 

vt -6.37067 0
vt -6.29873 0
vt -6.29873 0.0787402
vt -6.37067 0.0787402
f 220/514/37 221/515/33 235/516/33 234/517/37 

vt -5.76151 0
vt -5.68956 0
vt -5.68956 0.0787402
vt -5.76151 0.0787402
f 218/518/31 220/519/37 234/520/37 219/521/31 

vt 5.32814 4.17188
f 137/227/6 216/522/6 217/456/6

vt 5.30061 4.23834
f 137/227/6 215/523/6 216/522/6

vt 5.25681 4.29542
f 137/227/6 214/524/6 215/523/6

vt 5.19973 4.33922
f 137/227/6 213/525/6 214/524/6

vt 5.13327 4.36675
f 137/227/6 212/526/6 213/525/6

vt 5.06194 4.37614
f 137/227/6 211/527/6 212/526/6

vt 4.99061 4.36675
f 137/227/6 210/528/6 211/527/6

vt 4.92414 4.33922
f 137/227/6 209/529/6 210/528/6

vt 4.86707 4.29542
f 137/227/6 208/530/6 209/529/6

vt 4.86509 4.57299
f 137/227/6 203/531/6 208/530/6

vt 4.8557 4.64432
f 137/227/6 202/532/6 203/531/6

vt 4.82817 4.71079
f 137/227/6 201/533/6 202/532/6

vt 4.78437 4.76786
f 137/227/6 200/534/6 201/533/6

vt 4.72729 4.81166
f 137/227/6 199/535/6 200/534/6

vt 4.66083 4.83919
f 137/227/6 198/536/6 199/535/6

vt 4.5895 4.84858
f 137/227/6 197/537/6 198/536/6

f 137/227/6 133/223/6 197/537/6

vt 4.8557 4.50166
f 205/538/6 208/530/6 203/531/6

v 122.635 2 -112.654
vt 4.82817 4.43519
f 245/539/6 208/530/6 205/538/6

vt 4.82327 4.23834
f 245/539/6 207/540/6 208/530/6

vt 4.79574 4.17188
f 245/539/6 8/541/6 207/540/6

f 245/539/6 5/189/6 8/541/6

f 5/189/6 245/539/6 107/191/6

vt -6.45788 0
vt -6.38593 0
vt -6.38593 0.0787402
vt -6.45788 0.0787402
f 9/542/37 10/543/33 107/544/33 245/545/37 

vt -6.46093 0
vt -6.38898 0
vt -6.38898 0.0787402
vt -6.46093 0.0787402
f 10/546/33 12/547/34 108/548/34 107/549/33 

vt -6.02612 0
vt -5.95418 0
vt -5.95418 0.0787402
vt -6.02612 0.0787402
f 12/550/34 14/551/35 109/552/35 108/553/34 

vt -5.1831 0
vt -5.11116 0
vt -5.11116 0.0787402
vt -5.1831 0.0787402
f 14/554/35 16/555/24 110/556/24 109/557/35 

vt -3.98931 0
vt -3.91737 0
vt -3.91737 0.0787402
vt -3.98931 0.0787402
f 16/558/24 18/559/8 111/560/8 110/561/24 

vt -2.52611 0
vt -2.45416 0
vt -2.45416 0.0787402
vt -2.52611 0.0787402
f 18/562/8 20/563/9 112/564/9 111/565/8 

vt -0.893205 0
vt -0.821261 0
vt -0.821261 0.0787402
vt -0.893205 0.0787402
f 20/566/9 22/567/10 113/568/10 112/569/9 

vt 0.798116 0
v 110.511 0 -112.654
vt 0.87006 0
vt 0.87006 0.0787402
vt 0.798116 0.0787402
f 22/570/10 246/571/7 117/572/7 113/573/10 

v 110.635 0 -107.654
vt -4.35573 4.23834
vt -4.35083 4.43519
f 247/574/1 246/575/1 22/27/1

v 109.812 0 -114.342
vt -4.3233 4.50166
f 247/574/1 248/576/1 246/575/1

v 109.573 0 -116.154
vt -4.31391 4.57299
f 247/574/1 249/577/1 248/576/1

v 109.523 0 -109.104
vt -4.31193 4.29542
f 249/577/1 247/574/1 250/578/1

vt -0.782851 0
vt -0.710907 0
vt -0.710907 0.0787402
vt -0.782851 0.0787402
f 250/579/20 247/580/21 116/581/21 120/582/20 

vt -2.24886 0
v 111.335 0 -105.966
vt -2.17691 0
vt -2.17691 0.0787402
vt -2.24886 0.0787402
f 247/583/21 251/584/22 115/585/22 116/586/21 

vt -4.38326 4.17188
f 247/574/1 22/27/1 251/587/1

f 251/587/1 22/27/1 23/28/1

vt -3.56406 0
vt -3.49211 0
vt -3.49211 0.0787402
vt -3.56406 0.0787402
f 251/588/22 23/589/32 114/590/32 115/591/22 

vt -4.63882 0
vt -4.56688 0
v 111.335 2 -102.342
vt -4.56688 0.0787402
vt -4.63882 0.0787402
f 23/592/32 24/593/31 252/594/31 114/595/32 

vt -5.39991 0
vt -5.32797 0
v 110.635 2 -100.654
vt -5.32797 0.0787402
vt -5.39991 0.0787402
f 24/596/31 25/597/37 253/598/37 252/599/31 

vt -5.79546 0
vt -5.72352 0
v 109.523 2 -99.2042
vt -5.72352 0.0787402
vt -5.79546 0.0787402
f 25/600/37 29/601/33 254/602/33 253/603/37 

vt -5.79851 0
vt -5.72657 0
v 108.073 2 -98.0918
vt -5.72657 0.0787402
vt -5.79851 0.0787402
f 29/604/33 30/605/34 255/606/34 254/607/33 

vt -5.40885 0
vt -5.3369 0
v 106.385 2 -97.3925
vt -5.3369 0.0787402
vt -5.40885 0.0787402
f 30/608/34 32/609/35 256/610/35 255/611/34 

vt -4.65304 0
vt -4.58109 0
vt -4.58109 0.0787402
vt -4.65304 0.0787402
f 32/612/35 34/613/24 74/614/24 256/615/35 

vt -3.58258 0
vt -3.51063 0
vt -3.51063 0.0787402
vt -3.58258 0.0787402
f 34/616/24 36/617/8 73/618/8 74/619/24 

vt -2.27042 0
vt -2.19848 0
vt -2.19848 0.0787402
vt -2.27042 0.0787402
f 36/620/8 37/621/9 72/622/9 73/623/8 

vt -0.805996 0
vt -0.734053 0
vt -0.734053 0.0787402
vt -0.805996 0.0787402
f 37/624/9 38/625/10 71/626/10 72/627/9 

vt 0.710907 0
v 98.5111 0 -100.654
vt 0.782851 0
v 98.5111 2 -100.654
vt 0.782851 0.0787402
vt 0.710907 0.0787402
f 38/628/10 257/629/7 258/630/7 71/631/10 

vt -3.87839 3.96275
f 38/43/1 39/44/1 257/632/1

v 97.8118 0 -102.342
vt -3.85086 4.02922
f 257/632/1 39/44/1 259/633/1

v 97.5732 0 -104.154
vt -3.84147 4.10055
f 259/633/1 39/44/1 260/634/1

v 97.8118 0 -105.966
vt -3.85086 4.17188
f 39/44/1 261/635/1 260/634/1

v 98.5111 0 -107.654
vt -3.87839 4.23834
f 39/44/1 262/636/1 261/635/1

v 99.6235 0 -109.104
vt -3.92218 4.29542
f 39/44/1 263/637/1 262/636/1

v 111.623 0 -121.104
vt -4.39463 4.76786
f 39/44/1 264/638/1 263/637/1

f 39/44/1 196/321/1 264/638/1

v 84.0962 0 -107.777
vt -3.31087 4.24321
f 265/639/1 196/321/1 39/44/1

f 195/320/1 196/321/1 265/639/1

vt -2.79708 0
vt -2.65319 0
vt -2.65319 0.0787402
vt -2.79708 0.0787402
f 195/640/21 265/641/22 131/642/22 132/643/21 

vt -3.77475 0
vt -3.63086 0
vn -1 0 4.05929e-016
vt -3.63086 0.0787402
vt -3.77475 0.0787402
f 265/644/22 39/645/38 70/646/38 131/647/22 

vt -4.50008 0
vt -4.35619 0
vt -4.35619 0.0787402
vt -4.50008 0.0787402
f 39/648/38 40/649/31 69/650/31 70/651/38 

vt -4.92363 0
vt -4.77975 0
vt -4.77975 0.0787402
vt -4.92363 0.0787402
f 40/652/31 41/653/37 68/654/37 69/655/31 

vt -5.01656 0
vt -4.87267 0
vt -4.87267 0.0787402
vt -5.01656 0.0787402
f 41/656/37 42/657/33 67/658/33 68/659/37 

vt -4.77251 0
vt -4.62862 0
vt -4.62862 0.0787402
vt -4.77251 0.0787402
f 42/660/33 43/661/34 66/662/34 67/663/33 

vt -4.20813 0
vt -4.06424 0
vt -4.06424 0.0787402
vt -4.20813 0.0787402
f 43/664/34 44/665/35 65/666/35 66/667/34 

vt -3.36188 0
vt -3.21799 0
vt -3.21799 0.0787402
vt -3.36188 0.0787402
f 44/668/35 45/669/11 64/670/11 65/671/35 

vt -1.6337 0
vt -1.48981 0
vt -1.48981 0.0787402
vt -1.6337 0.0787402
f 194/672/20 195/673/21 132/674/21 134/675/20 

vt 6.38898 0
vt 6.46093 0
vt 6.46093 0.0787402
vt 6.38898 0.0787402
f 264/676/14 196/677/15 130/678/15 127/679/14 

v 110.511 0 -119.654
vt 6.38593 0
vt 6.45788 0
vt 6.45788 0.0787402
vt 6.38593 0.0787402
f 266/680/13 264/681/14 127/682/14 124/683/13 

v 102.762 0 -110.915
vt -4.04573 4.36675
vt -4.35083 4.71079
f 267/684/1 264/638/1 266/685/1

v 101.073 0 -110.216
vt -3.97926 4.33922
f 268/686/1 264/638/1 267/684/1

f 263/637/1 264/638/1 268/686/1

vt 5.72657 0
vt 5.79851 0
vt 5.79851 0.0787402
vt 5.72657 0.0787402
f 263/687/14 268/688/15 128/689/15 129/690/14 

vt 5.3369 0
vt 5.40885 0
vt 5.40885 0.0787402
vt 5.3369 0.0787402
f 268/691/15 267/692/16 126/693/16 128/694/15 

vt 4.58109 0
v 104.573 0 -111.154
vt 4.65304 0
vt 4.65304 0.0787402
vt 4.58109 0.0787402
f 267/695/16 269/696/29 125/697/29 126/698/16 

vt -4.11706 4.37614
f 267/684/1 266/685/1 269/699/1

v 106.385 0 -110.915
vt -4.18838 4.36675
f 269/699/1 266/685/1 270/700/1

v 109.812 0 -117.966
vt -4.3233 4.64432
f 270/700/1 266/685/1 271/701/1

vt 5.94524 0
vt 6.01719 0
vt 6.01719 0.0787402
vt 5.94524 0.0787402
f 271/702/4 266/703/13 124/704/13 122/705/4 

vt 5.09695 0
vt 5.16889 0
vt 5.16889 0.0787402
vt 5.09695 0.0787402
f 249/706/12 271/707/4 122/708/4 119/709/12 

v 108.073 0 -110.216
vt -4.25485 4.33922
f 272/710/1 271/701/1 249/577/1

f 270/700/1 271/701/1 272/710/1

vt 2.19848 0
vt 2.27042 0
vt 2.27042 0.0787402
vt 2.19848 0.0787402
f 270/711/18 272/712/19 121/713/19 123/714/18 

vt 0.734053 0
vt 0.805996 0
vt 0.805996 0.0787402
vt 0.734053 0.0787402
f 272/715/19 250/716/20 120/717/20 121/718/19 

f 272/710/1 249/577/1 250/578/1

vt 3.51063 0
vt 3.58258 0
vt 3.58258 0.0787402
vt 3.51063 0.0787402
f 269/719/29 270/720/18 123/721/18 125/722/29 

vt 3.89885 0
vt 3.97079 0
vt 3.97079 0.0787402
vt 3.89885 0.0787402
f 248/723/2 249/724/12 119/725/12 118/726/2 

vt 2.4326 0
vt 2.50454 0
vt 2.50454 0.0787402
vt 2.4326 0.0787402
f 246/727/7 248/728/2 118/729/2 117/730/7 

vt 5.72352 0
vt 5.79546 0
vt 5.79546 0.0787402
v 98.5111 2 -107.654
vt 5.72352 0.0787402
f 262/731/13 263/732/14 129/733/14 273/734/13 

vt 3.87839 4.23834
f 129/219/6 70/99/6 273/735/6

v 97.8118 2 -105.966
vt 3.85086 4.17188
f 273/735/6 70/99/6 274/736/6

v 97.5732 2 -104.154
vt 3.84147 4.10055
f 274/736/6 70/99/6 275/737/6

v 97.8118 2 -102.342
vt 3.85086 4.02922
f 70/99/6 276/738/6 275/737/6

vt 3.87839 3.96275
f 70/99/6 258/739/6 276/738/6

f 70/99/6 71/100/6 258/739/6

vt 2.17691 0
vt 2.24886 0
vt 2.24886 0.0787402
vt 2.17691 0.0787402
f 257/740/7 259/741/2 276/742/2 258/743/7 

vt 3.49211 0
vt 3.56406 0
vt 3.56406 0.0787402
vt 3.49211 0.0787402
f 259/744/2 260/745/3 275/746/3 276/747/2 

vt 4.56688 0
vt 4.63882 0
vt 4.63882 0.0787402
vt 4.56688 0.0787402
f 260/748/3 261/749/4 274/750/4 275/751/3 

vt 5.32797 0
vt 5.39991 0
vt 5.39991 0.0787402
vt 5.32797 0.0787402
f 261/752/4 262/753/13 273/754/13 274/755/4 

vt 4.18838 3.83435
f 74/103/6 75/104/6 256/756/6

vt 4.3233 3.55678
f 256/756/6 75/104/6 90/757/6

vt 4.25485 3.86188
f 256/756/6 90/757/6 255/758/6

vt 4.31391 3.62811
f 255/758/6 90/757/6 91/759/6

vt 4.31193 3.90568
f 255/758/6 91/759/6 254/760/6

vt 4.35573 3.96275
f 91/759/6 253/761/6 254/760/6

vt 4.3233 3.69944
f 253/761/6 91/759/6 92/762/6

vt 4.35083 3.7659
f 253/761/6 92/762/6 93/763/6

f 253/761/6 93/763/6 94/203/6

vt 4.38326 4.02922
f 253/761/6 94/203/6 252/764/6

f 252/764/6 94/203/6 114/204/6

vt -6.01719 0
vt -5.94524 0
vt -5.94524 0.0787402
vt -6.01719 0.0787402
f 204/765/31 9/766/37 245/767/37 205/768/31 

vt 5.61312 5.0848
vt 5.53438 2.88008
f 154/769/6 233/227/6 53/770/6

v 35.5732 32 -127.154
f 154/769/6 277/67/6 233/227/6

f 153/259/6 277/67/6 154/769/6

f 277/67/6 153/259/6 52/62/6

vt 2.88008 1.25984
vn 1 6.24375e-017 5.13889e-018
v 35.5732 23 -82.154
vt 3.23441 0.905512
vt 5.00606 1.25984
f 52/771/39 278/772/39 277/773/39

v 35.5732 10 -82.154
vt 3.23441 0.393701
f 278/772/39 52/771/39 279/774/39

f 51/113/39 279/774/39 52/771/39

vt 5.00606 0.0787402
f 279/774/39 51/113/39 58/775/39

v 35.5732 10 -95.154
vt 3.74622 0.393701
f 279/774/39 58/775/39 280/776/39

v 35.5732 23 -95.154
vt 3.74622 0.905512
f 280/776/39 58/775/39 281/777/39

f 277/773/39 281/777/39 58/775/39

f 277/773/39 278/772/39 281/777/39

vt -1.40052 3.74622
vt -1.40052 3.23441
vt -1.32178 3.23441
v 33.5732 23 -95.154
vt -1.32178 3.74622
f 281/778/1 278/779/1 157/780/1 282/781/1 

vt -1.40052 0.905512
vt -1.40052 0.393701
vt -1.32178 0.393701
vt -1.32178 0.905512
f 278/782/24 279/783/24 156/784/24 157/785/24 

vt 1.40052 3.23441
vt 1.40052 3.74622
vt 1.32178 3.74622
vt 1.32178 3.23441
f 279/786/6 280/787/6 155/788/6 156/789/6 

vt 1.40052 0.393701
vt 1.40052 0.905512
vt 1.32178 0.905512
vt 1.32178 0.393701
f 280/790/29 281/791/29 282/792/29 155/793/29 

vt -3.74622 0.905512
f 282/794/25 153/253/25 155/252/25

f 157/256/25 153/253/25 282/794/25

vt 1.40052 0.0787402
vt 5.53438 1.25984
vt 1.40052 1.25984
f 58/795/29 137/446/29 233/796/29 277/797/29 

f 53/770/6 159/260/6 154/769/6

f 52/62/6 159/260/6 53/770/6

vt 4.06424 0
vt 4.20813 0
vt 4.20813 0.0787402
vt 4.06424 0.0787402
f 150/798/15 151/799/16 139/800/16 140/801/15 

vt 4.62862 0
vt 4.77251 0
vt 4.77251 0.0787402
vt 4.62862 0.0787402
f 149/802/14 150/803/15 140/804/15 141/805/14 

vt 4.87267 0
vt 5.01656 0
vt 5.01656 0.0787402
vt 4.87267 0.0787402
f 147/806/13 149/807/14 141/808/14 142/809/13 

vt 4.77975 0
vt 4.92363 0
vt 4.92363 0.0787402
vt 4.77975 0.0787402
f 146/810/4 147/811/13 142/812/13 143/813/4 

vt 4.35619 0
vt 4.50008 0
vt 4.50008 0.0787402
vt 4.35619 0.0787402
f 145/814/23 146/815/4 143/816/4 144/817/23 

v 92.3159 6.75736 -71.154
vt 3.63448 0.266038
f 171/276/26 159/263/26 283/818/26

v 93.0732 7.74437 -71.154
vt 3.6643 0.304896
f 283/818/26 159/263/26 284/819/26

v 93.0732 14.2556 -71.154
vt 3.6643 0.561245
f 284/819/26 159/263/26 285/820/26

v 92.3159 15.2426 -71.154
vt 3.63448 0.600104
f 285/820/26 159/263/26 286/821/26

v 91.0732 16.1962 -71.154
vt 3.58556 0.637644
f 286/821/26 159/263/26 287/822/26

v 89.6262 16.7956 -71.154
vt 3.52859 0.661242
f 287/822/26 159/263/26 288/823/26

f 288/823/26 159/263/26 160/262/26

vt 2.80134 -3.41209
vn 0.258819 0.965926 -0
vt 2.80134 -3.35043
v 88.0732 17 -54.154
vt 2.13205 -3.35043
v 89.6262 16.7956 -54.154
vt 2.13205 -3.41209
f 288/824/40 160/825/6 289/826/6 290/827/40 

vt -2.80134 3.52515
vt -2.80134 3.46348
vn -0.258819 0.965926 -0
v 86.5203 16.7956 -54.154
vt -2.13205 3.46348
vt -2.13205 3.52515
f 160/828/6 161/829/41 291/830/41 289/831/6 

vt -2.80134 3.40007
vt -2.80134 3.3384
vn -0.5 0.866025 -0
v 85.0732 16.1962 -54.154
vt -2.13205 3.3384
vt -2.13205 3.40007
f 161/832/41 162/833/42 292/834/42 291/835/41 

vt -2.80134 3.04538
vt -2.80134 2.98372
vn -0.707107 0.707107 -0
v 83.8306 15.2426 -54.154
vt -2.13205 2.98372
vt -2.13205 3.04538
f 162/836/42 163/837/43 293/838/43 292/839/42 

vt -2.80134 2.48526
vt -2.80134 2.43628
vn -0.793353 0.608761 -0
v 83.0732 14.2556 -54.154
vt -2.13205 2.43628
vt -2.13205 2.48526
f 163/840/43 164/841/44 294/842/44 293/843/43 

v 83.0732 13 -61.154
vt -2.40764 0.511811
vt -2.13205 0.561245
vt -2.80134 0.561245
f 295/844/30 294/845/30 164/846/30

v 83.0732 12.9319 -60.6363
vt -2.38726 0.509128
f 296/847/30 294/845/30 295/844/30

v 83.0732 12.7321 -60.154
vt -2.36827 0.501262
f 297/848/30 294/845/30 296/847/30

v 83.0732 12.4142 -59.7397
vt -2.35196 0.488749
f 298/849/30 294/845/30 297/848/30

v 83.0732 7.74437 -54.154
vt -2.13205 0.304896
f 294/845/30 298/849/30 299/850/30

v 83.0732 12 -59.4219
vt -2.33944 0.472441
f 299/850/30 298/849/30 300/851/30

v 93.0732 12.4142 -59.7397
vt -3.6643 1.81953
vn 7.02883e-031 -0.707107 -0.707107
v 93.0732 12 -59.4219
vt -3.6643 1.79898
vn 4.97013e-031 -0.5 -0.866025
vt -3.2706 1.79898
vt -3.2706 1.81953
f 301/852/45 302/853/46 300/854/46 298/855/45 

vt 2.35196 0.488749
v 93.0732 14.2556 -54.154
vt 2.13205 0.561245
vt 2.33944 0.472441
f 301/856/12 303/857/12 302/858/12

v 93.0732 12.7321 -60.154
vt 2.36827 0.501262
f 304/859/12 303/857/12 301/856/12

v 93.0732 12.9319 -60.6363
vt 2.38726 0.509128
f 305/860/12 303/857/12 304/859/12

v 93.0732 13 -61.154
vt 2.40764 0.511811
f 306/861/12 303/857/12 305/860/12

vt 2.80134 0.561245
f 303/857/12 306/861/12 285/862/12

v 93.0732 12.9319 -61.6716
vt 2.42802 0.509128
f 285/862/12 306/861/12 307/863/12

vt 3.6643 -2.34079
vn 9.60156e-031 -0.965926 0.258819
vt 3.6643 -2.32023
vn 9.94026e-031 -1 -0
vt 3.2706 -2.32023
v 83.0732 12.9319 -61.6716
vt 3.2706 -2.34079
f 307/864/47 306/865/48 295/866/48 308/867/47 

vt -3.6643 2.45384
vt -3.6643 2.43329
vn 9.60156e-031 -0.965926 -0.258819
vt -3.2706 2.43329
vt -3.2706 2.45384
f 306/868/48 305/869/49 296/870/49 295/871/48 

vt -3.6643 2.40037
vt -3.6643 2.37982
vn 8.60852e-031 -0.866025 -0.5
vt -3.2706 2.37982
vt -3.2706 2.40037
f 305/872/49 304/873/50 297/874/50 296/875/49 

vt -3.6643 2.18402
vt -3.6643 2.16347
vt -3.2706 2.16347
vt -3.2706 2.18402
f 304/876/50 301/877/45 298/878/45 297/879/50 

vt -2.42802 0.509128
f 295/844/30 164/846/30 308/880/30

v 83.0732 12.7321 -62.154
vt -2.44701 0.501262
f 308/880/30 164/846/30 309/881/30

v 83.0732 12.4142 -62.5682
vt -2.46331 0.488749
f 309/881/30 164/846/30 310/882/30

v 83.0732 12 -62.886
vt -2.47583 0.472441
f 310/882/30 164/846/30 311/883/30

v 83.0732 11.5176 -63.0858
vt -2.48369 0.45345
f 311/883/30 164/846/30 312/884/30

v 83.0732 11 -63.154
vt -2.48638 0.433071
f 312/884/30 164/846/30 313/885/30

vt -2.80134 0.304896
f 165/886/30 313/885/30 164/846/30

v 83.0732 10.4824 -63.0858
vt -2.48369 0.412691
f 165/886/30 314/887/30 313/885/30

v 83.0732 10 -62.886
vt -2.47583 0.393701
f 165/886/30 315/888/30 314/887/30

v 83.0732 9.58579 -62.5682
vt -2.46331 0.377393
f 165/886/30 316/889/30 315/888/30

v 83.0732 9.26795 -62.154
vt -2.44701 0.36488
f 165/886/30 317/890/30 316/889/30

v 83.0732 9.06815 -61.6716
vt -2.42802 0.357014
f 165/886/30 318/891/30 317/890/30

v 83.0732 9 -61.154
vt -2.40764 0.354331
f 165/886/30 319/892/30 318/891/30

f 299/850/30 319/892/30 165/886/30

v 83.0732 9.06815 -60.6363
vt -2.38726 0.357014
f 319/892/30 299/850/30 320/893/30

v 83.0732 9.26795 -60.154
vt -2.36827 0.36488
f 320/893/30 299/850/30 321/894/30

v 83.0732 9.58579 -59.7397
vt -2.35196 0.377393
f 321/894/30 299/850/30 322/895/30

v 83.0732 10 -59.4219
vt -2.33944 0.393701
f 322/895/30 299/850/30 323/896/30

v 83.0732 10.4824 -59.2221
vt -2.33158 0.412691
f 323/896/30 299/850/30 324/897/30

v 83.0732 11 -59.154
vt -2.3289 0.433071
f 324/897/30 299/850/30 325/898/30

v 83.0732 11.5176 -59.2221
vt -2.33158 0.45345
f 299/850/30 326/899/30 325/898/30

f 299/850/30 300/851/30 326/899/30

vt -3.6643 1.33175
v 93.0732 11.5176 -59.2221
vt -3.6643 1.31119
vn 2.57273e-031 -0.258819 -0.965926
vt -3.2706 1.31119
vt -3.2706 1.33175
f 302/900/46 327/901/51 326/902/51 300/903/46 

vt 2.33158 0.45345
f 302/858/12 303/857/12 327/904/12

v 93.0732 11 -59.154
vt 2.3289 0.433071
f 327/904/12 303/857/12 328/905/12

v 93.0732 10.4824 -59.2221
vt 2.33158 0.412691
f 303/857/12 329/906/12 328/905/12

v 93.0732 10 -59.4219
vt 2.33944 0.393701
f 303/857/12 330/907/12 329/906/12

v 93.0732 9.58579 -59.7397
vt 2.35196 0.377393
f 303/857/12 331/908/12 330/907/12

v 93.0732 7.74437 -54.154
vt 2.13205 0.304896
f 332/909/12 331/908/12 303/857/12

v 93.0732 9.26795 -60.154
vt 2.36827 0.36488
f 331/908/12 332/909/12 333/910/12

v 93.0732 9.06815 -60.6363
vt 2.38726 0.357014
f 333/910/12 332/909/12 334/911/12

v 93.0732 9 -61.154
vt 2.40764 0.354331
f 334/911/12 332/909/12 335/912/12

vt 2.80134 0.304896
f 335/912/12 332/909/12 284/913/12

vt 2.80134 2.4236
vn 0.707107 -0.707107 -0
vt 2.80134 2.47258
vn 0.793353 -0.608761 -0
vt 2.13205 2.47258
v 92.3159 6.75736 -54.154
vt 2.13205 2.4236
f 283/914/52 284/915/53 332/916/53 336/917/52 

v 86.5203 5.20445 -54.154
v 88.0732 5 -54.154
v 89.6262 5.20445 -54.154
v 91.0732 5.80385 -54.154
v 92.3159 15.2426 -54.154
v 91.0732 16.1962 -54.154
v 83.8306 6.75736 -54.154
v 85.0732 5.80385 -54.154
f 337/272/29 338/273/29 339/275/29 340/276/29 336/818/29 332/819/29 303/820/29 341/821/29 342/822/29 290/823/29 289/262/29 291/264/29 292/265/29 293/266/29 294/267/29 299/268/29 343/269/29 344/270/29 

vt -2.80134 -3.35043
vn -0.258819 -0.965926 -0
vt -2.80134 -3.41209
vn 4.33924e-016 -1 -0
vt -2.13205 -3.41209
vt -2.13205 -3.35043
f 168/918/54 169/919/55 338/920/55 337/921/54 

vt 2.80134 3.46348
vt 2.80134 3.52515
vn 0.258819 -0.965926 -0
vt 2.13205 3.52515
vt 2.13205 3.46348
f 169/922/55 170/923/56 339/924/56 338/925/55 

vt 2.80134 3.3384
vt 2.80134 3.40007
vn 0.5 -0.866025 -0
vt 2.13205 3.40007
vt 2.13205 3.3384
f 170/926/56 171/927/57 340/928/57 339/929/56 

vt 2.80134 2.98372
vt 2.80134 3.04538
vt 2.13205 3.04538
vt 2.13205 2.98372
f 171/930/57 283/931/52 336/932/52 340/933/57 

vt -2.80134 -3.00694
vn -0.5 -0.866025 -0
vt -2.80134 -3.06861
vt -2.13205 -3.06861
vt -2.13205 -3.00694
f 167/934/58 168/935/54 337/936/54 344/937/58 

vt -2.80134 -2.45644
vn -0.707107 -0.707107 -0
vt -2.80134 -2.51811
vt -2.13205 -2.51811
vt -2.13205 -2.45644
f 166/938/59 167/939/58 344/940/58 343/941/59 

vt -2.80134 -1.74912
vn -0.793353 -0.608761 -0
vt -2.80134 -1.7981
vt -2.13205 -1.7981
vt -2.13205 -1.74912
f 165/942/60 166/943/59 343/944/59 299/945/60 

vt 2.80134 -1.78542
vn 0.793353 0.608761 -0
vt 2.80134 -1.73644
vn 0.707107 0.707107 -0
vt 2.13205 -1.73644
vt 2.13205 -1.78542
f 285/946/61 286/947/62 341/948/62 303/949/61 

vt 2.80134 -2.51811
vt 2.80134 -2.45644
vn 0.5 0.866025 -0
vt 2.13205 -2.45644
vt 2.13205 -2.51811
f 286/950/62 287/951/63 342/952/63 341/953/62 

vt 2.80134 -3.06861
vt 2.80134 -3.00694
vt 2.13205 -3.00694
vt 2.13205 -3.06861
f 287/954/63 288/955/40 290/956/40 342/957/63 

v 93.0732 9.06815 -61.6716
vt 2.42802 0.357014
f 335/912/12 284/913/12 345/958/12

v 93.0732 9.26795 -62.154
vt 2.44701 0.36488
f 345/958/12 284/913/12 346/959/12

v 93.0732 9.58579 -62.5682
vt 2.46331 0.377393
f 346/959/12 284/913/12 347/960/12

v 93.0732 10 -62.886
vt 2.47583 0.393701
f 347/960/12 284/913/12 348/961/12

v 93.0732 10.4824 -63.0858
vt 2.48369 0.412691
f 348/961/12 284/913/12 349/962/12

v 93.0732 11 -63.154
vt 2.48638 0.433071
f 349/962/12 284/913/12 350/963/12

f 285/862/12 350/963/12 284/913/12

v 93.0732 11.5176 -63.0858
vt 2.48369 0.45345
f 285/862/12 351/964/12 350/963/12

v 93.0732 12 -62.886
vt 2.47583 0.472441
f 285/862/12 352/965/12 351/964/12

v 93.0732 12.4142 -62.5682
vt 2.46331 0.488749
f 285/862/12 353/966/12 352/965/12

v 93.0732 12.7321 -62.154
vt 2.44701 0.501262
f 285/862/12 354/967/12 353/966/12

f 285/862/12 307/863/12 354/967/12

vt 3.6643 -2.06891
vn 8.60852e-031 -0.866025 0.5
vt 3.6643 -2.04836
vt 3.2706 -2.04836
vt 3.2706 -2.06891
f 354/968/64 307/969/47 308/970/47 309/971/64 

vt 3.6643 -1.65675
vn 7.02883e-031 -0.707107 0.707107
vt 3.6643 -1.63619
vt 3.2706 -1.63619
vt 3.2706 -1.65675
f 353/972/65 354/973/64 309/974/64 310/975/65 

vt 3.6643 -1.13238
vn 4.97013e-031 -0.5 0.866025
vt 3.6643 -1.11182
vt 3.2706 -1.11182
vt 3.2706 -1.13238
f 352/976/66 353/977/65 310/978/65 311/979/66 

vt 3.6643 -0.531535
vn 2.57273e-031 -0.258819 0.965926
vt 3.6643 -0.510979
vt 3.2706 -0.510979
vt 3.2706 -0.531535
f 351/980/67 352/981/66 311/982/66 312/983/67 

vt 3.6643 0.104829
vn -3.09179e-046 0 1
vt 3.6643 0.125384
vt 3.2706 0.125384
vt 3.2706 0.104829
f 350/984/68 351/985/67 312/986/67 313/987/68 

vt 3.6643 0.733348
vn -2.57273e-031 0.258819 0.965926
vt 3.6643 0.753903
vt 3.2706 0.753903
vt 3.2706 0.733348
f 349/988/69 350/989/68 313/990/68 314/991/69 

vt 3.6643 1.31119
vn -4.97013e-031 0.5 0.866025
vt 3.6643 1.33175
vt 3.2706 1.33175
vt 3.2706 1.31119
f 348/992/70 349/993/69 314/994/69 315/995/70 

vt 3.6643 1.79898
vn -7.02883e-031 0.707107 0.707107
vt 3.6643 1.81953
vt 3.2706 1.81953
vt 3.2706 1.79898
f 347/996/71 348/997/70 315/998/70 316/999/71 

vt 3.6643 2.16347
vn -8.60852e-031 0.866025 0.5
vt 3.6643 2.18402
vt 3.2706 2.18402
vt 3.2706 2.16347
f 346/1000/72 347/1001/71 316/1002/71 317/1003/72 

vt 3.6643 2.37982
vn -9.60156e-031 0.965926 0.258819
vt 3.6643 2.40037
vt 3.2706 2.40037
vt 3.2706 2.37982
f 345/1004/73 346/1005/72 317/1006/72 318/1007/73 

vt 3.6643 2.43329
vn -9.94026e-031 1 -0
vt 3.6643 2.45384
vt 3.2706 2.45384
vt 3.2706 2.43329
f 335/1008/74 345/1009/73 318/1010/73 319/1011/74 

vt -3.6643 -2.32023
vn -9.60156e-031 0.965926 -0.258819
vt -3.6643 -2.34079
vt -3.2706 -2.34079
vt -3.2706 -2.32023
f 334/1012/75 335/1013/74 319/1014/74 320/1015/75 

vt -3.6643 -2.04836
vn -8.60852e-031 0.866025 -0.5
vt -3.6643 -2.06891
vt -3.2706 -2.06891
vt -3.2706 -2.04836
f 333/1016/76 334/1017/75 320/1018/75 321/1019/76 

vt -3.6643 -1.63619
vn -7.02883e-031 0.707107 -0.707107
vt -3.6643 -1.65675
vt -3.2706 -1.65675
vt -3.2706 -1.63619
f 331/1020/77 333/1021/76 321/1022/76 322/1023/77 

vt -3.6643 -1.11182
vn -4.97013e-031 0.5 -0.866025
vt -3.6643 -1.13238
vt -3.2706 -1.13238
vt -3.2706 -1.11182
f 330/1024/78 331/1025/77 322/1026/77 323/1027/78 

vt -3.6643 -0.510979
vn -2.57273e-031 0.258819 -0.965926
vt -3.6643 -0.531535
vt -3.2706 -0.531535
vt -3.2706 -0.510979
f 329/1028/79 330/1029/78 323/1030/78 324/1031/79 

vt -3.6643 0.125384
vn 6.51485e-046 -3.63936e-016 -1
vt -3.6643 0.104829
vt -3.2706 0.104829
vt -3.2706 0.125384
f 328/1032/80 329/1033/79 324/1034/79 325/1035/80 

vt -3.6643 0.753903
vt -3.6643 0.733348
vt -3.2706 0.733348
vt -3.2706 0.753903
f 327/1036/51 328/1037/80 325/1038/80 326/1039/51 

