# Alias OBJ Model File
# Exported from SketchUp, (c) 2000-2012 Trimble Navigation Limited
# File units = millimeters

mtllib SPION_TRACK.mtl

g Mesh1 Component_1_1 Model

usemtl FrontColor
v 43.3119 7.4 -37.7026
vt -0.216535 0.275591
vn 4.85723e-017 1 1.84314e-016
v 45.3113 7.4 -37.6537
vt -0.295276 0.275591
v 46.3843 7.4 -40.6284
vt -0.334646 0.15748
v 42.3855 7.4 -40.7262
vt -0.177165 0.15748
f 1/1/1 2/2/1 3/3/1 4/4/1 

vt -0.216535 0.299213
vn -0.0244424 -1.83072e-016 0.999701
v 43.3119 5 -37.7026
vt -0.216535 0.393701
v 45.3113 5.02131 -37.6537
vt -0.295276 0.392862
vt -0.295276 0.299213
f 1/5/2 5/6/2 6/7/2 2/8/2 

vt -0.329923 0.299213
vn -0.956129 2.27828e-018 0.292945
vt -0.205424 0.299213
v 42.3855 5 -40.7262
vt -0.205424 0.393701
vt -0.329923 0.393701
f 1/9/3 4/10/3 7/11/3 5/12/3 

vt -0.334646 0.299213
vt -0.177165 0.299213
vt -0.177165 0.393701
v 46.3843 5.02131 -40.6284
vt -0.334646 0.392862
f 3/13/2 4/14/2 7/15/2 8/16/2 

vn -0.0244424 -1.87862e-016 0.999701
v 39.1365 10.8 -40.8056
vt -0.0492126 0.165354
f 3/13/4 9/17/4 4/14/4

v 41.8857 10.8 -40.7384
vt -0.15748 0.165354
f 3/13/4 10/18/4 9/17/4

v 46.8842 12 -40.6162
vt -0.354331 0.11811
f 11/19/4 10/18/4 3/13/4

v 49.6334 15 -40.5489
vt -0.462598 -7.54392e-019
f 12/20/4 10/18/4 11/19/4

v 41.8857 15 -40.7384
vt -0.15748 -7.54392e-019
f 10/18/4 12/20/4 13/21/4

vt -0.462598 0.15748
v 41.9834 15 -44.7372
vt -0.15748 0
vt -0.15748 0.15748
f 12/22/1 14/23/1 13/24/1

v 48.8043 15 -42.0697
vt -0.428503 0.0984252
f 14/23/1 12/22/1 15/25/1

v 48.9581 15 -41.8587
vt -0.43476 0.106579
f 15/25/1 12/22/1 16/26/1

v 49.1612 15 -41.6948
vt -0.442913 0.112836
f 16/26/1 12/22/1 17/27/1

v 49.2849 15 -41.64
vt -0.447835 0.114874
f 17/27/1 12/22/1 18/28/1

v 49.3999 15 -41.589
vt -0.452409 0.116769
f 18/28/1 12/22/1 19/29/1

v 49.6578 15 -41.5486
vt -0.462598 0.11811
f 19/29/1 12/22/1 20/30/1

v 50.1525 15 -40.6044
vt -0.482978 0.154797
f 20/30/1 12/22/1 21/31/1

vt -0.458641 5.33749e-033
vn 0.235132 -1.90568e-016 0.971963
vt -0.438086 5.33749e-033
vn 0.106254 -1.88432e-016 0.994339
v 49.6334 12 -40.5489
vt -0.438086 0.11811
v 50.1525 12 -40.6044
vt -0.458641 0.11811
f 21/32/5 12/33/6 22/34/6 23/35/5 

f 22/30/4 12/20/4 11/19/4

v 46.982 12 -44.615
vt 0.354331 0
vn -4.85723e-017 -1 -1.84314e-016
vt 0.462598 0.15748
vt 0.354331 0.15748
f 24/36/7 22/37/7 11/38/7

v 48.8043 12 -42.0697
vt 0.428503 0.0984252
f 22/37/7 24/36/7 25/39/7

v 48.7103 12 -42.3132
vt 0.42457 0.0889299
f 25/39/7 24/36/7 26/40/7

v 48.6825 12 -42.5728
vt 0.423228 0.0787402
f 26/40/7 24/36/7 27/41/7

v 48.7229 12 -42.8307
vt 0.42457 0.0685504
f 24/36/7 28/42/7 27/41/7

v 48.8287 12 -43.0694
vt 0.428503 0.0590551
f 28/42/7 24/36/7 29/43/7

v 49.7311 12 -44.5478
vt 0.462598 0
f 29/43/7 24/36/7 30/44/7

v 39.2343 10.8 -44.8044
vt 0.0492126 0.165354
vn 0.0244424 1.01926e-016 -0.999701
v 41.9834 10.8 -44.7372
vt 0.15748 0.165354
vt 0.15748 -3.34292e-032
v 49.7311 15 -44.5478
vt 0.462598 -9.81982e-032
vt 0.462598 0.11811
vt 0.354331 0.11811
v 46.982 3 -44.615
vt 0.354331 0.472441
v 49.7311 3 -44.5478
vt 0.462598 0.472441
v 49.7311 0 -44.5478
vt 0.462598 0.590551
v 41.9834 0 -44.7372
vt 0.15748 0.590551
v 41.9834 4.2 -44.7372
vt 0.15748 0.425197
v 39.2343 4.2 -44.8044
vt 0.0492126 0.425197
f 31/45/8 32/46/8 14/47/8 33/48/8 30/49/8 24/50/8 34/51/8 35/52/8 36/53/8 37/54/8 38/55/8 39/56/8 

vt -0.0492126 -2.66454e-015
vn -2.28206e-015 1 1.27331e-016
v 39.2123 10.8 -43.9055
vt -0.0492126 0.0353991
vt -0.15748 -1.20658e-030
f 31/57/9 40/58/9 32/59/9

v 38.9265 10.8 -43.875
vt -0.0379951 0.0368759
f 31/57/9 41/60/9 40/58/9

v 38.7151 10.8 -44.7489
vt -0.0288331 0.00268301
f 42/61/9 41/60/9 31/57/9

v 38.6584 10.8 -43.7715
vt -0.0275421 0.0412057
f 42/61/9 43/62/9 41/60/9

v 38.4262 10.8 -43.6022
vt -0.0185658 0.0480934
f 42/61/9 44/63/9 43/62/9

v 38.2457 10.8 -43.3786
vt -0.0116781 0.0570696
f 42/61/9 45/64/9 44/63/9

v 38.228 10.8 -44.561
vt -0.00984252 0.0105492
f 46/65/9 45/64/9 42/61/9

v 38.1293 10.8 -43.1158
vt -0.00734835 0.0675227
f 46/65/9 47/66/9 45/64/9

v 38.0849 10.8 -42.8319
vt -0.00587154 0.0787402
f 46/65/9 48/67/9 47/66/9

v 37.8062 10.8 -44.2534
vt 0.0064651 0.0230625
f 48/67/9 46/65/9 49/68/9

v 38.228 4.2 -44.561
vt 0.00138666 0.425197
vn -0.478683 1.85076e-016 -0.877988
v 37.8062 4.2 -44.2534
vt -0.0191686 0.425197
vn -0.689612 1.66973e-016 -0.724179
vt -0.0191686 0.165354
vt 0.00138666 0.165354
f 50/69/10 51/70/11 49/71/11 46/72/10 

v 37.737 4.2 -41.4258
vt -0.0064651 0.134418
vt -0.0064651 0.0230625
vt 0.00984252 0.0105492
f 52/73/7 51/74/7 50/75/7

v 37.4294 4.2 -41.8476
vt -0.0189784 0.11811
f 53/76/7 51/74/7 52/73/7

v 37.4783 4.2 -43.847
vt -0.0189784 0.0393701
f 53/76/7 54/77/7 51/74/7

v 37.2415 4.2 -42.3347
vt -0.0268446 0.0991196
f 55/78/7 54/77/7 53/76/7

v 37.2668 4.2 -43.3697
vt -0.0268446 0.0583607
f 55/78/7 56/79/7 54/77/7

v 37.186 4.2 -42.8539
vt -0.0295276 0.0787402
f 56/79/7 55/78/7 57/80/7

vt -0.0742124 0.425197
vn -0.999701 5.30628e-017 -0.0244424
vt -0.0947677 0.425197
vn -0.971963 3.87221e-018 0.235132
v 37.2415 10.8 -42.3347
vt -0.0947677 0.165354
v 37.186 10.8 -42.8539
vt -0.0742124 0.165354
f 57/81/12 55/82/13 58/83/13 59/84/12 

vt -0.0813016 0.425197
vt -0.101857 0.425197
vn -0.877988 -4.55823e-017 0.478683
v 37.4294 10.8 -41.8476
vt -0.101857 0.165354
vt -0.0813016 0.165354
f 55/85/13 53/86/14 60/87/14 58/88/13 

vt -0.0821498 0.425197
vt -0.102705 0.425197
vn -0.724179 -9.19304e-017 0.689612
v 37.737 10.8 -41.4258
vt -0.102705 0.165354
vt -0.0821498 0.165354
f 53/89/14 52/90/15 61/91/15 60/92/14 

vt -0.0766993 0.425197
v 38.1433 4.2 -41.0979
vt -0.0972546 0.425197
vn -0.521018 -1.32014e-016 0.853545
v 38.1433 10.8 -41.0979
vt -0.0972546 0.165354
vt -0.0766993 0.165354
f 52/93/15 62/94/16 63/95/16 61/96/15 

v 38.0849 4.2 -42.8319
vt 0.00587154 0.0787402
vt 0.00984252 0.146931
f 64/97/7 62/98/7 52/73/7

v 38.1154 4.2 -42.5461
vt 0.00734835 0.0899576
f 62/98/7 64/97/7 65/99/7

vt 0.0788329 0.165354
vn 0.999701 0 0.0244424
v 38.1154 10.8 -42.5461
vt 0.0901472 0.165354
vn 0.971963 3.10808e-033 -0.235132
vt 0.0901472 0.425197
vt 0.0788329 0.425197
f 48/100/17 66/101/18 65/102/18 64/103/17 

vt -0.00984252 0.146931
vt -0.00734835 0.0899576
f 48/67/9 63/104/9 66/105/9

f 49/68/9 63/104/9 48/67/9

vt 0.0064651 0.134418
f 49/68/9 61/106/9 63/104/9

vt 0.0189784 0.11811
f 49/68/9 60/107/9 61/106/9

v 37.4783 10.8 -43.847
vt 0.0189784 0.0393701
f 67/108/9 60/107/9 49/68/9

vt 0.0268446 0.0991196
f 67/108/9 58/109/9 60/107/9

v 37.2668 10.8 -43.3697
vt 0.0268446 0.0583607
f 68/110/9 58/109/9 67/108/9

vt 0.0295276 0.0787402
f 58/109/9 68/110/9 59/111/9

vt -0.0613653 0.425197
vn -0.959311 9.86373e-017 -0.282351
vt -0.0819206 0.425197
vt -0.0819206 0.165354
vt -0.0613653 0.165354
f 56/112/19 57/113/12 59/114/12 68/115/19 

vt -0.0436359 0.425197
vn -0.853545 1.3749e-016 -0.521018
vt -0.0641912 0.425197
vt -0.0641912 0.165354
vt -0.0436359 0.165354
f 54/116/20 56/117/19 68/118/19 67/119/20 

vt -0.0222324 0.425197
vt -0.0427877 0.425197
vt -0.0427877 0.165354
vt -0.0222324 0.165354
f 51/120/11 54/121/20 67/122/20 49/123/11 

v 38.2188 10.8 -42.278
vt -0.0116781 0.100411
f 66/105/9 63/104/9 69/124/9

v 38.6207 10.8 -40.8864
vt -0.0288331 0.154797
f 69/124/9 63/104/9 70/125/9

vt -0.0653214 0.425197
v 38.6207 4.2 -40.8864
vt -0.0858767 0.425197
vn -0.282351 -1.631e-016 0.959311
vt -0.0858767 0.165354
vt -0.0653214 0.165354
f 62/126/16 71/127/21 70/128/21 63/129/16 

v 38.2188 4.2 -42.278
vt 0.0116781 0.100411
vt 0.0288331 0.154797
f 62/98/7 72/130/7 71/131/7

f 62/98/7 65/99/7 72/130/7

vt 0.0859221 0.165354
vt 0.0972364 0.165354
vn 0.877988 1.24323e-032 -0.478683
vt 0.0972364 0.425197
vt 0.0859221 0.425197
f 66/132/18 69/133/22 72/134/22 65/135/18 

vt 0.0867704 0.165354
v 38.3882 10.8 -42.0458
vt 0.0980846 0.165354
vn 0.724179 2.48646e-032 -0.689612
v 38.3882 4.2 -42.0458
vt 0.0980846 0.425197
vt 0.0867704 0.425197
f 69/136/22 73/137/23 74/138/23 72/139/22 

vt -0.0185658 0.109387
f 69/124/9 70/125/9 73/140/9

v 38.6118 10.8 -41.8654
vt -0.0275421 0.116275
f 73/140/9 70/125/9 75/141/9

v 38.8746 10.8 -41.7489
vt -0.0379951 0.120604
f 75/141/9 70/125/9 76/142/9

vt -0.0492126 0.15748
f 76/142/9 70/125/9 9/143/9

vt -0.0487916 0.425197
v 39.1365 4.2 -40.8056
vt -0.0693469 0.425197
vn -0.15472 -1.7458e-016 0.987958
vt -0.0693469 0.165354
vt -0.0487916 0.165354
f 71/144/21 77/145/24 9/146/24 70/147/21 

v 38.8746 4.2 -41.7489
vt 0.0379951 0.120604
vt 0.0492126 0.15748
f 71/131/7 78/148/7 77/149/7

v 38.6118 4.2 -41.8654
vt 0.0275421 0.116275
f 71/131/7 79/150/7 78/148/7

vt 0.0185658 0.109387
f 71/131/7 74/151/7 79/150/7

f 71/131/7 72/130/7 74/151/7

vt 0.0813198 0.165354
vt 0.0926341 0.165354
vn 0.521018 4.97292e-032 -0.853545
vt 0.0926341 0.425197
vt 0.0813198 0.425197
f 73/152/23 75/153/25 79/154/25 74/155/23 

vt 0.0699419 0.165354
vt 0.0812562 0.165354
vn 0.282351 4.97292e-032 -0.959311
vt 0.0812562 0.425197
vt 0.0699419 0.425197
f 75/156/25 76/157/26 78/158/26 79/159/25 

vt 0.0534121 0.165354
v 39.1585 10.8 -41.7045
vt 0.0647264 0.165354
vn 0.0244424 2.48646e-032 -0.999701
v 39.1585 4.2 -41.7045
vt 0.0647264 0.425197
vt 0.0534121 0.425197
f 76/160/26 80/161/27 81/162/27 78/163/26 

vt -0.0492126 0.122081
f 76/142/9 9/143/9 80/164/9

f 80/164/9 9/143/9 10/24/9

v 39.4442 10.8 -41.735
vt -0.0604301 0.120604
f 80/164/9 10/24/9 82/165/9

v 39.5738 10.8 -41.785
vt -0.065483 0.118511
f 82/165/9 10/24/9 83/166/9

v 39.7123 10.8 -41.8384
vt -0.0708831 0.116275
f 83/166/9 10/24/9 84/167/9

v 39.9446 10.8 -42.0078
vt -0.0798594 0.109387
f 84/167/9 10/24/9 85/168/9

v 40.125 10.8 -42.2314
vt -0.0867471 0.100411
f 85/168/9 10/24/9 86/169/9

v 40.2415 10.8 -42.4942
vt -0.0910768 0.0899576
f 86/169/9 10/24/9 87/170/9

v 40.2859 10.8 -42.7781
vt -0.0925537 0.0787402
f 87/170/9 10/24/9 88/171/9

f 32/59/9 88/171/9 10/24/9

v 40.2554 10.8 -43.0638
vt -0.0910768 0.0675227
f 32/59/9 89/172/9 88/171/9

v 40.1519 10.8 -43.332
vt -0.0867471 0.0570696
f 32/59/9 90/173/9 89/172/9

v 39.9826 10.8 -43.5642
vt -0.0798594 0.0480934
f 32/59/9 91/174/9 90/173/9

v 39.759 10.8 -43.7446
vt -0.0708831 0.0412057
f 32/59/9 92/175/9 91/174/9

v 39.6232 10.8 -43.8048
vt -0.065483 0.0389689
f 32/59/9 93/176/9 92/175/9

v 39.4962 10.8 -43.8611
vt -0.0604301 0.0368759
f 32/59/9 94/177/9 93/176/9

f 32/59/9 40/58/9 94/177/9

vt -0.0647264 0.165354
vn -0.282351 -2.48646e-032 0.959311
vt -0.0534121 0.165354
vn -0.0244424 -4.97292e-032 0.999701
v 39.2123 4.2 -43.9055
vt -0.0534121 0.425197
v 39.4962 4.2 -43.8611
vt -0.0647264 0.425197
f 94/178/28 40/179/29 95/180/29 96/181/28 

vt -0.0441711 0.165354
vt -0.0328568 0.165354
vn 0.235132 -4.97292e-032 0.971963
v 38.9265 4.2 -43.875
vt -0.0328568 0.425197
vt -0.0441711 0.425197
f 40/182/29 41/183/30 97/184/30 95/185/29 

vt -0.0209911 0.165354
vt -0.00967682 0.165354
vn 0.478683 -4.97292e-032 0.877988
v 38.6584 4.2 -43.7715
vt -0.00967682 0.425197
vt -0.0209911 0.425197
f 41/186/30 43/187/31 98/188/31 97/189/30 

vt 0.00323385 0.165354
vt 0.0145481 0.165354
vn 0.689612 -2.48646e-032 0.724179
v 38.4262 4.2 -43.6022
vt 0.0145481 0.425197
vt 0.00323385 0.425197
f 43/190/31 44/191/32 99/192/32 98/193/31 

vt 0.0268529 0.165354
vt 0.0381672 0.165354
vn 0.853545 -2.48646e-032 0.521018
v 38.2457 4.2 -43.3786
vt 0.0381672 0.425197
vt 0.0268529 0.425197
f 44/194/32 45/195/33 100/196/33 99/197/32 

vt 0.0482564 0.165354
vt 0.0595707 0.165354
vn 0.959311 0 0.282351
v 38.1293 4.2 -43.1158
vt 0.0595707 0.425197
vt 0.0482564 0.425197
f 45/198/33 47/199/34 101/200/34 100/201/33 

vt 0.0659858 0.165354
vt 0.0773001 0.165354
vt 0.0773001 0.425197
vt 0.0659858 0.425197
f 47/202/34 48/203/17 64/204/17 101/205/34 

vt 0.00734835 0.0675227
f 64/97/7 50/75/7 101/206/7

f 52/73/7 50/75/7 64/97/7

vt 0.0116781 0.0570696
f 101/206/7 50/75/7 100/207/7

v 38.7151 4.2 -44.7489
vt 0.0288331 0.00268301
f 100/207/7 50/75/7 102/208/7

vt 0.0256116 0.425197
vn -0.235132 1.90568e-016 -0.971963
vt 0.00505631 0.425197
vt 0.00505631 0.165354
vt 0.0256116 0.165354
f 102/209/35 50/210/10 46/211/10 42/212/35 

vt 0.0487916 0.425197
vn -0.106254 1.88432e-016 -0.994339
vt 0.0282363 0.425197
vt 0.0282363 0.165354
vt 0.0487916 0.165354
f 39/213/36 102/214/35 42/215/35 31/216/36 

vt 0.0379951 0.0368759
vt 0.0492126 -1.77636e-015
f 97/217/7 102/208/7 39/218/7

vt 0.0275421 0.0412057
f 98/219/7 102/208/7 97/217/7

vt 0.0185658 0.0480934
f 99/220/7 102/208/7 98/219/7

f 100/207/7 102/208/7 99/220/7

vt 0.0492126 0.0353991
f 97/217/7 39/218/7 95/221/7

vt 0.15748 8.88178e-016
f 95/221/7 39/218/7 38/222/7

vt 0.0604301 0.0368759
f 95/221/7 38/222/7 96/223/7

v 39.6232 4.2 -43.8048
vt 0.065483 0.0389689
f 96/223/7 38/222/7 103/224/7

v 39.759 4.2 -43.7446
vt 0.0708831 0.0412057
f 103/224/7 38/222/7 104/225/7

v 39.9826 4.2 -43.5642
vt 0.0798594 0.0480934
f 104/225/7 38/222/7 105/226/7

v 40.1519 4.2 -43.332
vt 0.0867471 0.0570696
f 105/226/7 38/222/7 106/227/7

v 40.2554 4.2 -43.0638
vt 0.0910768 0.0675227
f 106/227/7 38/222/7 107/228/7

v 40.2859 4.2 -42.7781
vt 0.0925537 0.0787402
f 107/228/7 38/222/7 108/229/7

v 41.8857 4.2 -40.7384
vt 0.15748 0.15748
f 109/230/7 108/229/7 38/222/7

v 40.2415 4.2 -42.4942
vt 0.0910768 0.0899576
f 109/230/7 110/231/7 108/229/7

v 40.125 4.2 -42.2314
vt 0.0867471 0.100411
f 109/230/7 111/232/7 110/231/7

v 39.9446 4.2 -42.0078
vt 0.0798594 0.109387
f 109/230/7 112/233/7 111/232/7

v 39.7123 4.2 -41.8384
vt 0.0708831 0.116275
f 109/230/7 113/234/7 112/233/7

v 39.5738 4.2 -41.785
vt 0.065483 0.118511
f 109/230/7 114/235/7 113/234/7

v 39.4442 4.2 -41.735
vt 0.0604301 0.120604
f 109/230/7 115/236/7 114/235/7

vt 0.0492126 0.122081
f 109/230/7 81/237/7 115/236/7

f 77/149/7 81/237/7 109/230/7

f 77/149/7 78/148/7 81/237/7

vt -0.15748 0.425197
vt -0.0492126 0.425197
f 109/238/4 7/15/4 77/239/4

v 46.8842 3 -40.6162
vt -0.354331 0.472441
f 116/240/4 7/15/4 109/238/4

f 116/240/4 8/16/4 7/15/4

f 116/240/4 3/13/4 8/16/4

f 11/19/4 3/13/4 116/240/4

vt 0.15748 0.11811
vn 0.999701 -1.06278e-015 0.0244424
vt 0.15748 0.472441
vt -3.87376e-017 0.472441
vt -9.26916e-016 0.11811
f 11/241/37 116/242/37 34/243/37 24/244/37 

vt -0.354331 0.15748
vt -0.462598 8.88178e-016
vt -0.354331 8.88178e-016
f 116/245/1 35/246/1 34/247/1

v 48.8287 3 -43.0694
vt -0.428503 0.0590551
f 35/246/1 116/245/1 117/248/1

v 48.7229 3 -42.8307
vt -0.42457 0.0685504
f 117/248/1 116/245/1 118/249/1

v 48.6825 3 -42.5728
vt -0.423228 0.0787402
f 118/249/1 116/245/1 119/250/1

v 48.7103 3 -42.3132
vt -0.42457 0.0889299
f 116/245/1 120/251/1 119/250/1

v 48.8043 3 -42.0697
f 120/251/1 116/245/1 121/25/1

v 49.6334 3 -40.5489
f 121/25/1 116/245/1 122/22/1

v 41.8857 0 -40.7384
vt -0.15748 0.590551
vt -0.462598 0.472441
f 116/240/4 123/252/4 122/253/4

f 116/240/4 109/238/4 123/252/4

vt -1.20289e-015 0.425197
vt -1.20289e-015 0.590551
f 38/254/12 37/255/12 123/252/12 109/238/12 

vt 0.462598 8.88178e-016
f 36/256/7 123/230/7 37/222/7

v 48.8287 0 -43.0694
f 123/230/7 36/256/7 124/43/7

v 48.9926 0 -43.2725
vt 0.43476 0.0509013
f 124/43/7 36/256/7 125/257/7

v 49.2036 0 -43.4263
vt 0.442913 0.0446447
f 125/257/7 36/256/7 126/258/7

v 49.3298 0 -43.475
vt 0.447835 0.0426062
f 126/258/7 36/256/7 127/259/7

v 49.4471 0 -43.5203
vt 0.452409 0.0407116
f 127/259/7 36/256/7 128/260/7

v 49.7067 0 -43.548
vt 0.462598 0.0393701
f 128/260/7 36/256/7 129/261/7

v 49.9646 0 -43.5077
vt 0.472788 0.0407116
f 129/261/7 36/256/7 130/262/7

v 50.247 0 -44.467
vt 0.482978 0.00268301
f 130/262/7 36/256/7 131/263/7

vt 0.479196 0.590551
vn 0.282351 1.631e-016 -0.959311
vt 0.458641 0.590551
vn 0.15472 1.7458e-016 -0.987958
vt 0.458641 0.472441
v 50.247 3 -44.467
vt 0.479196 0.472441
f 131/264/38 36/265/39 35/266/39 132/267/38 

v 49.9646 3 -43.5077
vt -0.472788 0.0407116
vt -0.482978 0.00268301
f 35/246/1 133/268/1 132/269/1

v 49.7067 3 -43.548
vt -0.462598 0.0393701
f 35/246/1 134/270/1 133/268/1

v 49.4471 3 -43.5203
vt -0.452409 0.0407116
f 35/246/1 135/271/1 134/270/1

v 49.3298 3 -43.475
vt -0.447835 0.0426062
f 35/246/1 136/272/1 135/271/1

v 49.2036 3 -43.4263
vt -0.442913 0.0446447
f 35/246/1 137/273/1 136/272/1

v 48.9926 3 -43.2725
vt -0.43476 0.0509013
f 35/246/1 138/274/1 137/273/1

f 35/246/1 117/248/1 138/274/1

vt -0.214004 0.590551
vn 0.853545 -1.3749e-016 0.521018
vt -0.224282 0.590551
vn 0.689612 -1.66973e-016 0.724179
vt -0.224282 0.472441
vt -0.214004 0.472441
f 124/275/40 125/276/41 138/277/41 117/278/40 

vt -0.313931 0.590551
vt -0.324209 0.590551
vn 0.478683 -1.85076e-016 0.877988
vt -0.324209 0.472441
vt -0.313931 0.472441
f 125/279/41 126/280/42 137/281/42 138/282/41 

vt -0.392114 0.590551
vt -0.397441 0.590551
vn 0.359987 -1.89443e-016 0.932957
vt -0.397441 0.472441
vt -0.392114 0.472441
f 126/283/42 127/284/43 136/285/43 137/286/42 

vt -0.402391 0.590551
vt -0.402391 0.472441
f 127/284/43 128/287/5 135/288/5 136/285/43 

vt -0.443224 0.590551
vt -0.453502 0.590551
vt -0.453502 0.472441
vt -0.443224 0.472441
f 128/289/5 129/290/2 134/291/2 135/292/5 

vt -0.46378 0.590551
vt -0.474057 0.590551
vt -0.474057 0.472441
vt -0.46378 0.472441
f 129/293/2 130/294/21 133/295/21 134/296/2 

vt -0.452379 0.590551
v 50.2033 0 -43.4019
vt -0.462657 0.590551
v 50.2033 3 -43.4019
vt -0.462657 0.472441
vt -0.452379 0.472441
f 130/297/21 139/298/16 140/299/16 133/300/21 

vt 0.482283 0.0446447
f 130/262/7 131/263/7 139/301/7

v 50.4064 0 -43.238
vt 0.490437 0.0509013
f 139/301/7 131/263/7 141/302/7

v 50.7243 0 -44.2554
vt 0.501969 0.0105492
f 141/302/7 131/263/7 142/303/7

vt 0.467795 0.590551
vn 0.521018 1.32014e-016 -0.853545
vt 0.44724 0.590551
vt 0.44724 0.472441
v 50.7243 3 -44.2554
vt 0.467795 0.472441
f 142/304/44 131/305/38 132/306/38 143/307/44 

v 50.4064 3 -43.238
vt -0.490437 0.0509013
vt -0.501969 0.0105492
f 132/269/1 144/308/1 143/309/1

vt -0.482283 0.0446447
f 132/269/1 140/310/1 144/308/1

f 132/269/1 133/268/1 140/310/1

vt -0.409799 0.590551
vt -0.420077 0.590551
vt -0.420077 0.472441
vt -0.409799 0.472441
f 139/311/16 141/312/15 144/313/15 140/314/16 

vt -0.338942 0.590551
v 50.5602 0 -43.027
vt -0.34922 0.590551
v 50.5602 3 -43.027
vt -0.34922 0.472441
vt -0.338942 0.472441
f 141/315/15 145/316/14 146/317/14 144/318/15 

vt 0.496694 0.0590551
f 141/302/7 142/303/7 145/319/7

v 50.6542 0 -42.7835
vt 0.500627 0.0685504
f 145/319/7 142/303/7 147/320/7

v 50.6819 0 -42.5239
vt 0.501969 0.0787402
f 147/320/7 142/303/7 148/321/7

v 51.1306 0 -43.9276
vt 0.518276 0.0230625
f 148/321/7 142/303/7 149/322/7

vt 0.425216 0.590551
vn 0.724179 9.19304e-017 -0.689612
vt 0.40466 0.590551
vt 0.40466 0.472441
v 51.1306 3 -43.9276
vt 0.425216 0.472441
f 149/323/45 142/324/44 143/325/44 150/326/45 

v 50.6819 3 -42.5239
vt -0.501969 0.0787402
vt -0.518276 0.0230625
f 143/309/1 151/327/1 150/328/1

v 50.6542 3 -42.7835
vt -0.500627 0.0685504
f 143/309/1 152/329/1 151/327/1

vt -0.496694 0.0590551
f 143/309/1 146/330/1 152/329/1

f 143/309/1 144/308/1 146/330/1

vt -0.244636 0.590551
vt -0.254914 0.590551
vt -0.254914 0.472441
vt -0.244636 0.472441
f 145/331/14 147/332/13 152/333/13 146/334/14 

vt -0.133309 0.590551
vt -0.143587 0.590551
vt -0.143587 0.472441
vt -0.133309 0.472441
f 147/335/13 148/336/12 151/337/12 152/338/13 

vt -0.0125465 0.590551
v 50.6416 0 -42.266
vt -0.0228241 0.590551
v 50.6416 3 -42.266
vt -0.0228241 0.472441
vt -0.0125465 0.472441
f 148/339/12 153/340/19 154/341/19 151/342/12 

v 50.6396 0 -40.7924
vt 0.501969 0.146931
vt 0.500627 0.0889299
f 155/343/7 153/344/7 148/321/7

v 50.5358 0 -42.0273
vt 0.496694 0.0984252
f 155/343/7 156/345/7 153/344/7

v 50.3719 0 -41.8242
vt 0.490437 0.106579
f 155/343/7 157/346/7 156/345/7

v 50.1525 0 -40.6044
vt 0.482978 0.154797
f 158/347/7 157/346/7 155/343/7

v 50.1609 0 -41.6704
vt 0.482283 0.112836
f 158/347/7 159/348/7 157/346/7

v 49.9174 0 -41.5764
vt 0.472788 0.116769
f 158/347/7 160/349/7 159/348/7

v 49.6578 0 -41.5486
f 158/347/7 161/49/7 160/349/7

v 49.6334 0 -40.5489
f 162/37/7 161/49/7 158/347/7

v 49.3999 0 -41.589
vt 0.452409 0.116769
f 162/37/7 163/350/7 161/49/7

v 49.2849 0 -41.64
vt 0.447835 0.114874
f 162/37/7 164/351/7 163/350/7

v 49.1612 0 -41.6948
vt 0.442913 0.112836
f 162/37/7 165/352/7 164/351/7

v 48.9581 0 -41.8587
vt 0.43476 0.106579
f 162/37/7 166/353/7 165/352/7

v 48.8043 0 -42.0697
f 162/37/7 167/39/7 166/353/7

f 123/230/7 167/39/7 162/37/7

v 48.7103 0 -42.3132
f 167/39/7 123/230/7 168/40/7

v 48.6825 0 -42.5728
f 168/40/7 123/230/7 169/41/7

v 48.7229 0 -42.8307
f 123/230/7 170/42/7 169/41/7

f 123/230/7 124/43/7 170/42/7

vt -0.0991435 0.590551
vn 0.959311 -9.86373e-017 0.282351
vt -0.109421 0.590551
vt -0.109421 0.472441
vt -0.0991435 0.472441
f 170/354/46 124/355/40 117/356/40 118/357/46 

vt 0.0228241 0.590551
vn 0.999701 -5.30628e-017 0.0244424
vt 0.0125465 0.590551
vt 0.0125465 0.472441
vt 0.0228241 0.472441
f 169/358/47 170/359/46 118/360/46 119/361/47 

vt 0.143587 0.590551
vn 0.971963 -3.87221e-018 -0.235132
vt 0.133309 0.590551
vt 0.133309 0.472441
vt 0.143587 0.472441
f 168/362/48 169/363/47 119/364/47 120/365/48 

vt 0.254914 0.590551
vn 0.877988 4.55823e-017 -0.478683
vt 0.244636 0.590551
vt 0.244636 0.472441
vt 0.254914 0.472441
f 167/366/49 168/367/48 120/368/48 121/369/49 

vt 0.34922 0.590551
vt 0.338942 0.590551
vt 0.338942 0.472441
v 48.9581 3 -41.8587
vt 0.34922 0.472441
f 166/370/45 167/371/49 121/372/49 171/373/45 

f 121/25/1 122/22/1 171/26/1

v 49.1612 3 -41.6948
f 171/26/1 122/22/1 172/27/1

v 49.2849 3 -41.64
f 172/27/1 122/22/1 173/28/1

v 49.3999 3 -41.589
f 173/28/1 122/22/1 174/29/1

v 49.6578 3 -41.5486
f 174/29/1 122/22/1 175/30/1

v 50.1525 3 -40.6044
f 175/30/1 122/22/1 176/31/1

vt -0.438086 0.590551
vt -0.458641 0.590551
vt -0.458641 0.472441
vt -0.438086 0.472441
f 162/374/6 158/375/5 176/376/5 122/377/6 

vt -0.386975 0.590551
vt -0.40753 0.590551
v 50.6396 3 -40.7924
vt -0.40753 0.472441
vt -0.386975 0.472441
f 158/378/5 155/379/42 177/380/42 176/381/5 

vt -0.308792 0.590551
v 51.0615 0 -41.1
vt -0.329348 0.590551
v 51.0615 3 -41.1
vt -0.329348 0.472441
vt -0.308792 0.472441
f 155/382/42 178/383/41 179/384/41 177/385/42 

vt 0.518276 0.134418
f 155/343/7 148/321/7 178/386/7

f 178/386/7 148/321/7 149/322/7

v 51.4382 0 -43.5057
vt 0.530789 0.0393701
f 178/386/7 149/322/7 180/387/7

vt 0.354358 0.590551
vt 0.333803 0.590551
vt 0.333803 0.472441
v 51.4382 3 -43.5057
vt 0.354358 0.472441
f 180/388/49 149/389/45 150/390/45 181/391/49 

vt -0.518276 0.134418
vt -0.530789 0.0393701
f 150/328/1 179/392/1 181/393/1

f 151/327/1 179/392/1 150/328/1

vt -0.501969 0.146931
f 151/327/1 177/394/1 179/392/1

vt -0.500627 0.0889299
f 154/395/1 177/394/1 151/327/1

v 50.5358 3 -42.0273
vt -0.496694 0.0984252
f 182/396/1 177/394/1 154/395/1

v 50.3719 3 -41.8242
vt -0.490437 0.106579
f 183/397/1 177/394/1 182/396/1

f 183/397/1 176/31/1 177/394/1

v 50.1609 3 -41.6704
vt -0.482283 0.112836
f 184/398/1 176/31/1 183/397/1

v 49.9174 3 -41.5764
vt -0.472788 0.116769
f 185/399/1 176/31/1 184/398/1

f 175/30/1 176/31/1 185/399/1

vt 0.453502 0.590551
vt 0.443224 0.590551
vn 0.0244424 1.83072e-016 -0.999701
vt 0.443224 0.472441
vt 0.453502 0.472441
f 160/400/35 161/401/50 175/402/50 185/403/35 

vt 0.474057 0.590551
vt 0.46378 0.590551
vt 0.46378 0.472441
vt 0.474057 0.472441
f 161/404/50 163/405/38 174/406/38 175/407/50 

vt 0.462657 0.590551
vt 0.457706 0.590551
vn 0.405151 1.4883e-016 -0.91425
vt 0.457706 0.472441
vt 0.462657 0.472441
f 163/408/38 164/409/51 173/410/51 174/411/38 

vt 0.452379 0.590551
vt 0.452379 0.472441
f 164/409/51 165/412/44 172/413/44 173/410/51 

vt 0.420077 0.590551
vt 0.409799 0.590551
vt 0.409799 0.472441
vt 0.420077 0.472441
f 165/414/44 166/415/45 171/416/45 172/417/44 

vt 0.402391 0.590551
vt 0.392114 0.590551
vt 0.392114 0.472441
vt 0.402391 0.472441
f 159/418/10 160/419/35 185/420/35 184/421/10 

vt 0.324209 0.590551
vt 0.313931 0.590551
vt 0.313931 0.472441
vt 0.324209 0.472441
f 157/422/11 159/423/10 184/424/10 183/425/11 

vt 0.224282 0.590551
vt 0.214004 0.590551
vt 0.214004 0.472441
vt 0.224282 0.472441
f 156/426/20 157/427/11 183/428/11 182/429/20 

vt 0.109421 0.590551
vt 0.0991435 0.590551
vt 0.0991435 0.472441
vt 0.109421 0.472441
f 153/430/19 156/431/20 182/432/20 154/433/19 

v 51.3893 3 -41.5063
vt -0.530789 0.11811
f 181/393/1 179/392/1 186/434/1

vt -0.208866 0.590551
v 51.3893 0 -41.5063
vt -0.229421 0.590551
vt -0.229421 0.472441
vt -0.208866 0.472441
f 178/435/41 187/436/40 186/437/40 179/438/41 

vt 0.530789 0.11811
f 178/386/7 180/387/7 187/439/7

v 51.6262 0 -43.0186
vt 0.538656 0.0583607
f 187/439/7 180/387/7 188/440/7

vt 0.260053 0.590551
vt 0.239498 0.590551
vt 0.239498 0.472441
v 51.6262 3 -43.0186
vt 0.260053 0.472441
f 188/441/48 180/442/49 181/443/49 189/444/48 

v 51.6009 3 -41.9836
vt -0.538656 0.0991196
vt -0.538656 0.0583607
f 181/393/1 190/445/1 189/446/1

f 181/393/1 186/434/1 190/445/1

vt -0.0940047 0.590551
v 51.6009 0 -41.9836
vt -0.11456 0.590551
vt -0.11456 0.472441
vt -0.0940047 0.472441
f 187/447/40 191/448/46 190/449/46 186/450/40 

vt 0.538656 0.0991196
f 187/439/7 188/440/7 191/451/7

v 51.6817 0 -42.4995
vt 0.541339 0.0787402
f 191/451/7 188/440/7 192/452/7

vt 0.148725 0.590551
vt 0.12817 0.590551
vt 0.12817 0.472441
v 51.6817 3 -42.4995
vt 0.148725 0.472441
f 192/453/47 188/454/48 189/455/48 193/456/47 

vt -0.541339 0.0787402
f 189/446/1 190/445/1 193/457/1

vt 0.027963 0.590551
vt 0.00740766 0.590551
vt 0.00740766 0.472441
vt 0.027963 0.472441
f 191/458/46 192/459/47 193/460/47 190/461/46 

vt -0.462598 0.590551
f 122/253/4 123/252/4 162/462/4

vt 0.0435747 0.299213
vn 0.940671 -1.08232e-016 0.339321
vt 0.168074 0.299213
vt 0.168074 0.392862
vt 0.0435747 0.392862
f 3/463/52 2/464/52 6/465/52 8/466/52 

vt 0.216535 0.275591
vn -1.3866e-016 -1 3.91478e-017
vt 0.177165 0.15748
vt 0.334646 0.15748
vt 0.295276 0.275591
f 5/467/53 7/468/53 8/469/53 6/470/53 

f 4/14/4 77/239/4 7/15/4

f 77/239/4 4/14/4 9/17/4

vt 0.0328568 0.165354
vt 0.0441711 0.165354
vn -0.235132 2.48646e-032 -0.971963
vt 0.0441711 0.425197
vt 0.0328568 0.425197
f 80/471/27 82/472/54 115/473/54 81/474/27 

vt 0.00967682 0.165354
vt 0.0151461 0.165354
vn -0.359987 2.46519e-032 -0.932957
vt 0.0151461 0.425197
vt 0.00967682 0.425197
f 82/475/54 83/476/55 114/477/55 115/478/54 

vt 0.0209911 0.165354
vn -0.478683 0 -0.877988
vt 0.0209911 0.425197
f 83/476/55 84/479/56 113/480/56 114/477/55 

vt -0.0145481 0.165354
vt -0.00323385 0.165354
vn -0.689612 2.48646e-032 -0.724179
vt -0.00323385 0.425197
vt -0.0145481 0.425197
f 84/481/56 85/482/57 112/483/57 113/484/56 

vt -0.0381672 0.165354
vt -0.0268529 0.165354
vn -0.853545 0 -0.521018
vt -0.0268529 0.425197
vt -0.0381672 0.425197
f 85/485/57 86/486/58 111/487/58 112/488/57 

vt -0.0595707 0.165354
vt -0.0482564 0.165354
vn -0.959311 -1.24323e-032 -0.282351
vt -0.0482564 0.425197
vt -0.0595707 0.425197
f 86/489/58 87/490/59 110/491/59 111/492/58 

vt -0.0773001 0.165354
vt -0.0659858 0.165354
vn -0.999701 0 -0.0244424
vt -0.0659858 0.425197
vt -0.0773001 0.425197
f 87/493/59 88/494/60 108/495/60 110/496/59 

vt -0.0901472 0.165354
vt -0.0788329 0.165354
vn -0.971963 1.24323e-032 0.235132
vt -0.0788329 0.425197
vt -0.0901472 0.425197
f 88/497/60 89/498/61 107/499/61 108/500/60 

vt -0.0972364 0.165354
vt -0.0859221 0.165354
vn -0.877988 0 0.478683
vt -0.0859221 0.425197
vt -0.0972364 0.425197
f 89/501/61 90/502/62 106/503/62 107/504/61 

vt -0.0980846 0.165354
vt -0.0867704 0.165354
vn -0.724179 0 0.689612
vt -0.0867704 0.425197
vt -0.0980846 0.425197
f 90/505/62 91/506/63 105/507/63 106/508/62 

vt -0.0926341 0.165354
vt -0.0813198 0.165354
vn -0.521018 0 0.853545
vt -0.0813198 0.425197
vt -0.0926341 0.425197
f 91/509/63 92/510/64 104/511/64 105/512/63 

vt -0.0812562 0.165354
vt -0.0754112 0.165354
vn -0.405151 -2.46519e-032 0.91425
vt -0.0754112 0.425197
vt -0.0812562 0.425197
f 92/513/64 93/514/65 103/515/65 104/516/64 

vt -0.0699419 0.165354
vt -0.0699419 0.425197
f 93/514/65 94/517/28 96/518/28 103/515/65 

vt -0.15748 -9.70547e-034
vt -3.14709e-016 -9.70547e-034
vt -3.14709e-016 0.165354
f 10/18/12 13/519/12 14/520/12 32/521/12 

v 48.8287 15 -43.0694
vt -0.462598 0
f 14/23/1 194/248/1 33/522/1

v 48.7229 15 -42.8307
f 194/248/1 14/23/1 195/249/1

v 48.6825 15 -42.5728
f 195/249/1 14/23/1 196/250/1

v 48.7103 15 -42.3132
f 14/23/1 197/251/1 196/250/1

f 14/23/1 15/25/1 197/251/1

vt 0.244636 0
vt 0.254914 0
vt 0.254914 0.11811
vt 0.244636 0.11811
f 197/523/48 15/524/49 25/525/49 26/526/48 

vt 0.338942 3.45172e-033
vt 0.34922 3.45172e-033
v 48.9581 12 -41.8587
vt 0.34922 0.11811
vt 0.338942 0.11811
f 15/527/49 16/528/45 198/529/45 25/530/49 

vt 0.409799 4.44006e-033
vt 0.420077 4.44006e-033
v 49.1612 12 -41.6948
vt 0.420077 0.11811
vt 0.409799 0.11811
f 16/531/45 17/532/44 199/533/44 198/534/45 

vt 0.452379 0
vt 0.457706 0
v 49.2849 12 -41.64
vt 0.457706 0.11811
vt 0.452379 0.11811
f 17/535/44 18/536/51 200/537/51 199/538/44 

vt 0.457706 1.60851e-033
vt 0.462657 1.60851e-033
v 49.3999 12 -41.589
vt 0.462657 0.11811
f 18/539/51 19/540/38 201/541/38 200/537/51 

vt 0.46378 0
vt 0.474057 0
v 49.6578 12 -41.5486
vt 0.474057 0.11811
vt 0.46378 0.11811
f 19/542/38 20/543/50 202/544/50 201/545/38 

vt 0.443224 0
v 49.9174 15 -41.5764
vt 0.453502 0
v 49.9174 12 -41.5764
vt 0.453502 0.11811
vt 0.443224 0.11811
f 20/546/50 203/547/35 204/548/35 202/549/50 

f 20/30/1 21/31/1 203/399/1

v 50.1609 15 -41.6704
f 203/399/1 21/31/1 205/398/1

v 50.3719 15 -41.8242
f 205/398/1 21/31/1 206/397/1

v 50.6396 15 -40.7924
f 206/397/1 21/31/1 207/394/1

vt -0.40753 -8.08192e-033
vt -0.386975 -8.08192e-033
vt -0.386975 0.11811
v 50.6396 12 -40.7924
vt -0.40753 0.11811
f 207/550/42 21/551/5 23/552/5 208/553/42 

v 50.3719 12 -41.8242
f 23/347/7 209/346/7 208/343/7

v 50.1609 12 -41.6704
f 23/347/7 210/348/7 209/346/7

f 23/347/7 204/349/7 210/348/7

f 23/347/7 202/49/7 204/349/7

f 22/37/7 202/49/7 23/347/7

f 22/37/7 201/350/7 202/49/7

f 22/37/7 200/351/7 201/350/7

f 22/37/7 199/352/7 200/351/7

f 22/37/7 198/353/7 199/352/7

f 22/37/7 25/39/7 198/353/7

vt 0.392114 0
vt 0.402391 0
vt 0.402391 0.11811
vt 0.392114 0.11811
f 203/554/35 205/555/10 210/556/10 204/557/35 

vt 0.313931 -9.44449e-033
vt 0.324209 -9.44449e-033
vt 0.324209 0.11811
vt 0.313931 0.11811
f 205/558/10 206/559/11 209/560/11 210/561/10 

vt 0.214004 0
v 50.5358 15 -42.0273
vt 0.224282 0
v 50.5358 12 -42.0273
vt 0.224282 0.11811
vt 0.214004 0.11811
f 206/562/11 211/563/20 212/564/20 209/565/11 

f 206/397/1 207/394/1 211/396/1

v 50.6416 15 -42.266
f 211/396/1 207/394/1 213/395/1

v 50.6819 15 -42.5239
f 213/395/1 207/394/1 214/327/1

v 51.0615 15 -41.1
f 214/327/1 207/394/1 215/392/1

vt -0.329348 -1.04067e-032
vt -0.308792 -1.04067e-032
vt -0.308792 0.11811
v 51.0615 12 -41.1
vt -0.329348 0.11811
f 215/566/41 207/567/42 208/568/42 216/569/41 

v 50.6819 12 -42.5239
f 208/343/7 217/321/7 216/386/7

v 50.6416 12 -42.266
f 208/343/7 218/344/7 217/321/7

f 208/343/7 212/345/7 218/344/7

f 208/343/7 209/346/7 212/345/7

vt 0.0991435 1.22409e-032
vt 0.109421 1.22409e-032
vt 0.109421 0.11811
vt 0.0991435 0.11811
f 211/570/20 213/571/19 218/572/19 212/573/20 

vt -0.0228241 0
vt -0.0125465 0
vt -0.0125465 0.11811
vt -0.0228241 0.11811
f 213/574/19 214/575/12 217/576/12 218/577/19 

vt -0.143587 0
v 50.6542 15 -42.7835
vt -0.133309 0
v 50.6542 12 -42.7835
vt -0.133309 0.11811
vt -0.143587 0.11811
f 214/578/12 219/579/13 220/580/13 217/581/12 

v 50.7243 15 -44.2554
f 221/309/1 219/329/1 214/327/1

v 50.5602 15 -43.027
f 221/309/1 222/330/1 219/329/1

v 50.4064 15 -43.238
f 221/309/1 223/308/1 222/330/1

v 50.247 15 -44.467
f 224/269/1 223/308/1 221/309/1

v 50.2033 15 -43.4019
f 224/269/1 225/310/1 223/308/1

v 49.9646 15 -43.5077
f 224/269/1 226/268/1 225/310/1

f 33/522/1 226/268/1 224/269/1

v 49.7067 15 -43.548
f 33/522/1 227/270/1 226/268/1

v 49.4471 15 -43.5203
f 33/522/1 228/271/1 227/270/1

v 49.3298 15 -43.475
f 33/522/1 229/272/1 228/271/1

v 49.2036 15 -43.4263
f 33/522/1 230/273/1 229/272/1

v 48.9926 15 -43.2725
f 33/522/1 231/274/1 230/273/1

f 33/522/1 194/248/1 231/274/1

vt -0.224282 0
vt -0.214004 0
vt -0.214004 0.11811
v 48.9926 12 -43.2725
vt -0.224282 0.11811
f 231/582/41 194/583/40 29/584/40 232/585/41 

vt -0.109421 0
vt -0.0991435 0
vt -0.0991435 0.11811
vt -0.109421 0.11811
f 194/586/40 195/587/46 28/588/46 29/589/40 

vt 0.0125465 0
vt 0.0228241 0
vt 0.0228241 0.11811
vt 0.0125465 0.11811
f 195/590/46 196/591/47 27/592/47 28/593/46 

vt 0.133309 -2.52269e-033
vt 0.143587 -2.52269e-033
vt 0.143587 0.11811
vt 0.133309 0.11811
f 196/594/47 197/595/48 26/596/48 27/597/47 

f 29/43/7 30/44/7 232/257/7

v 49.2036 12 -43.4263
f 232/257/7 30/44/7 233/258/7

v 49.3298 12 -43.475
f 233/258/7 30/44/7 234/259/7

v 49.4471 12 -43.5203
f 234/259/7 30/44/7 235/260/7

v 49.7067 12 -43.548
f 235/260/7 30/44/7 236/261/7

v 50.247 12 -44.467
f 236/261/7 30/44/7 237/263/7

vt 0.458641 -1.48851e-033
vt 0.479196 -1.48851e-033
vt 0.479196 0.11811
vt 0.458641 0.11811
f 33/598/39 224/599/38 237/600/38 30/601/39 

vt 0.44724 -4.49525e-033
vt 0.467795 -4.49525e-033
v 50.7243 12 -44.2554
vt 0.467795 0.11811
vt 0.44724 0.11811
f 224/602/38 221/603/44 238/604/44 237/605/38 

vt 0.40466 0
v 51.1306 15 -43.9276
vt 0.425216 0
v 51.1306 12 -43.9276
vt 0.425216 0.11811
vt 0.40466 0.11811
f 221/606/44 239/607/45 240/608/45 238/609/44 

f 221/309/1 214/327/1 239/328/1

f 214/327/1 215/392/1 239/328/1

v 51.4382 15 -43.5057
f 239/328/1 215/392/1 241/393/1

v 51.3893 15 -41.5063
f 241/393/1 215/392/1 242/434/1

vt -0.229421 -2.4307e-032
vt -0.208866 -2.4307e-032
vt -0.208866 0.11811
v 51.3893 12 -41.5063
vt -0.229421 0.11811
f 242/610/40 215/611/41 216/612/41 243/613/40 

v 51.4382 12 -43.5057
f 216/386/7 244/387/7 243/439/7

f 216/386/7 240/322/7 244/387/7

f 216/386/7 217/321/7 240/322/7

f 217/321/7 238/303/7 240/322/7

f 220/320/7 238/303/7 217/321/7

v 50.5602 12 -43.027
f 245/319/7 238/303/7 220/320/7

v 50.4064 12 -43.238
f 246/302/7 238/303/7 245/319/7

f 246/302/7 237/263/7 238/303/7

v 50.2033 12 -43.4019
f 247/301/7 237/263/7 246/302/7

v 49.9646 12 -43.5077
f 248/262/7 237/263/7 247/301/7

f 236/261/7 237/263/7 248/262/7

vt -0.474057 0
vt -0.46378 0
vt -0.46378 0.11811
vt -0.474057 0.11811
f 226/614/21 227/615/2 236/616/2 248/617/21 

vt -0.453502 0
vt -0.443224 0
vt -0.443224 0.11811
vt -0.453502 0.11811
f 227/618/2 228/619/5 235/620/5 236/621/2 

vt -0.402391 0
vt -0.397441 0
vt -0.397441 0.11811
vt -0.402391 0.11811
f 228/622/5 229/623/43 234/624/43 235/625/5 

vt -0.397441 5.19519e-033
vt -0.392114 5.19519e-033
vt -0.392114 0.11811
f 229/626/43 230/627/42 233/628/42 234/624/43 

vt -0.324209 -7.52e-033
vt -0.313931 -7.52e-033
vt -0.313931 0.11811
vt -0.324209 0.11811
f 230/629/42 231/630/41 232/631/41 233/632/42 

vt -0.462657 3.533e-033
vt -0.452379 3.533e-033
vt -0.452379 0.11811
vt -0.462657 0.11811
f 225/633/16 226/634/21 248/635/21 247/636/16 

vt -0.420077 0
vt -0.409799 0
vt -0.409799 0.11811
vt -0.420077 0.11811
f 223/637/15 225/638/16 247/639/16 246/640/15 

vt -0.34922 -4.41396e-033
vt -0.338942 -4.41396e-033
vt -0.338942 0.11811
vt -0.34922 0.11811
f 222/641/14 223/642/15 246/643/15 245/644/14 

vt -0.254914 0
vt -0.244636 0
vt -0.244636 0.11811
vt -0.254914 0.11811
f 219/645/13 222/646/14 245/647/14 220/648/13 

vt 0.333803 0
vt 0.354358 0
vt 0.354358 0.11811
vt 0.333803 0.11811
f 239/649/45 241/650/49 244/651/49 240/652/45 

vt 0.239498 2.92938e-033
v 51.6262 15 -43.0186
vt 0.260053 2.92938e-033
v 51.6262 12 -43.0186
vt 0.260053 0.11811
vt 0.239498 0.11811
f 241/653/49 249/654/48 250/655/48 244/656/49 

v 51.6009 15 -41.9836
f 241/393/1 251/445/1 249/446/1

f 241/393/1 242/434/1 251/445/1

vt -0.11456 0
vt -0.0940047 0
vt -0.0940047 0.11811
v 51.6009 12 -41.9836
vt -0.11456 0.11811
f 251/657/46 242/658/40 243/659/40 252/660/46 

f 243/439/7 250/440/7 252/451/7

f 243/439/7 244/387/7 250/440/7

v 51.6817 12 -42.4995
f 252/451/7 250/440/7 253/452/7

vt 0.12817 -6.48875e-033
v 51.6817 15 -42.4995
vt 0.148725 -6.48875e-033
vt 0.148725 0.11811
vt 0.12817 0.11811
f 249/661/48 254/662/47 253/663/47 250/664/48 

f 249/446/1 251/445/1 254/457/1

vt 0.00740766 0
vt 0.027963 0
vt 0.027963 0.11811
vt 0.00740766 0.11811
f 254/665/47 251/666/46 252/667/46 253/668/47 

g Mesh2 Component_1_1 Model

v 43.3119 14 -37.7026
v 45.3113 14 -37.6537
v 46.3843 14 -40.6284
v 42.3855 14 -40.7262
f 255/1/1 256/2/1 257/3/1 258/4/1 

v 43.3119 11 -37.7026
vt -0.216535 0.15748
v 45.3113 11 -37.6537
vt -0.295276 0.15748
vt -0.295276 0.0393701
vt -0.216535 0.0393701
f 259/669/2 260/670/2 256/671/2 255/672/2 

v 42.3855 11 -40.7262
v 46.3843 11 -40.6284
f 259/467/7 261/468/7 262/469/7 260/470/7 

vt -0.329923 0.0393701
vn -0.956129 -7.55266e-018 0.292945
vt -0.205424 0.0393701
vt -0.205424 0.15748
vt -0.329923 0.15748
f 255/673/66 258/674/66 261/675/66 259/676/66 

vt 0.0435747 0.0393701
vt 0.168074 0.0393701
vt 0.168074 0.15748
vt 0.0435747 0.15748
f 257/677/52 256/678/52 260/679/52 262/680/52 

