# Alias OBJ Model File
# Exported from SketchUp, (c) 2000-2012 Trimble Navigation Limited
# File units = millimeters

mtllib SPION_base.mtl

g Mesh1 Group1 Model

usemtl FrontColor
v 43.423 58.0129 -54.2534
vt 0.0786772 2.28355
vn -0.000112634 -3.89282e-005 -1
v 59.5993 58.0125 -54.2455
vt -0.558186 2.28354
v 59.5993 51.0125 -54.2429
vt -0.558186 2.00795
v 104.589 51.0128 -54.2526
vt -2.32944 2.00796
v 104.589 58.0128 -54.2534
vt -2.32944 2.28355
v 120.423 58.0129 -54.2534
vt -2.95282 2.28355
v 120.423 0.0128736 -54.2534
vt -2.95282 8.54945e-005
v 104.589 0.0128736 -54.2534
vt -2.32944 8.54973e-005
v 104.589 7.01287 -54.2534
vt -2.32944 0.275676
v 59.5974 7.01125 -54.2376
vt -0.558111 0.275612
v 59.5974 0.0112545 -54.2376
vt -0.558111 2.17367e-005
v 43.423 0.0128736 -54.2534
vt 0.0786772 8.55078e-005
f 1/1/1 2/2/1 3/3/1 4/4/1 5/5/1 6/6/1 7/7/1 8/8/1 9/9/1 10/10/1 11/11/1 12/12/1 

vt -0.0786266 0.558942
vn -4.97456e-005 1 -5.36614e-005
v 49.423 58.0129 -47.8857
vt 0.157594 0.308244
vt 0.558237 0.558631
f 1/13/2 13/14/2 2/15/2

v 49.0088 58.0129 -47.5679
vt 0.141286 0.295731
f 13/14/2 1/13/2 14/16/2

v 48.6909 58.0129 -47.1536
vt 0.128773 0.279423
f 14/16/2 1/13/2 15/17/2

v 48.4911 58.0129 -46.6713
vt 0.120907 0.260432
f 15/17/2 1/13/2 16/18/2

v 48.423 58.0129 -46.1536
vt 0.118224 0.240053
f 16/18/2 1/13/2 17/19/2

v 48.4911 58.0129 -45.636
vt 0.120907 0.219673
f 1/13/2 18/20/2 17/19/2

v 48.6909 58.0129 -45.1536
vt 0.128773 0.200683
f 1/13/2 19/21/2 18/20/2

v 43.4229 58.013 -40.0539
vt -0.0786302 -9.64351e-005
f 20/22/2 19/21/2 1/13/2

v 49.0088 58.0129 -44.7394
vt 0.141286 0.184375
f 19/21/2 20/22/2 21/23/2

v 49.423 58.0129 -44.4216
vt 0.157594 0.171862
f 21/23/2 20/22/2 22/24/2

v 59.5834 58.0154 -40.0467
vt 0.557609 -0.000378526
f 22/24/2 20/22/2 23/25/2

v 45.2729 56.013 -40.0539
vt -0.00590918 2.20479
vn 1.06329e-005 -0.000200416 1
vt 0.557495 2.28363
vt -0.0787438 2.28353
f 24/26/3 23/27/3 20/28/3

v 55.5729 56.013 -40.0537
vt 0.399603 2.20479
f 25/29/3 23/27/3 24/26/3

v 59.6025 51.0152 -40.0423
vt 0.55825 2.00803
f 25/29/3 26/30/3 23/27/3

v 59.6025 49.0152 -40.0423
vt 0.55825 1.92929
f 25/29/3 27/31/3 26/30/3

v 59.5834 21.0154 -40.044
vt 0.557496 0.826934
f 25/29/3 28/32/3 27/31/3

v 55.5559 21.0153 -40.0439
vt 0.398932 0.826932
f 28/32/3 25/29/3 29/33/3

v 55.573 56.0128 -52.2533
vt -0.480602 2.20488
vn -1 0.000242971 -0.000705325
v 55.573 21.0128 -52.2428
vt -0.480187 0.826931
vt 8.28074e-005 0.827029
vt -0.000303787 2.20489
f 30/34/4 31/35/4 29/36/4 25/37/4 

v 118.553 49.0139 -52.2527
vt 2.8792 1.92928
vn 0.000129548 8.91512e-005 1
v 59.6005 49.0129 -52.2429
vt 0.558232 1.92924
v 59.6005 21.0129 -52.2429
vt 0.558232 0.826878
vt 0.399668 0.826877
vt 0.399669 2.20483
v 45.273 56.0129 -52.2535
vt -0.00584329 2.20483
v 45.2714 9.01644 -52.241
vt -0.00590466 0.354578
v 104.589 9.01287 -52.2533
vt 2.32944 0.354437
v 104.589 37.0129 -52.2534
vt 2.32944 1.4568
v 108.255 37.0129 -52.2534
vt 2.47377 1.4568
v 108.255 2.01287 -52.2534
vt 2.47377 0.0788467
v 118.553 2.01287 -52.2534
vt 2.87921 0.0788467
f 32/38/5 33/39/5 34/40/5 31/41/5 30/42/5 35/43/5 36/44/5 37/45/5 38/46/5 39/47/5 40/48/5 41/49/5 

vt -2.87915 0.480014
vn 8.93562e-006 -1 0.000146159
vt -0.558268 -0.000710238
vt -0.558187 0.479627
f 32/50/6 27/51/6 33/52/6

v 112.771 49.0146 -47.4517
vt -2.65152 0.291
f 27/51/6 32/50/6 42/53/6

v 113.208 49.0145 -47.5687
vt -2.66871 0.295606
f 42/53/6 32/50/6 43/54/6

v 113.521 49.0146 -47.6527
vt -2.68105 0.298912
f 43/54/6 32/50/6 44/55/6

v 114.271 49.0146 -47.4517
vt -2.71058 0.291
f 44/55/6 32/50/6 45/56/6

v 114.82 49.0146 -46.9027
vt -2.73219 0.269384
f 45/56/6 32/50/6 46/57/6

v 115.021 49.0146 -46.1527
vt -2.7401 0.239857
f 46/57/6 32/50/6 47/58/6

v 118.553 49.0152 -40.0528
vt -2.87916 -0.000297262
f 48/59/6 47/58/6 32/50/6

v 114.82 49.0146 -45.4027
vt -2.73219 0.210329
f 48/59/6 49/60/6 47/58/6

v 114.271 49.0146 -44.8537
vt -2.71058 0.188714
f 48/59/6 50/61/6 49/60/6

v 113.521 49.0146 -44.6527
vt -2.68105 0.180802
f 48/59/6 51/62/6 50/61/6

v 113.208 49.0146 -44.7367
vt -2.66871 0.184108
f 48/59/6 52/63/6 51/62/6

v 112.771 49.0146 -44.8537
vt -2.65152 0.188714
f 48/59/6 53/64/6 52/63/6

f 27/51/6 53/64/6 48/59/6

v 112.222 49.0146 -45.4027
vt -2.62991 0.210329
f 53/64/6 27/51/6 54/65/6

v 112.021 49.0146 -46.1527
vt -2.62199 0.239857
f 54/65/6 27/51/6 55/66/6

v 112.222 49.0146 -46.9027
vt -2.62991 0.269384
f 27/51/6 56/67/6 55/66/6

f 27/51/6 42/53/6 56/67/6

vt 2.0503 1.92925
vn 0.866025 5.90527e-006 0.5
vt 2.08086 1.92925
vn 0.5 1.02285e-005 0.866025
v 112.771 58.0136 -47.4519
vt 2.08087 2.28354
v 112.222 58.0136 -46.9028
vt 2.0503 2.28354
f 56/68/7 42/69/8 57/70/8 58/71/7 

vt 2.63655 1.92926
vt 2.65434 1.92926
vn 0.258819 1.14085e-005 0.965926
v 113.208 58.0135 -47.5688
vt 2.65434 2.28355
vt 2.63655 2.28355
f 42/72/8 43/73/9 59/74/9 57/75/8 

vt 2.66712 1.92926
vn 4.7288e-009 1.18111e-005 1
v 113.521 58.0136 -47.6528
vt 2.66712 2.28355
f 43/73/9 44/76/10 60/77/10 59/74/9 

vt 2.51224 1.92927
vt 2.54281 1.92927
vn -0.5 1.02288e-005 0.866025
v 114.271 58.0136 -47.4519
vt 2.54281 2.28357
vt 2.51224 2.28357
f 44/78/10 45/79/11 61/80/11 60/81/10 

vt 1.71069 1.92928
vt 1.74126 1.92928
vn -0.866025 5.90578e-006 0.5
v 114.82 58.0136 -46.9028
vt 1.74125 2.28358
vt 1.71069 2.28358
f 45/82/11 46/83/12 62/84/12 61/85/11 

vt 0.446661 1.92927
vt 0.477231 1.92927
vn -1 2.92022e-010 1.63788e-015
v 115.021 58.0136 -46.1528
vt 0.477227 2.28357
vt 0.446657 2.28357
f 46/86/12 47/87/13 63/88/13 62/89/12 

vt -0.941143 1.92926
vt -0.910574 1.92926
vn -0.866025 -5.90527e-006 -0.5
v 114.82 58.0136 -45.4028
vt -0.910578 2.28355
vt -0.941147 2.28355
f 47/90/13 49/91/14 64/92/14 63/93/13 

vt -2.08086 1.92925
vt -2.0503 1.92925
vn -0.5 -1.02285e-005 -0.866025
v 114.271 58.0136 -44.8538
vt -2.0503 2.28354
vt -2.08087 2.28354
f 49/94/14 50/95/15 65/96/15 64/97/14 

vt -2.66712 1.92926
vt -2.63655 1.92926
vn 4.72034e-009 -1.18111e-005 -1
v 113.521 58.0136 -44.6528
vt -2.63655 2.28355
vt -2.66712 2.28355
f 50/98/15 51/99/16 66/100/16 65/101/15 

vt -2.54281 1.92927
vt -2.53004 1.92928
vn 0.258819 -1.14087e-005 -0.965926
v 113.208 58.0137 -44.7368
vt -2.53004 2.28357
vt -2.54281 2.28357
f 51/102/16 52/103/17 67/104/17 66/105/16 

vt -2.51224 1.92927
vn 0.5 -1.02288e-005 -0.866025
v 112.771 58.0136 -44.8538
vt -2.51224 2.28357
f 52/103/17 53/106/18 68/107/18 67/104/17 

vt -1.74126 1.92928
vt -1.71069 1.92928
vn 0.866025 -5.90578e-006 -0.5
v 112.222 58.0136 -45.4028
vt -1.71069 2.28357
vt -1.74125 2.28357
f 53/108/18 54/109/19 69/110/19 68/111/18 

vt -0.477231 1.92927
vt -0.446661 1.92927
vn 1 -2.92022e-010 -1.66661e-015
v 112.021 58.0136 -46.1528
vt -0.446657 2.28357
vt -0.477227 2.28357
f 54/112/19 55/113/20 70/114/20 69/115/19 

vt 0.910574 1.92926
vt 0.941143 1.92926
vt 0.941147 2.28355
vt 0.910578 2.28355
f 55/116/20 56/117/7 58/118/7 70/119/20 

vt 2.62979 0.269576
vn 4.48041e-005 1 -4.12604e-005
v 104.589 58.0141 -40.0535
vt 2.32929 -8.08623e-005
vt 2.62188 0.240049
f 58/120/21 71/121/21 70/122/21

vt 2.6514 0.291192
f 57/123/21 71/121/21 58/120/21

vt 2.32927 0.558971
f 57/123/21 5/124/21 71/121/21

vt 2.95265 0.558971
f 5/124/21 57/123/21 6/125/21

vt 2.66859 0.295798
f 6/125/21 57/123/21 59/126/21

vt 2.68093 0.299104
f 6/125/21 59/126/21 60/127/21

vt 2.71046 0.291192
f 6/125/21 60/127/21 61/128/21

vt 2.73207 0.269576
f 6/125/21 61/128/21 62/129/21

vt 2.73999 0.240049
f 6/125/21 62/129/21 63/130/21

v 120.403 58.0129 -40.0533
vt 2.95187 -8.83607e-005
f 6/125/21 63/130/21 72/131/21

vt 2.73207 0.210521
f 64/132/21 72/131/21 63/130/21

vt 2.71046 0.188905
f 65/133/21 72/131/21 64/132/21

vt 2.68093 0.180994
f 66/134/21 72/131/21 65/133/21

vt 2.66859 0.1843
f 67/135/21 72/131/21 66/134/21

vt 2.6514 0.188905
f 68/136/21 72/131/21 67/135/21

f 68/136/21 71/121/21 72/131/21

vt 2.62979 0.210521
f 69/137/21 71/121/21 68/136/21

f 71/121/21 69/137/21 70/122/21

v 104.591 51.0152 -40.052
vt 2.32946 2.00803
vt 2.95197 2.28353
vt 2.32939 2.28358
f 73/138/3 72/139/3 71/140/3

vt 2.87914 1.92929
f 48/141/3 72/139/3 73/138/3

v 118.553 2.01289 -40.0532
vt 2.87914 0.0788047
f 74/142/3 72/139/3 48/141/3

v 120.423 0.0129111 -40.0532
vt 2.95276 6.52255e-005
f 74/142/3 75/143/3 72/139/3

v 108.255 2.01288 -40.0532
vt 2.47371 0.078804
f 75/143/3 74/142/3 76/144/3

v 112.404 2.01288 -44.4213
vt 2.63706 0.171972
vn -6.57737e-007 1 -7.89579e-007
vt 2.47371 1.05317e-006
vt 2.87914 7.22851e-007
f 77/145/22 76/146/22 74/147/22

v 111.672 2.01288 -45.1533
vt 2.60824 0.200793
f 78/148/22 76/146/22 77/145/22

vt 2.47371 0.480325
f 76/146/22 78/148/22 40/149/22

v 111.404 2.01287 -46.1533
vt 2.59769 0.240163
f 40/149/22 78/148/22 79/150/22

vt -0.440351 0.078804
vn 1 2.21998e-008 -5.43086e-015
vt -0.48111 0.078804
vn 0.866025 -7.67423e-008 -0.5
v 111.672 0.0128925 -45.1533
vt -0.48111 6.45612e-005
v 111.404 0.0128923 -46.1533
vt -0.440351 6.45534e-005
f 79/151/23 78/152/24 80/153/24 81/154/23 

vt -1.70232 0.0788042
v 112.167 2.01288 -44.6585
vt -1.72987 0.0788042
vn 0.707107 -1.20021e-007 -0.707107
v 112.167 0.0128926 -44.6585
vt -1.72987 6.47312e-005
vt -1.70232 6.4727e-005
f 78/155/24 82/156/25 83/157/25 80/158/24 

vt 2.62772 0.181312
f 78/148/22 77/145/22 82/159/22

vt -1.74308 0.0788042
vn 0.5 -1.55121e-007 -0.866025
v 112.404 0.0128927 -44.4213
vt -1.74308 6.47332e-005
f 82/156/25 77/160/26 84/161/26 83/157/25 

vt -2.50269 0.0788041
v 113.404 2.01288 -44.1533
vt -2.54345 0.0788041
vn -1.23559e-015 -1.91936e-007 -1
v 113.404 0.0128928 -44.1533
vt -2.54345 6.46501e-005
vt -2.50269 6.46472e-005
f 77/162/26 85/163/27 86/164/27 84/165/26 

vt 2.67643 0.161423
f 77/145/22 74/147/22 85/166/22

v 114.404 2.01288 -44.4213
vt 2.7158 0.171972
f 85/166/22 74/147/22 87/167/22

v 115.136 2.01288 -45.1533
vt 2.74462 0.200793
f 87/167/22 74/147/22 88/168/22

v 115.404 2.01287 -46.1533
vt 2.75517 0.240163
f 88/168/22 74/147/22 89/169/22

vt 2.87914 0.480325
f 41/170/22 89/169/22 74/147/22

v 115.136 2.01287 -47.1533
vt 2.74462 0.279533
f 41/170/22 90/171/22 89/169/22

v 114.641 2.01287 -47.6481
vt 2.72514 0.299014
f 41/170/22 91/172/22 90/171/22

v 114.404 2.01287 -47.8854
vt 2.7158 0.308354
f 41/170/22 92/173/22 91/172/22

v 113.404 2.01287 -48.1533
vt 2.67643 0.318903
f 41/170/22 93/174/22 92/173/22

v 112.404 2.01287 -47.8854
vt 2.63706 0.308354
f 41/170/22 94/175/22 93/174/22

f 40/149/22 94/175/22 41/170/22

v 111.672 2.01287 -47.1533
vt 2.60824 0.279533
f 94/175/22 40/149/22 95/176/22

f 95/176/22 40/149/22 79/150/22

vt 0.945069 0.0788038
vn 0.866025 1.15193e-007 0.5
vt 0.90431 0.0788038
vt 0.90431 6.43068e-005
v 111.672 0.0128922 -47.1533
vt 0.945069 6.42995e-005
f 95/177/28 79/178/23 81/179/23 96/180/28 

vt -2.32938 0.559065
vn 1.20255e-006 -1 1.19144e-006
vt -2.60824 0.279533
vt -2.59769 0.240163
f 8/181/29 96/182/29 81/183/29

v 112.404 0.012892 -47.8854
vt -2.63706 0.308354
f 96/182/29 8/181/29 97/184/29

vt -2.95276 0.559065
f 97/184/29 8/181/29 7/185/29

v 113.404 0.012892 -48.1533
vt -2.67643 0.318903
f 97/184/29 7/185/29 98/186/29

v 114.404 0.0128921 -47.8854
vt -2.7158 0.308354
f 98/186/29 7/185/29 99/187/29

v 114.641 0.0128921 -47.6481
vt -2.72514 0.299014
f 99/187/29 7/185/29 100/188/29

v 115.136 0.0128922 -47.1533
vt -2.74462 0.279533
f 100/188/29 7/185/29 101/189/29

v 115.404 0.0128924 -46.1533
vt -2.75517 0.240163
f 101/189/29 7/185/29 102/190/29

vt -2.95276 9.66389e-007
f 75/191/29 102/190/29 7/185/29

v 115.136 0.0128926 -45.1533
vt -2.74462 0.200793
f 75/191/29 103/192/29 102/190/29

v 114.404 0.0128927 -44.4213
vt -2.7158 0.171972
f 75/191/29 104/193/29 103/192/29

vt -2.67643 0.161423
f 75/191/29 86/194/29 104/193/29

vt -2.63706 0.171972
f 75/191/29 84/195/29 86/194/29

v 104.589 0.012876 -40.0532
vt -2.32938 1.28097e-006
f 105/196/29 84/195/29 75/191/29

vt -2.60824 0.200793
f 84/195/29 105/196/29 80/197/29

f 80/197/29 105/196/29 8/181/29

vt 0.000325643 0.000738185
vn -1 0.000289497 0.000140348
v 104.593 7.00795 -40.0772
vt -0.000620371 0.276135
vt -0.558738 0.276329
vt -0.558738 0.000738116
f 105/198/30 106/199/30 9/200/30 8/201/30 

vt 2.32938 6.3841e-005
vt 2.32954 0.27546
f 105/202/3 76/144/3 106/203/3

f 76/144/3 105/202/3 75/143/3

v 108.255 37.0129 -40.0532
vt 2.47371 1.45676
f 106/203/3 76/144/3 107/204/3

vt 0.480331 0.0788039
vn 1 1.75351e-013 2.66415e-006
vt 0.480331 1.45676
vt 7.79642e-006 1.45676
vt 7.70572e-006 0.078804
f 40/205/31 39/206/31 107/207/31 76/208/31 

vt 2.47371 0.480324
vn 1.15867e-013 1 -1.91936e-007
vt 2.32938 0.480324
v 104.589 37.0129 -40.0532
vt 2.32938 1.00144e-006
vt 2.47371 9.26482e-007
f 39/209/32 38/210/32 108/211/32 107/212/32 

vt -0.479937 0.354226
vn -1 -7.23829e-005 0.000163282
v 104.593 9.00795 -40.0771
vt -0.000559841 0.354032
vt 0.000379065 1.45659
vt -0.479944 1.45659
f 37/213/33 109/214/33 108/215/33 38/216/33 

v 51.9804 9.01 -46.1512
vt 0.258168 0.240339
vn -6.64498e-006 1 0.000730292
vt 2.32954 0.00119887
vt 2.32938 0.480576
f 110/217/34 109/218/34 37/219/34

v 51.7794 9.01 -45.4012
vt 0.250256 0.210811
f 111/220/34 109/218/34 110/217/34

v 51.2304 9.01 -44.8522
vt 0.22864 0.189196
f 112/221/34 109/218/34 111/220/34

v 50.7938 9.00925 -44.7352
vt 0.211451 0.18459
f 113/222/34 109/218/34 112/221/34

v 50.4804 9.01 -44.6512
vt 0.199113 0.181284
f 114/223/34 109/218/34 113/222/34

v 45.2618 9.00358 -40.0678
vt -0.00634155 0.000833322
f 114/223/34 115/224/34 109/218/34

v 49.7304 9.01 -44.8522
vt 0.169585 0.189196
f 116/225/34 115/224/34 114/223/34

v 49.1813 9.01 -45.4012
vt 0.147969 0.210811
f 117/226/34 115/224/34 116/225/34

vt -0.00596447 0.480094
f 115/224/34 117/226/34 36/227/34

v 48.9804 9.01 -46.1512
vt 0.140058 0.240339
f 36/227/34 117/226/34 118/228/34

vt 0.195651 0.354275
vn 1 -2.58597e-009 -2.28441e-014
vt 0.165081 0.354275
vn 0.866025 6.04911e-005 -0.5
v 49.1813 0.000748113 -45.4023
vt 0.165123 -0.00041982
v 48.9804 0.000748113 -46.1523
vt 0.195692 -0.00041982
f 118/229/35 117/230/36 119/231/36 120/232/35 

vt 0.0442546 0.35426
vt 0.0136854 0.35426
vn 0.5 0.000104776 -0.866025
v 49.7304 0.000748113 -44.8533
vt 0.0137158 -0.000435329
vt 0.0442849 -0.000435329
f 117/233/36 116/234/37 121/235/37 119/236/36 

vt -0.114904 0.354255
vt -0.145473 0.354255
vn -4.9536e-007 0.000120987 -1
v 50.4804 0.000748113 -44.6523
vt -0.145462 -0.0004401
vt -0.114893 -0.0004401
f 116/237/37 114/238/38 122/239/38 121/240/37 

vt -0.239179 0.354267
vt -0.251952 0.354237
vn -0.258819 0.000116865 -0.965926
v 50.7938 0 -44.7363
vt -0.251964 -0.000457509
vt -0.23919 -0.000428055
f 114/241/38 113/242/39 123/243/39 122/244/38 

vt -0.269748 0.354267
vn -0.5 0.000104779 -0.866026
v 51.2304 0.000748113 -44.8533
vt -0.269759 -0.000428055
vt -0.251963 -0.000457509
f 113/242/39 112/245/40 124/246/40 123/247/39 

vt -0.29527 0.354284
vt -0.325839 0.354284
vn -0.866025 6.04956e-005 -0.5
v 51.7794 0.000748113 -45.4023
vt -0.32587 -0.000411239
vt -0.2953 -0.000411239
f 112/248/40 111/249/41 125/250/41 124/251/40 

vt -0.268149 0.354287
vt -0.298718 0.354287
vn -1 2.58597e-009 2.28441e-014
v 51.9804 0.000748113 -46.1523
vt -0.298759 -0.000407775
vt -0.26819 -0.000407775
f 111/252/41 110/253/42 126/254/42 125/255/41 

vt -0.165081 0.354272
v 51.7794 9.01 -46.9012
vt -0.195651 0.354272
vn -0.866025 -6.04911e-005 0.5
v 51.7794 0.000748113 -46.9023
vt -0.195692 -0.000423392
vt -0.165123 -0.000423392
f 110/256/42 127/257/43 128/258/43 126/259/42 

vt 0.250256 0.269866
f 37/219/34 127/260/34 110/217/34

v 51.2304 9.01 -47.4503
vt 0.22864 0.291482
f 37/219/34 129/261/34 127/260/34

v 50.7938 9.01075 -47.5672
vt 0.211451 0.296088
f 37/219/34 130/262/34 129/261/34

v 50.4804 9.01 -47.6512
vt 0.199113 0.299394
f 37/219/34 131/263/34 130/262/34

f 36/227/34 131/263/34 37/219/34

v 49.7304 9.01 -47.4503
vt 0.169585 0.291482
f 131/263/34 36/227/34 132/264/34

v 49.1813 9.01 -46.9012
vt 0.147969 0.269866
f 132/264/34 36/227/34 133/265/34

f 133/265/34 36/227/34 118/228/34

vt 0.298718 0.354284
vn 0.866025 -6.04956e-005 0.5
vt 0.268149 0.354284
vt 0.26819 -0.000411348
v 49.1813 0.000748113 -46.9023
vt 0.298759 -0.000411348
f 133/266/44 118/267/35 120/268/35 134/269/44 

v 45.4134 1.20707e-005 -40.0792
vt 0.000376957 0.00102567
vn -0.000371374 -1 -0.000445942
vt -0.147967 0.26965
vt -0.140055 0.240123
f 135/270/45 134/271/45 120/272/45

vt 0.0787402 0.559065
f 12/273/45 134/271/45 135/270/45

v 49.7304 0.000748113 -47.4514
vt -0.169583 0.291266
f 134/271/45 12/273/45 136/274/45

vt -0.558049 0.558442
f 136/274/45 12/273/45 11/275/45

v 50.4804 0.000748113 -47.6523
vt -0.199111 0.299178
f 136/274/45 11/275/45 137/276/45

v 50.7938 0.00149609 -47.5683
vt -0.211449 0.295872
f 137/276/45 11/275/45 138/277/45

v 51.2304 0.000748113 -47.4514
vt -0.228638 0.291266
f 138/277/45 11/275/45 139/278/45

vt -0.250254 0.26965
f 139/278/45 11/275/45 128/279/45

vt -0.258166 0.240123
f 128/279/45 11/275/45 126/280/45

v 59.5909 1.20707e-005 -40.0644
vt -0.557792 0.00044101
f 126/280/45 11/275/45 140/281/45

vt 0.000429563 9.9037e-005
vn 1 -0.000971066 -2.07106e-005
vt 0.55843 0.000541914
vt 0.55843 0.276132
v 59.6045 7.00795 -40.0614
vt 0.00031247 0.276003
f 140/282/46 11/283/46 10/284/46 141/285/46 

f 10/284/46 141/285/46 140/282/46 11/283/46 

vt -2.32938 0.559162
vn 1.17283e-005 -1 -0.00035161
vt -2.32954 0.00104416
vt -0.558331 0.000420885
vt -0.558052 0.558538
f 9/286/47 106/287/47 141/288/47 10/289/47 

vt 2.32954 0.3542
vt 0.558327 0.27546
f 106/203/3 109/290/3 141/291/3

f 106/203/3 107/204/3 109/290/3

vt 2.32938 1.45676
f 109/290/3 107/204/3 108/292/3

vt -0.0063439 0.354028
f 141/291/3 109/290/3 115/293/3

v 45.4229 0.0129872 -40.0529
vt -3.70701e-006 6.82178e-005
f 115/293/3 142/294/3 141/291/3

f 20/28/3 142/294/3 115/293/3

v 43.4229 0.0129872 -40.0539
vt -0.0787438 6.82099e-005
f 142/294/3 20/28/3 143/295/3

vt -0.559064 6.37441e-005
vn -1 -4.73413e-014 -6.94108e-006
vt -2.55562e-005 6.82153e-005
vt -2.55562e-005 2.28353
vt -0.559064 2.28353
f 12/296/48 143/297/48 20/298/48 1/299/48 

vt 0.0787438 2.61202e-005
f 135/270/45 143/300/45 12/273/45

vt 3.73221e-006 -1.23946e-005
f 143/300/45 135/270/45 142/301/45

vt 0.557792 -0.000442704
vt -0.00037711 -0.000442822
f 140/302/3 142/294/3 135/303/3

f 142/294/3 140/302/3 141/291/3

vt -0.169583 0.18898
f 135/270/45 121/304/45 140/281/45

vt -0.147967 0.210595
f 121/304/45 135/270/45 119/305/45

f 119/305/45 135/270/45 120/272/45

vt -0.199111 0.181068
f 140/281/45 121/304/45 122/306/45

vt -0.211449 0.184374
f 140/281/45 122/306/45 123/307/45

vt -0.228638 0.18898
f 140/281/45 123/307/45 124/308/45

vt -0.250254 0.210595
f 140/281/45 124/308/45 125/309/45

f 140/281/45 125/309/45 126/280/45

f 20/28/3 115/293/3 24/26/3

vt 2.61014e-005 2.20479
vn 1 -9.03841e-005 0.000396331
vt 0.000572264 0.354028
vt 0.479833 0.354534
vt 0.480325 2.20479
f 24/310/49 115/311/49 36/312/49 35/313/49 

v 48.6909 56.0129 -45.1536
vt -0.128657 0.200785
vn -1.31141e-006 -1 9.02587e-006
vt 0.00591207 8.54318e-006
vt 0.0059084 0.480307
f 144/314/50 24/315/50 35/316/50

v 49.0088 56.0129 -44.7394
vt -0.14117 0.184477
f 145/317/50 24/315/50 144/314/50

v 49.423 56.0129 -44.4216
vt -0.157477 0.171964
f 146/318/50 24/315/50 145/317/50

vt -0.3996 2.03735e-006
f 24/315/50 146/318/50 25/319/50

v 49.9053 56.0129 -44.2218
vt -0.176468 0.164098
f 25/319/50 146/318/50 147/320/50

vt -0.0796772 2.28353
vn 0.5 -4.03103e-006 -0.866025
v 49.9053 58.0129 -44.2218
vt -0.100233 2.28353
vn 0.258819 -4.49603e-006 -0.965926
vt -0.100233 2.20479
vt -0.0796774 2.20479
f 22/321/51 148/322/52 147/323/52 146/324/51 

vt 0.176585 0.163996
f 22/24/2 23/25/2 148/325/2

v 50.423 58.0129 -44.1536
vt 0.196964 0.161313
f 148/325/2 23/25/2 149/326/2

v 50.9406 58.0129 -44.2218
vt 0.217343 0.163996
f 149/326/2 23/25/2 150/327/2

v 51.423 58.0129 -44.4216
vt 0.236334 0.171862
f 150/327/2 23/25/2 151/328/2

v 51.8372 58.0129 -44.7394
vt 0.252642 0.184375
f 151/328/2 23/25/2 152/329/2

v 52.155 58.0129 -45.1536
vt 0.265155 0.200683
f 152/329/2 23/25/2 153/330/2

v 52.3548 58.0129 -45.636
vt 0.273021 0.219673
f 153/330/2 23/25/2 154/331/2

v 52.423 58.0129 -46.1536
vt 0.275704 0.240053
f 154/331/2 23/25/2 155/332/2

f 2/15/2 155/332/2 23/25/2

v 52.3548 58.0129 -46.6713
vt 0.273021 0.260432
f 2/15/2 156/333/2 155/332/2

v 52.155 58.0129 -47.1536
vt 0.265155 0.279423
f 2/15/2 157/334/2 156/333/2

v 51.8372 58.0129 -47.5679
vt 0.252642 0.295731
f 2/15/2 158/335/2 157/334/2

v 51.6807 58.0129 -47.688
vt 0.246479 0.300459
f 2/15/2 159/336/2 158/335/2

v 51.423 58.0129 -47.8857
vt 0.236334 0.308244
f 2/15/2 160/337/2 159/336/2

v 50.9406 58.0129 -48.0855
vt 0.217343 0.31611
f 2/15/2 161/338/2 160/337/2

v 50.423 58.0129 -48.1536
vt 0.196964 0.318793
f 2/15/2 162/339/2 161/338/2

v 49.9053 58.0129 -48.0855
vt 0.176585 0.31611
f 2/15/2 163/340/2 162/339/2

f 2/15/2 13/14/2 163/340/2

vt 0.284055 2.28353
vn 0.258819 4.49603e-006 0.965926
vt 0.2635 2.28353
vn 0.5 4.03103e-006 0.866025
v 49.423 56.0129 -47.8857
vt 0.263499 2.20479
v 49.9053 56.0129 -48.0855
vt 0.284055 2.20479
f 163/341/53 13/342/54 164/343/54 165/344/53 

vt 0.312659 2.28353
vt 0.292104 2.28353
vn 0.707107 3.29132e-006 0.707107
v 49.0088 56.0129 -47.5678
vt 0.292104 2.20479
vt 0.312659 2.20479
f 13/345/54 14/346/55 166/347/55 164/348/54 

vt 0.320657 2.28353
vt 0.300101 2.28353
vn 0.866025 2.32732e-006 0.5
v 48.6909 56.0129 -47.1536
vt 0.300101 2.20479
vt 0.320656 2.20479
f 14/349/55 15/350/56 167/351/56 166/352/55 

vt 0.307502 2.28353
vt 0.286947 2.28353
vn 0.965926 1.20471e-006 0.258819
v 48.4911 56.0129 -46.6713
vt 0.286947 2.20479
vt 0.307502 2.20479
f 15/353/56 16/354/57 168/355/57 167/356/56 

vt 0.274092 2.28353
vt 0.253537 2.28353
vn 1 -2.04797e-016 -2.00025e-014
v 48.423 56.0129 -46.1536
vt 0.253537 2.20479
vt 0.274092 2.20479
f 16/357/57 17/358/58 169/359/58 168/360/57 

vt 0.222704 2.28353
vt 0.202149 2.28353
vn 0.965926 -1.20471e-006 -0.258819
v 48.4911 56.0129 -45.636
vt 0.202149 2.20479
vt 0.222704 2.20479
f 17/361/58 18/362/59 170/363/59 169/364/58 

vt 0.156839 2.28353
vt 0.136284 2.28353
vn 0.866025 -2.32732e-006 -0.5
vt 0.136284 2.20479
vt 0.156839 2.20479
f 18/365/59 19/366/60 144/367/60 170/368/59 

vt 0.0809867 2.28353
vt 0.0604314 2.28353
vn 0.707107 -3.29132e-006 -0.707107
vt 0.0604311 2.20479
vt 0.0809864 2.20479
f 19/369/60 21/370/61 145/371/61 144/372/60 

vt 0.000315277 2.28353
v 49.1653 58.0129 -44.6193
vt -0.00745247 2.28353
vn 0.608761 -3.69277e-006 -0.793353
v 49.1653 56.0129 -44.6193
vt -0.0074527 2.20479
vt 0.000315054 2.20479
f 21/373/61 171/374/62 172/375/62 145/376/61 

vt 0.147449 0.179646
f 21/23/2 22/24/2 171/377/2

vt -0.02024 2.28353
vt -0.0202403 2.20479
f 171/374/62 22/378/51 146/379/51 172/375/62 

vt -0.147332 0.179749
f 146/318/50 145/317/50 172/380/50

vt -0.12079 0.219776
f 144/314/50 35/316/50 170/381/50

vt -0.118107 0.240155
f 170/381/50 35/316/50 169/382/50

vt -0.12079 0.260535
f 35/316/50 168/383/50 169/382/50

vt -0.128657 0.279525
f 168/383/50 35/316/50 167/384/50

vt -0.14117 0.295833
f 167/384/50 35/316/50 166/385/50

vt -0.157477 0.308346
f 166/385/50 35/316/50 164/386/50

vt -0.399603 0.480301
f 164/386/50 35/316/50 30/387/50

vt -0.176468 0.316212
f 164/386/50 30/387/50 165/388/50

v 50.423 56.0129 -48.1536
vt -0.196848 0.318895
f 165/388/50 30/387/50 173/389/50

v 50.9406 56.0129 -48.0855
vt -0.217227 0.316212
f 173/389/50 30/387/50 174/390/50

v 51.423 56.0129 -47.8857
vt -0.236218 0.308346
f 174/390/50 30/387/50 175/391/50

v 51.6807 56.0129 -47.688
vt -0.246363 0.300562
f 175/391/50 30/387/50 176/392/50

v 51.8372 56.0129 -47.5678
vt -0.252525 0.295833
f 176/392/50 30/387/50 177/393/50

v 52.155 56.0129 -47.1536
vt -0.265038 0.279525
f 177/393/50 30/387/50 178/394/50

v 52.3548 56.0129 -46.6713
vt -0.272905 0.260535
f 178/394/50 30/387/50 179/395/50

v 52.423 56.0129 -46.1536
vt -0.275588 0.240155
f 179/395/50 30/387/50 180/396/50

f 180/396/50 30/387/50 25/319/50

v 52.3548 56.0129 -45.636
vt -0.272905 0.219776
f 25/319/50 181/397/50 180/396/50

v 52.155 56.0129 -45.1536
vt -0.265038 0.200785
f 25/319/50 182/398/50 181/397/50

v 51.8372 56.0129 -44.7394
vt -0.252525 0.184477
f 25/319/50 183/399/50 182/398/50

v 51.423 56.0129 -44.4216
vt -0.236218 0.171964
f 25/319/50 184/400/50 183/399/50

v 50.9406 56.0129 -44.2218
vt -0.217227 0.164098
f 25/319/50 185/401/50 184/400/50

v 50.423 56.0129 -44.1536
vt -0.196848 0.161415
f 25/319/50 186/402/50 185/401/50

f 25/319/50 147/320/50 186/402/50

vt -0.153539 2.28353
vt -0.174095 2.28353
vn 0 -4.65464e-006 -1
vt -0.174095 2.20479
vt -0.15354 2.20479
f 148/403/52 149/404/63 186/405/63 147/406/52 

vt -0.216238 2.28353
vt -0.236793 2.28353
vn -0.258819 -4.49603e-006 -0.965926
vt -0.236793 2.20479
vt -0.216238 2.20479
f 149/407/63 150/408/64 185/409/64 186/410/63 

vt -0.2635 2.28353
vt -0.284055 2.28353
vn -0.5 -4.03103e-006 -0.866025
vt -0.284055 2.20479
vt -0.263499 2.20479
f 150/411/64 151/412/65 184/413/65 185/414/64 

vt -0.292104 2.28353
vt -0.312659 2.28353
vn -0.707107 -3.29132e-006 -0.707107
vt -0.312659 2.20479
vt -0.292104 2.20479
f 151/415/65 152/416/66 183/417/66 184/418/65 

vt -0.300101 2.28353
vt -0.320657 2.28353
vn -0.866025 -2.32732e-006 -0.5
vt -0.320656 2.20479
vt -0.300101 2.20479
f 152/419/66 153/420/67 182/421/67 183/422/66 

vt -0.286947 2.28353
vt -0.307502 2.28353
vn -0.965926 -1.20471e-006 -0.258819
vt -0.307502 2.20479
vt -0.286947 2.20479
f 153/423/67 154/424/68 181/425/68 182/426/67 

vt -0.253537 2.28353
vt -0.274092 2.28353
vn -1 2.04804e-016 2.14162e-014
vt -0.274092 2.20479
vt -0.253537 2.20479
f 154/427/68 155/428/69 180/429/69 181/430/68 

vt -0.202149 2.28353
vt -0.222704 2.28353
vn -0.965926 1.20471e-006 0.258819
vt -0.222704 2.20479
vt -0.202149 2.20479
f 155/431/69 156/432/70 179/433/70 180/434/69 

vt -0.136284 2.28353
vt -0.156839 2.28353
vn -0.866025 2.32732e-006 0.5
vt -0.156839 2.20479
vt -0.136284 2.20479
f 156/435/70 157/436/71 178/437/71 179/438/70 

vt -0.0604314 2.28353
vt -0.0809867 2.28353
vn -0.707107 3.29132e-006 0.707107
vt -0.0809864 2.20479
vt -0.0604311 2.20479
f 157/439/71 158/440/72 177/441/72 178/442/71 

vt 0.02024 2.28353
vt 0.0124723 2.28353
vn -0.608761 3.69277e-006 0.793353
vt 0.0124725 2.20479
vt 0.0202403 2.20479
f 158/443/72 159/444/73 176/445/73 177/446/72 

vt -0.000315277 2.28353
vn -0.5 4.03103e-006 0.866025
vt -0.000315054 2.20479
f 159/444/73 160/447/74 175/448/74 176/445/73 

vt 0.100233 2.28353
vt 0.0796772 2.28353
vn -0.258819 4.49603e-006 0.965926
vt 0.0796774 2.20479
vt 0.100233 2.20479
f 160/449/74 161/450/75 174/451/75 175/452/74 

vt 0.174095 2.28353
vt 0.153539 2.28353
vn 0 4.65464e-006 1
vt 0.15354 2.20479
vt 0.174095 2.20479
f 161/453/75 162/454/76 173/455/76 174/456/75 

vt 0.236793 2.28353
vt 0.216238 2.28353
vt 0.216238 2.20479
vt 0.236793 2.20479
f 162/457/76 163/458/53 165/459/53 173/460/76 

vt -2.98694e-005 2.28293
vn 0.999999 0.00125002 0.000405592
vt -0.000201833 2.00733
v 59.6005 51.0129 -52.2429
vt 0.480135 2.00724
vt 0.558876 2.00723
vt 0.55898 2.28282
f 23/461/77 26/462/77 187/463/77 3/464/77 2/465/77 

vt 0.558246 -0.000802946
vn 1.99252e-006 1 -0.000186596
vt 2.32946 -0.000421694
vt 2.32937 0.558656
vt 0.55812 0.558275
vt 0.558165 0.479534
f 26/466/78 73/467/78 4/468/78 3/469/78 187/470/78 

f 26/30/3 48/141/3 73/138/3

f 26/30/3 27/31/3 48/141/3

vt -0.558892 2.00793
vn -1 7.44708e-009 5.96203e-005
vt 0.000185886 2.00803
vt 0.000125516 2.28358
vt -0.558926 2.28352
f 4/471/79 73/472/79 71/473/79 5/474/79 

vt -0.0136854 0.35425
vt -0.0442546 0.35425
vn -0.5 -0.000104776 0.866026
vt -0.0442849 -0.000445089
vt -0.0137158 -0.000445089
f 127/475/43 129/476/80 139/477/80 128/478/43 

vt 0.145473 0.354242
vt 0.127678 0.354271
vn -0.258819 -0.000116863 0.965926
vt 0.127667 -0.000423984
vt 0.145462 -0.000453433
f 129/479/80 130/480/81 138/481/81 139/482/80 

vt 0.127677 0.354271
vt 0.114904 0.354242
vn -4.96128e-007 -0.000120987 1
vt 0.114892 -0.000453433
vt 0.127666 -0.000423984
f 130/483/81 131/484/82 137/485/82 138/486/81 

vt 0.269748 0.354254
vt 0.239179 0.354254
vn 0.5 -0.000104779 0.866025
vt 0.23919 -0.000441388
vt 0.269759 -0.000441388
f 131/487/82 132/488/83 136/489/83 137/490/82 

vt 0.325839 0.354274
vt 0.29527 0.354274
vt 0.2953 -0.000421
vt 0.32587 -0.000421
f 132/491/83 133/492/44 134/493/44 136/494/83 

f 80/197/29 8/181/29 81/183/29

vt -2.62772 0.181312
f 84/195/29 80/197/29 83/495/29

vt -2.62701 0.0788039
vt -2.66777 0.0788039
vn -0.5 -1.77321e-007 -0.866025
vt -2.66777 6.43939e-005
vt -2.62701 6.43951e-005
f 85/496/27 87/497/84 104/498/84 86/499/27 

vt -2.04196 0.0788037
vt -2.08272 0.0788037
vn -0.866025 -1.15193e-007 -0.5
vt -2.08272 6.42193e-005
vt -2.04196 6.42242e-005
f 87/500/84 88/501/85 103/502/85 104/503/84 

vt -0.90431 0.0788038
vt -0.945069 0.0788038
vn -1 -2.21998e-008 2.58612e-015
vt -0.945069 6.42995e-005
vt -0.90431 6.43068e-005
f 88/504/85 89/505/86 102/506/86 103/507/85 

vt 0.48111 0.078804
vt 0.440351 0.078804
vn -0.866025 7.67423e-008 0.5
vt 0.440351 6.45534e-005
vt 0.48111 6.45612e-005
f 89/508/86 90/509/87 101/510/87 102/511/86 

vt 1.74308 0.0788042
vt 1.71553 0.0788042
vn -0.707107 1.20021e-007 0.707107
vt 1.71553 6.4729e-005
vt 1.74308 6.47332e-005
f 90/512/87 91/513/88 100/514/88 101/515/87 

vt 1.70232 0.0788042
vn -0.5 1.55121e-007 0.866025
vt 1.70232 6.4727e-005
f 91/513/88 92/516/89 99/517/89 100/514/88 

vt 2.54345 0.0788041
vt 2.50269 0.0788041
vn -3.99412e-015 1.91936e-007 1
vt 2.50269 6.46472e-005
vt 2.54345 6.46501e-005
f 92/518/89 93/519/90 98/520/90 99/521/89 

vt 2.66777 0.0788039
vt 2.62701 0.0788039
vn 0.5 1.77321e-007 0.866025
vt 2.62701 6.43951e-005
vt 2.66777 6.43939e-005
f 93/522/90 94/523/91 97/524/91 98/525/90 

vt 2.08272 0.0788037
vt 2.04196 0.0788037
vt 2.04196 6.42242e-005
vt 2.08272 6.42193e-005
f 94/526/91 95/527/28 96/528/28 97/529/91 

vt 0.560518 -0.000657753
vn 1 0.00024437 0.000492128
vt 0.560518 2.28281
vt 0.00145861 2.28281
vt 0.0014541 -0.000656345
f 7/530/92 6/531/92 72/532/92 75/533/92 

vt -0.480325 0.078791
vn -1 -4.48344e-006 6.88555e-012
vt -7.85052e-007 0.0787918
vt 1.52825e-005 1.92928
vt -0.480296 1.92923
f 41/534/93 74/535/93 48/536/93 32/537/93 

vt 0.480254 0.827026
vn 1 -0.000342377 0.000617198
vt 0.480254 1.92939
vt -8.37039e-005 1.92948
vt -1.59338e-005 0.827124
f 34/538/94 33/539/94 27/540/94 28/541/94 

vt -0.399606 0.479736
vn 0 -1 0.000204585
vt -0.558169 0.47974
vt -0.557496 -0.000529197
vt -0.398932 -0.000533362
f 31/542/95 34/543/95 28/544/95 29/545/95 

