# Alias OBJ Model File
# Exported from SketchUp, (c) 2000-2012 Trimble Navigation Limited
# File units = millimeters

mtllib BATTERY_CREP.mtl

g Mesh1 Model

usemtl FrontColor
v 58.6959 -4 -156.619
vt -2.31086 6.16611
vn 0 -1 -0
v 67.7641 -4 -126.137
vt -2.66788 4.96601
v 67.6959 -4 -125.619
vt -2.66519 4.94563
f 1/1/1 2/2/1 3/3/1

v 67.9639 -4 -126.619
vt -2.67574 4.985
f 2/2/1 1/1/1 4/4/1

v 68.2817 -4 -127.033
vt -2.68826 5.00131
f 4/4/1 1/1/1 5/5/1

v 104.696 -4 -156.619
vt -4.12189 6.16611
f 5/5/1 1/1/1 6/6/1

vt -2.31086 -0.15748
vn 0 0 -1
v 58.6959 22.5 -156.619
vt -2.31086 0.885827
v 60.6959 22.5 -156.619
vt -2.3896 0.885827
v 60.6959 0 -156.619
vt -2.3896 0
v 102.696 0 -156.619
vt -4.04315 0
v 102.696 22.5 -156.619
vt -4.04315 0.885827
v 104.696 22.5 -156.619
vt -4.12189 0.885827
vt -4.12189 -0.15748
f 1/7/2 7/8/2 8/9/2 9/10/2 10/11/2 11/12/2 12/13/2 6/14/2 

v 58.6959 -4 -64.6191
vt -2.54406 -0.15748
vn -1 3.28022e-033 -1.2391e-016
v 58.6959 22.5 -64.6191
vt -2.54406 0.885827
vt -6.16611 0.885827
vt -6.16611 -0.15748
f 13/15/3 14/16/3 7/17/3 1/18/3 

vt 2.31086 -0.15748
vn 0 0 1
v 104.696 -4 -64.6191
vt 4.12189 -0.15748
v 104.696 22.5 -64.6191
vt 4.12189 0.885827
vt 2.31086 0.885827
f 13/19/4 15/20/4 16/21/4 14/22/4 

vt -2.31086 2.54406
v 68.6959 -4 -84.887
vt -2.70456 3.34201
vt -4.12189 2.54406
f 13/23/1 17/24/1 15/25/1

v 68.2817 -4 -85.2049
vt -2.68826 3.35452
f 17/24/1 13/23/1 18/26/1

v 67.9639 -4 -85.6191
vt -2.67574 3.37083
f 18/26/1 13/23/1 19/27/1

v 67.7641 -4 -86.1014
vt -2.66788 3.38982
f 19/27/1 13/23/1 20/28/1

v 67.6959 -4 -86.6191
vt -2.66519 3.4102
f 20/28/1 13/23/1 21/29/1

f 21/29/1 13/23/1 1/1/1

f 21/29/1 1/1/1 3/3/1

v 67.7641 -4 -125.101
vt -2.66788 4.92525
f 22/30/1 21/29/1 3/3/1

v 67.7641 -4 -87.1367
vt -2.66788 3.43058
f 21/29/1 22/30/1 23/31/1

v 67.9639 -4 -124.619
vt -2.67574 4.90626
f 23/31/1 22/30/1 24/32/1

v 67.7641 0 -125.101
vt 3.52939 0
vn 0.965926 0 -0.258819
v 67.9639 0 -124.619
vt 3.50883 0
vn 0.866025 0 -0.5
vt 3.50883 -0.15748
vt 3.52939 -0.15748
f 25/33/5 26/34/6 24/35/6 22/36/5 

vt 2.66788 4.92525
vn 0 1 -0
v 67.9639 0 -87.6191
vt 2.67574 3.44957
vt 2.67574 4.90626
f 25/37/7 27/38/7 26/39/7

v 67.7641 0 -87.1367
vt 2.66788 3.43058
f 25/37/7 28/40/7 27/38/7

v 67.6959 0 -125.619
vt 2.66519 4.94563
f 29/41/7 28/40/7 25/37/7

v 67.6959 0 -86.6191
vt 2.66519 3.4102
f 28/40/7 29/41/7 30/42/7

vt 2.3896 6.16611
f 29/41/7 9/43/7 30/42/7

v 67.7641 0 -126.137
vt 2.66788 4.96601
f 31/44/7 9/43/7 29/41/7

v 67.9639 0 -126.619
vt 2.67574 4.985
f 32/45/7 9/43/7 31/44/7

v 68.2817 0 -127.033
vt 2.68826 5.00131
f 33/46/7 9/43/7 32/45/7

vt 4.04315 6.16611
f 9/43/7 33/46/7 10/47/7

v 68.6959 0 -127.351
vt 2.70456 5.01382
f 10/47/7 33/46/7 34/48/7

vt 5.1979 0
vn 0.5 0 0.866025
vt 5.17734 0
vn 0.707107 0 0.707107
vt 5.17734 -0.15748
v 68.6959 -4 -127.351
vt 5.1979 -0.15748
f 34/49/8 33/50/9 5/51/9 35/52/8 

vt 5.60431 0
vt 5.58376 0
vn 0.866025 0 0.5
vt 5.58376 -0.15748
vt 5.60431 -0.15748
f 33/53/9 32/54/10 4/55/10 5/56/9 

vt 5.6295 0
vt 5.60895 0
vn 0.965926 0 0.258819
vt 5.60895 -0.15748
vt 5.6295 -0.15748
f 32/57/10 31/58/11 2/59/11 4/60/10 

vt 5.27176 0
vt 5.2512 0
vn 1 0 -0
vt 5.2512 -0.15748
vt 5.27176 -0.15748
f 31/61/11 29/62/12 3/63/12 2/64/11 

vt 4.55544 0
vt 4.53489 0
vt 4.53489 -0.15748
vt 4.55544 -0.15748
f 29/65/12 25/66/5 22/67/5 3/68/12 

vt -2.70456 5.01382
f 5/5/1 6/6/1 35/69/1

v 69.1783 -4 -127.551
vt -2.72355 5.02169
f 35/69/1 6/6/1 36/70/1

v 69.6959 -4 -127.619
vt -2.74393 5.02437
f 36/70/1 6/6/1 37/71/1

v 70.2136 -4 -127.551
vt -2.76431 5.02169
f 37/71/1 6/6/1 38/72/1

v 70.6959 -4 -127.351
vt -2.7833 5.01382
f 38/72/1 6/6/1 39/73/1

v 71.1101 -4 -127.033
vt -2.79961 5.00131
f 39/73/1 6/6/1 40/74/1

v 71.428 -4 -126.619
vt -2.81213 4.985
f 40/74/1 6/6/1 41/75/1

v 71.6278 -4 -126.137
vt -2.81999 4.96601
f 41/75/1 6/6/1 42/76/1

v 71.6959 -4 -125.619
vt -2.82267 4.94563
f 42/76/1 6/6/1 43/77/1

v 71.6959 -4 -86.6191
vt -2.82267 3.4102
f 43/77/1 6/6/1 44/78/1

v 91.9639 -4 -126.619
vt -3.62063 4.985
f 44/78/1 6/6/1 45/79/1

v 92.2817 -4 -127.033
vt -3.63314 5.00131
f 45/79/1 6/6/1 46/80/1

v 92.6959 -4 -127.351
vt -3.64945 5.01382
f 46/80/1 6/6/1 47/81/1

v 93.1783 -4 -127.551
vt -3.66844 5.02169
f 47/81/1 6/6/1 48/82/1

v 93.6959 -4 -127.619
vt -3.68882 5.02437
f 48/82/1 6/6/1 49/83/1

v 94.2136 -4 -127.551
vt -3.7092 5.02169
f 49/83/1 6/6/1 50/84/1

v 94.6959 -4 -127.351
vt -3.72819 5.01382
f 50/84/1 6/6/1 51/85/1

v 95.1101 -4 -127.033
vt -3.74449 5.00131
f 51/85/1 6/6/1 52/86/1

v 95.428 -4 -126.619
vt -3.75701 4.985
f 52/86/1 6/6/1 53/87/1

v 95.6278 -4 -126.137
vt -3.76487 4.96601
f 53/87/1 6/6/1 54/88/1

v 95.6959 -4 -125.619
vt -3.76756 4.94563
f 54/88/1 6/6/1 55/89/1

v 95.6959 -4 -86.6191
vt -3.76756 3.4102
f 55/89/1 6/6/1 56/90/1

f 15/25/1 56/90/1 6/6/1

v 95.6278 -4 -86.1014
vt -3.76487 3.38982
f 15/25/1 57/91/1 56/90/1

v 95.428 -4 -85.6191
vt -3.75701 3.37083
f 15/25/1 58/92/1 57/91/1

v 95.1101 -4 -85.2049
vt -3.74449 3.35452
f 15/25/1 59/93/1 58/92/1

v 94.6959 -4 -84.887
vt -3.72819 3.34201
f 15/25/1 60/94/1 59/93/1

v 94.2136 -4 -84.6872
vt -3.7092 3.33414
f 15/25/1 61/95/1 60/94/1

v 93.6959 -4 -84.6191
vt -3.68882 3.33146
f 15/25/1 62/96/1 61/95/1

v 93.1783 -4 -84.6872
vt -3.66844 3.33414
f 15/25/1 63/97/1 62/96/1

v 92.6959 -4 -84.887
vt -3.64945 3.34201
f 15/25/1 64/98/1 63/97/1

v 92.2817 -4 -85.2049
vt -3.63314 3.35452
f 15/25/1 65/99/1 64/98/1

v 91.9639 -4 -85.6191
vt -3.62063 3.37083
f 15/25/1 66/100/1 65/99/1

f 15/25/1 44/78/1 66/100/1

v 71.6278 -4 -86.1014
vt -2.81999 3.38982
f 15/25/1 67/101/1 44/78/1

v 71.428 -4 -85.6191
vt -2.81213 3.37083
f 15/25/1 68/102/1 67/101/1

v 71.1101 -4 -85.2049
vt -2.79961 3.35452
f 15/25/1 69/103/1 68/102/1

v 70.6959 -4 -84.887
vt -2.7833 3.34201
f 15/25/1 70/104/1 69/103/1

v 70.2136 -4 -84.6872
vt -2.76431 3.33414
f 15/25/1 71/105/1 70/104/1

v 69.6959 -4 -84.6191
vt -2.74393 3.33146
f 15/25/1 72/106/1 71/105/1

v 69.1783 -4 -84.6872
vt -2.72355 3.33414
f 15/25/1 73/107/1 72/106/1

f 15/25/1 17/24/1 73/107/1

v 68.6959 0 -84.887
vt -1.21976 0
vn 0.5 0 -0.866025
v 69.1783 0 -84.6872
vt -1.24032 0
vn 0.258819 0 -0.965926
vt -1.24032 -0.15748
vt -1.21976 -0.15748
f 74/108/13 75/109/14 73/110/14 17/111/13 

vt 2.70456 3.34201
v 102.696 0 -66.6191
vt 4.04315 2.6228
vt 2.72355 3.33414
f 74/112/7 76/113/7 75/114/7

v 60.6959 0 -66.6191
vt 2.3896 2.6228
f 74/112/7 77/115/7 76/113/7

v 68.2817 0 -85.2049
vt 2.68826 3.35452
f 78/116/7 77/115/7 74/112/7

v 67.9639 0 -85.6191
vt 2.67574 3.37083
f 79/117/7 77/115/7 78/116/7

v 67.7641 0 -86.1014
vt 2.66788 3.38982
f 80/118/7 77/115/7 79/117/7

f 30/42/7 77/115/7 80/118/7

f 77/115/7 30/42/7 9/43/7

vt 2.6228 0
vt 6.16611 0
vt 6.16611 0.885827
v 60.6959 22.5 -66.6191
vt 2.6228 0.885827
f 77/119/12 9/120/12 8/121/12 81/122/12 

vt 2.31086 2.54406
vn -1.21012e-017 1 2.61784e-017
vt 4.12189 2.54406
vt 4.12189 6.16611
v 102.696 22.5 -66.6191
vt 2.31086 6.16611
f 14/123/15 16/124/15 12/125/15 11/47/15 82/113/15 81/115/15 8/43/15 7/126/15 

vt 2.54406 0.885827
vt 2.54406 -0.15748
vt 6.16611 -0.15748
f 12/121/12 16/127/12 15/128/12 6/129/12 

vt -6.16611 0
vn -1 0 -0
vt -2.6228 0
vt -2.6228 0.885827
f 10/130/16 76/131/16 82/132/16 11/17/16 

v 95.6959 0 -125.619
vt 3.76756 4.94563
f 10/47/7 83/133/7 76/113/7

v 95.6278 0 -126.137
vt 3.76487 4.96601
f 10/47/7 84/134/7 83/133/7

v 95.428 0 -126.619
vt 3.75701 4.985
f 10/47/7 85/135/7 84/134/7

v 95.1101 0 -127.033
vt 3.74449 5.00131
f 10/47/7 86/136/7 85/135/7

v 94.6959 0 -127.351
vt 3.72819 5.01382
f 10/47/7 87/137/7 86/136/7

v 94.2136 0 -127.551
vt 3.7092 5.02169
f 10/47/7 88/138/7 87/137/7

v 93.6959 0 -127.619
vt 3.68882 5.02437
f 10/47/7 89/139/7 88/138/7

v 93.1783 0 -127.551
vt 3.66844 5.02169
f 10/47/7 90/140/7 89/139/7

v 92.6959 0 -127.351
vt 3.64945 5.01382
f 10/47/7 91/141/7 90/140/7

v 92.2817 0 -127.033
vt 3.63314 5.00131
f 10/47/7 92/142/7 91/141/7

v 91.9639 0 -126.619
vt 3.62063 4.985
f 10/47/7 93/143/7 92/142/7

v 91.7641 0 -126.137
vt 3.61276 4.96601
f 10/47/7 94/144/7 93/143/7

v 71.6959 0 -125.619
vt 2.82267 4.94563
f 10/47/7 95/145/7 94/144/7

v 71.6278 0 -126.137
vt 2.81999 4.96601
f 10/47/7 96/146/7 95/145/7

v 71.428 0 -126.619
vt 2.81213 4.985
f 10/47/7 97/147/7 96/146/7

v 71.1101 0 -127.033
vt 2.79961 5.00131
f 10/47/7 98/148/7 97/147/7

v 70.6959 0 -127.351
vt 2.7833 5.01382
f 10/47/7 99/149/7 98/148/7

v 70.2136 0 -127.551
vt 2.76431 5.02169
f 10/47/7 100/150/7 99/149/7

v 69.6959 0 -127.619
vt 2.74393 5.02437
f 10/47/7 101/151/7 100/150/7

v 69.1783 0 -127.551
vt 2.72355 5.02169
f 10/47/7 102/152/7 101/151/7

f 10/47/7 34/48/7 102/152/7

vt 4.43795 0
vn 0.258819 0 0.965926
vt 4.4174 0
vt 4.4174 -0.15748
vt 4.43795 -0.15748
f 102/153/17 34/154/8 35/155/8 36/156/17 

vt 3.37627 0
vn -1.39975e-015 0 1
vt 3.35572 0
vt 3.35572 -0.15748
vt 3.37627 -0.15748
f 101/157/18 102/158/17 36/159/17 37/160/18 

vt 2.0852 0
vn -0.258819 0 0.965926
vt 2.06465 0
vt 2.06465 -0.15748
vt 2.0852 -0.15748
f 100/161/19 101/162/18 37/163/18 38/164/19 

vt 0.652731 0
vn -0.5 0 0.866025
vt 0.632175 0
vt 0.632175 -0.15748
vt 0.652731 -0.15748
f 99/165/20 100/166/19 38/167/19 39/168/20 

vt -0.823523 0
vn -0.707107 0 0.707107
vt -0.844079 0
vt -0.844079 -0.15748
vt -0.823523 -0.15748
f 98/169/21 99/170/20 39/171/20 40/172/21 

vt -2.24296 0
vn -0.866025 0 0.5
vt -2.26351 0
vt -2.26351 -0.15748
vt -2.24296 -0.15748
f 97/173/22 98/174/21 40/175/21 41/176/22 

vt -3.50883 0
vn -0.965926 0 0.258819
vt -3.52939 0
vt -3.52939 -0.15748
vt -3.50883 -0.15748
f 96/177/23 97/178/22 41/179/22 42/180/23 

vt -4.53489 0
vt -4.55544 0
vt -4.55544 -0.15748
vt -4.53489 -0.15748
f 95/181/16 96/182/23 42/183/23 43/184/16 

v 71.6278 0 -125.101
vt -5.2512 0
vn -0.965926 0 -0.258819
vt -5.27176 0
vt -5.27176 -0.15748
v 71.6278 -4 -125.101
vt -5.2512 -0.15748
f 103/185/24 95/186/16 43/187/16 104/188/24 

vt 2.81999 4.92525
v 71.6959 0 -86.6191
vt 2.82267 3.4102
f 103/189/7 105/190/7 95/145/7

v 71.6278 0 -87.1367
vt 2.81999 3.43058
f 103/189/7 106/191/7 105/190/7

v 71.428 0 -124.619
vt 2.81213 4.90626
f 107/192/7 106/191/7 103/189/7

v 71.428 0 -87.6191
vt 2.81213 3.44957
f 107/192/7 108/193/7 106/191/7

v 71.1101 0 -124.205
vt 2.79961 4.88996
f 109/194/7 108/193/7 107/192/7

v 71.1101 0 -88.0333
vt 2.79961 3.46588
f 109/194/7 110/195/7 108/193/7

v 70.6959 0 -123.887
vt 2.7833 4.87744
f 111/196/7 110/195/7 109/194/7

v 70.6959 0 -88.3511
vt 2.7833 3.47839
f 111/196/7 112/197/7 110/195/7

v 70.2136 0 -123.687
vt 2.76431 4.86958
f 113/198/7 112/197/7 111/196/7

v 70.2136 0 -88.5509
vt 2.76431 3.48626
f 113/198/7 114/199/7 112/197/7

v 69.6959 0 -123.619
vt 2.74393 4.86689
f 115/200/7 114/199/7 113/198/7

v 69.6959 0 -88.6191
vt 2.74393 3.48894
f 115/200/7 116/201/7 114/199/7

v 69.1783 0 -123.687
vt 2.72355 4.86958
f 117/202/7 116/201/7 115/200/7

v 69.1783 0 -88.5509
vt 2.72355 3.48626
f 117/202/7 118/203/7 116/201/7

v 68.6959 0 -123.887
vt 2.70456 4.87744
f 119/204/7 118/203/7 117/202/7

v 68.6959 0 -88.3511
vt 2.70456 3.47839
f 119/204/7 120/205/7 118/203/7

v 68.2817 0 -124.205
vt 2.68826 4.88996
f 121/206/7 120/205/7 119/204/7

v 68.2817 0 -88.0333
vt 2.68826 3.46588
f 121/206/7 122/207/7 120/205/7

f 26/39/7 122/207/7 121/206/7

f 26/39/7 27/38/7 122/207/7

vt 4.38617 0
vt 4.36562 0
v 67.9639 -4 -87.6191
vt 4.36562 -0.15748
v 68.2817 -4 -88.0333
vt 4.38617 -0.15748
f 122/208/9 27/209/10 123/210/10 124/211/9 

vt 4.21095 0
vt 4.19039 0
vt 4.19039 -0.15748
vt 4.21095 -0.15748
f 27/212/10 28/213/11 23/214/11 123/215/10 

vt 3.74946 0
vt 3.7289 0
vt 3.7289 -0.15748
vt 3.74946 -0.15748
f 28/216/11 30/217/12 21/218/12 23/219/11 

vt 3.03315 0
vt 3.01259 0
vt 3.01259 -0.15748
vt 3.03315 -0.15748
f 30/220/12 80/221/5 20/222/5 21/223/12 

vt 2.11083 0
vt 2.09028 0
vt 2.09028 -0.15748
vt 2.11083 -0.15748
f 80/224/5 79/225/6 19/226/6 20/227/5 

vt 1.04537 0
vt 1.02481 0
vn 0.707107 0 -0.707107
vt 1.02481 -0.15748
vt 1.04537 -0.15748
f 79/228/6 78/229/25 18/230/25 19/231/6 

vt -0.0906337 0
vt -0.111189 0
vt -0.111189 -0.15748
vt -0.0906337 -0.15748
f 78/232/25 74/233/13 17/234/13 18/235/25 

vt -2.67574 3.44957
f 23/31/1 24/32/1 123/236/1

v 68.2817 -4 -124.205
vt -2.68826 4.88996
f 123/236/1 24/32/1 125/237/1

vt 2.26351 0
vt 2.24296 0
vt 2.24296 -0.15748
vt 2.26351 -0.15748
f 26/238/6 121/239/25 125/240/25 24/241/6 

vt 0.844079 0
vt 0.823523 0
v 68.6959 -4 -123.887
vt 0.823523 -0.15748
vt 0.844079 -0.15748
f 121/242/25 119/243/13 126/244/13 125/245/25 

vt -0.632175 0
vt -0.652731 0
v 69.1783 -4 -123.687
vt -0.652731 -0.15748
vt -0.632175 -0.15748
f 119/246/13 117/247/14 127/248/14 126/249/13 

vt -2.06465 0
vt -2.0852 0
vn -2.14022e-014 0 -1
v 69.6959 -4 -123.619
vt -2.0852 -0.15748
vt -2.06465 -0.15748
f 117/250/14 115/251/26 128/252/26 127/253/14 

vt -3.35572 0
vt -3.37627 0
vn -0.258819 0 -0.965926
v 70.2136 -4 -123.687
vt -3.37627 -0.15748
vt -3.35572 -0.15748
f 115/254/26 113/255/27 129/256/27 128/257/26 

vt -4.4174 0
vt -4.43795 0
vn -0.5 0 -0.866025
v 70.6959 -4 -123.887
vt -4.43795 -0.15748
vt -4.4174 -0.15748
f 113/258/27 111/259/28 130/260/28 129/261/27 

vt -5.17734 0
vt -5.1979 0
vn -0.707107 0 -0.707107
v 71.1101 -4 -124.205
vt -5.1979 -0.15748
vt -5.17734 -0.15748
f 111/262/28 109/263/29 131/264/29 130/265/28 

vt -5.58376 0
vt -5.60431 0
vn -0.866025 0 -0.5
v 71.428 -4 -124.619
vt -5.60431 -0.15748
vt -5.58376 -0.15748
f 109/266/29 107/267/30 132/268/30 131/269/29 

vt -5.60895 0
vt -5.6295 0
vt -5.6295 -0.15748
vt -5.60895 -0.15748
f 107/270/30 103/271/24 104/272/24 132/273/30 

v 71.428 -4 -87.6191
vt -2.81213 3.44957
vt -2.81213 4.90626
vt -2.81999 4.92525
f 133/274/1 132/275/1 104/276/1

v 71.1101 -4 -88.0333
vt -2.79961 3.46588
f 134/277/1 132/275/1 133/274/1

vt -2.79961 4.88996
f 134/277/1 131/278/1 132/275/1

v 70.6959 -4 -88.3511
vt -2.7833 3.47839
f 135/279/1 131/278/1 134/277/1

vt -2.7833 4.87744
f 135/279/1 130/280/1 131/278/1

vt -2.76431 4.86958
f 135/279/1 129/281/1 130/280/1

v 70.2136 -4 -88.5509
vt -2.76431 3.48626
f 136/282/1 129/281/1 135/279/1

v 69.6959 -4 -88.6191
vt -2.74393 3.48894
f 137/283/1 129/281/1 136/282/1

vt -2.74393 4.86689
f 137/283/1 128/284/1 129/281/1

v 69.1783 -4 -88.5509
vt -2.72355 3.48626
f 138/285/1 128/284/1 137/283/1

vt -2.72355 4.86958
f 138/285/1 127/286/1 128/284/1

v 68.6959 -4 -88.3511
vt -2.70456 3.47839
f 139/287/1 127/286/1 138/285/1

vt -2.70456 4.87744
f 139/287/1 126/288/1 127/286/1

vt -2.68826 3.46588
f 124/289/1 126/288/1 139/287/1

f 124/289/1 125/237/1 126/288/1

f 123/236/1 125/237/1 124/289/1

vt 4.26319 0
vt 4.24263 0
vt 4.24263 -0.15748
vt 4.26319 -0.15748
f 120/290/8 122/291/9 124/292/9 139/293/8 

vt 3.85037 0
vt 3.82981 0
vt 3.82981 -0.15748
vt 3.85037 -0.15748
f 118/294/17 120/295/8 139/296/8 138/297/17 

vt 3.17586 0
vt 3.1553 0
vt 3.1553 -0.15748
vt 3.17586 -0.15748
f 116/298/18 118/299/17 138/300/17 137/301/18 

vt 2.28562 0
vt 2.26506 0
vt 2.26506 -0.15748
vt 2.28562 -0.15748
f 114/302/19 116/303/18 137/304/18 136/305/19 

vt 1.24032 0
vt 1.21976 0
vt 1.21976 -0.15748
vt 1.24032 -0.15748
f 112/306/20 114/307/19 136/308/19 135/309/20 

vt 0.111189 0
vt 0.0906337 0
vt 0.0906337 -0.15748
vt 0.111189 -0.15748
f 110/310/21 112/311/20 135/312/20 134/313/21 

vt -1.02481 0
vt -1.04537 0
vt -1.04537 -0.15748
vt -1.02481 -0.15748
f 108/314/22 110/315/21 134/316/21 133/317/22 

vt -2.09028 0
vt -2.11083 0
vt -2.11083 -0.15748
v 71.6278 -4 -87.1367
vt -2.09028 -0.15748
f 106/318/23 108/319/22 133/320/22 140/321/23 

vt -2.81999 3.43058
f 133/274/1 104/276/1 140/322/1

f 140/322/1 104/276/1 43/77/1

f 140/322/1 43/77/1 44/78/1

vt -3.01259 0
vn -1 0 -1.39975e-015
vt -3.03315 0
vt -3.03315 -0.15748
vt -3.01259 -0.15748
f 105/323/31 106/324/23 140/325/23 44/326/31 

v 71.6278 0 -86.1014
vt -3.7289 0
vt -3.74946 0
vt -3.74946 -0.15748
vt -3.7289 -0.15748
f 141/327/24 105/328/31 44/329/31 67/330/24 

vt 2.81999 3.38982
f 141/331/7 76/113/7 105/190/7

v 71.428 0 -85.6191
vt 2.81213 3.37083
f 142/332/7 76/113/7 141/331/7

v 71.1101 0 -85.2049
vt 2.79961 3.35452
f 143/333/7 76/113/7 142/332/7

v 70.6959 0 -84.887
vt 2.7833 3.34201
f 144/334/7 76/113/7 143/333/7

v 70.2136 0 -84.6872
vt 2.76431 3.33414
f 145/335/7 76/113/7 144/334/7

v 69.6959 0 -84.6191
vt 2.74393 3.33146
f 146/336/7 76/113/7 145/335/7

f 75/114/7 76/113/7 146/336/7

vt -2.26506 0
vt -2.28562 0
vt -2.28562 -0.15748
vt -2.26506 -0.15748
f 75/337/14 146/338/2 72/339/2 73/340/14 

vt -3.1553 0
vt -3.17586 0
vt -3.17586 -0.15748
vt -3.1553 -0.15748
f 146/341/2 145/342/27 71/343/27 72/344/2 

vt -3.82981 0
vt -3.85037 0
vt -3.85037 -0.15748
vt -3.82981 -0.15748
f 145/345/27 144/346/28 70/347/28 71/348/27 

vt -4.24263 0
vt -4.26319 0
vt -4.26319 -0.15748
vt -4.24263 -0.15748
f 144/349/28 143/350/29 69/351/29 70/352/28 

vt -4.36562 0
vt -4.38617 0
vt -4.38617 -0.15748
vt -4.36562 -0.15748
f 143/353/29 142/354/30 68/355/30 69/356/29 

vt -4.19039 0
vt -4.21095 0
vt -4.21095 -0.15748
vt -4.19039 -0.15748
f 142/357/30 141/358/24 67/359/24 68/360/30 

v 91.9639 0 -85.6191
vt 3.62063 3.37083
f 105/190/7 76/113/7 147/361/7

v 92.2817 0 -85.2049
vt 3.63314 3.35452
f 147/361/7 76/113/7 148/362/7

v 92.6959 0 -84.887
vt 3.64945 3.34201
f 148/362/7 76/113/7 149/363/7

v 93.1783 0 -84.6872
vt 3.66844 3.33414
f 149/363/7 76/113/7 150/364/7

v 93.6959 0 -84.6191
vt 3.68882 3.33146
f 150/364/7 76/113/7 151/365/7

v 94.2136 0 -84.6872
vt 3.7092 3.33414
f 151/365/7 76/113/7 152/366/7

v 94.6959 0 -84.887
vt 3.72819 3.34201
f 152/366/7 76/113/7 153/367/7

v 95.1101 0 -85.2049
vt 3.74449 3.35452
f 153/367/7 76/113/7 154/368/7

v 95.428 0 -85.6191
vt 3.75701 3.37083
f 154/368/7 76/113/7 155/369/7

v 95.6278 0 -86.1014
vt 3.76487 3.38982
f 155/369/7 76/113/7 156/370/7

v 95.6959 0 -86.6191
vt 3.76756 3.4102
f 156/370/7 76/113/7 157/371/7

f 157/371/7 76/113/7 83/133/7

v 95.6278 0 -125.101
vt 3.76487 4.92525
f 158/372/7 157/371/7 83/133/7

v 95.6278 0 -87.1367
vt 3.76487 3.43058
f 158/372/7 159/373/7 157/371/7

v 95.428 0 -124.619
vt 3.75701 4.90626
f 160/374/7 159/373/7 158/372/7

v 95.428 0 -87.6191
vt 3.75701 3.44957
f 160/374/7 161/375/7 159/373/7

v 95.1101 0 -124.205
vt 3.74449 4.88996
f 162/376/7 161/375/7 160/374/7

v 95.1101 0 -88.0333
vt 3.74449 3.46588
f 162/376/7 163/377/7 161/375/7

v 94.6959 0 -123.887
vt 3.72819 4.87744
f 164/378/7 163/377/7 162/376/7

v 94.6959 0 -88.3511
vt 3.72819 3.47839
f 164/378/7 165/379/7 163/377/7

v 94.2136 0 -123.687
vt 3.7092 4.86958
f 166/380/7 165/379/7 164/378/7

v 94.2136 0 -88.5509
vt 3.7092 3.48626
f 166/380/7 167/381/7 165/379/7

v 93.6959 0 -123.619
vt 3.68882 4.86689
f 168/382/7 167/381/7 166/380/7

v 93.6959 0 -88.6191
vt 3.68882 3.48894
f 168/382/7 169/383/7 167/381/7

v 93.1783 0 -123.687
vt 3.66844 4.86958
f 170/384/7 169/383/7 168/382/7

v 93.1783 0 -88.5509
vt 3.66844 3.48626
f 170/384/7 171/385/7 169/383/7

v 92.6959 0 -123.887
vt 3.64945 4.87744
f 172/386/7 171/385/7 170/384/7

v 92.6959 0 -88.3511
vt 3.64945 3.47839
f 172/386/7 173/387/7 171/385/7

v 92.2817 0 -124.205
vt 3.63314 4.88996
f 174/388/7 173/387/7 172/386/7

v 92.2817 0 -88.0333
vt 3.63314 3.46588
f 174/388/7 175/389/7 173/387/7

v 91.9639 0 -124.619
vt 3.62063 4.90626
f 176/390/7 175/389/7 174/388/7

v 91.9639 0 -87.6191
vt 3.62063 3.44957
f 176/390/7 177/391/7 175/389/7

v 91.7641 0 -125.101
vt 3.61276 4.92525
f 178/392/7 177/391/7 176/390/7

v 91.7641 0 -87.1367
vt 3.61276 3.43058
f 178/392/7 179/393/7 177/391/7

v 91.6959 0 -125.619
vt 3.61008 4.94563
f 180/394/7 179/393/7 178/392/7

v 91.6959 0 -86.6191
vt 3.61008 3.4102
f 179/393/7 180/394/7 181/395/7

f 180/394/7 95/145/7 181/395/7

f 94/144/7 95/145/7 180/394/7

vt 5.39509 0
vt 5.37453 0
v 91.6959 -4 -125.619
vt 5.37453 -0.15748
v 91.7641 -4 -126.137
vt 5.39509 -0.15748
f 94/396/11 180/397/12 182/398/12 183/399/11 

vt 4.43211 0
vt 4.41156 0
v 91.7641 -4 -125.101
vt 4.41156 -0.15748
vt 4.43211 -0.15748
f 180/400/12 178/401/5 184/402/5 182/403/12 

vt 3.1678 0
vt 3.14724 0
v 91.9639 -4 -124.619
vt 3.14724 -0.15748
vt 3.1678 -0.15748
f 178/404/5 176/405/6 185/406/6 184/407/5 

vt 1.6883 0
vt 1.66775 0
v 92.2817 -4 -124.205
vt 1.66775 -0.15748
vt 1.6883 -0.15748
f 176/408/6 174/409/25 186/410/25 185/411/6 

vt 0.0944535 0
vt 0.0738982 0
v 92.6959 -4 -123.887
vt 0.0738982 -0.15748
vt 0.0944535 -0.15748
f 174/412/25 172/413/13 187/414/13 186/415/25 

vt -1.50513 0
vt -1.52569 0
v 93.1783 -4 -123.687
vt -1.52569 -0.15748
vt -1.50513 -0.15748
f 172/416/13 170/417/14 188/418/14 187/419/13 

vt -3.00145 0
vt -3.022 0
v 93.6959 -4 -123.619
vt -3.022 -0.15748
vt -3.00145 -0.15748
f 170/420/14 168/421/26 189/422/26 188/423/14 

vt -4.29251 0
vt -4.31307 0
v 94.2136 -4 -123.687
vt -4.31307 -0.15748
vt -4.29251 -0.15748
f 168/424/26 166/425/27 190/426/27 189/427/26 

vt -5.29036 0
vt -5.31091 0
v 94.6959 -4 -123.887
vt -5.31091 -0.15748
vt -5.29036 -0.15748
f 166/428/27 164/429/28 191/430/28 190/431/27 

vt -5.92697 0
vt -5.94752 0
v 95.1101 -4 -124.205
vt -5.94752 -0.15748
vt -5.92697 -0.15748
f 164/432/28 162/433/29 192/434/29 191/435/28 

vt -6.15897 0
vt -6.17952 0
v 95.428 -4 -124.619
vt -6.17952 -0.15748
vt -6.15897 -0.15748
f 162/436/29 160/437/30 193/438/30 192/439/29 

vt -5.97054 0
vt -5.9911 0
v 95.6278 -4 -125.101
vt -5.9911 -0.15748
vt -5.97054 -0.15748
f 160/440/30 158/441/24 194/442/24 193/443/30 

vt -5.37453 0
vt -5.39509 0
vt -5.39509 -0.15748
vt -5.37453 -0.15748
f 158/444/24 83/445/16 55/446/16 194/447/24 

vt -4.41156 0
vt -4.43211 0
vt -4.43211 -0.15748
vt -4.41156 -0.15748
f 83/448/16 84/449/23 54/450/23 55/451/16 

vt -3.14724 0
vt -3.1678 0
vt -3.1678 -0.15748
vt -3.14724 -0.15748
f 84/452/23 85/453/22 53/454/22 54/455/23 

vt -1.66775 0
vt -1.6883 0
vt -1.6883 -0.15748
vt -1.66775 -0.15748
f 85/456/22 86/457/21 52/458/21 53/459/22 

vt -0.0738982 0
vt -0.0944535 0
vt -0.0944535 -0.15748
vt -0.0738982 -0.15748
f 86/460/21 87/461/20 51/462/20 52/463/21 

vt 1.52569 0
vt 1.50513 0
vt 1.50513 -0.15748
vt 1.52569 -0.15748
f 87/464/20 88/465/19 50/466/19 51/467/20 

vt 3.022 0
vt 3.00145 0
vt 3.00145 -0.15748
vt 3.022 -0.15748
f 88/468/19 89/469/18 49/470/18 50/471/19 

vt 4.31307 0
vt 4.29251 0
vt 4.29251 -0.15748
vt 4.31307 -0.15748
f 89/472/18 90/473/17 48/474/17 49/475/18 

vt 5.31091 0
vt 5.29036 0
vt 5.29036 -0.15748
vt 5.31091 -0.15748
f 90/476/17 91/477/8 47/478/8 48/479/17 

vt 5.94752 0
vt 5.92697 0
vt 5.92697 -0.15748
vt 5.94752 -0.15748
f 91/480/8 92/481/9 46/482/9 47/483/8 

vt 6.17952 0
vt 6.15897 0
vt 6.15897 -0.15748
vt 6.17952 -0.15748
f 92/484/9 93/485/10 45/486/10 46/487/9 

vt 5.9911 0
vt 5.97054 0
vt 5.97054 -0.15748
vt 5.9911 -0.15748
f 93/488/10 94/489/11 183/490/11 45/491/10 

vt -3.61276 4.96601
f 44/78/1 45/79/1 183/492/1

vt -3.61008 4.94563
f 44/78/1 183/492/1 182/493/1

v 91.6959 -4 -86.6191
vt -3.61008 3.4102
f 195/494/1 44/78/1 182/493/1

v 91.7641 -4 -86.1014
vt -3.61276 3.38982
f 196/495/1 44/78/1 195/494/1

f 66/100/1 44/78/1 196/495/1

v 91.7641 0 -86.1014
vt 1.74924 0
vt 1.72869 0
vt 1.72869 -0.15748
vt 1.74924 -0.15748
f 197/496/5 147/497/6 66/498/6 196/499/5 

vt 3.61276 3.38982
f 95/145/7 147/361/7 197/500/7

f 105/190/7 147/361/7 95/145/7

f 95/145/7 197/500/7 181/395/7

vt 2.90982 0
vt 2.88926 0
vt 2.88926 -0.15748
vt 2.90982 -0.15748
f 181/501/12 197/502/5 196/503/5 195/504/12 

vt 3.87279 0
vt 3.85223 0
vt 3.85223 -0.15748
v 91.7641 -4 -87.1367
vt 3.87279 -0.15748
f 179/505/11 181/506/12 195/507/12 198/508/11 

vt -3.61276 4.92525
vt -3.61276 3.43058
f 195/494/1 184/509/1 198/510/1

f 184/509/1 195/494/1 182/493/1

vt -3.62063 4.90626
f 198/510/1 184/509/1 185/511/1

v 91.9639 -4 -87.6191
vt -3.62063 3.44957
f 198/510/1 185/511/1 199/512/1

vt -3.63314 4.88996
f 199/512/1 185/511/1 186/513/1

v 92.2817 -4 -88.0333
vt -3.63314 3.46588
f 199/512/1 186/513/1 200/514/1

vt -3.64945 4.87744
f 200/514/1 186/513/1 187/515/1

v 92.6959 -4 -88.3511
vt -3.64945 3.47839
f 200/514/1 187/515/1 201/516/1

vt -3.66844 4.86958
f 201/516/1 187/515/1 188/517/1

v 93.1783 -4 -88.5509
vt -3.66844 3.48626
f 201/516/1 188/517/1 202/518/1

vt -3.68882 4.86689
f 202/518/1 188/517/1 189/519/1

v 93.6959 -4 -88.6191
vt -3.68882 3.48894
f 202/518/1 189/519/1 203/520/1

vt -3.7092 4.86958
f 203/520/1 189/519/1 190/521/1

v 94.2136 -4 -88.5509
vt -3.7092 3.48626
f 203/520/1 190/521/1 204/522/1

v 94.6959 -4 -88.3511
vt -3.72819 3.47839
f 204/522/1 190/521/1 205/523/1

vt -3.72819 4.87744
f 205/523/1 190/521/1 191/524/1

vt -3.74449 4.88996
f 205/523/1 191/524/1 192/525/1

v 95.1101 -4 -88.0333
vt -3.74449 3.46588
f 205/523/1 192/525/1 206/526/1

vt -3.75701 4.90626
f 206/526/1 192/525/1 193/527/1

v 95.428 -4 -87.6191
vt -3.75701 3.44957
f 206/526/1 193/527/1 207/528/1

vt -3.76487 4.92525
f 207/528/1 193/527/1 194/529/1

v 95.6278 -4 -87.1367
vt -3.76487 3.43058
f 207/528/1 194/529/1 208/530/1

f 208/530/1 194/529/1 55/89/1

f 208/530/1 55/89/1 56/90/1

vt -2.88926 0
vt -2.90982 0
vt -2.90982 -0.15748
vt -2.88926 -0.15748
f 157/531/31 159/532/23 208/533/23 56/534/31 

vt -1.72869 0
vt -1.74924 0
vt -1.74924 -0.15748
vt -1.72869 -0.15748
f 159/535/23 161/536/22 207/537/22 208/538/23 

vt -0.449607 0
vt -0.470162 0
vt -0.470162 -0.15748
vt -0.449607 -0.15748
f 161/539/22 163/540/21 206/541/21 207/542/22 

vt 0.860814 0
vt 0.840259 0
vt 0.840259 -0.15748
vt 0.860814 -0.15748
f 163/543/21 165/544/20 205/545/20 206/546/21 

vt 2.11327 0
vt 2.09272 0
vt 2.09272 -0.15748
vt 2.11327 -0.15748
f 165/547/20 167/548/19 204/549/19 205/550/20 

vt 3.22242 0
vt 3.20186 0
vt 3.20186 -0.15748
vt 3.22242 -0.15748
f 167/551/19 169/552/18 203/553/18 204/554/19 

vt 4.11266 0
vt 4.0921 0
vt 4.0921 -0.15748
vt 4.11266 -0.15748
f 169/555/18 171/556/17 202/557/17 203/558/18 

vt 4.72333 0
vt 4.70277 0
vt 4.70277 -0.15748
vt 4.72333 -0.15748
f 171/559/17 173/560/8 201/561/8 202/562/17 

vt 5.01281 0
vt 4.99226 0
vt 4.99226 -0.15748
vt 5.01281 -0.15748
f 173/563/8 175/564/9 200/565/9 201/566/8 

vt 4.96138 0
vt 4.94082 0
vt 4.94082 -0.15748
vt 4.96138 -0.15748
f 175/567/9 177/568/10 199/569/10 200/570/9 

vt 4.57254 0
vt 4.55198 0
vt 4.55198 -0.15748
vt 4.57254 -0.15748
f 177/571/10 179/572/11 198/573/11 199/574/10 

vt -3.85223 0
vt -3.87279 0
vt -3.87279 -0.15748
vt -3.85223 -0.15748
f 156/575/24 157/576/31 56/577/31 57/578/24 

vt -4.55198 0
vt -4.57254 0
vt -4.57254 -0.15748
vt -4.55198 -0.15748
f 155/579/30 156/580/24 57/581/24 58/582/30 

vt -4.94082 0
vt -4.96138 0
vt -4.96138 -0.15748
vt -4.94082 -0.15748
f 154/583/29 155/584/30 58/585/30 59/586/29 

vt -4.99226 0
vt -5.01281 0
vt -5.01281 -0.15748
vt -4.99226 -0.15748
f 153/587/28 154/588/29 59/589/29 60/590/28 

vt -4.70277 0
vt -4.72333 0
vt -4.72333 -0.15748
vt -4.70277 -0.15748
f 152/591/27 153/592/28 60/593/28 61/594/27 

vt -4.0921 0
vt -4.11266 0
vt -4.11266 -0.15748
vt -4.0921 -0.15748
f 151/595/2 152/596/27 61/597/27 62/598/2 

vt -3.20186 0
vt -3.22242 0
vt -3.22242 -0.15748
vt -3.20186 -0.15748
f 150/599/14 151/600/2 62/601/2 63/602/14 

vt -2.09272 0
vt -2.11327 0
vt -2.11327 -0.15748
vt -2.09272 -0.15748
f 149/603/13 150/604/14 63/605/14 64/606/13 

vt -0.840259 0
vt -0.860814 0
vt -0.860814 -0.15748
vt -0.840259 -0.15748
f 148/607/25 149/608/13 64/609/13 65/610/25 

vt 0.470162 0
vt 0.449607 0
vt 0.449607 -0.15748
vt 0.470162 -0.15748
f 147/611/6 148/612/25 65/613/25 66/614/6 

f 81/9/2 82/12/2 76/11/2 77/10/2 

