# Alias OBJ Model File
# Exported from SketchUp, (c) 2000-2012 Trimble Navigation Limited
# File units = millimeters

mtllib GAZ_rules_2.mtl

g Mesh1 Model

usemtl FrontColor
v 79.0069 0 -94.4837
vt -3.11051 3.71983
vn 0 -1 -0
v 79.0069 0 -92.9308
vt -3.11051 3.65869
v 78.9047 0 -93.7073
vt -3.10648 3.68926
f 1/1/1 2/2/1 3/3/1

v 79.3066 0 -92.2073
vt -3.12231 3.63021
f 2/2/1 1/1/1 4/4/1

v 79.3066 0 -95.2073
vt -3.12231 3.74832
f 4/4/1 1/1/1 5/5/1

vt -4.65785 0
vn -0.866025 0 -0.5
vt -4.62702 0
vn -0.965926 0 -0.258819
v 79.0069 2 -94.4837
vt -4.62702 0.0787402
v 79.3066 2 -95.2073
vt -4.65785 0.0787402
f 5/6/2 1/7/3 6/8/3 7/9/2 

vt -4.09401 0
vt -4.06318 0
vn -1 0 -7.12475e-015
v 78.9047 2 -93.7073
vt -4.06318 0.0787402
vt -4.09401 0.0787402
f 1/10/3 3/11/4 8/12/4 6/13/3 

vt -3.25222 0
vt -3.22139 0
vn -0.965926 0 0.258819
v 79.0069 2 -92.9308
vt -3.22139 0.0787402
vt -3.25222 0.0787402
f 3/14/4 2/15/5 9/16/5 8/17/4 

vt -2.18985 0
vt -2.15902 0
vn -0.866025 0 0.5
v 79.3066 2 -92.2073
vt -2.15902 0.0787402
vt -2.18985 0.0787402
f 2/18/5 4/19/6 10/20/6 9/21/5 

vt -0.979298 0
v 79.7833 0 -91.586
vt -0.948465 0
vn -0.707107 0 0.707107
v 79.7833 2 -91.586
vt -0.948465 0.0787402
vt -0.979298 0.0787402
f 4/22/6 11/23/7 12/24/7 10/25/6 

v 79.7833 0 -95.8286
vt -3.14108 3.77278
vt -3.14108 3.60575
f 4/4/1 13/26/1 11/27/1

f 4/4/1 5/5/1 13/26/1

vt -4.90531 0
vn -0.707107 0 -0.707107
vt -4.87448 0
vt -4.87448 0.0787402
v 79.7833 2 -95.8286
vt -4.90531 0.0787402
f 13/28/8 5/29/2 7/30/2 14/31/8 

vt 3.12231 3.74832
vn 0 1 -0
vt 3.14108 3.60575
vt 3.14108 3.77278
f 7/32/9 12/33/9 14/34/9

vt 3.12231 3.63021
f 7/32/9 10/35/9 12/33/9

vt 3.11051 3.71983
f 6/36/9 10/35/9 7/32/9

vt 3.11051 3.65869
f 6/36/9 9/37/9 10/35/9

vt 3.10648 3.68926
f 9/37/9 6/36/9 8/38/9

v 79.9047 2 -93.7073
vt 3.14585 3.68926
f 14/34/9 12/33/9 15/39/9

v 79.9728 2 -93.1896
vt 3.14854 3.66888
f 15/39/9 12/33/9 16/40/9

v 80.4047 2 -91.1092
vt 3.16554 3.58698
f 16/40/9 12/33/9 17/41/9

vt 0.296944 0
v 80.4047 0 -91.1092
vt 0.327777 0
vn -0.5 0 0.866025
vt 0.327777 0.0787402
vt 0.296944 0.0787402
f 11/42/7 18/43/10 17/44/10 12/45/7 

v 79.9728 0 -93.1896
vt -3.14854 3.66888
vt -3.16554 3.58698
f 11/27/1 19/46/1 18/47/1

v 79.9047 0 -93.7073
vt -3.14585 3.68926
f 19/46/1 11/27/1 20/48/1

f 11/27/1 13/26/1 20/48/1

v 79.9728 0 -94.2249
vt -3.14854 3.70964
f 20/48/1 13/26/1 21/49/1

v 80.4047 0 -96.3053
vt -3.16554 3.79155
f 21/49/1 13/26/1 22/50/1

vt -4.81954 0
vn -0.5 0 -0.866025
vt -4.78871 0
vt -4.78871 0.0787402
v 80.4047 2 -96.3053
vt -4.81954 0.0787402
f 22/51/11 13/52/8 14/53/8 23/54/11 

v 79.9728 2 -94.2249
vt 3.14854 3.70964
vt 3.16554 3.79155
f 14/34/9 24/55/9 23/56/9

f 24/55/9 14/34/9 15/39/9

vt 4.06832 0
vn 1 0 -0
vt 4.08887 0
vn 0.965926 0 0.258819
vt 4.08887 0.0787402
vt 4.06832 0.0787402
f 20/57/12 21/58/13 24/59/13 15/60/12 

vt 4.63215 0
v 80.1726 0 -94.7073
vt 4.65271 0
vn 0.866025 0 0.5
v 80.1726 2 -94.7073
vt 4.65271 0.0787402
vt 4.63215 0.0787402
f 21/61/13 25/62/14 26/63/14 24/64/13 

vt -3.1564 3.72863
f 21/49/1 22/50/1 25/65/1

v 80.4904 0 -95.1215
vt -3.16891 3.74494
f 25/65/1 22/50/1 27/66/1

v 81.1282 0 -96.605
vt -3.19402 3.80335
f 27/66/1 22/50/1 28/67/1

vt -4.40637 0
vn -0.258819 0 -0.965926
vt -4.37554 0
vt -4.37554 0.0787402
v 81.1282 2 -96.605
vt -4.40637 0.0787402
f 28/68/15 22/69/11 23/70/11 29/71/15 

v 80.4904 2 -95.1215
vt 3.16891 3.74494
vt 3.19402 3.80335
f 23/56/9 30/72/9 29/73/9

vt 3.1564 3.72863
f 23/56/9 26/74/9 30/72/9

f 23/56/9 24/55/9 26/74/9

vt 4.87962 0
vt 4.90017 0
vn 0.707107 0 0.707107
vt 4.90017 0.0787402
vt 4.87962 0.0787402
f 25/75/14 27/76/16 30/77/16 26/78/14 

vt 4.79384 0
v 80.9047 0 -95.4393
vt 4.8144 0
vn 0.5 0 0.866025
v 80.9047 2 -95.4393
vt 4.8144 0.0787402
vt 4.79384 0.0787402
f 27/79/16 31/80/17 32/81/17 30/82/16 

vt -3.18522 3.75745
f 27/66/1 28/67/1 31/83/1

v 81.387 0 -95.6391
vt -3.20421 3.76532
f 31/83/1 28/67/1 33/84/1

v 81.9047 0 -96.7073
vt -3.22459 3.80737
f 33/84/1 28/67/1 34/85/1

vt -3.69397 0
vn -0.130526 0 -0.991445
vt -3.66313 0
vt -3.66313 0.0787402
v 81.9047 2 -96.7073
vt -3.69397 0.0787402
f 34/86/18 28/87/15 29/88/15 35/89/18 

v 81.387 2 -95.6391
vt 3.20421 3.76532
vt 3.22459 3.80737
f 29/73/9 36/90/9 35/91/9

vt 3.18522 3.75745
f 29/73/9 32/92/9 36/90/9

f 29/73/9 30/72/9 32/92/9

vt 4.38068 0
vt 4.40123 0
vn 0.258819 0 0.965926
vt 4.40123 0.0787402
vt 4.38068 0.0787402
f 31/93/17 33/94/19 36/95/19 32/96/17 

vt 3.66827 0
v 81.9047 0 -95.7073
vt 3.68883 0
vn 0 0 1
v 81.9047 2 -95.7073
vt 3.68883 0.0787402
vt 3.66827 0.0787402
f 33/97/19 37/98/20 38/99/20 36/100/19 

vt -3.22459 3.768
f 33/84/1 34/85/1 37/101/1

v 111.905 0 -96.7073
vt -4.4057 3.80737
f 37/101/1 34/85/1 39/102/1

vt -4.4057 0
vn 0 0 -1
vt -3.22459 0
vt -3.22459 0.0787402
v 111.905 2 -96.7073
vt -4.4057 0.0787402
f 39/103/21 34/104/21 35/105/21 40/106/21 

v 82.4223 2 -95.6391
vt 3.24497 3.76532
vt 4.4057 3.80737
f 35/91/9 41/107/9 40/108/9

vt 3.22459 3.768
f 35/91/9 38/109/9 41/107/9

f 35/91/9 36/90/9 38/109/9

vt 2.70518 0
v 82.4223 0 -95.6391
vt 2.72574 0
vn -0.258819 0 0.965926
vt 2.72574 0.0787402
vt 2.70518 0.0787402
f 37/110/20 42/111/22 41/112/22 38/113/20 

vt -3.24497 3.76532
f 37/101/1 39/102/1 42/114/1

v 82.9047 0 -95.4393
vt -3.26396 3.75745
f 42/114/1 39/102/1 43/115/1

v 83.3189 0 -95.1215
vt -3.28027 3.74494
f 43/115/1 39/102/1 44/116/1

v 83.6367 0 -94.7073
vt -3.29278 3.72863
f 44/116/1 39/102/1 45/117/1

v 83.8365 0 -94.2249
vt -3.30065 3.70964
f 45/117/1 39/102/1 46/118/1

v 83.9047 0 -93.7073
vt -3.30333 3.68926
f 46/118/1 39/102/1 47/119/1

v 110.49 0 -95.1215
vt -4.35002 3.74494
f 47/119/1 39/102/1 48/120/1

v 110.905 0 -95.4393
vt -4.36632 3.75745
f 48/120/1 39/102/1 49/121/1

v 111.387 0 -95.6391
vt -4.38532 3.76532
f 49/121/1 39/102/1 50/122/1

v 111.905 0 -95.7073
vt -4.4057 3.768
f 50/122/1 39/102/1 51/123/1

v 112.681 0 -96.605
vt -4.43626 3.80335
f 51/123/1 39/102/1 52/124/1

vt -3.90187 0
vn 0.258819 0 -0.965926
vt -3.87104 0
vn 0.130526 0 -0.991445
vt -3.87104 0.0787402
v 112.681 2 -96.605
vt -3.90187 0.0787402
f 52/125/23 39/126/24 40/127/24 53/128/23 

v 112.422 2 -95.6391
vt 4.42607 3.76532
vt 4.43626 3.80335
f 40/108/9 54/129/9 53/130/9

v 111.905 2 -95.7073
vt 4.4057 3.768
f 40/108/9 55/131/9 54/129/9

v 111.387 2 -95.6391
vt 4.38532 3.76532
f 40/108/9 56/132/9 55/131/9

v 110.905 2 -95.4393
vt 4.36632 3.75745
f 40/108/9 57/133/9 56/132/9

v 110.49 2 -95.1215
vt 4.35002 3.74494
f 40/108/9 58/134/9 57/133/9

v 83.9047 2 -93.7073
vt 3.30333 3.68926
f 40/108/9 59/135/9 58/134/9

v 83.8365 2 -94.2249
vt 3.30065 3.70964
f 40/108/9 60/136/9 59/135/9

v 83.6367 2 -94.7073
vt 3.29278 3.72863
f 40/108/9 61/137/9 60/136/9

v 83.3189 2 -95.1215
vt 3.28027 3.74494
f 40/108/9 62/138/9 61/137/9

v 82.9047 2 -95.4393
vt 3.26396 3.75745
f 40/108/9 63/139/9 62/138/9

f 40/108/9 41/107/9 63/139/9

vt 1.55704 0
vt 1.57759 0
vt 1.57759 0.0787402
vt 1.55704 0.0787402
f 42/140/22 43/141/10 63/142/10 41/143/22 

vt 0.302083 0
vt 0.322638 0
vt 0.322638 0.0787402
vt 0.302083 0.0787402
f 43/144/10 44/145/7 62/146/7 63/147/10 

vt -0.974159 0
vt -0.953604 0
vt -0.953604 0.0787402
vt -0.974159 0.0787402
f 44/148/7 45/149/6 61/150/6 62/151/7 

vt -2.18471 0
vt -2.16416 0
vt -2.16416 0.0787402
vt -2.18471 0.0787402
f 45/152/6 46/153/5 60/154/5 61/155/6 

vt -3.24708 0
vt -3.22653 0
vn -1 0 1.39975e-015
vt -3.22653 0.0787402
vt -3.24708 0.0787402
f 46/156/5 47/157/25 59/158/25 60/159/5 

vt -4.08887 0
v 83.8365 0 -93.1896
vt -4.06832 0
v 83.8365 2 -93.1896
vt -4.06832 0.0787402
vt -4.08887 0.0787402
f 47/160/25 64/161/3 65/162/3 59/163/25 

v 111.905 0 -90.7073
vt -4.4057 3.57115
vt -3.30065 3.66888
f 66/164/1 64/165/1 47/119/1

v 83.6367 0 -92.7073
vt -3.29278 3.64989
f 66/164/1 67/166/1 64/165/1

v 83.3189 0 -92.2931
vt -3.28027 3.63358
f 66/164/1 68/167/1 67/166/1

v 82.9047 0 -91.9752
vt -3.26396 3.62107
f 66/164/1 69/168/1 68/167/1

v 82.4223 0 -91.7754
vt -3.24497 3.61321
f 66/164/1 70/169/1 69/168/1

v 81.9047 0 -90.7073
vt -3.22459 3.57115
f 71/170/1 70/169/1 66/164/1

v 81.9047 0 -91.7073
vt -3.22459 3.61052
f 71/170/1 72/171/1 70/169/1

v 81.387 0 -91.7754
vt -3.20421 3.61321
f 71/170/1 73/172/1 72/171/1

v 81.1282 0 -90.8095
vt -3.19402 3.57518
f 74/173/1 73/172/1 71/170/1

v 80.9047 0 -91.9752
vt -3.18522 3.62107
f 74/173/1 75/174/1 73/172/1

v 80.4904 0 -92.2931
vt -3.16891 3.63358
f 74/173/1 76/175/1 75/174/1

f 18/47/1 76/175/1 74/173/1

v 80.1726 0 -92.7073
vt -3.1564 3.64989
f 18/47/1 77/176/1 76/175/1

f 18/47/1 19/46/1 77/176/1

vt 2.16416 0
vn 0.866025 0 -0.5
vt 2.18471 0
vn 0.965926 0 -0.258819
vt 2.18471 0.0787402
v 80.1726 2 -92.7073
vt 2.16416 0.0787402
f 77/177/26 19/178/27 16/179/27 78/180/26 

vt 3.22653 0
vt 3.24708 0
vt 3.24708 0.0787402
vt 3.22653 0.0787402
f 19/181/27 20/182/12 15/183/12 16/184/27 

vt 3.1564 3.64989
f 16/40/9 17/41/9 78/185/9

v 80.4904 2 -92.2931
vt 3.16891 3.63358
f 78/185/9 17/41/9 79/186/9

v 81.1282 2 -90.8095
vt 3.19402 3.57518
f 79/186/9 17/41/9 80/187/9

vt 1.5519 0
vt 1.58273 0
vt 1.58273 0.0787402
vt 1.5519 0.0787402
f 18/188/10 74/189/22 80/190/22 17/191/10 

vt 2.70004 0
vt 2.73088 0
vn -0.130526 0 0.991445
v 81.9047 2 -90.7073
vt 2.73088 0.0787402
vt 2.70004 0.0787402
f 74/192/22 71/193/28 81/194/28 80/195/22 

vt 3.22459 0
vt 4.4057 0
v 111.905 2 -90.7073
vt 4.4057 0.0787402
vt 3.22459 0.0787402
f 71/196/20 66/197/20 82/198/20 81/199/20 

vt 4.83413 0
vn 0.130526 0 0.991445
v 112.681 0 -90.8095
vt 4.86497 0
v 112.681 2 -90.8095
vt 4.86497 0.0787402
vt 4.83413 0.0787402
f 66/200/29 83/201/19 84/202/19 82/203/29 

v 112.422 0 -91.7754
vt -4.42607 3.61321
vt -4.43626 3.57518
f 66/164/1 85/204/1 83/205/1

v 111.905 0 -91.7073
vt -4.4057 3.61052
f 66/164/1 86/206/1 85/204/1

v 111.387 0 -91.7754
vt -4.38532 3.61321
f 66/164/1 87/207/1 86/206/1

v 110.905 0 -91.9752
vt -4.36632 3.62107
f 66/164/1 88/208/1 87/207/1

v 110.49 0 -92.2931
vt -4.35002 3.63358
f 66/164/1 89/209/1 88/208/1

f 66/164/1 47/119/1 89/209/1

v 110.173 0 -92.7073
vt -4.3375 3.64989
f 89/209/1 47/119/1 90/210/1

v 109.973 0 -93.1896
vt -4.32964 3.66888
f 90/210/1 47/119/1 91/211/1

v 109.905 0 -93.7073
vt -4.32695 3.68926
f 91/211/1 47/119/1 92/212/1

v 109.973 0 -94.2249
vt -4.32964 3.70964
f 47/119/1 93/213/1 92/212/1

v 110.173 0 -94.7073
vt -4.3375 3.72863
f 47/119/1 94/214/1 93/213/1

f 47/119/1 48/120/1 94/214/1

vt 5.59863 0
vt 5.61918 0
vt 5.61918 0.0787402
v 110.173 2 -94.7073
vt 5.59863 0.0787402
f 94/215/14 48/216/16 58/217/16 95/218/14 

vt 5.73088 0
vt 5.75143 0
vt 5.75143 0.0787402
vt 5.73088 0.0787402
f 48/219/16 49/220/17 57/221/17 58/222/16 

vt 5.47187 0
vt 5.49243 0
vt 5.49243 0.0787402
vt 5.47187 0.0787402
f 49/223/17 50/224/19 56/225/19 57/226/17 

vt 4.83927 0
vt 4.85983 0
vt 4.85983 0.0787402
vt 4.83927 0.0787402
f 50/227/19 51/228/20 55/229/20 56/230/19 

vt 3.87618 0
v 112.422 0 -95.6391
vt 3.89674 0
vt 3.89674 0.0787402
vt 3.87618 0.0787402
f 51/231/20 96/232/22 54/233/22 55/234/20 

vt -4.42607 3.76532
f 51/123/1 52/124/1 96/235/1

v 112.905 0 -95.4393
vt -4.44507 3.75745
f 96/235/1 52/124/1 97/236/1

v 113.405 0 -96.3053
vt -4.46475 3.79155
f 97/236/1 52/124/1 98/237/1

vt -2.67393 0
vn 0.5 0 -0.866025
vt -2.6431 0
vt -2.6431 0.0787402
v 113.405 2 -96.3053
vt -2.67393 0.0787402
f 98/238/30 52/239/23 53/240/23 99/241/30 

v 112.905 2 -95.4393
vt 4.44507 3.75745
vt 4.46475 3.79155
f 53/130/9 100/242/9 99/243/9

f 53/130/9 54/129/9 100/242/9

vt 2.64823 0
vt 2.66879 0
vt 2.66879 0.0787402
vt 2.64823 0.0787402
f 96/244/22 97/245/10 100/246/10 54/247/22 

vt 1.23911 0
v 113.319 0 -95.1215
vt 1.25967 0
v 113.319 2 -95.1215
vt 1.25967 0.0787402
vt 1.23911 0.0787402
f 97/248/10 101/249/7 102/250/7 100/251/10 

vt -4.46137 3.74494
f 97/236/1 98/237/1 101/252/1

v 113.637 0 -94.7073
vt -4.47389 3.72863
f 101/252/1 98/237/1 103/253/1

v 114.026 0 -95.8286
vt -4.48921 3.77278
f 103/253/1 98/237/1 104/254/1

vt -1.26481 0
vn 0.707107 0 -0.707107
vt -1.23398 0
vt -1.23398 0.0787402
v 114.026 2 -95.8286
vt -1.26481 0.0787402
f 104/255/31 98/256/30 99/257/30 105/258/31 

v 113.637 2 -94.7073
vt 4.47389 3.72863
vt 4.48921 3.77278
f 99/243/9 106/259/9 105/260/9

vt 4.46137 3.74494
f 99/243/9 102/261/9 106/259/9

f 99/243/9 100/242/9 102/261/9

vt -0.255149 0
vt -0.234594 0
vt -0.234594 0.0787402
vt -0.255149 0.0787402
f 101/262/7 103/263/6 106/264/6 102/265/7 

vt -1.73273 0
v 113.837 0 -94.2249
vt -1.71217 0
v 113.837 2 -94.2249
vt -1.71217 0.0787402
vt -1.73273 0.0787402
f 103/266/6 107/267/5 108/268/5 106/269/6 

vt -4.48175 3.70964
f 103/253/1 104/254/1 107/270/1

v 113.905 0 -93.7073
vt -4.48444 3.68926
f 107/270/1 104/254/1 109/271/1

v 114.026 0 -91.586
vt -4.48921 3.60575
f 110/272/1 109/271/1 104/254/1

v 113.837 0 -93.1896
vt -4.48175 3.66888
f 110/272/1 111/273/1 109/271/1

v 113.637 0 -92.7073
vt -4.47389 3.64989
f 110/272/1 112/274/1 111/273/1

v 113.405 0 -91.1092
vt -4.46475 3.58698
f 113/275/1 112/274/1 110/272/1

v 113.319 0 -92.2931
vt -4.46137 3.63358
f 113/275/1 114/276/1 112/274/1

v 112.905 0 -91.9752
vt -4.44507 3.62107
f 113/275/1 115/277/1 114/276/1

f 83/205/1 115/277/1 113/275/1

f 83/205/1 85/204/1 115/277/1

vt -5.49243 0
vt -5.47187 0
v 112.422 2 -91.7754
vt -5.47187 0.0787402
v 112.905 2 -91.9752
vt -5.49243 0.0787402
f 115/278/11 85/279/15 116/280/15 117/281/11 

vt -4.85983 0
vt -4.83927 0
v 111.905 2 -91.7073
vt -4.83927 0.0787402
vt -4.85983 0.0787402
f 85/282/15 86/283/21 118/284/21 116/285/15 

vt -3.89674 0
vt -3.87618 0
v 111.387 2 -91.7754
vt -3.87618 0.0787402
vt -3.89674 0.0787402
f 86/286/21 87/287/23 119/288/23 118/289/21 

vt -2.66879 0
vt -2.64823 0
v 110.905 2 -91.9752
vt -2.64823 0.0787402
vt -2.66879 0.0787402
f 87/290/23 88/291/30 120/292/30 119/293/23 

vt -1.25967 0
vt -1.23911 0
v 110.49 2 -92.2931
vt -1.23911 0.0787402
vt -1.25967 0.0787402
f 88/294/30 89/295/31 121/296/31 120/297/30 

vt 0.234594 0
vt 0.255149 0
v 110.173 2 -92.7073
vt 0.255149 0.0787402
vt 0.234594 0.0787402
f 89/298/31 90/299/26 122/300/26 121/301/31 

vt 1.71217 0
vt 1.73273 0
v 109.973 2 -93.1896
vt 1.73273 0.0787402
vt 1.71217 0.0787402
f 90/302/26 91/303/27 123/304/27 122/305/26 

vt 3.07236 0
vt 3.09292 0
v 109.905 2 -93.7073
vt 3.09292 0.0787402
vt 3.07236 0.0787402
f 91/306/27 92/307/12 124/308/12 123/309/27 

vt 4.22248 0
vt 4.24304 0
v 109.973 2 -94.2249
vt 4.24304 0.0787402
vt 4.22248 0.0787402
f 92/310/12 93/311/13 125/312/13 124/313/12 

vt 5.08414 0
vt 5.1047 0
vt 5.1047 0.0787402
vt 5.08414 0.0787402
f 93/314/13 94/315/14 95/316/14 125/317/13 

vt 4.3375 3.72863
vt 4.32964 3.70964
f 95/318/9 59/135/9 125/319/9

f 58/134/9 59/135/9 95/318/9

vt 4.32695 3.68926
f 125/319/9 59/135/9 124/320/9

vt 4.32964 3.66888
f 59/135/9 123/321/9 124/320/9

vt 4.3375 3.64989
f 59/135/9 122/322/9 123/321/9

vt 4.35002 3.63358
f 59/135/9 121/323/9 122/322/9

vt 4.4057 3.57115
f 59/135/9 82/324/9 121/323/9

vt 3.30065 3.66888
f 65/325/9 82/324/9 59/135/9

v 83.6367 2 -92.7073
vt 3.29278 3.64989
f 126/326/9 82/324/9 65/325/9

v 83.3189 2 -92.2931
vt 3.28027 3.63358
f 127/327/9 82/324/9 126/326/9

v 82.9047 2 -91.9752
vt 3.26396 3.62107
f 128/328/9 82/324/9 127/327/9

v 82.4223 2 -91.7754
vt 3.24497 3.61321
f 129/329/9 82/324/9 128/328/9

v 81.9047 2 -91.7073
vt 3.22459 3.61052
f 130/330/9 82/324/9 129/329/9

vt 3.22459 3.57115
f 130/330/9 81/331/9 82/324/9

v 81.387 2 -91.7754
vt 3.20421 3.61321
f 131/332/9 81/331/9 130/330/9

f 131/332/9 80/187/9 81/331/9

v 80.9047 2 -91.9752
vt 3.18522 3.62107
f 132/333/9 80/187/9 131/332/9

f 79/186/9 80/187/9 132/333/9

vt -0.322638 0
vt -0.302083 0
vt -0.302083 0.0787402
vt -0.322638 0.0787402
f 75/334/30 76/335/31 79/336/31 132/337/30 

vt 0.953604 0
vt 0.974159 0
vt 0.974159 0.0787402
vt 0.953604 0.0787402
f 76/338/31 77/339/26 78/340/26 79/341/31 

vt -1.57759 0
vt -1.55704 0
vt -1.55704 0.0787402
vt -1.57759 0.0787402
f 73/342/23 75/343/30 132/344/30 131/345/23 

vt -2.72574 0
vn -1.39975e-015 0 -1
vt -2.70518 0
vt -2.70518 0.0787402
vt -2.72574 0.0787402
f 72/346/32 73/347/23 131/348/23 130/349/32 

vt -3.68883 0
vt -3.66827 0
vt -3.66827 0.0787402
vt -3.68883 0.0787402
f 70/350/15 72/351/32 130/352/32 129/353/15 

vt -4.40123 0
vt -4.38068 0
vt -4.38068 0.0787402
vt -4.40123 0.0787402
f 69/354/11 70/355/15 129/356/15 128/357/11 

vt -4.8144 0
vt -4.79384 0
vt -4.79384 0.0787402
vt -4.8144 0.0787402
f 68/358/8 69/359/11 128/360/11 127/361/8 

vt -4.90017 0
vt -4.87962 0
vt -4.87962 0.0787402
vt -4.90017 0.0787402
f 67/362/2 68/363/8 127/364/8 126/365/2 

vt -4.65271 0
vt -4.63215 0
vt -4.63215 0.0787402
vt -4.65271 0.0787402
f 64/366/3 67/367/2 126/368/2 65/369/3 

vt 4.36632 3.62107
f 121/323/9 82/324/9 120/370/9

vt 4.38532 3.61321
f 120/370/9 82/324/9 119/371/9

vt 4.4057 3.61052
f 119/371/9 82/324/9 118/372/9

vt 4.43626 3.57518
f 118/372/9 82/324/9 84/373/9

vt 4.42607 3.61321
f 118/372/9 84/373/9 116/374/9

vt 4.44507 3.62107
f 116/374/9 84/373/9 117/375/9

v 113.405 2 -91.1092
vt 4.46475 3.58698
f 117/375/9 84/373/9 133/376/9

vt 5.46673 0
vt 5.49757 0
vt 5.49757 0.0787402
vt 5.46673 0.0787402
f 83/377/19 113/378/17 133/379/17 84/380/19 

vt 5.72574 0
vt 5.75657 0
v 114.026 2 -91.586
vt 5.75657 0.0787402
vt 5.72574 0.0787402
f 113/381/17 110/382/16 134/383/16 133/384/17 

vt 5.59349 0
v 114.503 0 -92.2073
vt 5.62432 0
v 114.503 2 -92.2073
vt 5.62432 0.0787402
vt 5.59349 0.0787402
f 110/385/16 135/386/14 136/387/14 134/388/16 

v 114.503 0 -95.2073
vt -4.50798 3.74832
vt -4.50798 3.63021
f 110/272/1 137/389/1 135/390/1

f 110/272/1 104/254/1 137/389/1

vt 0.229455 0
vt 0.260288 0
vt 0.260288 0.0787402
v 114.503 2 -95.2073
vt 0.229455 0.0787402
f 137/391/26 104/392/31 105/393/31 138/394/26 

vt 4.50798 3.63021
vt 4.50798 3.74832
f 105/260/9 136/395/9 138/396/9

vt 4.48921 3.60575
f 105/260/9 134/397/9 136/395/9

v 113.905 2 -93.7073
vt 4.48444 3.68926
f 105/260/9 139/398/9 134/397/9

vt 4.48175 3.70964
f 105/260/9 108/399/9 139/398/9

f 105/260/9 106/259/9 108/399/9

vt -3.09292 0
vt -3.07236 0
vn -1 0 -2.00025e-014
vt -3.07236 0.0787402
vt -3.09292 0.0787402
f 107/400/5 109/401/33 139/402/33 108/403/5 

vt -4.24304 0
vt -4.22248 0
v 113.837 2 -93.1896
vt -4.22248 0.0787402
vt -4.24304 0.0787402
f 109/404/33 111/405/3 140/406/3 139/407/33 

vt -5.1047 0
vt -5.08414 0
v 113.637 2 -92.7073
vt -5.08414 0.0787402
vt -5.1047 0.0787402
f 111/408/3 112/409/2 141/410/2 140/411/3 

vt -5.61918 0
vt -5.59863 0
v 113.319 2 -92.2931
vt -5.59863 0.0787402
vt -5.61918 0.0787402
f 112/412/2 114/413/8 142/414/8 141/415/2 

vt -5.75143 0
vt -5.73088 0
vt -5.73088 0.0787402
vt -5.75143 0.0787402
f 114/416/8 115/417/11 117/418/11 142/419/8 

vt 4.46137 3.63358
f 117/375/9 133/376/9 142/420/9

vt 4.47389 3.64989
f 142/420/9 133/376/9 141/421/9

f 141/421/9 133/376/9 134/397/9

vt 4.48175 3.66888
f 141/421/9 134/397/9 140/422/9

f 140/422/9 134/397/9 139/398/9

v 114.802 2 -92.9308
vt 4.51978 3.65869
f 138/396/9 136/395/9 143/423/9

vt 5.079 0
v 114.802 0 -92.9308
vt 5.10984 0
vt 5.10984 0.0787402
vt 5.079 0.0787402
f 135/424/14 144/425/13 143/426/13 136/427/14 

vt -4.51978 3.65869
f 135/390/1 137/389/1 144/428/1

v 114.802 0 -94.4837
vt -4.51978 3.71983
f 144/428/1 137/389/1 145/429/1

vt 1.70703 0
vt 1.73786 0
vt 1.73786 0.0787402
v 114.802 2 -94.4837
vt 1.70703 0.0787402
f 145/430/27 137/431/26 138/432/26 146/433/27 

vt 4.51978 3.71983
f 138/396/9 143/423/9 146/434/9

v 114.905 2 -93.7073
vt 4.52381 3.68926
f 146/434/9 143/423/9 147/435/9

vt 4.21734 0
v 114.905 0 -93.7073
vt 4.24818 0
vn 1 0 -9.51833e-016
vt 4.24818 0.0787402
vt 4.21734 0.0787402
f 144/436/13 148/437/34 147/438/34 143/439/13 

vt -4.52381 3.68926
f 144/428/1 145/429/1 148/440/1

vt 3.06723 0
vt 3.09806 0
vt 3.09806 0.0787402
vt 3.06723 0.0787402
f 148/441/34 145/442/27 146/443/27 147/444/34 

