# Alias OBJ Model File
# Exported from SketchUp, (c) 2000-2012 Trimble Navigation Limited
# File units = millimeters

mtllib GAZ_rules_1.mtl

g Mesh1 Model

usemtl FrontColor
v 53.2217 0 -105.856
vt -2.09534 4.16755
vn -6.39962e-019 -1 -2.78869e-034
v 53.2217 0 -104.303
vt -2.09534 4.10641
v 53.1194 0 -105.079
vt -2.09132 4.13698
f 1/1/1 2/2/1 3/3/1

v 53.5214 0 -103.579
vt -2.10714 4.07792
f 2/2/1 1/1/1 4/4/1

v 53.5214 0 -106.579
vt -2.10714 4.19603
f 4/4/1 1/1/1 5/5/1

vt -4.683 0
vn -0.866025 0 -0.5
vt -4.65216 0
vn -0.965926 0 -0.258819
v 53.2217 4.5 -105.856
vt -4.65216 0.177165
v 53.5214 4.5 -106.579
vt -4.683 0.177165
f 5/6/2 1/7/3 6/8/3 7/9/2 

vt -4.40539 0
vt -4.37456 0
vn -1 0 -7.12475e-015
v 53.1194 4.5 -105.079
vt -4.37456 0.177165
vt -4.40539 0.177165
f 1/10/3 3/11/4 8/12/4 6/13/3 

vt -3.82861 0
vt -3.79778 0
vn -0.965926 0 0.258819
v 53.2217 4.5 -104.303
vt -3.79778 0.177165
vt -3.82861 0.177165
f 3/14/4 2/15/5 9/16/5 8/17/4 

vt -2.99197 0
vt -2.96114 0
vn -0.866025 0 0.5
v 53.5214 4.5 -103.579
vt -2.96114 0.177165
vt -2.99197 0.177165
f 2/18/5 4/19/6 10/20/6 9/21/5 

vt -1.95249 0
v 53.9981 0 -102.958
vt -1.92165 0
vn -0.707107 0 0.707107
v 53.9981 4.5 -102.958
vt -1.92165 0.177165
vt -1.95249 0.177165
f 4/22/6 11/23/7 12/24/7 10/25/6 

v 53.9194 0 -105.079
vt -2.12281 4.13698
vt -2.12591 4.05346
f 13/26/1 11/27/1 4/4/1

v 53.9944 0 -104.51
vt -2.12576 4.11456
f 11/27/1 13/26/1 14/28/1

vt 3.80189 0
vn 0.965926 0 -0.258819
vt 3.8245 0
vn 1 0 -0
v 53.9194 4.5 -105.079
vt 3.8245 0.177165
v 53.9944 4.5 -104.51
vt 3.80189 0.177165
f 14/29/8 13/30/9 15/31/9 16/32/8 

vt 4.37867 0
v 53.9944 0 -105.649
vt 4.40128 0
vn 0.965926 0 0.258819
v 53.9944 4.5 -105.649
vt 4.40128 0.177165
vt 4.37867 0.177165
f 13/33/9 17/34/10 18/35/10 15/36/9 

v 53.9981 0 -107.201
vt -2.12591 4.22049
vt -2.12576 4.15939
f 13/26/1 19/37/1 17/38/1

f 4/4/1 19/37/1 13/26/1

f 4/4/1 5/5/1 19/37/1

vt -4.64251 0
vn -0.707107 0 -0.707107
vt -4.61168 0
vt -4.61168 0.177165
v 53.9981 4.5 -107.201
vt -4.64251 0.177165
f 19/39/11 5/40/2 7/41/2 20/42/11 

vt 2.12281 4.13698
vn 0 1 -0
vt 2.12591 4.22049
vt 2.10714 4.19603
f 15/43/12 20/44/12 7/45/12

vt 2.12576 4.15939
f 20/44/12 15/43/12 18/46/12

v 54.2142 4.5 -106.179
vt 2.13442 4.18028
f 20/44/12 18/46/12 21/47/12

vt 4.65627 0
v 54.2142 0 -106.179
vt 4.67888 0
vn 0.866025 0 0.5
vt 4.67888 0.177165
vt 4.65627 0.177165
f 17/48/10 22/49/13 21/50/13 18/51/10 

vt -2.13442 4.18028
f 17/38/1 19/37/1 22/52/1

v 54.6194 0 -107.677
vt -2.15037 4.23926
f 22/52/1 19/37/1 23/53/1

vt -4.2867 0
vn -0.5 0 -0.866025
vt -4.25587 0
vt -4.25587 0.177165
v 54.6194 4.5 -107.677
vt -4.2867 0.177165
f 23/54/14 19/55/11 20/56/11 24/57/14 

vt 2.15037 4.23926
f 20/44/12 21/47/12 24/58/12

v 54.5638 4.5 -106.635
vt 2.14818 4.19822
f 24/58/12 21/47/12 25/59/12

vt 4.61579 0
v 54.5638 0 -106.635
vt 4.6384 0
vn 0.707107 0 0.707107
vt 4.6384 0.177165
vt 4.61579 0.177165
f 22/60/13 26/61/15 25/62/15 21/63/13 

vt -2.14818 4.19822
f 22/52/1 23/53/1 26/64/1

v 55.0194 0 -106.984
vt -2.16612 4.21199
f 26/64/1 23/53/1 27/65/1

v 55.343 0 -107.977
vt -2.17886 4.25106
f 27/65/1 23/53/1 28/66/1

vt -3.63981 0
vn -0.258819 0 -0.965926
vt -3.60898 0
vt -3.60898 0.177165
v 55.343 4.5 -107.977
vt -3.63981 0.177165
f 28/67/16 23/68/14 24/69/14 29/70/16 

v 55.0194 4.5 -106.984
vt 2.16612 4.21199
vt 2.17886 4.25106
f 24/58/12 30/71/12 29/72/12

f 24/58/12 25/59/12 30/71/12

vt 4.25998 0
vt 4.28259 0
vn 0.5 0 0.866025
vt 4.28259 0.177165
vt 4.25998 0.177165
f 26/73/15 27/74/17 30/75/17 25/76/15 

vt 3.61309 0
v 55.55 0 -107.204
vt 3.6357 0
vn 0.258819 0 0.965926
v 55.55 4.5 -107.204
vt 3.6357 0.177165
vt 3.61309 0.177165
f 27/77/17 31/78/18 32/79/18 30/80/17 

vt -2.18701 4.22064
f 27/65/1 28/66/1 31/81/1

v 56.1194 0 -108.079
vt -2.20943 4.25509
f 31/81/1 28/66/1 33/82/1

vt -2.74593 0
vn -0.130526 0 -0.991445
vt -2.71509 0
vt -2.71509 0.177165
v 56.1194 4.5 -108.079
vt -2.74593 0.177165
f 33/83/19 28/84/16 29/85/16 34/86/19 

vt 2.18701 4.22064
vt 2.20943 4.25509
f 29/72/12 32/87/12 34/88/12

f 29/72/12 30/71/12 32/87/12

v 56.1194 4.5 -107.279
vt 2.20943 4.22359
f 34/88/12 32/87/12 35/89/12

vt 2.7192 0
v 56.1194 0 -107.279
vt 2.74181 0
vn 0 0 1
vt 2.74181 0.177165
vt 2.7192 0.177165
f 31/90/18 36/91/20 35/92/20 32/93/18 

vt -2.20943 4.22359
f 31/81/1 33/82/1 36/94/1

v 76.8472 -8.87471e-018 -108.079
vt -3.02548 4.25509
f 36/94/1 33/82/1 37/95/1

vt -2.20943 0.177165
vn 0 0 -1
v 76.8472 4.5 -108.079
vt -3.02548 0.177165
v 76.6553 4.25 -108.079
vt -3.01793 0.167323
v 76.2557 3.28528 -108.079
vt -3.00219 0.129342
v 76.1194 2.25 -108.079
vt -2.99683 0.0885827
v 76.2557 1.21472 -108.079
vt -3.00219 0.0478238
v 76.6553 0.25 -108.079
vt -3.01793 0.00984252
vt -3.02548 -3.49398e-019
vt -2.20943 0
f 34/96/21 38/97/21 39/98/21 40/99/21 41/100/21 42/101/21 43/102/21 37/103/21 33/104/21 

v 56.6888 4.5 -107.204
vt 2.23184 4.22064
vt 3.02548 4.25509
f 34/88/12 44/105/12 38/106/12

f 34/88/12 35/89/12 44/105/12

vt 1.63924 0
v 56.6888 0 -107.204
vt 1.66185 0
vn -0.258819 0 0.965926
vt 1.66185 0.177165
vt 1.63924 0.177165
f 36/107/20 45/108/22 44/109/22 35/110/20 

vt -2.23184 4.22064
f 36/94/1 37/95/1 45/111/1

v 57.2194 0 -106.984
vt -2.25273 4.21199
f 45/111/1 37/95/1 46/112/1

v 57.6751 0 -106.635
vt -2.27067 4.19822
f 46/112/1 37/95/1 47/113/1

v 58.0247 0 -106.179
vt -2.28444 4.18028
f 47/113/1 37/95/1 48/114/1

v 58.2445 0 -105.649
vt -2.29309 4.15939
f 48/114/1 37/95/1 49/115/1

v 58.3194 0 -105.079
vt -2.29604 4.13698
f 49/115/1 37/95/1 50/116/1

v 76.8472 -8.87471e-018 -102.079
vt -3.02548 4.01887
f 51/117/1 50/116/1 37/95/1

v 58.2445 0 -104.51
vt -2.29309 4.11456
f 51/117/1 52/118/1 50/116/1

v 58.0247 0 -103.979
vt -2.28444 4.09367
f 51/117/1 53/119/1 52/118/1

v 57.6751 0 -103.524
vt -2.27067 4.07573
f 51/117/1 54/120/1 53/119/1

v 57.2194 0 -103.174
vt -2.25273 4.06197
f 51/117/1 55/121/1 54/120/1

v 56.6888 0 -102.954
vt -2.23184 4.05331
f 51/117/1 56/122/1 55/121/1

v 56.1194 0 -102.079
vt -2.20943 4.01887
f 57/123/1 56/122/1 51/117/1

v 56.1194 0 -102.879
vt -2.20943 4.05036
f 57/123/1 58/124/1 56/122/1

v 55.55 0 -102.954
vt -2.18701 4.05331
f 57/123/1 59/125/1 58/124/1

v 55.343 0 -102.181
vt -2.17886 4.02289
f 60/126/1 59/125/1 57/123/1

v 55.0194 0 -103.174
vt -2.16612 4.06197
f 60/126/1 61/127/1 59/125/1

v 54.6194 0 -102.481
vt -2.15037 4.03469
f 62/128/1 61/127/1 60/126/1

v 54.5638 0 -103.524
vt -2.14818 4.07573
f 62/128/1 63/129/1 61/127/1

v 54.2142 0 -103.979
vt -2.13442 4.09367
f 62/128/1 64/130/1 63/129/1

f 11/27/1 64/130/1 62/128/1

f 11/27/1 14/28/1 64/130/1

vt 2.96525 0
vn 0.866025 0 -0.5
vt 2.98786 0
vt 2.98786 0.177165
v 54.2142 4.5 -103.979
vt 2.96525 0.177165
f 64/131/23 14/132/8 16/133/8 65/134/23 

vt 2.12576 4.11456
vt 2.12591 4.05346
vt 2.13442 4.09367
f 16/135/12 12/136/12 65/137/12

f 15/43/12 12/136/12 16/135/12

f 7/45/12 12/136/12 15/43/12

vt 2.10714 4.07792
f 7/45/12 10/138/12 12/136/12

vt 2.09534 4.16755
f 6/139/12 10/138/12 7/45/12

vt 2.09534 4.10641
f 6/139/12 9/140/12 10/138/12

vt 2.09132 4.13698
f 9/140/12 6/139/12 8/141/12

v 54.6194 4.5 -102.481
vt 2.15037 4.03469
f 65/137/12 12/136/12 66/142/12

vt -0.780992 0
vt -0.750159 0
vn -0.5 0 0.866025
vt -0.750159 0.177165
vt -0.780992 0.177165
f 11/143/7 62/144/24 66/145/24 12/146/7 

vt 0.442675 0
vt 0.473508 0
v 55.343 4.5 -102.181
vt 0.473508 0.177165
vt 0.442675 0.177165
f 62/147/24 60/148/22 67/149/22 66/150/24 

vt 1.63512 0
vt 1.66596 0
vn -0.130526 0 0.991445
v 56.1194 4.5 -102.079
vt 1.66596 0.177165
vt 1.63512 0.177165
f 60/151/22 57/152/25 68/153/25 67/154/22 

vt 2.20943 -3.63873e-014
vn 3.98615e-017 -9.05411e-015 1
v 79.6018 0.318148 -102.079
vt 3.13393 0.0125255
vt 2.20943 0.177165
f 57/155/26 69/156/26 68/157/26

v 80.1194 0.25 -102.079
vt 3.15431 0.00984252
f 57/155/26 70/158/26 69/156/26

v 83.3917 3.56462e-017 -102.079
vt 3.28314 -3.63858e-014
f 57/155/26 71/159/26 70/158/26

vt 3.02548 -3.63876e-014
f 51/160/26 71/159/26 57/155/26

v 77.291 -0.578427 -102.079
vt 3.04295 -0.0227727
f 72/161/26 71/159/26 51/160/26

v 82.9479 -0.578427 -102.079
vt 3.26566 -0.0227727
f 72/161/26 73/162/26 71/159/26

v 82.6194 -0.830438 -102.079
vt 3.25273 -0.0326944
f 72/161/26 74/163/26 73/162/26

v 78.1194 -1.2141 -102.079
vt 3.07557 -0.0477993
f 75/164/26 74/163/26 72/161/26

v 82.1194 -1.2141 -102.079
vt 3.23305 -0.0477993
f 75/164/26 76/165/26 74/163/26

v 79.0842 -1.6137 -102.079
vt 3.11355 -0.0635316
f 77/166/26 76/165/26 75/164/26

v 81.1547 -1.6137 -102.079
vt 3.19507 -0.0635316
f 77/166/26 78/167/26 76/165/26

v 80.1194 -1.75 -102.079
vt 3.15431 -0.0688976
f 78/167/26 77/166/26 79/168/26

v 79.0842 -1.6137 -108.079
vt -4.25509 -3.09521
vn -0.258819 -0.965926 -0
v 80.1194 -1.75 -108.079
vt -4.25509 -3.13632
vn -3.35941e-016 -1 -0
vt -4.01887 -3.13632
vt -4.01887 -3.09521
f 80/169/27 81/170/28 79/171/28 77/172/27 

vt -3.11355 -0.0635316
vn 7.20329e-033 1.10391e-015 -1
v 81.1547 -1.6137 -108.079
vt -3.19507 -0.0635316
vt -3.15431 -0.0688976
f 80/173/29 82/174/29 81/175/29

v 82.1194 -1.2141 -108.079
vt -3.23305 -0.0477993
f 82/174/29 80/173/29 83/176/29

v 78.1194 -1.2141 -108.079
vt -3.07557 -0.0477993
f 83/176/29 80/173/29 84/177/29

vt -4.25509 -2.85975
vn -0.5 -0.866025 -0
vt -4.25509 -2.90086
vt -4.01887 -2.90086
vt -4.01887 -2.85975
f 84/178/30 80/179/27 77/180/27 75/181/30 

v 77.291 -0.578427 -108.079
vt -4.25509 -2.428
vn -0.707107 -0.707107 2.82816e-030
vt -4.25509 -2.46911
vt -4.01887 -2.46911
vt -4.01887 -2.428
f 85/182/31 84/183/30 75/184/30 72/185/31 

v 82.6194 -0.830438 -108.079
vt -3.25273 -0.0326944
vt -3.04295 -0.0227727
f 86/186/29 84/177/29 85/187/29

f 83/176/29 84/177/29 86/186/29

vt 4.01887 2.56066
vn 0.608761 -0.793353 3.05311e-019
vt 4.01887 2.53585
vn 0.5 -0.866025 1.53973e-019
vt 4.25509 2.53585
vt 4.25509 2.56066
v 82.9479 -0.578427 -108.079
vt 4.25509 2.57696
vt 4.01887 2.57696
f 74/188/32 76/189/33 83/190/33 86/191/32 87/192/32 73/193/32 

vt 4.25509 2.92755
vn 0.258819 -0.965926 -0
vt 4.25509 2.96866
vt 4.01887 2.96866
vt 4.01887 2.92755
f 82/194/34 83/195/33 76/196/33 78/197/34 

vt 4.25509 3.11833
vt 4.25509 3.15944
vt 4.01887 3.15944
vt 4.01887 3.11833
f 81/198/28 82/199/34 78/200/34 79/201/28 

vt -3.26566 -0.0227727
f 86/186/29 85/187/29 87/202/29

v 83.3917 3.56462e-017 -108.079
vt -3.28314 -4.69582e-015
f 87/202/29 85/187/29 88/203/29

vt -3.02548 -4.69758e-015
f 88/203/29 85/187/29 37/204/29

vt -4.25509 -1.8418
vn -0.793353 -0.608761 5.60792e-030
vt -4.25509 -1.8705
vt -4.01887 -1.8705
vt -4.01887 -1.8418
f 37/205/35 85/206/31 72/207/31 51/208/35 

f 88/203/29 37/204/29 43/102/29

v 80.1194 0.25 -108.079
vt -3.15431 0.00984252
f 89/209/29 88/203/29 43/102/29

v 138.119 4.5 -108.079
vt -5.43777 0.177165
f 90/210/29 88/203/29 89/209/29

v 138.119 0 -108.079
vt -5.43777 -4.69723e-015
f 88/203/29 90/210/29 91/211/29

v 138.896 0 -107.977
vt -4.86669 0
vn 0.258819 0 -0.965926
vt -4.83585 0
vn 0.130526 0 -0.991445
vt -4.83585 0.177165
v 138.896 4.5 -107.977
vt -4.86669 0.177165
f 92/212/36 91/213/37 90/214/37 93/215/36 

v 138.119 0 -107.279
vt -5.43777 4.22359
vn -3.48645e-019 -1 3.46056e-034
vt -5.43777 4.25509
vt -5.46834 4.25106
f 94/216/38 91/217/38 92/218/38

v 137.55 0 -107.204
vt -5.41536 4.22064
f 95/219/38 91/217/38 94/216/38

v 137.019 0 -106.984
vt -5.39447 4.21199
f 96/220/38 91/217/38 95/219/38

v 136.564 0 -106.635
vt -5.37653 4.19822
f 97/221/38 91/217/38 96/220/38

vt -3.28314 4.01887
f 71/222/38 91/217/38 97/221/38

vt -3.28314 4.25509
f 91/217/38 71/222/38 88/223/38

vt 4.25509 1.96994
vn 0.793353 -0.608761 -1.96877e-018
vt 4.25509 1.99865
vt 4.01887 1.99865
vt 4.01887 1.96994
f 87/224/39 88/225/39 71/226/39 73/227/39 

v 136.214 0 -106.179
vt -5.36276 4.18028
f 71/222/38 97/221/38 98/228/38

vt 6.58109 0
vt 6.6037 0
v 136.564 4.5 -106.635
vt 6.6037 0.177165
v 136.214 4.5 -106.179
vt 6.58109 0.177165
f 98/229/13 97/230/15 99/231/15 100/232/13 

vt 6.8212 0
vt 6.84381 0
v 137.019 4.5 -106.984
vt 6.84381 0.177165
vt 6.8212 0.177165
f 97/233/15 96/234/17 101/235/17 99/236/15 

vt 6.59569 0
vt 6.61831 0
v 137.55 4.5 -107.204
vt 6.61831 0.177165
vt 6.59569 0.177165
f 96/237/17 95/238/18 102/239/18 101/240/17 

vt 5.91993 0
vt 5.94254 0
v 138.119 4.5 -107.279
vt 5.94254 0.177165
vt 5.91993 0.177165
f 95/241/18 94/242/20 103/243/20 102/244/18 

vt 4.83996 0
v 138.689 0 -107.204
vt 4.86257 0
v 138.689 4.5 -107.204
vt 4.86257 0.177165
vt 4.83996 0.177165
f 94/245/20 104/246/22 105/247/22 103/248/20 

vt -5.46019 4.22064
f 94/216/38 92/218/38 104/249/38

v 139.219 0 -106.984
vt -5.48108 4.21199
f 104/249/38 92/218/38 106/250/38

v 139.619 0 -107.677
vt -5.49683 4.23926
f 106/250/38 92/218/38 107/251/38

vt -3.45611 0
vn 0.5 0 -0.866025
vt -3.42528 0
vt -3.42528 0.177165
v 139.619 4.5 -107.677
vt -3.45611 0.177165
f 107/252/40 92/253/36 93/254/36 108/255/40 

vt 5.46834 4.25106
v 139.219 4.5 -106.984
vt 5.48108 4.21199
vt 5.49683 4.23926
f 93/256/12 109/257/12 108/258/12

vt 5.46019 4.22064
f 93/256/12 105/259/12 109/257/12

vt 5.43777 4.25509
f 90/260/12 105/259/12 93/256/12

vt 5.43777 4.22359
f 90/260/12 103/261/12 105/259/12

vt 5.41536 4.22064
f 90/260/12 102/262/12 103/261/12

vt 5.39447 4.21199
f 90/260/12 101/263/12 102/262/12

vt 5.37653 4.19822
f 90/260/12 99/264/12 101/263/12

v 83.3917 4.5 -108.079
vt 3.28314 4.25509
f 110/265/12 99/264/12 90/260/12

vt 5.36276 4.18028
f 99/264/12 110/265/12 100/266/12

v 135.994 4.5 -105.649
vt 5.35411 4.15939
f 100/266/12 110/265/12 111/267/12

v 135.919 4.5 -105.079
vt 5.35116 4.13698
f 111/267/12 110/265/12 112/268/12

v 135.994 4.5 -104.51
vt 5.35411 4.11456
f 110/265/12 113/269/12 112/268/12

v 136.214 4.5 -103.979
vt 5.36276 4.09367
f 110/265/12 114/270/12 113/269/12

v 136.564 4.5 -103.524
vt 5.37653 4.07573
f 110/265/12 115/271/12 114/270/12

v 138.119 4.5 -102.079
vt 5.43777 4.01887
f 110/265/12 116/272/12 115/271/12

v 83.3917 4.5 -102.079
vt 3.28314 4.01887
f 116/272/12 110/265/12 117/273/12

vt 4.25509 -1.85809
vn 0.793353 0.608761 -1.11422e-018
v 82.9479 5.07843 -108.079
vt 4.25509 -1.82939
v 82.9479 5.07843 -102.079
vt 4.01887 -1.82939
vt 4.01887 -1.85809
f 110/274/41 118/275/41 119/276/41 117/277/41 

vt -3.28314 0.177165
v 77.291 5.07843 -108.079
vt -3.04295 0.199938
vt -3.26566 0.199938
f 110/278/29 120/279/29 118/280/29

f 120/279/29 110/278/29 38/97/29

f 90/210/29 38/97/29 110/278/29

f 90/210/29 39/98/29 38/97/29

v 80.1194 4.25 -108.079
vt -3.15431 0.167323
f 90/210/29 121/281/29 39/98/29

v 80.6371 4.18185 -108.079
vt -3.17469 0.16464
f 90/210/29 122/282/29 121/281/29

v 81.1194 3.98205 -108.079
vt -3.19368 0.156774
f 90/210/29 123/283/29 122/282/29

v 81.5337 3.66421 -108.079
vt -3.20999 0.14426
f 90/210/29 124/284/29 123/283/29

v 81.8515 3.25 -108.079
vt -3.2225 0.127953
f 90/210/29 125/285/29 124/284/29

v 82.0513 2.76764 -108.079
vt -3.23037 0.108962
f 90/210/29 126/286/29 125/285/29

v 82.1194 2.25 -108.079
vt -3.23305 0.0885827
f 90/210/29 127/287/29 126/286/29

v 82.0513 1.73236 -108.079
vt -3.23037 0.0682032
f 90/210/29 128/288/29 127/287/29

v 81.8515 1.25 -108.079
vt -3.2225 0.0492126
f 90/210/29 129/289/29 128/288/29

v 81.5337 0.835786 -108.079
vt -3.20999 0.032905
f 90/210/29 130/290/29 129/289/29

v 81.1194 0.517949 -108.079
vt -3.19368 0.0203917
f 90/210/29 131/291/29 130/290/29

v 80.6371 0.318148 -108.079
vt -3.17469 0.0125255
f 90/210/29 132/292/29 131/291/29

f 90/210/29 89/209/29 132/292/29

vt -4.25509 3.14916
vn -0.258819 0.965926 3.6806e-030
vt -4.25509 3.12861
vn 3.49938e-016 1 3.81043e-030
vt -4.01887 3.12861
v 80.6371 0.318148 -102.079
vt -4.01887 3.14916
f 132/293/42 89/294/43 70/295/43 133/296/42 

vt 4.25509 -3.12604
v 79.6018 0.318148 -108.079
vt 4.25509 -3.10548
vn 0.258819 0.965926 3.6806e-030
vt 4.01887 -3.10548
vt 4.01887 -3.12604
f 89/297/43 134/298/44 69/299/44 70/300/43 

vt -3.13393 0.0125255
f 43/102/29 134/301/29 89/209/29

f 134/301/29 43/102/29 42/101/29

v 79.1194 0.517949 -108.079
vt -3.11494 0.0203917
f 134/301/29 42/101/29 135/302/29

v 78.7052 0.835786 -108.079
vt -3.09863 0.032905
f 135/302/29 42/101/29 136/303/29

v 78.3874 1.25 -108.079
vt -3.08612 0.0492126
f 136/303/29 42/101/29 137/304/29

f 137/304/29 42/101/29 41/100/29

v 78.1876 1.73236 -108.079
vt -3.07825 0.0682032
f 137/304/29 41/100/29 138/305/29

v 78.1194 2.25 -108.079
vt -3.07557 0.0885827
f 138/305/29 41/100/29 139/306/29

v 78.1876 2.76764 -108.079
vt -3.07825 0.108962
f 139/306/29 41/100/29 140/307/29

f 140/307/29 41/100/29 40/99/29

v 78.3874 3.25 -108.079
vt -3.08612 0.127953
f 140/307/29 40/99/29 141/308/29

v 78.7052 3.66421 -108.079
vt -3.09863 0.14426
f 141/308/29 40/99/29 142/309/29

f 142/309/29 40/99/29 39/98/29

v 79.1194 3.98205 -108.079
vt -3.11494 0.156774
f 142/309/29 39/98/29 143/310/29

v 79.6018 4.18185 -108.079
vt -3.13393 0.16464
f 143/310/29 39/98/29 144/311/29

f 144/311/29 39/98/29 121/281/29

vt 4.25509 3.12861
vn 0.258819 -0.965926 -3.6806e-030
vt 4.25509 3.14916
vn 1.39975e-015 -1 -3.81043e-030
v 80.1194 4.25 -102.079
vt 4.01887 3.14916
v 79.6018 4.18185 -102.079
vt 4.01887 3.12861
f 144/312/45 121/313/46 145/314/46 146/315/45 

vt -4.25509 -3.10548
vt -4.25509 -3.12604
vn -0.258819 -0.965926 -3.6806e-030
v 80.6371 4.18185 -102.079
vt -4.01887 -3.12604
vt -4.01887 -3.10548
f 121/316/46 122/317/47 147/318/47 145/319/46 

vt -4.25509 -2.87002
vt -4.25509 -2.89058
vn -0.5 -0.866025 -3.29993e-030
v 81.1194 3.98205 -102.079
vt -4.01887 -2.89058
vt -4.01887 -2.87002
f 122/320/47 123/321/48 148/322/48 147/323/47 

vt -4.25509 -2.43828
vt -4.25509 -2.45883
vn -0.707107 -0.707107 -2.69438e-030
v 81.5337 3.66421 -102.079
vt -4.01887 -2.45883
vt -4.01887 -2.43828
f 123/324/48 124/325/49 149/326/49 148/327/48 

vt -4.25509 -1.83967
vt -4.25509 -1.86022
vn -0.866025 -0.5 -1.90522e-030
v 81.8515 3.25 -102.079
vt -4.01887 -1.86022
vt -4.01887 -1.83967
f 124/328/49 125/329/50 150/330/50 149/331/49 

vt -4.25509 -1.11498
vt -4.25509 -1.13554
vn -0.965926 -0.258819 -9.86213e-031
v 82.0513 2.76764 -102.079
vt -4.01887 -1.13554
vt -4.01887 -1.11498
f 125/332/50 126/333/51 151/334/51 150/335/50 

vt -4.25509 -0.313617
vt -4.25509 -0.334173
vn -1 -8.39852e-017 1.5459e-045
v 82.1194 2.25 -102.079
vt -4.01887 -0.334173
vt -4.01887 -0.313617
f 126/336/51 127/337/52 152/338/52 151/339/51 

vt -4.25509 0.509822
vt -4.25509 0.489267
vn -0.965926 0.258819 9.86213e-031
v 82.0513 1.73236 -102.079
vt -4.01887 0.489267
vt -4.01887 0.509822
f 127/340/52 128/341/53 153/342/53 152/343/52 

vt -4.25509 1.29922
vt -4.25509 1.27866
vn -0.866025 0.5 1.90522e-030
v 81.8515 1.25 -102.079
vt -4.01887 1.27866
vt -4.01887 1.29922
f 128/344/53 129/345/54 154/346/54 153/347/53 

vt -4.25509 2.00078
vt -4.25509 1.98022
vn -0.707107 0.707107 2.69438e-030
v 81.5337 0.835786 -102.079
vt -4.01887 1.98022
vt -4.01887 2.00078
f 129/348/54 130/349/55 155/350/55 154/351/54 

vt -4.25509 2.56668
vt -4.25509 2.54613
vn -0.5 0.866025 3.29993e-030
v 81.1194 0.517949 -102.079
vt -4.01887 2.54613
vt -4.01887 2.56668
f 130/352/55 131/353/56 156/354/56 155/355/55 

vt -4.25509 2.95838
vt -4.25509 2.93782
vt -4.01887 2.93782
vt -4.01887 2.95838
f 131/356/56 132/357/42 133/358/42 156/359/56 

vt 3.17469 0.0125255
vt 5.43777 0.177165
vt 3.19368 0.0203917
f 133/360/26 116/361/26 156/362/26

f 70/158/26 116/361/26 133/360/26

f 71/159/26 116/361/26 70/158/26

v 138.119 0 -102.079
vt 5.43777 -3.63873e-014
f 116/361/26 71/159/26 157/363/26

v 136.564 0 -103.524
vt -5.37653 4.07573
vt -5.43777 4.01887
f 71/222/38 158/364/38 157/365/38

v 136.214 0 -103.979
vt -5.36276 4.09367
f 158/364/38 71/222/38 159/366/38

v 135.994 0 -104.51
vt -5.35411 4.11456
f 159/366/38 71/222/38 160/367/38

v 135.919 0 -105.079
vt -5.35116 4.13698
f 160/367/38 71/222/38 161/368/38

v 135.994 0 -105.649
vt -5.35411 4.15939
f 71/222/38 162/369/38 161/368/38

f 71/222/38 98/228/38 162/369/38

vt 5.89171 0
vt 5.91432 0
vt 5.91432 0.177165
vt 5.89171 0.177165
f 162/370/10 98/371/13 100/372/13 111/373/10 

vt 4.80005 0
vt 4.82266 0
vt 4.82266 0.177165
vt 4.80005 0.177165
f 161/374/9 162/375/10 111/376/10 112/377/9 

vt 3.38051 0
vt 3.40312 0
vt 3.40312 0.177165
vt 3.38051 0.177165
f 160/378/8 161/379/9 112/380/9 113/381/8 

vt 1.72982 0
vt 1.75243 0
vt 1.75243 0.177165
vt 1.72982 0.177165
f 159/382/23 160/383/8 113/384/8 114/385/23 

vt -0.0395279 0
vn 0.707107 0 -0.707107
vt -0.0169171 0
vt -0.0169171 0.177165
vt -0.0395279 0.177165
f 158/386/57 159/387/23 114/388/23 115/389/57 

v 137.019 0 -103.174
vt -1.80695 0
vt -1.78434 0
vt -1.78434 0.177165
v 137.019 4.5 -103.174
vt -1.80695 0.177165
f 163/390/40 158/391/57 115/392/57 164/393/40 

vt -5.39447 4.06197
f 157/365/38 158/364/38 163/394/38

v 137.55 0 -102.954
vt -5.41536 4.05331
f 157/365/38 163/394/38 165/395/38

vt -3.452 0
vt -3.42939 0
vt -3.42939 0.177165
v 137.55 4.5 -102.954
vt -3.452 0.177165
f 165/396/36 163/397/40 164/398/40 166/399/36 

vt 5.39447 4.06197
vt 5.41536 4.05331
f 164/400/12 116/272/12 166/401/12

f 115/271/12 116/272/12 164/400/12

v 138.119 4.5 -102.879
vt 5.43777 4.05036
f 166/401/12 116/272/12 167/402/12

v 138.896 4.5 -102.181
vt 5.46834 4.02289
f 167/402/12 116/272/12 168/403/12

vt 5.91582 0
vn 0.130526 0 0.991445
v 138.896 0 -102.181
vt 5.94665 0
vt 5.94665 0.177165
vt 5.91582 0.177165
f 157/404/58 169/405/18 168/406/18 116/407/58 

v 138.689 0 -102.954
vt -5.46019 4.05331
vt -5.46834 4.02289
f 157/365/38 170/408/38 169/409/38

v 138.119 0 -102.879
vt -5.43777 4.05036
f 157/365/38 171/410/38 170/408/38

f 157/365/38 165/395/38 171/410/38

vt -4.86257 0
vt -4.83996 0
vt -4.83996 0.177165
vt -4.86257 0.177165
f 171/411/21 165/412/36 166/413/36 167/414/21 

vt -5.94254 0
vt -5.91993 0
vt -5.91993 0.177165
v 138.689 4.5 -102.954
vt -5.94254 0.177165
f 170/415/16 171/416/21 167/417/21 172/418/16 

vt 5.46019 4.05331
f 167/402/12 168/403/12 172/419/12

v 139.219 4.5 -103.174
vt 5.48108 4.06197
f 172/419/12 168/403/12 173/420/12

v 139.619 4.5 -102.481
vt 5.49683 4.03469
f 173/420/12 168/403/12 174/421/12

vt 6.59158 0
v 139.619 0 -102.481
vt 6.62242 0
vt 6.62242 0.177165
vt 6.59158 0.177165
f 169/422/18 175/423/17 174/424/17 168/425/18 

v 139.219 0 -103.174
vt -5.48108 4.06197
vt -5.49683 4.03469
f 169/409/38 176/426/38 175/427/38

f 169/409/38 170/408/38 176/426/38

vt -6.61831 0
vt -6.59569 0
vt -6.59569 0.177165
vt -6.61831 0.177165
f 176/428/14 170/429/16 172/430/16 173/431/14 

v 139.675 0 -103.524
vt -6.84381 0
vt -6.8212 0
vt -6.8212 0.177165
v 139.675 4.5 -103.524
vt -6.84381 0.177165
f 177/432/11 176/433/14 173/434/14 178/435/11 

vt -5.49902 4.07573
f 175/427/38 176/426/38 177/436/38

v 140.241 0 -102.958
vt -5.52129 4.05346
f 175/427/38 177/436/38 179/437/38

v 140.025 0 -103.979
vt -5.51278 4.09367
f 179/437/38 177/436/38 180/438/38

vt -6.6037 0
vt -6.58109 0
vt -6.58109 0.177165
v 140.025 4.5 -103.979
vt -6.6037 0.177165
f 180/439/2 177/440/11 178/441/11 181/442/2 

vt 5.49902 4.07573
v 140.241 4.5 -102.958
vt 5.52129 4.05346
vt 5.51278 4.09367
f 178/443/12 182/444/12 181/445/12

f 178/443/12 174/421/12 182/444/12

f 173/420/12 174/421/12 178/443/12

vt 6.81709 0
vt 6.84792 0
vt 6.84792 0.177165
vt 6.81709 0.177165
f 175/446/17 179/447/15 182/448/15 174/449/17 

vt 6.57697 0
v 140.718 0 -103.579
vt 6.60781 0
v 140.718 4.5 -103.579
vt 6.60781 0.177165
vt 6.57697 0.177165
f 179/450/15 183/451/13 184/452/13 182/453/15 

v 140.244 0 -104.51
vt -5.52144 4.11456
vt -5.54006 4.07792
f 179/437/38 185/454/38 183/455/38

f 179/437/38 180/438/38 185/454/38

vt -5.91432 0
vt -5.89171 0
vt -5.89171 0.177165
v 140.244 4.5 -104.51
vt -5.91432 0.177165
f 185/456/3 180/457/2 181/458/2 186/459/3 

vt 5.52144 4.11456
f 181/445/12 182/444/12 186/460/12

vt 5.54006 4.07792
f 186/460/12 182/444/12 184/461/12

v 140.319 4.5 -105.079
vt 5.52439 4.13698
f 186/460/12 184/461/12 187/462/12

v 140.718 4.5 -106.579
vt 5.54006 4.19603
f 188/463/12 187/462/12 184/461/12

v 140.244 4.5 -105.649
vt 5.52144 4.15939
f 188/463/12 189/464/12 187/462/12

v 140.241 4.5 -107.201
vt 5.52129 4.22049
f 190/465/12 189/464/12 188/463/12

v 140.025 4.5 -106.179
vt 5.51278 4.18028
f 190/465/12 191/466/12 189/464/12

v 139.675 4.5 -106.635
vt 5.49902 4.19822
f 190/465/12 192/467/12 191/466/12

f 108/258/12 192/467/12 190/465/12

f 108/258/12 109/257/12 192/467/12

vt 1.78434 0
v 139.675 0 -106.635
vt 1.80695 0
vt 1.80695 0.177165
vt 1.78434 0.177165
f 106/468/24 193/469/7 192/470/7 109/471/24 

vt -5.49902 4.19822
f 106/250/38 107/251/38 193/472/38

v 140.241 0 -107.201
vt -5.52129 4.22049
f 193/472/38 107/251/38 194/473/38

vt -1.81106 0
vt -1.78023 0
vt -1.78023 0.177165
vt -1.81106 0.177165
f 194/474/57 107/475/40 108/476/40 190/477/57 

v 140.718 0 -106.579
vt -0.043639 0
vt -0.012806 0
vt -0.012806 0.177165
vt -0.043639 0.177165
f 195/478/23 194/479/57 190/480/57 188/481/23 

v 140.244 0 -105.649
vt -5.52144 4.15939
vt -5.54006 4.19603
f 196/482/38 194/473/38 195/483/38

v 140.025 0 -106.179
vt -5.51278 4.18028
f 197/484/38 194/473/38 196/482/38

f 193/472/38 194/473/38 197/484/38

vt 0.0169171 0
vt 0.0395279 0
vt 0.0395279 0.177165
vt 0.0169171 0.177165
f 193/485/7 197/486/6 191/487/6 192/488/7 

vt -1.75243 0
vt -1.72982 0
vt -1.72982 0.177165
vt -1.75243 0.177165
f 197/489/6 196/490/5 189/491/5 191/492/6 

vt -3.40312 0
v 140.319 0 -105.079
vt -3.38051 0
vn -1 0 -0
vt -3.38051 0.177165
vt -3.40312 0.177165
f 196/493/5 198/494/59 187/495/59 189/496/5 

vt -5.52439 4.13698
f 196/482/38 195/483/38 198/497/38

f 183/455/38 198/497/38 195/483/38

f 183/455/38 185/454/38 198/497/38

vt -4.82266 0
vt -4.80005 0
vt -4.80005 0.177165
vt -4.82266 0.177165
f 198/498/59 185/499/3 186/500/3 187/501/59 

v 141.017 0 -105.856
vt -5.55186 4.16755
f 183/455/38 195/483/38 199/502/38

vt 1.72571 0
vt 1.75654 0
vt 1.75654 0.177165
v 141.017 4.5 -105.856
vt 1.72571 0.177165
f 199/503/8 195/504/23 188/505/23 200/506/8 

v 141.017 4.5 -104.303
vt 5.55186 4.10641
vt 5.55186 4.16755
f 188/463/12 201/507/12 200/508/12

f 188/463/12 184/461/12 201/507/12

vt 5.8876 0
v 141.017 0 -104.303
vt 5.91843 0
vt 5.91843 0.177165
vt 5.8876 0.177165
f 183/509/13 202/510/10 201/511/10 184/512/13 

vt -5.55186 4.10641
f 183/455/38 199/502/38 202/513/38

v 141.119 0 -105.079
vt -5.55588 4.13698
f 202/513/38 199/502/38 203/514/38

vt 3.3764 0
vt 3.40723 0
vt 3.40723 0.177165
v 141.119 4.5 -105.079
vt 3.3764 0.177165
f 203/515/9 199/516/8 200/517/8 204/518/9 

vt 5.55588 4.13698
f 200/508/12 201/507/12 204/519/12

vt 4.79594 0
vt 4.82677 0
vt 4.82677 0.177165
vt 4.79594 0.177165
f 202/520/10 203/521/9 204/522/9 201/523/10 

vt 3.42939 0
vt 3.452 0
vt 3.452 0.177165
vt 3.42939 0.177165
f 104/524/22 106/525/24 109/526/24 105/527/22 

vt 3.20999 0.032905
f 156/362/26 116/361/26 155/528/26

vt 3.2225 0.0492126
f 155/528/26 116/361/26 154/529/26

vt 3.23037 0.0682032
f 154/529/26 116/361/26 153/530/26

vt 3.23305 0.0885827
f 153/530/26 116/361/26 152/531/26

vt 3.23037 0.108962
f 152/531/26 116/361/26 151/532/26

vt 3.2225 0.127953
f 151/532/26 116/361/26 150/533/26

vt 3.20999 0.14426
f 150/533/26 116/361/26 149/534/26

vt 3.19368 0.156774
f 149/534/26 116/361/26 148/535/26

vt 3.17469 0.16464
f 148/535/26 116/361/26 147/536/26

vt 3.15431 0.167323
f 147/536/26 116/361/26 145/537/26

f 68/157/26 145/537/26 116/361/26

vt 3.13393 0.16464
f 68/157/26 146/538/26 145/537/26

v 79.1194 3.98205 -102.079
vt 3.11494 0.156774
f 68/157/26 205/539/26 146/538/26

v 78.7052 3.66421 -102.079
vt 3.09863 0.14426
f 68/157/26 206/540/26 205/539/26

v 78.3874 3.25 -102.079
vt 3.08612 0.127953
f 68/157/26 207/541/26 206/540/26

v 78.1876 2.76764 -102.079
vt 3.07825 0.108962
f 68/157/26 208/542/26 207/541/26

v 78.1194 2.25 -102.079
vt 3.07557 0.0885827
f 68/157/26 209/543/26 208/542/26

v 78.1876 1.73236 -102.079
vt 3.07825 0.0682032
f 68/157/26 210/544/26 209/543/26

v 78.3874 1.25 -102.079
vt 3.08612 0.0492126
f 68/157/26 211/545/26 210/544/26

v 78.7052 0.835786 -102.079
vt 3.09863 0.032905
f 68/157/26 212/546/26 211/545/26

v 79.1194 0.517949 -102.079
vt 3.11494 0.0203917
f 68/157/26 213/547/26 212/546/26

f 68/157/26 69/156/26 213/547/26

vt 4.25509 -2.89058
vt 4.25509 -2.87002
vn 0.5 0.866025 3.29993e-030
vt 4.01887 -2.87002
vt 4.01887 -2.89058
f 134/548/44 135/549/60 213/550/60 69/551/44 

vt 4.25509 -2.45883
vt 4.25509 -2.43828
vn 0.707107 0.707107 2.69438e-030
vt 4.01887 -2.43828
vt 4.01887 -2.45883
f 135/552/60 136/553/61 212/554/61 213/555/60 

vt 4.25509 -1.86022
vt 4.25509 -1.83967
vn 0.866025 0.5 1.90522e-030
vt 4.01887 -1.83967
vt 4.01887 -1.86022
f 136/556/61 137/557/62 211/558/62 212/559/61 

vt 4.25509 -1.13554
vt 4.25509 -1.11498
vn 0.965926 0.258819 9.86213e-031
vt 4.01887 -1.11498
vt 4.01887 -1.13554
f 137/560/62 138/561/63 210/562/63 211/563/62 

vt 4.25509 -0.334173
vt 4.25509 -0.313617
vn 1 1.81968e-016 -1.14838e-045
vt 4.01887 -0.313617
vt 4.01887 -0.334173
f 138/564/63 139/565/64 209/566/64 210/567/63 

vt 4.25509 0.489267
vt 4.25509 0.509822
vn 0.965926 -0.258819 -9.86213e-031
vt 4.01887 0.509822
vt 4.01887 0.489267
f 139/568/64 140/569/65 208/570/65 209/571/64 

vt 4.25509 1.27866
vt 4.25509 1.29922
vn 0.866025 -0.5 -1.90522e-030
vt 4.01887 1.29922
vt 4.01887 1.27866
f 140/572/65 141/573/66 207/574/66 208/575/65 

vt 4.25509 1.98022
vt 4.25509 2.00078
vn 0.707107 -0.707107 -2.69438e-030
vt 4.01887 2.00078
vt 4.01887 1.98022
f 141/576/66 142/577/67 206/578/67 207/579/66 

vt 4.25509 2.54613
vt 4.25509 2.56668
vn 0.5 -0.866025 -3.29993e-030
vt 4.01887 2.56668
vt 4.01887 2.54613
f 142/580/67 143/581/68 205/582/68 206/583/67 

vt 4.25509 2.93782
vt 4.25509 2.95838
vt 4.01887 2.95838
vt 4.01887 2.93782
f 143/584/68 144/585/45 146/586/45 205/587/68 

vt 3.28314 0.177165
f 68/157/26 116/361/26 117/588/26

v 76.8472 4.5 -102.079
vt 3.02548 0.177165
f 68/157/26 117/588/26 214/589/26

vt 3.26566 0.199938
f 119/590/26 214/589/26 117/588/26

v 77.291 5.07843 -102.079
vt 3.04295 0.199938
f 214/589/26 119/590/26 215/591/26

v 82.6194 5.33044 -102.079
vt 3.25273 0.20986
f 215/591/26 119/590/26 216/592/26

v 82.6194 5.33044 -108.079
vt 4.25509 -2.45281
vn 0.608761 0.793353 1.75001e-018
v 82.1194 5.7141 -108.079
vt 4.25509 -2.428
vn 0.5 0.866025 8.82557e-019
v 82.1194 5.7141 -102.079
vt 4.01887 -2.428
vt 4.01887 -2.45281
vt 4.01887 -2.46911
vt 4.25509 -2.46911
f 217/593/69 218/594/70 219/595/70 216/596/69 119/597/69 118/598/69 

vt -3.25273 0.20986
v 78.1194 5.7141 -108.079
vt -3.07557 0.224965
vt -3.23305 0.224965
f 217/599/29 220/600/29 218/601/29

f 217/599/29 120/279/29 220/600/29

f 118/280/29 120/279/29 217/599/29

vt -4.25509 2.57696
vn -0.5 0.866025 -0
vt -4.25509 2.53585
vn -0.707107 0.707107 -0
vt -4.01887 2.53585
v 78.1194 5.7141 -102.079
vt -4.01887 2.57696
f 220/602/71 120/603/72 215/604/72 221/605/71 

vt -4.25509 2.01105
vt -4.25509 1.98235
vn -0.793353 0.608761 -0
vt -4.01887 1.98235
vt -4.01887 2.01105
f 120/606/72 38/607/73 214/608/73 215/609/72 

v 58.3194 4.5 -105.079
vt 2.29604 4.13698
vt 3.02548 4.01887
f 38/106/12 222/610/12 214/611/12

v 58.2445 4.5 -105.649
vt 2.29309 4.15939
f 38/106/12 223/612/12 222/610/12

v 58.0247 4.5 -106.179
vt 2.28444 4.18028
f 38/106/12 224/613/12 223/612/12

v 57.6751 4.5 -106.635
vt 2.27067 4.19822
f 38/106/12 225/614/12 224/613/12

v 57.2194 4.5 -106.984
vt 2.25273 4.21199
f 38/106/12 226/615/12 225/614/12

f 38/106/12 44/105/12 226/615/12

vt 0.446786 0
vt 0.469397 0
vt 0.469397 0.177165
vt 0.446786 0.177165
f 45/616/22 46/617/24 226/618/24 44/619/22 

vt -0.776881 0
vt -0.75427 0
vt -0.75427 0.177165
vt -0.776881 0.177165
f 46/620/24 47/621/7 225/622/7 226/623/24 

vt -1.94838 0
vt -1.92576 0
vt -1.92576 0.177165
vt -1.94838 0.177165
f 47/624/7 48/625/6 224/626/6 225/627/7 

vt -2.98786 0
vt -2.96525 0
vt -2.96525 0.177165
vt -2.98786 0.177165
f 48/628/6 49/629/5 223/630/5 224/631/6 

vt -3.8245 0
vt -3.80189 0
vt -3.80189 0.177165
vt -3.8245 0.177165
f 49/632/5 50/633/59 222/634/59 223/635/5 

vt -4.40128 0
vt -4.37867 0
v 58.2445 4.5 -104.51
vt -4.37867 0.177165
vt -4.40128 0.177165
f 50/636/59 52/637/3 227/638/3 222/639/59 

vt -4.67888 0
vt -4.65627 0
v 58.0247 4.5 -103.979
vt -4.65627 0.177165
vt -4.67888 0.177165
f 52/640/3 53/641/2 228/642/2 227/643/3 

vt -4.6384 0
vt -4.61579 0
v 57.6751 4.5 -103.524
vt -4.61579 0.177165
vt -4.6384 0.177165
f 53/644/2 54/645/11 229/646/11 228/647/2 

vt -4.28259 0
vt -4.25998 0
v 57.2194 4.5 -103.174
vt -4.25998 0.177165
vt -4.28259 0.177165
f 54/648/11 55/649/14 230/650/14 229/651/11 

vt -3.6357 0
vt -3.61309 0
v 56.6888 4.5 -102.954
vt -3.61309 0.177165
vt -3.6357 0.177165
f 55/652/14 56/653/16 231/654/16 230/655/14 

vt -2.74181 0
vt -2.7192 0
v 56.1194 4.5 -102.879
vt -2.7192 0.177165
vt -2.74181 0.177165
f 56/656/16 58/657/21 232/658/21 231/659/16 

vt -1.66185 0
vt -1.63924 0
v 55.55 4.5 -102.954
vt -1.63924 0.177165
vt -1.66185 0.177165
f 58/660/21 59/661/36 233/662/36 232/663/21 

vt -0.469397 0
vt -0.446786 0
v 55.0194 4.5 -103.174
vt -0.446786 0.177165
vt -0.469397 0.177165
f 59/664/36 61/665/40 234/666/40 233/667/36 

vt 0.75427 0
vt 0.776881 0
v 54.5638 4.5 -103.524
vt 0.776881 0.177165
vt 0.75427 0.177165
f 61/668/40 63/669/57 235/670/57 234/671/40 

vt 1.92576 0
vt 1.94838 0
vt 1.94838 0.177165
vt 1.92576 0.177165
f 63/672/57 64/673/23 65/674/23 235/675/57 

vt 2.14818 4.07573
f 65/137/12 66/142/12 235/676/12

vt 2.16612 4.06197
f 235/676/12 66/142/12 234/677/12

vt 2.17886 4.02289
f 234/677/12 66/142/12 67/678/12

vt 2.18701 4.05331
f 234/677/12 67/678/12 233/679/12

vt 2.20943 4.01887
f 233/679/12 67/678/12 68/680/12

vt 2.20943 4.05036
f 233/679/12 68/680/12 232/681/12

f 232/681/12 68/680/12 214/611/12

vt 2.23184 4.05331
f 232/681/12 214/611/12 231/682/12

vt 2.25273 4.06197
f 231/682/12 214/611/12 230/683/12

vt 2.27067 4.07573
f 230/683/12 214/611/12 229/684/12

vt 2.28444 4.09367
f 229/684/12 214/611/12 228/685/12

vt 2.29309 4.11456
f 228/685/12 214/611/12 227/686/12

f 227/686/12 214/611/12 222/610/12

vt 3.07557 0.224965
f 215/591/26 216/592/26 221/687/26

vt 3.23305 0.224965
f 221/687/26 216/592/26 219/688/26

v 81.1547 6.1137 -102.079
vt 3.19507 0.240697
f 221/687/26 219/688/26 236/689/26

vt 4.25509 -2.90086
v 81.1547 6.1137 -108.079
vt 4.25509 -2.85975
vn 0.258819 0.965926 -0
vt 4.01887 -2.85975
vt 4.01887 -2.90086
f 218/690/70 237/691/74 236/692/74 219/693/70 

vt -3.19507 0.240697
f 218/601/29 220/600/29 237/694/29

v 79.0842 6.1137 -108.079
vt -3.11355 0.240697
f 237/694/29 220/600/29 238/695/29

vt -4.25509 2.96866
vn -0.258819 0.965926 -0
vt -4.25509 2.92755
vt -4.01887 2.92755
v 79.0842 6.1137 -102.079
vt -4.01887 2.96866
f 238/696/75 220/697/71 221/698/71 239/699/75 

vt 3.11355 0.240697
f 221/687/26 236/689/26 239/700/26

v 80.1194 6.25 -102.079
vt 3.15431 0.246063
f 239/700/26 236/689/26 240/701/26

vt 4.25509 -3.13632
v 80.1194 6.25 -108.079
vt 4.25509 -3.09521
vn -3.77934e-016 1 -0
vt 4.01887 -3.09521
vt 4.01887 -3.13632
f 237/702/74 241/703/76 240/704/76 236/705/74 

vt -3.15431 0.246063
f 237/694/29 238/695/29 241/706/29

vt -4.25509 3.15944
vt -4.25509 3.11833
vt -4.01887 3.11833
vt -4.01887 3.15944
f 241/707/76 238/708/75 239/709/75 240/710/76 

