# Alias OBJ Model File
# Exported from SketchUp, (c) 2000-2012 Trimble Navigation Limited
# File units = millimeters

mtllib GAZ_crep_cabina.mtl

g Mesh1 Model

usemtl FrontColor
v 102.43 -3.52496e-016 -102.101
vt 4.01973 -1.38778e-017
vn 1 0 -0
v 102.43 2 -91.1013
vt 3.58666 0.0787402
v 102.43 -1.76248e-016 -91.1013
vt 3.58666 -6.93889e-018
f 1/1/1 2/2/1 3/3/1

v 102.43 2 -95.1013
vt 3.74414 0.0787402
f 2/2/1 1/1/1 4/4/1

v 102.43 2.76795 -97.6013
vt 3.84257 0.108974
f 4/4/1 1/1/1 5/5/1

v 102.43 2.56815 -98.0836
vt 3.86156 0.101108
f 5/5/1 1/1/1 6/6/1

v 102.43 2.5 -98.6013
vt 3.88194 0.0984252
f 6/6/1 1/1/1 7/7/1

v 102.43 2.56815 -99.1189
vt 3.90232 0.101108
f 7/7/1 1/1/1 8/8/1

v 102.43 2.76795 -99.6013
vt 3.92131 0.108974
f 8/8/1 1/1/1 9/9/1

v 102.43 3.08579 -100.015
vt 3.93762 0.121488
f 9/9/1 1/1/1 10/10/1

v 102.43 3.5 -100.333
vt 3.95013 0.137795
f 10/10/1 1/1/1 11/11/1

v 102.43 3.98236 -100.533
vt 3.958 0.156786
f 11/11/1 1/1/1 12/12/1

v 102.43 4.5 -100.601
vt 3.96068 0.177165
f 12/12/1 1/1/1 13/13/1

v 102.43 6.97487 -101.076
vt 3.97938 0.274601
f 13/13/1 1/1/1 14/14/1

v 102.43 6.25 -101.632
vt 4.00127 0.246063
f 14/14/1 1/1/1 15/15/1

v 102.43 5.40587 -101.982
vt 4.01504 0.212829
f 15/15/1 1/1/1 16/16/1

v 102.43 4.5 -102.101
vt 4.01973 0.177165
f 16/16/1 1/1/1 17/17/1

vt -4.03268 0.177165
vn 0 0 -1
vt -4.03268 -1.38778e-017
v 98.4301 -3.52496e-016 -102.101
vt -3.8752 -1.38778e-017
v 98.4301 4.5 -102.101
vt -3.8752 0.177165
f 17/18/2 1/19/2 18/20/2 19/21/2 

vt -4.03268 4.01973
vn 0 -1 1.60225e-017
v 98.4301 -1.76248e-016 -91.1013
vt -3.8752 3.58666
vt -3.8752 4.01973
f 1/22/3 20/23/3 18/24/3

v 99.4642 1.37473e-014 -93.3601
vt -3.91591 3.67559
f 20/23/3 1/22/3 21/25/3

v 99.5641 1.37473e-014 -93.6013
vt -3.91985 3.68509
f 21/25/3 1/22/3 22/26/3

v 99.723 1.37473e-014 -93.8084
vt -3.9261 3.69324
f 22/26/3 1/22/3 23/27/3

v 99.9301 1.37473e-014 -93.9673
vt -3.93426 3.6995
f 23/27/3 1/22/3 24/28/3

v 100.171 1.37473e-014 -94.0672
vt -3.94375 3.70343
f 24/28/3 1/22/3 25/29/3

v 100.43 1.37473e-014 -94.1013
vt -3.95394 3.70477
f 25/29/3 1/22/3 26/30/3

v 100.689 1.37473e-014 -94.0672
vt -3.96413 3.70343
f 26/30/3 1/22/3 27/31/3

v 100.93 1.37473e-014 -93.9673
vt -3.97363 3.6995
f 27/31/3 1/22/3 28/32/3

v 101.137 1.37473e-014 -93.8084
vt -3.98178 3.69324
f 28/32/3 1/22/3 29/33/3

v 101.296 1.37473e-014 -93.6013
vt -3.98804 3.68509
f 29/33/3 1/22/3 30/34/3

v 101.396 1.37473e-014 -93.3601
vt -3.99197 3.67559
f 30/34/3 1/22/3 31/35/3

v 101.43 1.37473e-014 -93.1013
vt -3.99331 3.6654
f 31/35/3 1/22/3 32/36/3

vt -4.03268 3.58666
f 3/37/3 32/36/3 1/22/3

v 101.396 1.37473e-014 -92.8424
vt -3.99197 3.65521
f 3/37/3 33/38/3 32/36/3

v 101.296 1.37473e-014 -92.6013
vt -3.98804 3.64572
f 3/37/3 34/39/3 33/38/3

v 101.137 1.37473e-014 -92.3942
vt -3.98178 3.63756
f 3/37/3 35/40/3 34/39/3

v 100.93 1.37473e-014 -92.2352
vt -3.97363 3.63131
f 3/37/3 36/41/3 35/40/3

v 100.689 1.37473e-014 -92.1353
vt -3.96413 3.62738
f 3/37/3 37/42/3 36/41/3

v 100.43 1.37473e-014 -92.1013
vt -3.95394 3.62603
f 3/37/3 38/43/3 37/42/3

v 100.171 1.37473e-014 -92.1353
vt -3.94375 3.62738
f 3/37/3 39/44/3 38/43/3

v 99.9301 1.37473e-014 -92.2352
vt -3.93426 3.63131
f 3/37/3 40/45/3 39/44/3

f 20/23/3 40/45/3 3/37/3

v 99.723 1.37473e-014 -92.3942
vt -3.9261 3.63756
f 40/45/3 20/23/3 41/46/3

v 99.5641 1.37473e-014 -92.6013
vt -3.91985 3.64572
f 41/46/3 20/23/3 42/47/3

v 99.4642 1.37473e-014 -92.8424
vt -3.91591 3.65521
f 42/47/3 20/23/3 43/48/3

v 99.4301 1.37473e-014 -93.1013
vt -3.91457 3.6654
f 43/48/3 20/23/3 44/49/3

f 20/23/3 21/25/3 44/49/3

v 99.4642 2 -93.3601
vt 4.15528 0.0787402
vn 0.965926 0 0.258819
v 99.4301 2 -93.1013
vt 4.145 0.0787402
vn 1 0 -2.14022e-014
vt 4.145 5.41234e-016
vt 4.15528 5.41234e-016
f 45/50/4 46/51/5 44/52/5 21/53/4 

vt 3.91591 3.67559
vn 0 1 -0
v 98.4301 2 -95.1013
vt 3.8752 3.74414
vt 3.91457 3.6654
f 45/54/6 47/55/6 46/56/6

v 99.5641 2 -93.6013
vt 3.91985 3.68509
f 48/57/6 47/55/6 45/54/6

v 99.723 2 -93.8084
vt 3.9261 3.69324
f 49/58/6 47/55/6 48/57/6

v 99.9301 2 -93.9673
vt 3.93426 3.6995
f 50/59/6 47/55/6 49/58/6

vt 4.03268 3.74414
f 47/55/6 50/59/6 4/60/6

v 100.171 2 -94.0672
vt 3.94375 3.70343
f 4/60/6 50/59/6 51/61/6

vt 5.06079 0.0787402
vn 0.258819 0 0.965926
vt 5.05052 0.0787402
vn 0.5 0 0.866025
vt 5.05052 5.41234e-016
vt 5.06079 5.41234e-016
f 51/62/7 50/63/8 24/64/8 25/65/7 

vt 5.37337 0.0787402
vt 5.36309 0.0787402
vn 0.707107 0 0.707107
vt 5.36309 5.41234e-016
vt 5.37337 5.41234e-016
f 50/66/8 49/67/9 23/68/9 24/69/8 

vt 5.32011 0.0787402
vt 5.30983 0.0787402
vn 0.866025 0 0.5
vt 5.30983 5.41234e-016
vt 5.32011 5.41234e-016
f 49/70/9 48/71/10 22/72/10 23/73/9 

vt 4.90464 0.0787402
vt 4.89436 0.0787402
vt 4.89436 5.41234e-016
vt 4.90464 5.41234e-016
f 48/74/10 45/75/4 21/76/4 22/77/10 

v 100.43 2 -94.1013
vt 4.40369 0.0787402
vn 2.14022e-014 0 1
vt 4.39341 0.0787402
vt 4.39341 5.41234e-016
vt 4.40369 5.41234e-016
f 52/78/11 51/79/7 25/80/7 26/81/11 

vt 3.95394 3.70477
f 4/60/6 51/61/6 52/82/6

v 100.689 2 -94.0672
vt 3.96413 3.70343
f 4/60/6 52/82/6 53/83/6

vt 3.44682 0.0787402
vn -0.258819 0 0.965926
vt 3.43655 0.0787402
vt 3.43655 5.41234e-016
vt 3.44682 5.41234e-016
f 53/84/12 52/85/11 26/86/11 27/87/12 

v 100.93 2 -93.9673
vt 2.25542 0.0787402
vn -0.5 0 0.866025
vt 2.24514 0.0787402
vt 2.24514 5.41234e-016
vt 2.25542 5.41234e-016
f 54/88/13 53/89/12 27/90/12 28/91/13 

vt 3.97363 3.6995
f 4/60/6 53/83/6 54/92/6

v 101.137 2 -93.8084
vt 3.98178 3.69324
f 4/60/6 54/92/6 55/93/6

vt 0.910655 0.0787402
vn -0.707107 0 0.707107
vt 0.900378 0.0787402
vt 0.900378 5.41234e-016
vt 0.910655 5.41234e-016
f 55/94/14 54/95/13 28/96/13 29/97/14 

v 101.296 2 -93.6013
vt -0.495814 0.0787402
vn -0.866025 0 0.5
vt -0.506092 0.0787402
vt -0.506092 5.41234e-016
vt -0.495814 5.41234e-016
f 56/98/15 55/99/14 29/100/14 30/101/15 

vt 3.98804 3.68509
f 4/60/6 55/93/6 56/102/6

v 101.396 2 -93.3601
vt 3.99197 3.67559
f 4/60/6 56/102/6 57/103/6

vt -1.86814 0.0787402
vn -0.965926 0 0.258819
vt -1.87842 0.0787402
vt -1.87842 5.41234e-016
vt -1.86814 5.41234e-016
f 57/104/16 56/105/15 30/106/15 31/107/16 

v 101.43 2 -93.1013
vt -3.11281 0.0787402
vn -1 0 2.14022e-014
vt -3.12309 0.0787402
vt -3.12309 5.41234e-016
vt -3.11281 5.41234e-016
f 58/108/17 57/109/16 31/110/16 32/111/17 

vt 3.99331 3.6654
f 4/60/6 57/103/6 58/112/6

vt 4.03268 3.58666
f 4/60/6 58/112/6 2/113/6

v 101.396 2 -92.8424
vt 3.99197 3.65521
f 59/114/6 2/113/6 58/112/6

v 101.296 2 -92.6013
vt 3.98804 3.64572
f 60/115/6 2/113/6 59/114/6

v 101.137 2 -92.3942
vt 3.98178 3.63756
f 61/116/6 2/113/6 60/115/6

v 100.93 2 -92.2352
vt 3.97363 3.63131
f 62/117/6 2/113/6 61/116/6

v 100.689 2 -92.1353
vt 3.96413 3.62738
f 63/118/6 2/113/6 62/117/6

v 100.43 2 -92.1013
vt 3.95394 3.62603
f 64/119/6 2/113/6 63/118/6

v 100.171 2 -92.1353
vt 3.94375 3.62738
f 65/120/6 2/113/6 64/119/6

v 99.9301 2 -92.2352
vt 3.93426 3.63131
f 66/121/6 2/113/6 65/120/6

v 98.4301 2 -91.1013
vt 3.8752 3.58666
f 66/121/6 67/122/6 2/113/6

v 99.723 2 -92.3942
vt 3.9261 3.63756
f 68/123/6 67/122/6 66/121/6

v 99.5641 2 -92.6013
vt 3.91985 3.64572
f 69/124/6 67/122/6 68/123/6

f 67/122/6 69/124/6 47/55/6

v 99.4642 2 -92.8424
vt 3.91591 3.65521
f 47/55/6 69/124/6 70/125/6

vt 1.87842 0.0787402
vn 0.965926 0 -0.258819
vt 1.86814 0.0787402
vn 0.866025 0 -0.5
vt 1.86814 5.41234e-016
vt 1.87842 5.41234e-016
f 70/126/18 69/127/19 42/128/19 43/129/18 

vt 0.506092 0.0787402
vt 0.495814 0.0787402
vn 0.707107 0 -0.707107
vt 0.495814 5.41234e-016
vt 0.506092 5.41234e-016
f 69/130/19 68/131/20 41/132/20 42/133/19 

vt -0.900378 0.0787402
vt -0.910655 0.0787402
vn 0.5 0 -0.866025
vt -0.910655 5.41234e-016
vt -0.900378 5.41234e-016
f 68/134/20 66/135/21 40/136/21 41/137/20 

vt -2.24514 0.0787402
vt -2.25542 0.0787402
vn 0.258819 0 -0.965926
vt -2.25542 5.41234e-016
vt -2.24514 5.41234e-016
f 66/138/21 65/139/22 39/140/22 40/141/21 

vt -3.43655 0.0787402
vt -3.44682 0.0787402
vn -2.14022e-014 0 -1
vt -3.44682 5.41234e-016
vt -3.43655 5.41234e-016
f 65/142/22 64/143/23 38/144/23 39/145/22 

vt -4.39341 0.0787402
vt -4.40369 0.0787402
vn -0.258819 0 -0.965926
vt -4.40369 5.41234e-016
vt -4.39341 5.41234e-016
f 64/146/23 63/147/24 37/148/24 38/149/23 

vt -5.05052 0.0787402
vt -5.06079 0.0787402
vn -0.5 0 -0.866025
vt -5.06079 5.41234e-016
vt -5.05052 5.41234e-016
f 63/150/24 62/151/25 36/152/25 37/153/24 

vt -5.36309 0.0787402
vt -5.37337 0.0787402
vn -0.707107 0 -0.707107
vt -5.37337 5.41234e-016
vt -5.36309 5.41234e-016
f 62/154/25 61/155/26 35/156/26 36/157/25 

vt -5.30983 0.0787402
vt -5.32011 0.0787402
vn -0.866025 0 -0.5
vt -5.32011 5.41234e-016
vt -5.30983 5.41234e-016
f 61/158/26 60/159/27 34/160/27 35/161/26 

vt -4.89436 0.0787402
vt -4.90464 0.0787402
vn -0.965926 0 -0.258819
vt -4.90464 5.41234e-016
vt -4.89436 5.41234e-016
f 60/162/27 59/163/28 33/164/28 34/165/27 

vt -4.145 0.0787402
vt -4.15528 0.0787402
vt -4.15528 5.41234e-016
vt -4.145 5.41234e-016
f 59/166/28 58/167/17 32/168/17 33/169/28 

vt 3.12309 0.0787402
vt 3.11281 0.0787402
vt 3.11281 5.41234e-016
vt 3.12309 5.41234e-016
f 46/170/5 70/171/18 43/172/18 44/173/5 

f 47/55/6 70/125/6 46/56/6

vt -3.74414 0.0787402
vn -1 0 -0
vt -3.58666 -6.93889e-018
vt -3.58666 0.0787402
f 47/174/29 20/175/29 67/176/29

vt -4.01973 -1.38778e-017
f 20/175/29 47/174/29 18/177/29

v 98.4301 2.76795 -97.6013
vt -3.84257 0.108974
f 18/177/29 47/174/29 71/178/29

v 98.4301 3.08579 -97.187
vt -3.82626 0.121488
f 71/178/29 47/174/29 72/179/29

v 98.4301 5.40587 -95.2205
vt -3.74884 0.212829
f 72/179/29 47/174/29 73/180/29

v 98.4301 4.5 -95.1013
vt -3.74414 0.177165
f 73/180/29 47/174/29 74/181/29

vt 4.03268 0.0787402
vn 0 0 1
v 102.43 4.5 -95.1013
vt 4.03268 0.177165
vt 3.8752 0.177165
vt 3.8752 0.0787402
f 4/182/30 75/183/30 74/184/30 47/185/30 

vt 3.74414 0.177165
f 4/4/1 5/5/1 75/186/1

v 102.43 3.08579 -97.187
vt 3.82626 0.121488
f 75/186/1 5/5/1 76/187/1

vt -4.03268 -2.96162
vn 0 0.707107 -0.707107
vt -4.03268 -2.98218
vn 0 0.866025 -0.5
vt -3.8752 -2.98218
vt -3.8752 -2.96162
f 76/188/31 5/189/32 71/190/32 72/191/31 

vt -4.03268 -3.50837
vt -4.03268 -3.52892
vn 0 0.965926 -0.258819
v 98.4301 2.56815 -98.0836
vt -3.8752 -3.52892
vt -3.8752 -3.50837
f 5/192/32 6/193/33 77/194/33 71/195/32 

vt -4.03268 -3.81533
vt -4.03268 -3.83588
vn 0 1 3.49938e-016
v 98.4301 2.5 -98.6013
vt -3.8752 -3.83588
vt -3.8752 -3.81533
f 6/196/33 7/197/34 78/198/34 77/199/33 

vt 4.03268 3.86158
vt 4.03268 3.88213
vn 0 0.965926 0.258819
v 98.4301 2.56815 -99.1189
vt 3.8752 3.88213
vt 3.8752 3.86158
f 7/200/34 8/201/35 79/202/35 78/203/34 

vt 4.03268 3.64396
vt 4.03268 3.66452
vn 0 0.866025 0.5
v 98.4301 2.76795 -99.6013
vt 3.8752 3.66452
vt 3.8752 3.64396
f 8/204/35 9/205/36 80/206/36 79/207/35 

vt 4.03268 3.17732
vt 4.03268 3.19788
vn 0 0.707107 0.707107
v 98.4301 3.08579 -100.015
vt 3.8752 3.19788
vt 3.8752 3.17732
f 9/208/36 10/209/37 81/210/37 80/211/36 

vt 4.03268 2.49345
vt 4.03268 2.51401
vn 0 0.5 0.866025
v 98.4301 3.5 -100.333
vt 3.8752 2.51401
vt 3.8752 2.49345
f 10/212/37 11/213/38 82/214/38 81/215/37 

vt 4.03268 1.63896
vt 4.03268 1.65951
vn 0 0.258819 0.965926
v 98.4301 3.98236 -100.533
vt 3.8752 1.65951
vt 3.8752 1.63896
f 11/216/38 12/217/39 83/218/39 82/219/38 

vt 4.03268 0.672067
vt 4.03268 0.692622
vn 0 1.81968e-016 1
v 98.4301 4.5 -100.601
vt 3.8752 0.692622
vt 3.8752 0.672067
f 12/220/39 13/221/40 84/222/40 83/223/39 

vt 4.03268 -0.341323
v 102.43 5.01764 -100.533
vt 4.03268 -0.320767
vn 0 -0.258819 0.965926
v 98.4301 5.01764 -100.533
vt 3.8752 -0.320767
vt 3.8752 -0.341323
f 13/224/40 85/225/41 86/226/41 84/227/40 

vt 3.958 0.197545
f 14/14/1 85/228/1 13/13/1

v 102.43 7.53109 -100.351
vt 3.95084 0.2965
f 87/229/1 85/228/1 14/14/1

v 102.43 5.5 -100.333
vt 3.95013 0.216535
f 87/229/1 88/230/1 85/228/1

v 102.43 5.91421 -100.015
vt 3.93762 0.232843
f 87/229/1 89/231/1 88/230/1

v 102.43 6.23205 -99.6013
vt 3.92131 0.245356
f 87/229/1 90/232/1 89/231/1

v 102.43 7.88074 -99.5071
vt 3.9176 0.310265
f 91/233/1 90/232/1 87/229/1

v 102.43 6.43185 -99.1189
vt 3.90232 0.253223
f 91/233/1 92/234/1 90/232/1

v 102.43 8 -98.6013
vt 3.88194 0.314961
f 93/235/1 92/234/1 91/233/1

v 102.43 6.5 -98.6013
vt 3.88194 0.255906
f 93/235/1 94/236/1 92/234/1

v 102.43 6.43185 -98.0836
vt 3.86156 0.253223
f 93/235/1 95/237/1 94/236/1

v 102.43 7.88074 -97.6954
vt 3.84628 0.310265
f 96/238/1 95/237/1 93/235/1

v 102.43 6.23205 -97.6013
vt 3.84257 0.245356
f 96/238/1 97/239/1 95/237/1

v 102.43 5.91421 -97.187
vt 3.82626 0.232843
f 96/238/1 98/240/1 97/239/1

v 102.43 5.5 -96.8692
vt 3.81375 0.216535
f 96/238/1 99/241/1 98/240/1

v 102.43 7.53109 -96.8513
vt 3.81304 0.2965
f 100/242/1 99/241/1 96/238/1

v 102.43 5.01764 -96.6694
vt 3.80588 0.197545
f 100/242/1 101/243/1 99/241/1

v 102.43 4.5 -96.6013
vt 3.8032 0.177165
f 100/242/1 102/244/1 101/243/1

v 102.43 6.97487 -96.1264
vt 3.7845 0.274601
f 102/244/1 100/242/1 103/245/1

vt 4.03268 3.16962
vn 0 0.793353 0.608761
vt 4.03268 3.20559
v 98.4301 7.53109 -96.8513
vt 3.8752 3.20559
v 98.4301 6.97487 -96.1264
vt 3.8752 3.16962
f 103/246/42 100/247/42 104/248/42 105/249/42 

vt 4.03268 3.63626
vn 0 0.92388 0.382683
vt 4.03268 3.67223
v 98.4301 7.88074 -97.6954
vt 3.8752 3.67223
vt 3.8752 3.63626
f 100/250/43 96/251/43 106/252/43 104/253/43 

vt 4.03268 3.85387
vn 0 0.991445 0.130526
vt 4.03268 3.88984
v 98.4301 8 -98.6013
vt 3.8752 3.88984
vt 3.8752 3.85387
f 96/254/44 93/255/44 107/256/44 106/257/44 

vt -4.03268 -3.80762
vn 0 0.991445 -0.130526
vt -4.03268 -3.84359
v 98.4301 7.88074 -99.5071
vt -3.8752 -3.84359
vt -3.8752 -3.80762
f 93/258/45 91/259/45 108/260/45 107/261/45 

vt -4.03268 -3.50066
vn 0 0.92388 -0.382683
vt -4.03268 -3.53663
v 98.4301 7.53109 -100.351
vt -3.8752 -3.53663
vt -3.8752 -3.50066
f 91/262/46 87/263/46 109/264/46 108/265/46 

vt -4.03268 -2.95391
vn 0 0.793353 -0.608761
vt -4.03268 -2.98988
v 98.4301 6.97487 -101.076
vt -3.8752 -2.98988
vt -3.8752 -2.95391
f 87/266/47 14/267/47 110/268/47 109/269/47 

vt -4.03268 -2.20463
vn 0 0.608761 -0.793353
vt -4.03268 -2.24061
v 98.4301 6.25 -101.632
vt -3.8752 -2.24061
vt -3.8752 -2.20463
f 14/270/48 15/271/48 111/272/48 110/273/48 

vt -4.03268 -1.30389
vn 0 0.382683 -0.92388
vt -4.03268 -1.33986
v 98.4301 5.40587 -101.982
vt -3.8752 -1.33986
vt -3.8752 -1.30389
f 15/274/49 16/275/49 112/276/49 111/277/49 

vt -4.03268 -0.313059
vn 0 0.130526 -0.991445
vt -4.03268 -0.349031
vt -3.8752 -0.349031
vt -3.8752 -0.313059
f 16/278/50 17/279/50 19/280/50 112/281/50 

vt -4.01504 0.212829
vt -4.01973 0.177165
f 18/177/29 112/282/29 19/283/29

vt -4.00127 0.246063
f 18/177/29 111/284/29 112/282/29

vt -3.97938 0.274601
f 18/177/29 110/285/29 111/284/29

vt -3.96068 0.177165
f 18/177/29 84/286/29 110/285/29

vt -3.958 0.156786
f 18/177/29 83/287/29 84/286/29

vt -3.95013 0.137795
f 18/177/29 82/288/29 83/287/29

vt -3.93762 0.121488
f 18/177/29 81/289/29 82/288/29

vt -3.92131 0.108974
f 18/177/29 80/290/29 81/289/29

vt -3.90232 0.101108
f 18/177/29 79/291/29 80/290/29

vt -3.88194 0.0984252
f 18/177/29 78/292/29 79/291/29

vt -3.86156 0.101108
f 18/177/29 77/293/29 78/292/29

f 18/177/29 71/178/29 77/293/29

vt -3.958 0.197545
f 86/294/29 110/285/29 84/286/29

vt -3.95084 0.2965
f 86/294/29 109/295/29 110/285/29

v 98.4301 5.5 -100.333
vt -3.95013 0.216535
f 113/296/29 109/295/29 86/294/29

v 98.4301 5.91421 -100.015
vt -3.93762 0.232843
f 114/297/29 109/295/29 113/296/29

v 98.4301 6.23205 -99.6013
vt -3.92131 0.245356
f 115/298/29 109/295/29 114/297/29

vt -3.9176 0.310265
f 115/298/29 108/299/29 109/295/29

v 98.4301 6.43185 -99.1189
vt -3.90232 0.253223
f 116/300/29 108/299/29 115/298/29

v 98.4301 6.5 -98.6013
vt -3.88194 0.255906
f 117/301/29 108/299/29 116/300/29

vt -3.88194 0.314961
f 117/301/29 107/302/29 108/299/29

v 98.4301 6.43185 -98.0836
vt -3.86156 0.253223
f 118/303/29 107/302/29 117/301/29

vt -3.84628 0.310265
f 118/303/29 106/304/29 107/302/29

v 98.4301 6.23205 -97.6013
vt -3.84257 0.245356
f 119/305/29 106/304/29 118/303/29

v 98.4301 5.91421 -97.187
vt -3.82626 0.232843
f 120/306/29 106/304/29 119/305/29

v 98.4301 5.5 -96.8692
vt -3.81375 0.216535
f 121/307/29 106/304/29 120/306/29

vt -3.81304 0.2965
f 121/307/29 104/308/29 106/304/29

v 98.4301 5.01764 -96.6694
vt -3.80588 0.197545
f 122/309/29 104/308/29 121/307/29

v 98.4301 4.5 -96.6013
vt -3.8032 0.177165
f 123/310/29 104/308/29 122/309/29

vt -3.7845 0.274601
f 104/308/29 123/310/29 105/311/29

v 98.4301 3.98236 -96.6694
vt -3.80588 0.156786
f 124/312/29 105/311/29 123/310/29

v 98.4301 6.25 -95.5702
vt -3.76261 0.246063
f 124/312/29 125/313/29 105/311/29

v 98.4301 3.5 -96.8692
vt -3.81375 0.137795
f 126/314/29 125/313/29 124/312/29

f 126/314/29 73/180/29 125/313/29

f 72/179/29 73/180/29 126/314/29

v 102.43 3.5 -96.8692
vt -4.03268 -2.21234
vn 0 0.5 -0.866025
vt -4.03268 -2.2329
vt -3.8752 -2.2329
vt -3.8752 -2.21234
f 127/315/51 76/316/31 72/317/31 126/318/51 

v 102.43 5.40587 -95.2205
vt 3.74884 0.212829
vt 3.81375 0.137795
f 128/319/1 76/187/1 127/320/1

f 75/186/1 76/187/1 128/319/1

vt 4.03268 0.664359
vn 0 0.130526 0.991445
vt 4.03268 0.70033
vt 3.8752 0.70033
vt 3.8752 0.664359
f 75/321/52 128/322/52 73/323/52 74/324/52 

vt 4.03268 1.63125
vn 0 0.382683 0.92388
v 102.43 6.25 -95.5702
vt 4.03268 1.66722
vt 3.8752 1.66722
vt 3.8752 1.63125
f 128/325/53 129/326/53 125/327/53 73/328/53 

vt 3.76261 0.246063
f 128/319/1 127/320/1 129/329/1

v 102.43 3.98236 -96.6694
vt 3.80588 0.156786
f 129/329/1 127/320/1 130/330/1

vt -4.03268 -1.3116
vn 0 0.258819 -0.965926
vt -4.03268 -1.33215
vt -3.8752 -1.33215
vt -3.8752 -1.3116
f 130/331/54 127/332/51 126/333/51 124/334/54 

vt -4.03268 -0.320767
vn 0 -1.81968e-016 -1
vt -4.03268 -0.341323
vt -3.8752 -0.341323
vt -3.8752 -0.320767
f 102/335/55 130/336/54 124/337/54 123/338/55 

f 103/245/1 130/330/1 102/244/1

f 129/329/1 130/330/1 103/245/1

vt 4.03268 2.48574
vn 0 0.608761 0.793353
vt 4.03268 2.52172
vt 3.8752 2.52172
vt 3.8752 2.48574
f 129/339/56 103/340/56 105/341/56 125/342/56 

vt -4.03268 0.692622
vn 0 -0.258819 -0.965926
vt -4.03268 0.672067
vt -3.8752 0.672067
vt -3.8752 0.692622
f 101/343/57 102/344/55 123/345/55 122/346/57 

vt -4.03268 1.65951
vn 0 -0.5 -0.866025
vt -4.03268 1.63896
vt -3.8752 1.63896
vt -3.8752 1.65951
f 99/347/58 101/348/57 122/349/57 121/350/58 

vt -4.03268 2.51401
vn 0 -0.707107 -0.707107
vt -4.03268 2.49345
vt -3.8752 2.49345
vt -3.8752 2.51401
f 98/351/59 99/352/58 121/353/58 120/354/59 

vt -4.03268 3.19788
vn 0 -0.866025 -0.5
vt -4.03268 3.17732
vt -3.8752 3.17732
vt -3.8752 3.19788
f 97/355/60 98/356/59 120/357/59 119/358/60 

vt -4.03268 3.66452
vn 0 -0.965926 -0.258819
vt -4.03268 3.64396
vt -3.8752 3.64396
vt -3.8752 3.66452
f 95/359/61 97/360/60 119/361/60 118/362/61 

vt -4.03268 3.88213
vn 0 -1 1.39975e-015
vt -4.03268 3.86158
vt -3.8752 3.86158
vt -3.8752 3.88213
f 94/363/62 95/364/61 118/365/61 117/366/62 

vt 4.03268 -3.83588
vn 0 -0.965926 0.258819
vt 4.03268 -3.81533
vt 3.8752 -3.81533
vt 3.8752 -3.83588
f 92/367/63 94/368/62 117/369/62 116/370/63 

vt 4.03268 -3.52892
vn 0 -0.866025 0.5
vt 4.03268 -3.50837
vt 3.8752 -3.50837
vt 3.8752 -3.52892
f 90/371/64 92/372/63 116/373/63 115/374/64 

vt 4.03268 -2.98218
vn 0 -0.707107 0.707107
vt 4.03268 -2.96162
vt 3.8752 -2.96162
vt 3.8752 -2.98218
f 89/375/65 90/376/64 115/377/64 114/378/65 

vt 4.03268 -2.2329
vn 0 -0.5 0.866025
vt 4.03268 -2.21234
vt 3.8752 -2.21234
vt 3.8752 -2.2329
f 88/379/66 89/380/65 114/381/65 113/382/66 

vt 4.03268 -1.33215
vt 4.03268 -1.3116
vt 3.8752 -1.3116
vt 3.8752 -1.33215
f 85/383/41 88/384/66 113/385/66 86/386/41 

vt 4.03268 -6.93889e-018
vt 3.8752 -6.93889e-018
f 3/387/30 2/182/30 67/185/30 20/388/30 

